


                     SYSTEM SUMMARY PERCENTAGES by SPEAKER                      

,----------------------------------------------------------------------------------------------.
|/scratch/ravanelm/pytorch-kaldi-new/exp/dirha_MLP_fmllr/decode_dirha_real_out_dnn1/score_5/ctm|
|----------------------------------------------------------------------------------------------|
|  SPKR             |  # Snt    # Wrd   |  Corr      Sub      Del      Ins       Err    S.Err  |
|-------------------+-------------------+------------------------------------------------------|
|  realfemalespk01  |    70      1111   |   820      231       60       86       377       52  |
|-------------------+-------------------+------------------------------------------------------|
|  realfemalespk02  |    67      1029   |   680      323       26      131       480       63  |
|-------------------+-------------------+------------------------------------------------------|
|  realfemalespk03  |    70      1215   |   881      288       46       98       432       63  |
|-------------------+-------------------+------------------------------------------------------|
|  realmalespk04    |    67      1168   |   941      202       25       49       276       57  |
|-------------------+-------------------+------------------------------------------------------|
|  realmalespk05    |    67      1108   |   762      295       51       81       427       66  |
|-------------------+-------------------+------------------------------------------------------|
|  realmalespk06    |    68      1131   |   809      295       27      142       464       63  |
|==============================================================================================|
|  Sum              |   409      6762   |  4893     1634      235      587      2456      364  |
|==============================================================================================|
|       Mean        |  68.2    1127.0   | 815.5    272.3     39.2     97.8     409.3     60.7  |
|       S.D.        |   1.5     62.7    |  90.9     45.8     15.1     34.2      74.3      5.2  |
|      Median       |  67.5    1121.0   | 814.5    291.5     36.5     92.0     429.5     63.0  |
`----------------------------------------------------------------------------------------------'
