01rc020w /scratch/ravanelm/exp/dirha/data-fmllr-tri4/tr05_cont/data/feats_fmllr_tr05_cont.3.ark:55236065
02co0308 /scratch/ravanelm/exp/dirha/data-fmllr-tri4/tr05_cont/data/feats_fmllr_tr05_cont.5.ark:55836169
40ec0211 /scratch/ravanelm/exp/dirha/data-fmllr-tri4/tr05_cont/data/feats_fmllr_tr05_cont.9.ark:49181401
403c020c /scratch/ravanelm/exp/dirha/data-fmllr-tri4/tr05_cont/data/feats_fmllr_tr05_cont.8.ark:812433
019c021g /scratch/ravanelm/exp/dirha/data-fmllr-tri4/tr05_cont/data/feats_fmllr_tr05_cont.1.ark:88380961
40nc020j /scratch/ravanelm/exp/dirha/data-fmllr-tri4/tr05_cont/data/feats_fmllr_tr05_cont.10.ark:76918321
40eo0303 /scratch/ravanelm/exp/dirha/data-fmllr-tri4/tr05_cont/data/feats_fmllr_tr05_cont.9.ark:51120257
407o0318 /scratch/ravanelm/exp/dirha/data-fmllr-tri4/tr05_cont/data/feats_fmllr_tr05_cont.8.ark:55467753
013c020k /scratch/ravanelm/exp/dirha/data-fmllr-tri4/tr05_cont/data/feats_fmllr_tr05_cont.1.ark:16375529
011c021e /scratch/ravanelm/exp/dirha/data-fmllr-tri4/tr05_cont/data/feats_fmllr_tr05_cont.1.ark:5455745
409c020l /scratch/ravanelm/exp/dirha/data-fmllr-tri4/tr05_cont/data/feats_fmllr_tr05_cont.8.ark:67743025
20gc010k /scratch/ravanelm/exp/dirha/data-fmllr-tri4/tr05_cont/data/feats_fmllr_tr05_cont.6.ark:74261929
20no0103 /scratch/ravanelm/exp/dirha/data-fmllr-tri4/tr05_cont/data/feats_fmllr_tr05_cont.7.ark:28566561
01go031g /scratch/ravanelm/exp/dirha/data-fmllr-tri4/tr05_cont/data/feats_fmllr_tr05_cont.2.ark:62536273
014c021h /scratch/ravanelm/exp/dirha/data-fmllr-tri4/tr05_cont/data/feats_fmllr_tr05_cont.1.ark:30666449
014o0302 /scratch/ravanelm/exp/dirha/data-fmllr-tri4/tr05_cont/data/feats_fmllr_tr05_cont.1.ark:30857537
20tc010j /scratch/ravanelm/exp/dirha/data-fmllr-tri4/tr05_cont/data/feats_fmllr_tr05_cont.7.ark:59747825
408o031c /scratch/ravanelm/exp/dirha/data-fmllr-tri4/tr05_cont/data/feats_fmllr_tr05_cont.8.ark:65508281
011c020w /scratch/ravanelm/exp/dirha/data-fmllr-tri4/tr05_cont/data/feats_fmllr_tr05_cont.1.ark:3369393
406c0206 /scratch/ravanelm/exp/dirha/data-fmllr-tri4/tr05_cont/data/feats_fmllr_tr05_cont.8.ark:32449409
01jo030g /scratch/ravanelm/exp/dirha/data-fmllr-tri4/tr05_cont/data/feats_fmllr_tr05_cont.2.ark:84450273
40gc0208 /scratch/ravanelm/exp/dirha/data-fmllr-tri4/tr05_cont/data/feats_fmllr_tr05_cont.9.ark:69771521
405c020m /scratch/ravanelm/exp/dirha/data-fmllr-tri4/tr05_cont/data/feats_fmllr_tr05_cont.8.ark:23412945
016o031d /scratch/ravanelm/exp/dirha/data-fmllr-tri4/tr05_cont/data/feats_fmllr_tr05_cont.1.ark:58113537
20go0109 /scratch/ravanelm/exp/dirha/data-fmllr-tri4/tr05_cont/data/feats_fmllr_tr05_cont.6.ark:75531977
406o0319 /scratch/ravanelm/exp/dirha/data-fmllr-tri4/tr05_cont/data/feats_fmllr_tr05_cont.8.ark:42418425
028o031c /scratch/ravanelm/exp/dirha/data-fmllr-tri4/tr05_cont/data/feats_fmllr_tr05_cont.5.ark:24426201
40bc020k /scratch/ravanelm/exp/dirha/data-fmllr-tri4/tr05_cont/data/feats_fmllr_tr05_cont.9.ark:14482889
011c0207 /scratch/ravanelm/exp/dirha/data-fmllr-tri4/tr05_cont/data/feats_fmllr_tr05_cont.1.ark:605913
02cc0206 /scratch/ravanelm/exp/dirha/data-fmllr-tri4/tr05_cont/data/feats_fmllr_tr05_cont.5.ark:50571289
40bo0317 /scratch/ravanelm/exp/dirha/data-fmllr-tri4/tr05_cont/data/feats_fmllr_tr05_cont.9.ark:23722881
013o030i /scratch/ravanelm/exp/dirha/data-fmllr-tri4/tr05_cont/data/feats_fmllr_tr05_cont.1.ark:21712545
205o010o /scratch/ravanelm/exp/dirha/data-fmllr-tri4/tr05_cont/data/feats_fmllr_tr05_cont.6.ark:6297161
20qo0103 /scratch/ravanelm/exp/dirha/data-fmllr-tri4/tr05_cont/data/feats_fmllr_tr05_cont.7.ark:47599697
020o030e /scratch/ravanelm/exp/dirha/data-fmllr-tri4/tr05_cont/data/feats_fmllr_tr05_cont.4.ark:42187073
405o030v /scratch/ravanelm/exp/dirha/data-fmllr-tri4/tr05_cont/data/feats_fmllr_tr05_cont.8.ark:29417745
401c020m /scratch/ravanelm/exp/dirha/data-fmllr-tri4/tr05_cont/data/feats_fmllr_tr05_cont.7.ark:71727305
40hc020j /scratch/ravanelm/exp/dirha/data-fmllr-tri4/tr05_cont/data/feats_fmllr_tr05_cont.10.ark:1671641
019o030t /scratch/ravanelm/exp/dirha/data-fmllr-tri4/tr05_cont/data/feats_fmllr_tr05_cont.1.ark:92098641
20oo0103 /scratch/ravanelm/exp/dirha/data-fmllr-tri4/tr05_cont/data/feats_fmllr_tr05_cont.7.ark:35084265
026o030r /scratch/ravanelm/exp/dirha/data-fmllr-tri4/tr05_cont/data/feats_fmllr_tr05_cont.4.ark:76267841
407c020u /scratch/ravanelm/exp/dirha/data-fmllr-tri4/tr05_cont/data/feats_fmllr_tr05_cont.8.ark:46085161
01lc020c /scratch/ravanelm/exp/dirha/data-fmllr-tri4/tr05_cont/data/feats_fmllr_tr05_cont.3.ark:1635953
029o030r /scratch/ravanelm/exp/dirha/data-fmllr-tri4/tr05_cont/data/feats_fmllr_tr05_cont.5.ark:33874681
407o030c /scratch/ravanelm/exp/dirha/data-fmllr-tri4/tr05_cont/data/feats_fmllr_tr05_cont.8.ark:50513545
011o0316 /scratch/ravanelm/exp/dirha/data-fmllr-tri4/tr05_cont/data/feats_fmllr_tr05_cont.1.ark:12229393
40ao030j /scratch/ravanelm/exp/dirha/data-fmllr-tri4/tr05_cont/data/feats_fmllr_tr05_cont.9.ark:8260361
404o030w /scratch/ravanelm/exp/dirha/data-fmllr-tri4/tr05_cont/data/feats_fmllr_tr05_cont.8.ark:19325769
40io030w /scratch/ravanelm/exp/dirha/data-fmllr-tri4/tr05_cont/data/feats_fmllr_tr05_cont.10.ark:21143257
021o0305 /scratch/ravanelm/exp/dirha/data-fmllr-tri4/tr05_cont/data/feats_fmllr_tr05_cont.4.ark:50855857
40po0302 /scratch/ravanelm/exp/dirha/data-fmllr-tri4/tr05_cont/data/feats_fmllr_tr05_cont.10.ark:92765721
01bo030j /scratch/ravanelm/exp/dirha/data-fmllr-tri4/tr05_cont/data/feats_fmllr_tr05_cont.2.ark:9342617
20mo010j /scratch/ravanelm/exp/dirha/data-fmllr-tri4/tr05_cont/data/feats_fmllr_tr05_cont.7.ark:24053993
409o0304 /scratch/ravanelm/exp/dirha/data-fmllr-tri4/tr05_cont/data/feats_fmllr_tr05_cont.8.ark:71569465
01gc0212 /scratch/ravanelm/exp/dirha/data-fmllr-tri4/tr05_cont/data/feats_fmllr_tr05_cont.2.ark:53854257
20pc010n /scratch/ravanelm/exp/dirha/data-fmllr-tri4/tr05_cont/data/feats_fmllr_tr05_cont.7.ark:40505873
016o030e /scratch/ravanelm/exp/dirha/data-fmllr-tri4/tr05_cont/data/feats_fmllr_tr05_cont.1.ark:54470801
204c010b /scratch/ravanelm/exp/dirha/data-fmllr-tri4/tr05_cont/data/feats_fmllr_tr05_cont.5.ark:76175041
01mc0204 /scratch/ravanelm/exp/dirha/data-fmllr-tri4/tr05_cont/data/feats_fmllr_tr05_cont.3.ark:15517705
01ro030u /scratch/ravanelm/exp/dirha/data-fmllr-tri4/tr05_cont/data/feats_fmllr_tr05_cont.3.ark:60751985
013o030e /scratch/ravanelm/exp/dirha/data-fmllr-tri4/tr05_cont/data/feats_fmllr_tr05_cont.1.ark:21103489
20gc010i /scratch/ravanelm/exp/dirha/data-fmllr-tri4/tr05_cont/data/feats_fmllr_tr05_cont.6.ark:74044281
406c020r /scratch/ravanelm/exp/dirha/data-fmllr-tri4/tr05_cont/data/feats_fmllr_tr05_cont.8.ark:34418689
014c020r /scratch/ravanelm/exp/dirha/data-fmllr-tri4/tr05_cont/data/feats_fmllr_tr05_cont.1.ark:28206145
026c020s /scratch/ravanelm/exp/dirha/data-fmllr-tri4/tr05_cont/data/feats_fmllr_tr05_cont.4.ark:70734777
019o030h /scratch/ravanelm/exp/dirha/data-fmllr-tri4/tr05_cont/data/feats_fmllr_tr05_cont.1.ark:90703313
40hc0201 /scratch/ravanelm/exp/dirha/data-fmllr-tri4/tr05_cont/data/feats_fmllr_tr05_cont.10.ark:9
407o030u /scratch/ravanelm/exp/dirha/data-fmllr-tri4/tr05_cont/data/feats_fmllr_tr05_cont.8.ark:53429337
028o0312 /scratch/ravanelm/exp/dirha/data-fmllr-tri4/tr05_cont/data/feats_fmllr_tr05_cont.5.ark:22928521
01fc020n /scratch/ravanelm/exp/dirha/data-fmllr-tri4/tr05_cont/data/feats_fmllr_tr05_cont.2.ark:40191497
401o0315 /scratch/ravanelm/exp/dirha/data-fmllr-tri4/tr05_cont/data/feats_fmllr_tr05_cont.7.ark:80721921
01fo0318 /scratch/ravanelm/exp/dirha/data-fmllr-tri4/tr05_cont/data/feats_fmllr_tr05_cont.2.ark:49062689
40cc020m /scratch/ravanelm/exp/dirha/data-fmllr-tri4/tr05_cont/data/feats_fmllr_tr05_cont.9.ark:26556809
01gc0209 /scratch/ravanelm/exp/dirha/data-fmllr-tri4/tr05_cont/data/feats_fmllr_tr05_cont.2.ark:50644121
026c020o /scratch/ravanelm/exp/dirha/data-fmllr-tri4/tr05_cont/data/feats_fmllr_tr05_cont.4.ark:70351161
40ac0202 /scratch/ravanelm/exp/dirha/data-fmllr-tri4/tr05_cont/data/feats_fmllr_tr05_cont.9.ark:216353
026o030t /scratch/ravanelm/exp/dirha/data-fmllr-tri4/tr05_cont/data/feats_fmllr_tr05_cont.4.ark:76484049
408o0317 /scratch/ravanelm/exp/dirha/data-fmllr-tri4/tr05_cont/data/feats_fmllr_tr05_cont.8.ark:65100001
02bc0204 /scratch/ravanelm/exp/dirha/data-fmllr-tri4/tr05_cont/data/feats_fmllr_tr05_cont.5.ark:37610073
409c0209 /scratch/ravanelm/exp/dirha/data-fmllr-tri4/tr05_cont/data/feats_fmllr_tr05_cont.8.ark:66470257
01qo0317 /scratch/ravanelm/exp/dirha/data-fmllr-tri4/tr05_cont/data/feats_fmllr_tr05_cont.3.ark:50394281
024c020r /scratch/ravanelm/exp/dirha/data-fmllr-tri4/tr05_cont/data/feats_fmllr_tr05_cont.4.ark:59395529
029c0208 /scratch/ravanelm/exp/dirha/data-fmllr-tri4/tr05_cont/data/feats_fmllr_tr05_cont.5.ark:25419697
40no0319 /scratch/ravanelm/exp/dirha/data-fmllr-tri4/tr05_cont/data/feats_fmllr_tr05_cont.10.ark:87290433
019c020f /scratch/ravanelm/exp/dirha/data-fmllr-tri4/tr05_cont/data/feats_fmllr_tr05_cont.1.ark:84778953
01fc020k /scratch/ravanelm/exp/dirha/data-fmllr-tri4/tr05_cont/data/feats_fmllr_tr05_cont.2.ark:39995425
409o0319 /scratch/ravanelm/exp/dirha/data-fmllr-tri4/tr05_cont/data/feats_fmllr_tr05_cont.8.ark:76358609
208o010o /scratch/ravanelm/exp/dirha/data-fmllr-tri4/tr05_cont/data/feats_fmllr_tr05_cont.6.ark:26600057
024o0316 /scratch/ravanelm/exp/dirha/data-fmllr-tri4/tr05_cont/data/feats_fmllr_tr05_cont.4.ark:66897889
02cc0217 /scratch/ravanelm/exp/dirha/data-fmllr-tri4/tr05_cont/data/feats_fmllr_tr05_cont.5.ark:54128265
01mo030q /scratch/ravanelm/exp/dirha/data-fmllr-tri4/tr05_cont/data/feats_fmllr_tr05_cont.3.ark:23358633
40ko030t /scratch/ravanelm/exp/dirha/data-fmllr-tri4/tr05_cont/data/feats_fmllr_tr05_cont.10.ark:45364033
20fc010p /scratch/ravanelm/exp/dirha/data-fmllr-tri4/tr05_cont/data/feats_fmllr_tr05_cont.6.ark:69151705
40jc0215 /scratch/ravanelm/exp/dirha/data-fmllr-tri4/tr05_cont/data/feats_fmllr_tr05_cont.10.ark:27916649
40io0311 /scratch/ravanelm/exp/dirha/data-fmllr-tri4/tr05_cont/data/feats_fmllr_tr05_cont.10.ark:21948977
01mo030u /scratch/ravanelm/exp/dirha/data-fmllr-tri4/tr05_cont/data/feats_fmllr_tr05_cont.3.ark:23908169
018o030e /scratch/ravanelm/exp/dirha/data-fmllr-tri4/tr05_cont/data/feats_fmllr_tr05_cont.1.ark:77701297
20mc0108 /scratch/ravanelm/exp/dirha/data-fmllr-tri4/tr05_cont/data/feats_fmllr_tr05_cont.7.ark:20103049
01pc020d /scratch/ravanelm/exp/dirha/data-fmllr-tri4/tr05_cont/data/feats_fmllr_tr05_cont.3.ark:27981281
40dc0206 /scratch/ravanelm/exp/dirha/data-fmllr-tri4/tr05_cont/data/feats_fmllr_tr05_cont.9.ark:34874713
40fo030y /scratch/ravanelm/exp/dirha/data-fmllr-tri4/tr05_cont/data/feats_fmllr_tr05_cont.9.ark:66248337
01yc020q /scratch/ravanelm/exp/dirha/data-fmllr-tri4/tr05_cont/data/feats_fmllr_tr05_cont.4.ark:14230961
401c020y /scratch/ravanelm/exp/dirha/data-fmllr-tri4/tr05_cont/data/feats_fmllr_tr05_cont.7.ark:73020873
40nc020k /scratch/ravanelm/exp/dirha/data-fmllr-tri4/tr05_cont/data/feats_fmllr_tr05_cont.10.ark:77030665
01tc020z /scratch/ravanelm/exp/dirha/data-fmllr-tri4/tr05_cont/data/feats_fmllr_tr05_cont.3.ark:67748321
01yo0317 /scratch/ravanelm/exp/dirha/data-fmllr-tri4/tr05_cont/data/feats_fmllr_tr05_cont.4.ark:22698377
020o0302 /scratch/ravanelm/exp/dirha/data-fmllr-tri4/tr05_cont/data/feats_fmllr_tr05_cont.4.ark:41382721
02co0305 /scratch/ravanelm/exp/dirha/data-fmllr-tri4/tr05_cont/data/feats_fmllr_tr05_cont.5.ark:55526497
40do031b /scratch/ravanelm/exp/dirha/data-fmllr-tri4/tr05_cont/data/feats_fmllr_tr05_cont.9.ark:45688145
01qo0315 /scratch/ravanelm/exp/dirha/data-fmllr-tri4/tr05_cont/data/feats_fmllr_tr05_cont.3.ark:50135353
02bo031e /scratch/ravanelm/exp/dirha/data-fmllr-tri4/tr05_cont/data/feats_fmllr_tr05_cont.5.ark:49615281
404c020g /scratch/ravanelm/exp/dirha/data-fmllr-tri4/tr05_cont/data/feats_fmllr_tr05_cont.8.ark:12026081
019c020x /scratch/ravanelm/exp/dirha/data-fmllr-tri4/tr05_cont/data/feats_fmllr_tr05_cont.1.ark:86384345
408c020o /scratch/ravanelm/exp/dirha/data-fmllr-tri4/tr05_cont/data/feats_fmllr_tr05_cont.8.ark:58009497
019c021a /scratch/ravanelm/exp/dirha/data-fmllr-tri4/tr05_cont/data/feats_fmllr_tr05_cont.1.ark:87886737
015o030b /scratch/ravanelm/exp/dirha/data-fmllr-tri4/tr05_cont/data/feats_fmllr_tr05_cont.1.ark:43900705
01rc020u /scratch/ravanelm/exp/dirha/data-fmllr-tri4/tr05_cont/data/feats_fmllr_tr05_cont.3.ark:54942737
02co031a /scratch/ravanelm/exp/dirha/data-fmllr-tri4/tr05_cont/data/feats_fmllr_tr05_cont.5.ark:60843001
20pc010k /scratch/ravanelm/exp/dirha/data-fmllr-tri4/tr05_cont/data/feats_fmllr_tr05_cont.7.ark:40257161
01mc020l /scratch/ravanelm/exp/dirha/data-fmllr-tri4/tr05_cont/data/feats_fmllr_tr05_cont.3.ark:17146889
405o0302 /scratch/ravanelm/exp/dirha/data-fmllr-tri4/tr05_cont/data/feats_fmllr_tr05_cont.8.ark:26225689
40no030j /scratch/ravanelm/exp/dirha/data-fmllr-tri4/tr05_cont/data/feats_fmllr_tr05_cont.10.ark:83602129
40io0304 /scratch/ravanelm/exp/dirha/data-fmllr-tri4/tr05_cont/data/feats_fmllr_tr05_cont.10.ark:17685945
01kc020d /scratch/ravanelm/exp/dirha/data-fmllr-tri4/tr05_cont/data/feats_fmllr_tr05_cont.2.ark:91315513
40ao030m /scratch/ravanelm/exp/dirha/data-fmllr-tri4/tr05_cont/data/feats_fmllr_tr05_cont.9.ark:8582673
02bc020o /scratch/ravanelm/exp/dirha/data-fmllr-tri4/tr05_cont/data/feats_fmllr_tr05_cont.5.ark:39793753
01bc0215 /scratch/ravanelm/exp/dirha/data-fmllr-tri4/tr05_cont/data/feats_fmllr_tr05_cont.2.ark:4996873
01wc021f /scratch/ravanelm/exp/dirha/data-fmllr-tri4/tr05_cont/data/feats_fmllr_tr05_cont.4.ark:5288545
205c010p /scratch/ravanelm/exp/dirha/data-fmllr-tri4/tr05_cont/data/feats_fmllr_tr05_cont.6.ark:2634825
407o030r /scratch/ravanelm/exp/dirha/data-fmllr-tri4/tr05_cont/data/feats_fmllr_tr05_cont.8.ark:52901105
01kc021b /scratch/ravanelm/exp/dirha/data-fmllr-tri4/tr05_cont/data/feats_fmllr_tr05_cont.2.ark:95410385
01to030x /scratch/ravanelm/exp/dirha/data-fmllr-tri4/tr05_cont/data/feats_fmllr_tr05_cont.3.ark:74104377
20fc010e /scratch/ravanelm/exp/dirha/data-fmllr-tri4/tr05_cont/data/feats_fmllr_tr05_cont.6.ark:67961041
404o030t /scratch/ravanelm/exp/dirha/data-fmllr-tri4/tr05_cont/data/feats_fmllr_tr05_cont.8.ark:18966657
015c021g /scratch/ravanelm/exp/dirha/data-fmllr-tri4/tr05_cont/data/feats_fmllr_tr05_cont.1.ark:42417033
01go0308 /scratch/ravanelm/exp/dirha/data-fmllr-tri4/tr05_cont/data/feats_fmllr_tr05_cont.2.ark:56369137
019o030j /scratch/ravanelm/exp/dirha/data-fmllr-tri4/tr05_cont/data/feats_fmllr_tr05_cont.1.ark:91022401
405o0315 /scratch/ravanelm/exp/dirha/data-fmllr-tri4/tr05_cont/data/feats_fmllr_tr05_cont.8.ark:30608225
408c020s /scratch/ravanelm/exp/dirha/data-fmllr-tri4/tr05_cont/data/feats_fmllr_tr05_cont.8.ark:58345433
20vc010m /scratch/ravanelm/exp/dirha/data-fmllr-tri4/tr05_cont/data/feats_fmllr_tr05_cont.7.ark:65571201
015c020e /scratch/ravanelm/exp/dirha/data-fmllr-tri4/tr05_cont/data/feats_fmllr_tr05_cont.1.ark:38911961
20hc010b /scratch/ravanelm/exp/dirha/data-fmllr-tri4/tr05_cont/data/feats_fmllr_tr05_cont.7.ark:784249
01gc020q /scratch/ravanelm/exp/dirha/data-fmllr-tri4/tr05_cont/data/feats_fmllr_tr05_cont.2.ark:52654129
406o030z /scratch/ravanelm/exp/dirha/data-fmllr-tri4/tr05_cont/data/feats_fmllr_tr05_cont.8.ark:41016425
40nc0209 /scratch/ravanelm/exp/dirha/data-fmllr-tri4/tr05_cont/data/feats_fmllr_tr05_cont.10.ark:75657121
407c020z /scratch/ravanelm/exp/dirha/data-fmllr-tri4/tr05_cont/data/feats_fmllr_tr05_cont.8.ark:46522081
20nc010e /scratch/ravanelm/exp/dirha/data-fmllr-tri4/tr05_cont/data/feats_fmllr_tr05_cont.7.ark:26675025
40dc020e /scratch/ravanelm/exp/dirha/data-fmllr-tri4/tr05_cont/data/feats_fmllr_tr05_cont.9.ark:35735705
018c021b /scratch/ravanelm/exp/dirha/data-fmllr-tri4/tr05_cont/data/feats_fmllr_tr05_cont.1.ark:75004521
013c0207 /scratch/ravanelm/exp/dirha/data-fmllr-tri4/tr05_cont/data/feats_fmllr_tr05_cont.1.ark:14736817
01zc021b /scratch/ravanelm/exp/dirha/data-fmllr-tri4/tr05_cont/data/feats_fmllr_tr05_cont.4.ark:28961705
20to010b /scratch/ravanelm/exp/dirha/data-fmllr-tri4/tr05_cont/data/feats_fmllr_tr05_cont.7.ark:61449697
01io030i /scratch/ravanelm/exp/dirha/data-fmllr-tri4/tr05_cont/data/feats_fmllr_tr05_cont.2.ark:71198729
01qo030o /scratch/ravanelm/exp/dirha/data-fmllr-tri4/tr05_cont/data/feats_fmllr_tr05_cont.3.ark:48095905
027c020c /scratch/ravanelm/exp/dirha/data-fmllr-tri4/tr05_cont/data/feats_fmllr_tr05_cont.5.ark:1322993
014c0212 /scratch/ravanelm/exp/dirha/data-fmllr-tri4/tr05_cont/data/feats_fmllr_tr05_cont.1.ark:29275689
01jo030t /scratch/ravanelm/exp/dirha/data-fmllr-tri4/tr05_cont/data/feats_fmllr_tr05_cont.2.ark:86211225
407c020c /scratch/ravanelm/exp/dirha/data-fmllr-tri4/tr05_cont/data/feats_fmllr_tr05_cont.8.ark:43959449
029o031e /scratch/ravanelm/exp/dirha/data-fmllr-tri4/tr05_cont/data/feats_fmllr_tr05_cont.5.ark:36932993
40bc020i /scratch/ravanelm/exp/dirha/data-fmllr-tri4/tr05_cont/data/feats_fmllr_tr05_cont.9.ark:14381241
01ko0314 /scratch/ravanelm/exp/dirha/data-fmllr-tri4/tr05_cont/data/feats_fmllr_tr05_cont.2.ark:102263417
40fc020y /scratch/ravanelm/exp/dirha/data-fmllr-tri4/tr05_cont/data/feats_fmllr_tr05_cont.9.ark:60007409
40ko0317 /scratch/ravanelm/exp/dirha/data-fmllr-tri4/tr05_cont/data/feats_fmllr_tr05_cont.10.ark:47231729
20pc010i /scratch/ravanelm/exp/dirha/data-fmllr-tri4/tr05_cont/data/feats_fmllr_tr05_cont.7.ark:40045273
40ho030e /scratch/ravanelm/exp/dirha/data-fmllr-tri4/tr05_cont/data/feats_fmllr_tr05_cont.10.ark:6622665
020c0201 /scratch/ravanelm/exp/dirha/data-fmllr-tri4/tr05_cont/data/feats_fmllr_tr05_cont.4.ark:37586273
20dc010a /scratch/ravanelm/exp/dirha/data-fmllr-tri4/tr05_cont/data/feats_fmllr_tr05_cont.6.ark:53668257
40io030d /scratch/ravanelm/exp/dirha/data-fmllr-tri4/tr05_cont/data/feats_fmllr_tr05_cont.10.ark:18779281
01qo030b /scratch/ravanelm/exp/dirha/data-fmllr-tri4/tr05_cont/data/feats_fmllr_tr05_cont.3.ark:46295113
40pc020z /scratch/ravanelm/exp/dirha/data-fmllr-tri4/tr05_cont/data/feats_fmllr_tr05_cont.10.ark:91191849
204o010l /scratch/ravanelm/exp/dirha/data-fmllr-tri4/tr05_cont/data/feats_fmllr_tr05_cont.5.ark:79886601
408c020m /scratch/ravanelm/exp/dirha/data-fmllr-tri4/tr05_cont/data/feats_fmllr_tr05_cont.8.ark:57823689
01kc020a /scratch/ravanelm/exp/dirha/data-fmllr-tri4/tr05_cont/data/feats_fmllr_tr05_cont.2.ark:90882321
020c020k /scratch/ravanelm/exp/dirha/data-fmllr-tri4/tr05_cont/data/feats_fmllr_tr05_cont.4.ark:39026089
017c020g /scratch/ravanelm/exp/dirha/data-fmllr-tri4/tr05_cont/data/feats_fmllr_tr05_cont.1.ark:59979889
20do010o /scratch/ravanelm/exp/dirha/data-fmllr-tri4/tr05_cont/data/feats_fmllr_tr05_cont.6.ark:59112393
01ic020q /scratch/ravanelm/exp/dirha/data-fmllr-tri4/tr05_cont/data/feats_fmllr_tr05_cont.2.ark:65725217
20do010i /scratch/ravanelm/exp/dirha/data-fmllr-tri4/tr05_cont/data/feats_fmllr_tr05_cont.6.ark:58253689
20ho010f /scratch/ravanelm/exp/dirha/data-fmllr-tri4/tr05_cont/data/feats_fmllr_tr05_cont.7.ark:3793609
015c0217 /scratch/ravanelm/exp/dirha/data-fmllr-tri4/tr05_cont/data/feats_fmllr_tr05_cont.1.ark:41673937
40fc0209 /scratch/ravanelm/exp/dirha/data-fmllr-tri4/tr05_cont/data/feats_fmllr_tr05_cont.9.ark:57133529
01uc0215 /scratch/ravanelm/exp/dirha/data-fmllr-tri4/tr05_cont/data/feats_fmllr_tr05_cont.3.ark:81952697
01ec020u /scratch/ravanelm/exp/dirha/data-fmllr-tri4/tr05_cont/data/feats_fmllr_tr05_cont.2.ark:29203873
018c0216 /scratch/ravanelm/exp/dirha/data-fmllr-tri4/tr05_cont/data/feats_fmllr_tr05_cont.1.ark:74363281
20go0102 /scratch/ravanelm/exp/dirha/data-fmllr-tri4/tr05_cont/data/feats_fmllr_tr05_cont.6.ark:74804129
014o030j /scratch/ravanelm/exp/dirha/data-fmllr-tri4/tr05_cont/data/feats_fmllr_tr05_cont.1.ark:32984345
01qo031e /scratch/ravanelm/exp/dirha/data-fmllr-tri4/tr05_cont/data/feats_fmllr_tr05_cont.3.ark:51122929
40jc020n /scratch/ravanelm/exp/dirha/data-fmllr-tri4/tr05_cont/data/feats_fmllr_tr05_cont.10.ark:25897177
40no030x /scratch/ravanelm/exp/dirha/data-fmllr-tri4/tr05_cont/data/feats_fmllr_tr05_cont.10.ark:85365025
20hc010f /scratch/ravanelm/exp/dirha/data-fmllr-tri4/tr05_cont/data/feats_fmllr_tr05_cont.7.ark:1070105
01do0301 /scratch/ravanelm/exp/dirha/data-fmllr-tri4/tr05_cont/data/feats_fmllr_tr05_cont.2.ark:19626961
20lc0106 /scratch/ravanelm/exp/dirha/data-fmllr-tri4/tr05_cont/data/feats_fmllr_tr05_cont.7.ark:11940793
01gc020k /scratch/ravanelm/exp/dirha/data-fmllr-tri4/tr05_cont/data/feats_fmllr_tr05_cont.2.ark:51957985
20cc010o /scratch/ravanelm/exp/dirha/data-fmllr-tri4/tr05_cont/data/feats_fmllr_tr05_cont.6.ark:49301633
20ro010e /scratch/ravanelm/exp/dirha/data-fmllr-tri4/tr05_cont/data/feats_fmllr_tr05_cont.7.ark:55724657
01uc021e /scratch/ravanelm/exp/dirha/data-fmllr-tri4/tr05_cont/data/feats_fmllr_tr05_cont.3.ark:83028593
408o0316 /scratch/ravanelm/exp/dirha/data-fmllr-tri4/tr05_cont/data/feats_fmllr_tr05_cont.8.ark:64965897
011c020o /scratch/ravanelm/exp/dirha/data-fmllr-tri4/tr05_cont/data/feats_fmllr_tr05_cont.1.ark:2477041
01zc020p /scratch/ravanelm/exp/dirha/data-fmllr-tri4/tr05_cont/data/feats_fmllr_tr05_cont.4.ark:26293177
021c020y /scratch/ravanelm/exp/dirha/data-fmllr-tri4/tr05_cont/data/feats_fmllr_tr05_cont.4.ark:48816289
01mo0307 /scratch/ravanelm/exp/dirha/data-fmllr-tri4/tr05_cont/data/feats_fmllr_tr05_cont.3.ark:21142497
01qo030z /scratch/ravanelm/exp/dirha/data-fmllr-tri4/tr05_cont/data/feats_fmllr_tr05_cont.3.ark:49381449
409c0205 /scratch/ravanelm/exp/dirha/data-fmllr-tri4/tr05_cont/data/feats_fmllr_tr05_cont.8.ark:65982961
40nc0208 /scratch/ravanelm/exp/dirha/data-fmllr-tri4/tr05_cont/data/feats_fmllr_tr05_cont.10.ark:75530217
20nc010d /scratch/ravanelm/exp/dirha/data-fmllr-tri4/tr05_cont/data/feats_fmllr_tr05_cont.7.ark:26531641
407c020q /scratch/ravanelm/exp/dirha/data-fmllr-tri4/tr05_cont/data/feats_fmllr_tr05_cont.8.ark:45726505
20mo010p /scratch/ravanelm/exp/dirha/data-fmllr-tri4/tr05_cont/data/feats_fmllr_tr05_cont.7.ark:24658937
40kc020j /scratch/ravanelm/exp/dirha/data-fmllr-tri4/tr05_cont/data/feats_fmllr_tr05_cont.10.ark:38071345
407c020g /scratch/ravanelm/exp/dirha/data-fmllr-tri4/tr05_cont/data/feats_fmllr_tr05_cont.8.ark:44504985
01fc0208 /scratch/ravanelm/exp/dirha/data-fmllr-tri4/tr05_cont/data/feats_fmllr_tr05_cont.2.ark:38642337
013c020a /scratch/ravanelm/exp/dirha/data-fmllr-tri4/tr05_cont/data/feats_fmllr_tr05_cont.1.ark:15154329
01mc0217 /scratch/ravanelm/exp/dirha/data-fmllr-tri4/tr05_cont/data/feats_fmllr_tr05_cont.3.ark:19437177
401c020j /scratch/ravanelm/exp/dirha/data-fmllr-tri4/tr05_cont/data/feats_fmllr_tr05_cont.7.ark:71384513
018c0201 /scratch/ravanelm/exp/dirha/data-fmllr-tri4/tr05_cont/data/feats_fmllr_tr05_cont.1.ark:69749177
20lc010p /scratch/ravanelm/exp/dirha/data-fmllr-tri4/tr05_cont/data/feats_fmllr_tr05_cont.7.ark:14438209
026c020n /scratch/ravanelm/exp/dirha/data-fmllr-tri4/tr05_cont/data/feats_fmllr_tr05_cont.4.ark:70304897
014c0203 /scratch/ravanelm/exp/dirha/data-fmllr-tri4/tr05_cont/data/feats_fmllr_tr05_cont.1.ark:26043009
40ec020g /scratch/ravanelm/exp/dirha/data-fmllr-tri4/tr05_cont/data/feats_fmllr_tr05_cont.9.ark:47392097
01yo030l /scratch/ravanelm/exp/dirha/data-fmllr-tri4/tr05_cont/data/feats_fmllr_tr05_cont.4.ark:19656889
40io0310 /scratch/ravanelm/exp/dirha/data-fmllr-tri4/tr05_cont/data/feats_fmllr_tr05_cont.10.ark:21706393
01pc0210 /scratch/ravanelm/exp/dirha/data-fmllr-tri4/tr05_cont/data/feats_fmllr_tr05_cont.3.ark:30493993
01wc0207 /scratch/ravanelm/exp/dirha/data-fmllr-tri4/tr05_cont/data/feats_fmllr_tr05_cont.4.ark:620953
01pc020v /scratch/ravanelm/exp/dirha/data-fmllr-tri4/tr05_cont/data/feats_fmllr_tr05_cont.3.ark:29957713
404c0215 /scratch/ravanelm/exp/dirha/data-fmllr-tri4/tr05_cont/data/feats_fmllr_tr05_cont.8.ark:14550041
408c020j /scratch/ravanelm/exp/dirha/data-fmllr-tri4/tr05_cont/data/feats_fmllr_tr05_cont.8.ark:57602817
01yo0303 /scratch/ravanelm/exp/dirha/data-fmllr-tri4/tr05_cont/data/feats_fmllr_tr05_cont.4.ark:17324937
408o030g /scratch/ravanelm/exp/dirha/data-fmllr-tri4/tr05_cont/data/feats_fmllr_tr05_cont.8.ark:62167033
20vo010l /scratch/ravanelm/exp/dirha/data-fmllr-tri4/tr05_cont/data/feats_fmllr_tr05_cont.7.ark:68153217
20ec010n /scratch/ravanelm/exp/dirha/data-fmllr-tri4/tr05_cont/data/feats_fmllr_tr05_cont.6.ark:62351737
20co010g /scratch/ravanelm/exp/dirha/data-fmllr-tri4/tr05_cont/data/feats_fmllr_tr05_cont.6.ark:51448897
40bo030j /scratch/ravanelm/exp/dirha/data-fmllr-tri4/tr05_cont/data/feats_fmllr_tr05_cont.9.ark:20670033
01fo030g /scratch/ravanelm/exp/dirha/data-fmllr-tri4/tr05_cont/data/feats_fmllr_tr05_cont.2.ark:45492097
20vo010p /scratch/ravanelm/exp/dirha/data-fmllr-tri4/tr05_cont/data/feats_fmllr_tr05_cont.7.ark:68828833
01yo0318 /scratch/ravanelm/exp/dirha/data-fmllr-tri4/tr05_cont/data/feats_fmllr_tr05_cont.4.ark:22802561
404c0202 /scratch/ravanelm/exp/dirha/data-fmllr-tri4/tr05_cont/data/feats_fmllr_tr05_cont.8.ark:10742225
20mc0102 /scratch/ravanelm/exp/dirha/data-fmllr-tri4/tr05_cont/data/feats_fmllr_tr05_cont.7.ark:19486265
40ho0305 /scratch/ravanelm/exp/dirha/data-fmllr-tri4/tr05_cont/data/feats_fmllr_tr05_cont.10.ark:5508209
40nc020v /scratch/ravanelm/exp/dirha/data-fmllr-tri4/tr05_cont/data/feats_fmllr_tr05_cont.10.ark:78327409
027o0314 /scratch/ravanelm/exp/dirha/data-fmllr-tri4/tr05_cont/data/feats_fmllr_tr05_cont.5.ark:11510537
01fo0319 /scratch/ravanelm/exp/dirha/data-fmllr-tri4/tr05_cont/data/feats_fmllr_tr05_cont.2.ark:49210713
40bo0314 /scratch/ravanelm/exp/dirha/data-fmllr-tri4/tr05_cont/data/feats_fmllr_tr05_cont.9.ark:23381529
014o030z /scratch/ravanelm/exp/dirha/data-fmllr-tri4/tr05_cont/data/feats_fmllr_tr05_cont.1.ark:35460569
407o0303 /scratch/ravanelm/exp/dirha/data-fmllr-tri4/tr05_cont/data/feats_fmllr_tr05_cont.8.ark:49190929
20dc010m /scratch/ravanelm/exp/dirha/data-fmllr-tri4/tr05_cont/data/feats_fmllr_tr05_cont.6.ark:55316545
40ic0203 /scratch/ravanelm/exp/dirha/data-fmllr-tri4/tr05_cont/data/feats_fmllr_tr05_cont.10.ark:11651737
01fc0210 /scratch/ravanelm/exp/dirha/data-fmllr-tri4/tr05_cont/data/feats_fmllr_tr05_cont.2.ark:41597409
01po0309 /scratch/ravanelm/exp/dirha/data-fmllr-tri4/tr05_cont/data/feats_fmllr_tr05_cont.3.ark:33787873
02eo030x /scratch/ravanelm/exp/dirha/data-fmllr-tri4/tr05_cont/data/feats_fmllr_tr05_cont.5.ark:72668769
40ko030q /scratch/ravanelm/exp/dirha/data-fmllr-tri4/tr05_cont/data/feats_fmllr_tr05_cont.10.ark:44906681
01do031f /scratch/ravanelm/exp/dirha/data-fmllr-tri4/tr05_cont/data/feats_fmllr_tr05_cont.2.ark:25893713
01qc0206 /scratch/ravanelm/exp/dirha/data-fmllr-tri4/tr05_cont/data/feats_fmllr_tr05_cont.3.ark:40030049
01yo030g /scratch/ravanelm/exp/dirha/data-fmllr-tri4/tr05_cont/data/feats_fmllr_tr05_cont.4.ark:18914849
40jc0208 /scratch/ravanelm/exp/dirha/data-fmllr-tri4/tr05_cont/data/feats_fmllr_tr05_cont.10.ark:24433457
015c020t /scratch/ravanelm/exp/dirha/data-fmllr-tri4/tr05_cont/data/feats_fmllr_tr05_cont.1.ark:40375521
20do010c /scratch/ravanelm/exp/dirha/data-fmllr-tri4/tr05_cont/data/feats_fmllr_tr05_cont.6.ark:57257065
01bc0212 /scratch/ravanelm/exp/dirha/data-fmllr-tri4/tr05_cont/data/feats_fmllr_tr05_cont.2.ark:4503201
01lo030f /scratch/ravanelm/exp/dirha/data-fmllr-tri4/tr05_cont/data/feats_fmllr_tr05_cont.3.ark:9070209
408c0204 /scratch/ravanelm/exp/dirha/data-fmllr-tri4/tr05_cont/data/feats_fmllr_tr05_cont.8.ark:56082937
40ko0319 /scratch/ravanelm/exp/dirha/data-fmllr-tri4/tr05_cont/data/feats_fmllr_tr05_cont.10.ark:47425537
01ko031a /scratch/ravanelm/exp/dirha/data-fmllr-tri4/tr05_cont/data/feats_fmllr_tr05_cont.2.ark:103309321
01jc020w /scratch/ravanelm/exp/dirha/data-fmllr-tri4/tr05_cont/data/feats_fmllr_tr05_cont.2.ark:79437409
021c0211 /scratch/ravanelm/exp/dirha/data-fmllr-tri4/tr05_cont/data/feats_fmllr_tr05_cont.4.ark:49059401
207c010m /scratch/ravanelm/exp/dirha/data-fmllr-tri4/tr05_cont/data/feats_fmllr_tr05_cont.6.ark:16360401
40ko0305 /scratch/ravanelm/exp/dirha/data-fmllr-tri4/tr05_cont/data/feats_fmllr_tr05_cont.10.ark:42085377
01bo030k /scratch/ravanelm/exp/dirha/data-fmllr-tri4/tr05_cont/data/feats_fmllr_tr05_cont.2.ark:9612241
01zo030q /scratch/ravanelm/exp/dirha/data-fmllr-tri4/tr05_cont/data/feats_fmllr_tr05_cont.4.ark:33360985
01to031g /scratch/ravanelm/exp/dirha/data-fmllr-tri4/tr05_cont/data/feats_fmllr_tr05_cont.3.ark:76799233
401c0215 /scratch/ravanelm/exp/dirha/data-fmllr-tri4/tr05_cont/data/feats_fmllr_tr05_cont.7.ark:73799281
01ic020l /scratch/ravanelm/exp/dirha/data-fmllr-tri4/tr05_cont/data/feats_fmllr_tr05_cont.2.ark:65265257
40mc020h /scratch/ravanelm/exp/dirha/data-fmllr-tri4/tr05_cont/data/feats_fmllr_tr05_cont.10.ark:64316809
20mo010g /scratch/ravanelm/exp/dirha/data-fmllr-tri4/tr05_cont/data/feats_fmllr_tr05_cont.7.ark:23808161
40ho030f /scratch/ravanelm/exp/dirha/data-fmllr-tri4/tr05_cont/data/feats_fmllr_tr05_cont.10.ark:6711649
011o0310 /scratch/ravanelm/exp/dirha/data-fmllr-tri4/tr05_cont/data/feats_fmllr_tr05_cont.1.ark:10919969
01rc0219 /scratch/ravanelm/exp/dirha/data-fmllr-tri4/tr05_cont/data/feats_fmllr_tr05_cont.3.ark:56512537
20ro010b /scratch/ravanelm/exp/dirha/data-fmllr-tri4/tr05_cont/data/feats_fmllr_tr05_cont.7.ark:55090345
40go0301 /scratch/ravanelm/exp/dirha/data-fmllr-tri4/tr05_cont/data/feats_fmllr_tr05_cont.9.ark:75969537
02co0311 /scratch/ravanelm/exp/dirha/data-fmllr-tri4/tr05_cont/data/feats_fmllr_tr05_cont.5.ark:59662625
013c020z /scratch/ravanelm/exp/dirha/data-fmllr-tri4/tr05_cont/data/feats_fmllr_tr05_cont.1.ark:18039889
20gc010e /scratch/ravanelm/exp/dirha/data-fmllr-tri4/tr05_cont/data/feats_fmllr_tr05_cont.6.ark:73596505
01wo0310 /scratch/ravanelm/exp/dirha/data-fmllr-tri4/tr05_cont/data/feats_fmllr_tr05_cont.4.ark:9483625
01tc020x /scratch/ravanelm/exp/dirha/data-fmllr-tri4/tr05_cont/data/feats_fmllr_tr05_cont.3.ark:67449233
404c020w /scratch/ravanelm/exp/dirha/data-fmllr-tri4/tr05_cont/data/feats_fmllr_tr05_cont.8.ark:13689505
20bc010f /scratch/ravanelm/exp/dirha/data-fmllr-tri4/tr05_cont/data/feats_fmllr_tr05_cont.6.ark:41172193
015o030l /scratch/ravanelm/exp/dirha/data-fmllr-tri4/tr05_cont/data/feats_fmllr_tr05_cont.1.ark:45208785
01dc0208 /scratch/ravanelm/exp/dirha/data-fmllr-tri4/tr05_cont/data/feats_fmllr_tr05_cont.2.ark:14896945
20hc010m /scratch/ravanelm/exp/dirha/data-fmllr-tri4/tr05_cont/data/feats_fmllr_tr05_cont.7.ark:1583553
404o0302 /scratch/ravanelm/exp/dirha/data-fmllr-tri4/tr05_cont/data/feats_fmllr_tr05_cont.8.ark:15656249
013c020w /scratch/ravanelm/exp/dirha/data-fmllr-tri4/tr05_cont/data/feats_fmllr_tr05_cont.1.ark:17872937
01uc0213 /scratch/ravanelm/exp/dirha/data-fmllr-tri4/tr05_cont/data/feats_fmllr_tr05_cont.3.ark:81646729
40mc020j /scratch/ravanelm/exp/dirha/data-fmllr-tri4/tr05_cont/data/feats_fmllr_tr05_cont.10.ark:64580217
40jo030j /scratch/ravanelm/exp/dirha/data-fmllr-tri4/tr05_cont/data/feats_fmllr_tr05_cont.10.ark:31515721
026c020r /scratch/ravanelm/exp/dirha/data-fmllr-tri4/tr05_cont/data/feats_fmllr_tr05_cont.4.ark:70620353
02bc0218 /scratch/ravanelm/exp/dirha/data-fmllr-tri4/tr05_cont/data/feats_fmllr_tr05_cont.5.ark:41844313
01wo030s /scratch/ravanelm/exp/dirha/data-fmllr-tri4/tr05_cont/data/feats_fmllr_tr05_cont.4.ark:8538793
01po030l /scratch/ravanelm/exp/dirha/data-fmllr-tri4/tr05_cont/data/feats_fmllr_tr05_cont.3.ark:35193577
019c0212 /scratch/ravanelm/exp/dirha/data-fmllr-tri4/tr05_cont/data/feats_fmllr_tr05_cont.1.ark:86886865
01bo0307 /scratch/ravanelm/exp/dirha/data-fmllr-tri4/tr05_cont/data/feats_fmllr_tr05_cont.2.ark:7409073
020o031c /scratch/ravanelm/exp/dirha/data-fmllr-tri4/tr05_cont/data/feats_fmllr_tr05_cont.4.ark:44771745
027o0302 /scratch/ravanelm/exp/dirha/data-fmllr-tri4/tr05_cont/data/feats_fmllr_tr05_cont.5.ark:5743225
20fo0108 /scratch/ravanelm/exp/dirha/data-fmllr-tri4/tr05_cont/data/feats_fmllr_tr05_cont.6.ark:70345521
20no010j /scratch/ravanelm/exp/dirha/data-fmllr-tri4/tr05_cont/data/feats_fmllr_tr05_cont.7.ark:31247585
014c0213 /scratch/ravanelm/exp/dirha/data-fmllr-tri4/tr05_cont/data/feats_fmllr_tr05_cont.1.ark:29340513
20go0107 /scratch/ravanelm/exp/dirha/data-fmllr-tri4/tr05_cont/data/feats_fmllr_tr05_cont.6.ark:75319129
016c0204 /scratch/ravanelm/exp/dirha/data-fmllr-tri4/tr05_cont/data/feats_fmllr_tr05_cont.1.ark:48927401
018c020h /scratch/ravanelm/exp/dirha/data-fmllr-tri4/tr05_cont/data/feats_fmllr_tr05_cont.1.ark:71479161
20ic0102 /scratch/ravanelm/exp/dirha/data-fmllr-tri4/tr05_cont/data/feats_fmllr_tr05_cont.7.ark:5147817
029c020s /scratch/ravanelm/exp/dirha/data-fmllr-tri4/tr05_cont/data/feats_fmllr_tr05_cont.5.ark:27712657
01ec0205 /scratch/ravanelm/exp/dirha/data-fmllr-tri4/tr05_cont/data/feats_fmllr_tr05_cont.2.ark:26576393
409c0214 /scratch/ravanelm/exp/dirha/data-fmllr-tri4/tr05_cont/data/feats_fmllr_tr05_cont.8.ark:69868121
01ic020m /scratch/ravanelm/exp/dirha/data-fmllr-tri4/tr05_cont/data/feats_fmllr_tr05_cont.2.ark:65375521
40jo0303 /scratch/ravanelm/exp/dirha/data-fmllr-tri4/tr05_cont/data/feats_fmllr_tr05_cont.10.ark:29230857
019o0303 /scratch/ravanelm/exp/dirha/data-fmllr-tri4/tr05_cont/data/feats_fmllr_tr05_cont.1.ark:88806177
40ic0207 /scratch/ravanelm/exp/dirha/data-fmllr-tri4/tr05_cont/data/feats_fmllr_tr05_cont.10.ark:12112633
40ec021e /scratch/ravanelm/exp/dirha/data-fmllr-tri4/tr05_cont/data/feats_fmllr_tr05_cont.9.ark:50343313
401c020v /scratch/ravanelm/exp/dirha/data-fmllr-tri4/tr05_cont/data/feats_fmllr_tr05_cont.7.ark:72625761
01qc020p /scratch/ravanelm/exp/dirha/data-fmllr-tri4/tr05_cont/data/feats_fmllr_tr05_cont.3.ark:42330321
20mc010j /scratch/ravanelm/exp/dirha/data-fmllr-tri4/tr05_cont/data/feats_fmllr_tr05_cont.7.ark:21200273
205o010p /scratch/ravanelm/exp/dirha/data-fmllr-tri4/tr05_cont/data/feats_fmllr_tr05_cont.6.ark:6488225
208o010h /scratch/ravanelm/exp/dirha/data-fmllr-tri4/tr05_cont/data/feats_fmllr_tr05_cont.6.ark:25533649
20oc010i /scratch/ravanelm/exp/dirha/data-fmllr-tri4/tr05_cont/data/feats_fmllr_tr05_cont.7.ark:34221969
01yc0201 /scratch/ravanelm/exp/dirha/data-fmllr-tri4/tr05_cont/data/feats_fmllr_tr05_cont.4.ark:11363161
40co0318 /scratch/ravanelm/exp/dirha/data-fmllr-tri4/tr05_cont/data/feats_fmllr_tr05_cont.9.ark:33414217
028c020o /scratch/ravanelm/exp/dirha/data-fmllr-tri4/tr05_cont/data/feats_fmllr_tr05_cont.5.ark:14577361
01bc020w /scratch/ravanelm/exp/dirha/data-fmllr-tri4/tr05_cont/data/feats_fmllr_tr05_cont.2.ark:4012681
01yc020x /scratch/ravanelm/exp/dirha/data-fmllr-tri4/tr05_cont/data/feats_fmllr_tr05_cont.4.ark:14961369
01go030x /scratch/ravanelm/exp/dirha/data-fmllr-tri4/tr05_cont/data/feats_fmllr_tr05_cont.2.ark:59642697
20fo0105 /scratch/ravanelm/exp/dirha/data-fmllr-tri4/tr05_cont/data/feats_fmllr_tr05_cont.6.ark:69892329
011o0319 /scratch/ravanelm/exp/dirha/data-fmllr-tri4/tr05_cont/data/feats_fmllr_tr05_cont.1.ark:12643705
20lc0109 /scratch/ravanelm/exp/dirha/data-fmllr-tri4/tr05_cont/data/feats_fmllr_tr05_cont.7.ark:12392705
407c021b /scratch/ravanelm/exp/dirha/data-fmllr-tri4/tr05_cont/data/feats_fmllr_tr05_cont.8.ark:48017889
406o030c /scratch/ravanelm/exp/dirha/data-fmllr-tri4/tr05_cont/data/feats_fmllr_tr05_cont.8.ark:38093313
40ao031c /scratch/ravanelm/exp/dirha/data-fmllr-tri4/tr05_cont/data/feats_fmllr_tr05_cont.9.ark:11992737
01zo0315 /scratch/ravanelm/exp/dirha/data-fmllr-tri4/tr05_cont/data/feats_fmllr_tr05_cont.4.ark:36000065
40go0319 /scratch/ravanelm/exp/dirha/data-fmllr-tri4/tr05_cont/data/feats_fmllr_tr05_cont.9.ark:83745953
40do030f /scratch/ravanelm/exp/dirha/data-fmllr-tri4/tr05_cont/data/feats_fmllr_tr05_cont.9.ark:41786897
027c0217 /scratch/ravanelm/exp/dirha/data-fmllr-tri4/tr05_cont/data/feats_fmllr_tr05_cont.5.ark:4565497
20ic010a /scratch/ravanelm/exp/dirha/data-fmllr-tri4/tr05_cont/data/feats_fmllr_tr05_cont.7.ark:6104489
01jc021d /scratch/ravanelm/exp/dirha/data-fmllr-tri4/tr05_cont/data/feats_fmllr_tr05_cont.2.ark:81619097
20bo010j /scratch/ravanelm/exp/dirha/data-fmllr-tri4/tr05_cont/data/feats_fmllr_tr05_cont.6.ark:45400705
20fo0107 /scratch/ravanelm/exp/dirha/data-fmllr-tri4/tr05_cont/data/feats_fmllr_tr05_cont.6.ark:70218137
40co0302 /scratch/ravanelm/exp/dirha/data-fmllr-tri4/tr05_cont/data/feats_fmllr_tr05_cont.9.ark:29218809
40ec0209 /scratch/ravanelm/exp/dirha/data-fmllr-tri4/tr05_cont/data/feats_fmllr_tr05_cont.9.ark:46748569
20eo010j /scratch/ravanelm/exp/dirha/data-fmllr-tri4/tr05_cont/data/feats_fmllr_tr05_cont.6.ark:65421017
40po030k /scratch/ravanelm/exp/dirha/data-fmllr-tri4/tr05_cont/data/feats_fmllr_tr05_cont.10.ark:95403113
40po030h /scratch/ravanelm/exp/dirha/data-fmllr-tri4/tr05_cont/data/feats_fmllr_tr05_cont.10.ark:94888321
020c020z /scratch/ravanelm/exp/dirha/data-fmllr-tri4/tr05_cont/data/feats_fmllr_tr05_cont.4.ark:40149169
407o0314 /scratch/ravanelm/exp/dirha/data-fmllr-tri4/tr05_cont/data/feats_fmllr_tr05_cont.8.ark:54947177
408o030q /scratch/ravanelm/exp/dirha/data-fmllr-tri4/tr05_cont/data/feats_fmllr_tr05_cont.8.ark:63416553
407o0317 /scratch/ravanelm/exp/dirha/data-fmllr-tri4/tr05_cont/data/feats_fmllr_tr05_cont.8.ark:55316049
01dc020b /scratch/ravanelm/exp/dirha/data-fmllr-tri4/tr05_cont/data/feats_fmllr_tr05_cont.2.ark:15151577
016o0303 /scratch/ravanelm/exp/dirha/data-fmllr-tri4/tr05_cont/data/feats_fmllr_tr05_cont.1.ark:53199841
206o010i /scratch/ravanelm/exp/dirha/data-fmllr-tri4/tr05_cont/data/feats_fmllr_tr05_cont.6.ark:12005713
01po0315 /scratch/ravanelm/exp/dirha/data-fmllr-tri4/tr05_cont/data/feats_fmllr_tr05_cont.3.ark:38341257
021c020p /scratch/ravanelm/exp/dirha/data-fmllr-tri4/tr05_cont/data/feats_fmllr_tr05_cont.4.ark:47926793
01uc020q /scratch/ravanelm/exp/dirha/data-fmllr-tri4/tr05_cont/data/feats_fmllr_tr05_cont.3.ark:79959857
40do0312 /scratch/ravanelm/exp/dirha/data-fmllr-tri4/tr05_cont/data/feats_fmllr_tr05_cont.9.ark:44794969
40fo030m /scratch/ravanelm/exp/dirha/data-fmllr-tri4/tr05_cont/data/feats_fmllr_tr05_cont.9.ark:64687089
01zc020m /scratch/ravanelm/exp/dirha/data-fmllr-tri4/tr05_cont/data/feats_fmllr_tr05_cont.4.ark:26079825
406c0214 /scratch/ravanelm/exp/dirha/data-fmllr-tri4/tr05_cont/data/feats_fmllr_tr05_cont.8.ark:35716441
01zo031g /scratch/ravanelm/exp/dirha/data-fmllr-tri4/tr05_cont/data/feats_fmllr_tr05_cont.4.ark:37464009
40dc020d /scratch/ravanelm/exp/dirha/data-fmllr-tri4/tr05_cont/data/feats_fmllr_tr05_cont.9.ark:35615681
20io0101 /scratch/ravanelm/exp/dirha/data-fmllr-tri4/tr05_cont/data/feats_fmllr_tr05_cont.7.ark:7625489
40gc021f /scratch/ravanelm/exp/dirha/data-fmllr-tri4/tr05_cont/data/feats_fmllr_tr05_cont.9.ark:75781033
20go010s /scratch/ravanelm/exp/dirha/data-fmllr-tri4/tr05_cont/data/feats_fmllr_tr05_cont.6.ark:77661393
01jo030s /scratch/ravanelm/exp/dirha/data-fmllr-tri4/tr05_cont/data/feats_fmllr_tr05_cont.2.ark:86046721
40ko0313 /scratch/ravanelm/exp/dirha/data-fmllr-tri4/tr05_cont/data/feats_fmllr_tr05_cont.10.ark:46859953
408c021g /scratch/ravanelm/exp/dirha/data-fmllr-tri4/tr05_cont/data/feats_fmllr_tr05_cont.8.ark:60291585
40cc020g /scratch/ravanelm/exp/dirha/data-fmllr-tri4/tr05_cont/data/feats_fmllr_tr05_cont.9.ark:25979225
401o030e /scratch/ravanelm/exp/dirha/data-fmllr-tri4/tr05_cont/data/feats_fmllr_tr05_cont.7.ark:76839697
01to0308 /scratch/ravanelm/exp/dirha/data-fmllr-tri4/tr05_cont/data/feats_fmllr_tr05_cont.3.ark:70498177
204c0101 /scratch/ravanelm/exp/dirha/data-fmllr-tri4/tr05_cont/data/feats_fmllr_tr05_cont.5.ark:75411281
027c020g /scratch/ravanelm/exp/dirha/data-fmllr-tri4/tr05_cont/data/feats_fmllr_tr05_cont.5.ark:1671249
01dc0216 /scratch/ravanelm/exp/dirha/data-fmllr-tri4/tr05_cont/data/feats_fmllr_tr05_cont.2.ark:18487361
205o0102 /scratch/ravanelm/exp/dirha/data-fmllr-tri4/tr05_cont/data/feats_fmllr_tr05_cont.6.ark:2818233
40ho0301 /scratch/ravanelm/exp/dirha/data-fmllr-tri4/tr05_cont/data/feats_fmllr_tr05_cont.10.ark:5030033
011c020e /scratch/ravanelm/exp/dirha/data-fmllr-tri4/tr05_cont/data/feats_fmllr_tr05_cont.1.ark:1389761
40gc020w /scratch/ravanelm/exp/dirha/data-fmllr-tri4/tr05_cont/data/feats_fmllr_tr05_cont.9.ark:72834977
208o010q /scratch/ravanelm/exp/dirha/data-fmllr-tri4/tr05_cont/data/feats_fmllr_tr05_cont.6.ark:26932905
01ic021a /scratch/ravanelm/exp/dirha/data-fmllr-tri4/tr05_cont/data/feats_fmllr_tr05_cont.2.ark:67769697
20tc010b /scratch/ravanelm/exp/dirha/data-fmllr-tri4/tr05_cont/data/feats_fmllr_tr05_cont.7.ark:58826673
01zo0302 /scratch/ravanelm/exp/dirha/data-fmllr-tri4/tr05_cont/data/feats_fmllr_tr05_cont.4.ark:29713049
018c020g /scratch/ravanelm/exp/dirha/data-fmllr-tri4/tr05_cont/data/feats_fmllr_tr05_cont.1.ark:71415137
409o0307 /scratch/ravanelm/exp/dirha/data-fmllr-tri4/tr05_cont/data/feats_fmllr_tr05_cont.8.ark:71959137
01to0319 /scratch/ravanelm/exp/dirha/data-fmllr-tri4/tr05_cont/data/feats_fmllr_tr05_cont.3.ark:75674585
40do030z /scratch/ravanelm/exp/dirha/data-fmllr-tri4/tr05_cont/data/feats_fmllr_tr05_cont.9.ark:44364497
20mc010d /scratch/ravanelm/exp/dirha/data-fmllr-tri4/tr05_cont/data/feats_fmllr_tr05_cont.7.ark:20599489
40gc020n /scratch/ravanelm/exp/dirha/data-fmllr-tri4/tr05_cont/data/feats_fmllr_tr05_cont.9.ark:71845641
40gc020h /scratch/ravanelm/exp/dirha/data-fmllr-tri4/tr05_cont/data/feats_fmllr_tr05_cont.9.ark:71027257
20co0107 /scratch/ravanelm/exp/dirha/data-fmllr-tri4/tr05_cont/data/feats_fmllr_tr05_cont.6.ark:50344041
401o0314 /scratch/ravanelm/exp/dirha/data-fmllr-tri4/tr05_cont/data/feats_fmllr_tr05_cont.7.ark:80576777
024o0319 /scratch/ravanelm/exp/dirha/data-fmllr-tri4/tr05_cont/data/feats_fmllr_tr05_cont.4.ark:67152041
01qc021e /scratch/ravanelm/exp/dirha/data-fmllr-tri4/tr05_cont/data/feats_fmllr_tr05_cont.3.ark:44719329
40jo0308 /scratch/ravanelm/exp/dirha/data-fmllr-tri4/tr05_cont/data/feats_fmllr_tr05_cont.10.ark:29989377
20ac0105 /scratch/ravanelm/exp/dirha/data-fmllr-tri4/tr05_cont/data/feats_fmllr_tr05_cont.6.ark:33221313
01pc0201 /scratch/ravanelm/exp/dirha/data-fmllr-tri4/tr05_cont/data/feats_fmllr_tr05_cont.3.ark:26573633
405o0307 /scratch/ravanelm/exp/dirha/data-fmllr-tri4/tr05_cont/data/feats_fmllr_tr05_cont.8.ark:26629649
209o0101 /scratch/ravanelm/exp/dirha/data-fmllr-tri4/tr05_cont/data/feats_fmllr_tr05_cont.6.ark:29596617
208o010f /scratch/ravanelm/exp/dirha/data-fmllr-tri4/tr05_cont/data/feats_fmllr_tr05_cont.6.ark:25347041
409o030b /scratch/ravanelm/exp/dirha/data-fmllr-tri4/tr05_cont/data/feats_fmllr_tr05_cont.8.ark:72364193
408o030n /scratch/ravanelm/exp/dirha/data-fmllr-tri4/tr05_cont/data/feats_fmllr_tr05_cont.8.ark:63167201
40cc021c /scratch/ravanelm/exp/dirha/data-fmllr-tri4/tr05_cont/data/feats_fmllr_tr05_cont.9.ark:28743193
40dc020s /scratch/ravanelm/exp/dirha/data-fmllr-tri4/tr05_cont/data/feats_fmllr_tr05_cont.9.ark:37553001
029o030u /scratch/ravanelm/exp/dirha/data-fmllr-tri4/tr05_cont/data/feats_fmllr_tr05_cont.5.ark:34196193
40go030t /scratch/ravanelm/exp/dirha/data-fmllr-tri4/tr05_cont/data/feats_fmllr_tr05_cont.9.ark:80472129
40lc021b /scratch/ravanelm/exp/dirha/data-fmllr-tri4/tr05_cont/data/feats_fmllr_tr05_cont.10.ark:53804017
20nc010h /scratch/ravanelm/exp/dirha/data-fmllr-tri4/tr05_cont/data/feats_fmllr_tr05_cont.7.ark:27111577
01dc0209 /scratch/ravanelm/exp/dirha/data-fmllr-tri4/tr05_cont/data/feats_fmllr_tr05_cont.2.ark:14954729
01zo0309 /scratch/ravanelm/exp/dirha/data-fmllr-tri4/tr05_cont/data/feats_fmllr_tr05_cont.4.ark:30583937
01ic020h /scratch/ravanelm/exp/dirha/data-fmllr-tri4/tr05_cont/data/feats_fmllr_tr05_cont.2.ark:64761001
01wc020n /scratch/ravanelm/exp/dirha/data-fmllr-tri4/tr05_cont/data/feats_fmllr_tr05_cont.4.ark:2596217
013o0319 /scratch/ravanelm/exp/dirha/data-fmllr-tri4/tr05_cont/data/feats_fmllr_tr05_cont.1.ark:25086313
409c020i /scratch/ravanelm/exp/dirha/data-fmllr-tri4/tr05_cont/data/feats_fmllr_tr05_cont.8.ark:67439113
40bc020u /scratch/ravanelm/exp/dirha/data-fmllr-tri4/tr05_cont/data/feats_fmllr_tr05_cont.9.ark:15475769
01mc020h /scratch/ravanelm/exp/dirha/data-fmllr-tri4/tr05_cont/data/feats_fmllr_tr05_cont.3.ark:16716233
01ko030h /scratch/ravanelm/exp/dirha/data-fmllr-tri4/tr05_cont/data/feats_fmllr_tr05_cont.2.ark:98780785
01bc021f /scratch/ravanelm/exp/dirha/data-fmllr-tri4/tr05_cont/data/feats_fmllr_tr05_cont.2.ark:6305569
40ic021c /scratch/ravanelm/exp/dirha/data-fmllr-tri4/tr05_cont/data/feats_fmllr_tr05_cont.10.ark:16895537
40eo030d /scratch/ravanelm/exp/dirha/data-fmllr-tri4/tr05_cont/data/feats_fmllr_tr05_cont.9.ark:52411537
014c020i /scratch/ravanelm/exp/dirha/data-fmllr-tri4/tr05_cont/data/feats_fmllr_tr05_cont.1.ark:27500489
02eo0308 /scratch/ravanelm/exp/dirha/data-fmllr-tri4/tr05_cont/data/feats_fmllr_tr05_cont.5.ark:69190249
20oc010k /scratch/ravanelm/exp/dirha/data-fmllr-tri4/tr05_cont/data/feats_fmllr_tr05_cont.7.ark:34470337
407c0213 /scratch/ravanelm/exp/dirha/data-fmllr-tri4/tr05_cont/data/feats_fmllr_tr05_cont.8.ark:47023297
01mo031c /scratch/ravanelm/exp/dirha/data-fmllr-tri4/tr05_cont/data/feats_fmllr_tr05_cont.3.ark:26245721
40bo0304 /scratch/ravanelm/exp/dirha/data-fmllr-tri4/tr05_cont/data/feats_fmllr_tr05_cont.9.ark:18517033
029o031d /scratch/ravanelm/exp/dirha/data-fmllr-tri4/tr05_cont/data/feats_fmllr_tr05_cont.5.ark:36823689
01zc020f /scratch/ravanelm/exp/dirha/data-fmllr-tri4/tr05_cont/data/feats_fmllr_tr05_cont.4.ark:25256617
028c0208 /scratch/ravanelm/exp/dirha/data-fmllr-tri4/tr05_cont/data/feats_fmllr_tr05_cont.5.ark:13082257
01io031a /scratch/ravanelm/exp/dirha/data-fmllr-tri4/tr05_cont/data/feats_fmllr_tr05_cont.2.ark:75265161
01kc0207 /scratch/ravanelm/exp/dirha/data-fmllr-tri4/tr05_cont/data/feats_fmllr_tr05_cont.2.ark:90508969
20gc010d /scratch/ravanelm/exp/dirha/data-fmllr-tri4/tr05_cont/data/feats_fmllr_tr05_cont.6.ark:73560001
029c020x /scratch/ravanelm/exp/dirha/data-fmllr-tri4/tr05_cont/data/feats_fmllr_tr05_cont.5.ark:28274537
028c020h /scratch/ravanelm/exp/dirha/data-fmllr-tri4/tr05_cont/data/feats_fmllr_tr05_cont.5.ark:13894313
20go010m /scratch/ravanelm/exp/dirha/data-fmllr-tri4/tr05_cont/data/feats_fmllr_tr05_cont.6.ark:77147329
20ro0104 /scratch/ravanelm/exp/dirha/data-fmllr-tri4/tr05_cont/data/feats_fmllr_tr05_cont.7.ark:54131777
01io030s /scratch/ravanelm/exp/dirha/data-fmllr-tri4/tr05_cont/data/feats_fmllr_tr05_cont.2.ark:72720729
40cc021e /scratch/ravanelm/exp/dirha/data-fmllr-tri4/tr05_cont/data/feats_fmllr_tr05_cont.9.ark:28990761
024o0310 /scratch/ravanelm/exp/dirha/data-fmllr-tri4/tr05_cont/data/feats_fmllr_tr05_cont.4.ark:66178545
015c020g /scratch/ravanelm/exp/dirha/data-fmllr-tri4/tr05_cont/data/feats_fmllr_tr05_cont.1.ark:39142249
20bc010l /scratch/ravanelm/exp/dirha/data-fmllr-tri4/tr05_cont/data/feats_fmllr_tr05_cont.6.ark:41877937
01yc0212 /scratch/ravanelm/exp/dirha/data-fmllr-tri4/tr05_cont/data/feats_fmllr_tr05_cont.4.ark:15476689
405o030z /scratch/ravanelm/exp/dirha/data-fmllr-tri4/tr05_cont/data/feats_fmllr_tr05_cont.8.ark:29859441
028c020m /scratch/ravanelm/exp/dirha/data-fmllr-tri4/tr05_cont/data/feats_fmllr_tr05_cont.5.ark:14341153
408o0314 /scratch/ravanelm/exp/dirha/data-fmllr-tri4/tr05_cont/data/feats_fmllr_tr05_cont.8.ark:64666969
408o0315 /scratch/ravanelm/exp/dirha/data-fmllr-tri4/tr05_cont/data/feats_fmllr_tr05_cont.8.ark:64768913
207o010l /scratch/ravanelm/exp/dirha/data-fmllr-tri4/tr05_cont/data/feats_fmllr_tr05_cont.6.ark:19304585
021c020v /scratch/ravanelm/exp/dirha/data-fmllr-tri4/tr05_cont/data/feats_fmllr_tr05_cont.4.ark:48575897
01io0314 /scratch/ravanelm/exp/dirha/data-fmllr-tri4/tr05_cont/data/feats_fmllr_tr05_cont.2.ark:74447897
021c020z /scratch/ravanelm/exp/dirha/data-fmllr-tri4/tr05_cont/data/feats_fmllr_tr05_cont.4.ark:48870873
015c0204 /scratch/ravanelm/exp/dirha/data-fmllr-tri4/tr05_cont/data/feats_fmllr_tr05_cont.1.ark:37783561
019c020m /scratch/ravanelm/exp/dirha/data-fmllr-tri4/tr05_cont/data/feats_fmllr_tr05_cont.1.ark:85394481
40do030u /scratch/ravanelm/exp/dirha/data-fmllr-tri4/tr05_cont/data/feats_fmllr_tr05_cont.9.ark:43708697
40co030e /scratch/ravanelm/exp/dirha/data-fmllr-tri4/tr05_cont/data/feats_fmllr_tr05_cont.9.ark:30488057
40hc020m /scratch/ravanelm/exp/dirha/data-fmllr-tri4/tr05_cont/data/feats_fmllr_tr05_cont.10.ark:2050593
01wc021a /scratch/ravanelm/exp/dirha/data-fmllr-tri4/tr05_cont/data/feats_fmllr_tr05_cont.4.ark:4777865
40go030w /scratch/ravanelm/exp/dirha/data-fmllr-tri4/tr05_cont/data/feats_fmllr_tr05_cont.9.ark:81145961
01do030b /scratch/ravanelm/exp/dirha/data-fmllr-tri4/tr05_cont/data/feats_fmllr_tr05_cont.2.ark:21053441
01yo0319 /scratch/ravanelm/exp/dirha/data-fmllr-tri4/tr05_cont/data/feats_fmllr_tr05_cont.4.ark:22877465
019o030d /scratch/ravanelm/exp/dirha/data-fmllr-tri4/tr05_cont/data/feats_fmllr_tr05_cont.1.ark:90101777
01eo0312 /scratch/ravanelm/exp/dirha/data-fmllr-tri4/tr05_cont/data/feats_fmllr_tr05_cont.2.ark:36145745
407c020l /scratch/ravanelm/exp/dirha/data-fmllr-tri4/tr05_cont/data/feats_fmllr_tr05_cont.8.ark:45061905
40lo030v /scratch/ravanelm/exp/dirha/data-fmllr-tri4/tr05_cont/data/feats_fmllr_tr05_cont.10.ark:59433177
028c0206 /scratch/ravanelm/exp/dirha/data-fmllr-tri4/tr05_cont/data/feats_fmllr_tr05_cont.5.ark:12975969
017c0210 /scratch/ravanelm/exp/dirha/data-fmllr-tri4/tr05_cont/data/feats_fmllr_tr05_cont.1.ark:61846929
02bo0308 /scratch/ravanelm/exp/dirha/data-fmllr-tri4/tr05_cont/data/feats_fmllr_tr05_cont.5.ark:43760513
406o031c /scratch/ravanelm/exp/dirha/data-fmllr-tri4/tr05_cont/data/feats_fmllr_tr05_cont.8.ark:42748897
017o030m /scratch/ravanelm/exp/dirha/data-fmllr-tri4/tr05_cont/data/feats_fmllr_tr05_cont.1.ark:66172961
01wo030c /scratch/ravanelm/exp/dirha/data-fmllr-tri4/tr05_cont/data/feats_fmllr_tr05_cont.4.ark:6640033
20oc010l /scratch/ravanelm/exp/dirha/data-fmllr-tri4/tr05_cont/data/feats_fmllr_tr05_cont.7.ark:34513561
01do030x /scratch/ravanelm/exp/dirha/data-fmllr-tri4/tr05_cont/data/feats_fmllr_tr05_cont.2.ark:23632641
40bc0217 /scratch/ravanelm/exp/dirha/data-fmllr-tri4/tr05_cont/data/feats_fmllr_tr05_cont.9.ark:16942481
020o030o /scratch/ravanelm/exp/dirha/data-fmllr-tri4/tr05_cont/data/feats_fmllr_tr05_cont.4.ark:42742625
40ec020v /scratch/ravanelm/exp/dirha/data-fmllr-tri4/tr05_cont/data/feats_fmllr_tr05_cont.9.ark:48612457
40pc0207 /scratch/ravanelm/exp/dirha/data-fmllr-tri4/tr05_cont/data/feats_fmllr_tr05_cont.10.ark:88685097
018o0318 /scratch/ravanelm/exp/dirha/data-fmllr-tri4/tr05_cont/data/feats_fmllr_tr05_cont.1.ark:82589857
01ec020g /scratch/ravanelm/exp/dirha/data-fmllr-tri4/tr05_cont/data/feats_fmllr_tr05_cont.2.ark:27698097
40bc0201 /scratch/ravanelm/exp/dirha/data-fmllr-tri4/tr05_cont/data/feats_fmllr_tr05_cont.9.ark:12431873
01lc020s /scratch/ravanelm/exp/dirha/data-fmllr-tri4/tr05_cont/data/feats_fmllr_tr05_cont.3.ark:3511537
40ho0317 /scratch/ravanelm/exp/dirha/data-fmllr-tri4/tr05_cont/data/feats_fmllr_tr05_cont.10.ark:10428001
018o030v /scratch/ravanelm/exp/dirha/data-fmllr-tri4/tr05_cont/data/feats_fmllr_tr05_cont.1.ark:80392105
01pc020g /scratch/ravanelm/exp/dirha/data-fmllr-tri4/tr05_cont/data/feats_fmllr_tr05_cont.3.ark:28379753
401c020e /scratch/ravanelm/exp/dirha/data-fmllr-tri4/tr05_cont/data/feats_fmllr_tr05_cont.7.ark:70843113
207o010j /scratch/ravanelm/exp/dirha/data-fmllr-tri4/tr05_cont/data/feats_fmllr_tr05_cont.6.ark:19085337
407o030y /scratch/ravanelm/exp/dirha/data-fmllr-tri4/tr05_cont/data/feats_fmllr_tr05_cont.8.ark:54127353
029c021f /scratch/ravanelm/exp/dirha/data-fmllr-tri4/tr05_cont/data/feats_fmllr_tr05_cont.5.ark:30064889
40dc021b /scratch/ravanelm/exp/dirha/data-fmllr-tri4/tr05_cont/data/feats_fmllr_tr05_cont.9.ark:39669457
01bo0318 /scratch/ravanelm/exp/dirha/data-fmllr-tri4/tr05_cont/data/feats_fmllr_tr05_cont.2.ark:13194553
01lo030r /scratch/ravanelm/exp/dirha/data-fmllr-tri4/tr05_cont/data/feats_fmllr_tr05_cont.3.ark:10889857
40jc020z /scratch/ravanelm/exp/dirha/data-fmllr-tri4/tr05_cont/data/feats_fmllr_tr05_cont.10.ark:27265785
016c020l /scratch/ravanelm/exp/dirha/data-fmllr-tri4/tr05_cont/data/feats_fmllr_tr05_cont.1.ark:50789089
029o030x /scratch/ravanelm/exp/dirha/data-fmllr-tri4/tr05_cont/data/feats_fmllr_tr05_cont.5.ark:34680905
40bc020l /scratch/ravanelm/exp/dirha/data-fmllr-tri4/tr05_cont/data/feats_fmllr_tr05_cont.9.ark:14549793
20qc0107 /scratch/ravanelm/exp/dirha/data-fmllr-tri4/tr05_cont/data/feats_fmllr_tr05_cont.7.ark:44937113
016c020t /scratch/ravanelm/exp/dirha/data-fmllr-tri4/tr05_cont/data/feats_fmllr_tr05_cont.1.ark:51280297
01lo0306 /scratch/ravanelm/exp/dirha/data-fmllr-tri4/tr05_cont/data/feats_fmllr_tr05_cont.3.ark:7249673
01po030b /scratch/ravanelm/exp/dirha/data-fmllr-tri4/tr05_cont/data/feats_fmllr_tr05_cont.3.ark:33972721
01bo0312 /scratch/ravanelm/exp/dirha/data-fmllr-tri4/tr05_cont/data/feats_fmllr_tr05_cont.2.ark:12528353
20go010c /scratch/ravanelm/exp/dirha/data-fmllr-tri4/tr05_cont/data/feats_fmllr_tr05_cont.6.ark:75959889
20oc0106 /scratch/ravanelm/exp/dirha/data-fmllr-tri4/tr05_cont/data/feats_fmllr_tr05_cont.7.ark:33108401
021o030n /scratch/ravanelm/exp/dirha/data-fmllr-tri4/tr05_cont/data/feats_fmllr_tr05_cont.4.ark:53028769
403o030e /scratch/ravanelm/exp/dirha/data-fmllr-tri4/tr05_cont/data/feats_fmllr_tr05_cont.8.ark:6553865
02ec020y /scratch/ravanelm/exp/dirha/data-fmllr-tri4/tr05_cont/data/feats_fmllr_tr05_cont.5.ark:65907753
011c0208 /scratch/ravanelm/exp/dirha/data-fmllr-tri4/tr05_cont/data/feats_fmllr_tr05_cont.1.ark:660977
20rc0109 /scratch/ravanelm/exp/dirha/data-fmllr-tri4/tr05_cont/data/feats_fmllr_tr05_cont.7.ark:51966865
409o030r /scratch/ravanelm/exp/dirha/data-fmllr-tri4/tr05_cont/data/feats_fmllr_tr05_cont.8.ark:74389217
01wo030p /scratch/ravanelm/exp/dirha/data-fmllr-tri4/tr05_cont/data/feats_fmllr_tr05_cont.4.ark:8228641
40co031a /scratch/ravanelm/exp/dirha/data-fmllr-tri4/tr05_cont/data/feats_fmllr_tr05_cont.9.ark:33550265
406c020z /scratch/ravanelm/exp/dirha/data-fmllr-tri4/tr05_cont/data/feats_fmllr_tr05_cont.8.ark:35148961
40co0313 /scratch/ravanelm/exp/dirha/data-fmllr-tri4/tr05_cont/data/feats_fmllr_tr05_cont.9.ark:33000497
01wo030r /scratch/ravanelm/exp/dirha/data-fmllr-tri4/tr05_cont/data/feats_fmllr_tr05_cont.4.ark:8409969
40pc020v /scratch/ravanelm/exp/dirha/data-fmllr-tri4/tr05_cont/data/feats_fmllr_tr05_cont.10.ark:90785193
40ec020t /scratch/ravanelm/exp/dirha/data-fmllr-tri4/tr05_cont/data/feats_fmllr_tr05_cont.9.ark:48393849
029o030j /scratch/ravanelm/exp/dirha/data-fmllr-tri4/tr05_cont/data/feats_fmllr_tr05_cont.5.ark:32657529
015o031a /scratch/ravanelm/exp/dirha/data-fmllr-tri4/tr05_cont/data/feats_fmllr_tr05_cont.1.ark:48573705
40bc0209 /scratch/ravanelm/exp/dirha/data-fmllr-tri4/tr05_cont/data/feats_fmllr_tr05_cont.9.ark:13219425
407c0204 /scratch/ravanelm/exp/dirha/data-fmllr-tri4/tr05_cont/data/feats_fmllr_tr05_cont.8.ark:43287897
20gc010a /scratch/ravanelm/exp/dirha/data-fmllr-tri4/tr05_cont/data/feats_fmllr_tr05_cont.6.ark:73244729
406o030q /scratch/ravanelm/exp/dirha/data-fmllr-tri4/tr05_cont/data/feats_fmllr_tr05_cont.8.ark:39834769
013o0305 /scratch/ravanelm/exp/dirha/data-fmllr-tri4/tr05_cont/data/feats_fmllr_tr05_cont.1.ark:20134793
01io030h /scratch/ravanelm/exp/dirha/data-fmllr-tri4/tr05_cont/data/feats_fmllr_tr05_cont.2.ark:71064305
40ho031c /scratch/ravanelm/exp/dirha/data-fmllr-tri4/tr05_cont/data/feats_fmllr_tr05_cont.10.ark:11215161
014c020d /scratch/ravanelm/exp/dirha/data-fmllr-tri4/tr05_cont/data/feats_fmllr_tr05_cont.1.ark:26990609
409o0316 /scratch/ravanelm/exp/dirha/data-fmllr-tri4/tr05_cont/data/feats_fmllr_tr05_cont.8.ark:75987177
40fo030e /scratch/ravanelm/exp/dirha/data-fmllr-tri4/tr05_cont/data/feats_fmllr_tr05_cont.9.ark:63599537
40ic020v /scratch/ravanelm/exp/dirha/data-fmllr-tri4/tr05_cont/data/feats_fmllr_tr05_cont.10.ark:15030169
020o0318 /scratch/ravanelm/exp/dirha/data-fmllr-tri4/tr05_cont/data/feats_fmllr_tr05_cont.4.ark:44351993
028o0313 /scratch/ravanelm/exp/dirha/data-fmllr-tri4/tr05_cont/data/feats_fmllr_tr05_cont.5.ark:23135265
016o0317 /scratch/ravanelm/exp/dirha/data-fmllr-tri4/tr05_cont/data/feats_fmllr_tr05_cont.1.ark:57436913
020c021a /scratch/ravanelm/exp/dirha/data-fmllr-tri4/tr05_cont/data/feats_fmllr_tr05_cont.4.ark:40920473
40ic020s /scratch/ravanelm/exp/dirha/data-fmllr-tri4/tr05_cont/data/feats_fmllr_tr05_cont.10.ark:14770737
027o030j /scratch/ravanelm/exp/dirha/data-fmllr-tri4/tr05_cont/data/feats_fmllr_tr05_cont.5.ark:8519633
01pc021f /scratch/ravanelm/exp/dirha/data-fmllr-tri4/tr05_cont/data/feats_fmllr_tr05_cont.3.ark:32400433
40eo030n /scratch/ravanelm/exp/dirha/data-fmllr-tri4/tr05_cont/data/feats_fmllr_tr05_cont.9.ark:53567457
01rc0215 /scratch/ravanelm/exp/dirha/data-fmllr-tri4/tr05_cont/data/feats_fmllr_tr05_cont.3.ark:56264921
20bc010m /scratch/ravanelm/exp/dirha/data-fmllr-tri4/tr05_cont/data/feats_fmllr_tr05_cont.6.ark:41919881
02bo030l /scratch/ravanelm/exp/dirha/data-fmllr-tri4/tr05_cont/data/feats_fmllr_tr05_cont.5.ark:45597785
20ic010k /scratch/ravanelm/exp/dirha/data-fmllr-tri4/tr05_cont/data/feats_fmllr_tr05_cont.7.ark:7050329
015c020b /scratch/ravanelm/exp/dirha/data-fmllr-tri4/tr05_cont/data/feats_fmllr_tr05_cont.1.ark:38527569
20ec0107 /scratch/ravanelm/exp/dirha/data-fmllr-tri4/tr05_cont/data/feats_fmllr_tr05_cont.6.ark:60590073
40jc020k /scratch/ravanelm/exp/dirha/data-fmllr-tri4/tr05_cont/data/feats_fmllr_tr05_cont.10.ark:25589425
406c020s /scratch/ravanelm/exp/dirha/data-fmllr-tri4/tr05_cont/data/feats_fmllr_tr05_cont.8.ark:34458873
01gc020y /scratch/ravanelm/exp/dirha/data-fmllr-tri4/tr05_cont/data/feats_fmllr_tr05_cont.2.ark:53388401
40ec020h /scratch/ravanelm/exp/dirha/data-fmllr-tri4/tr05_cont/data/feats_fmllr_tr05_cont.9.ark:47445721
40eo0307 /scratch/ravanelm/exp/dirha/data-fmllr-tri4/tr05_cont/data/feats_fmllr_tr05_cont.9.ark:51562753
013o0309 /scratch/ravanelm/exp/dirha/data-fmllr-tri4/tr05_cont/data/feats_fmllr_tr05_cont.1.ark:20564649
401o0310 /scratch/ravanelm/exp/dirha/data-fmllr-tri4/tr05_cont/data/feats_fmllr_tr05_cont.7.ark:80113665
403o0302 /scratch/ravanelm/exp/dirha/data-fmllr-tri4/tr05_cont/data/feats_fmllr_tr05_cont.8.ark:4811817
017o0306 /scratch/ravanelm/exp/dirha/data-fmllr-tri4/tr05_cont/data/feats_fmllr_tr05_cont.1.ark:64215777
02co031c /scratch/ravanelm/exp/dirha/data-fmllr-tri4/tr05_cont/data/feats_fmllr_tr05_cont.5.ark:61240809
019c0204 /scratch/ravanelm/exp/dirha/data-fmllr-tri4/tr05_cont/data/feats_fmllr_tr05_cont.1.ark:83654689
20bc010k /scratch/ravanelm/exp/dirha/data-fmllr-tri4/tr05_cont/data/feats_fmllr_tr05_cont.6.ark:41721433
40gc020t /scratch/ravanelm/exp/dirha/data-fmllr-tri4/tr05_cont/data/feats_fmllr_tr05_cont.9.ark:72493945
40po030b /scratch/ravanelm/exp/dirha/data-fmllr-tri4/tr05_cont/data/feats_fmllr_tr05_cont.10.ark:93964497
20eo010o /scratch/ravanelm/exp/dirha/data-fmllr-tri4/tr05_cont/data/feats_fmllr_tr05_cont.6.ark:66203217
20bc0103 /scratch/ravanelm/exp/dirha/data-fmllr-tri4/tr05_cont/data/feats_fmllr_tr05_cont.6.ark:40029185
01fc020s /scratch/ravanelm/exp/dirha/data-fmllr-tri4/tr05_cont/data/feats_fmllr_tr05_cont.2.ark:40731777
209c010b /scratch/ravanelm/exp/dirha/data-fmllr-tri4/tr05_cont/data/feats_fmllr_tr05_cont.6.ark:28078793
01ic0203 /scratch/ravanelm/exp/dirha/data-fmllr-tri4/tr05_cont/data/feats_fmllr_tr05_cont.2.ark:62981145
029c020m /scratch/ravanelm/exp/dirha/data-fmllr-tri4/tr05_cont/data/feats_fmllr_tr05_cont.5.ark:26998113
205c010g /scratch/ravanelm/exp/dirha/data-fmllr-tri4/tr05_cont/data/feats_fmllr_tr05_cont.6.ark:1748849
20eo0106 /scratch/ravanelm/exp/dirha/data-fmllr-tri4/tr05_cont/data/feats_fmllr_tr05_cont.6.ark:63521825
40nc0213 /scratch/ravanelm/exp/dirha/data-fmllr-tri4/tr05_cont/data/feats_fmllr_tr05_cont.10.ark:79244881
01pc020k /scratch/ravanelm/exp/dirha/data-fmllr-tri4/tr05_cont/data/feats_fmllr_tr05_cont.3.ark:28740489
01bo0308 /scratch/ravanelm/exp/dirha/data-fmllr-tri4/tr05_cont/data/feats_fmllr_tr05_cont.2.ark:7586377
013o030n /scratch/ravanelm/exp/dirha/data-fmllr-tri4/tr05_cont/data/feats_fmllr_tr05_cont.1.ark:22302585
20vc010a /scratch/ravanelm/exp/dirha/data-fmllr-tri4/tr05_cont/data/feats_fmllr_tr05_cont.7.ark:64310113
01tc020q /scratch/ravanelm/exp/dirha/data-fmllr-tri4/tr05_cont/data/feats_fmllr_tr05_cont.3.ark:66416905
028c0201 /scratch/ravanelm/exp/dirha/data-fmllr-tri4/tr05_cont/data/feats_fmllr_tr05_cont.5.ark:12539689
01qc020j /scratch/ravanelm/exp/dirha/data-fmllr-tri4/tr05_cont/data/feats_fmllr_tr05_cont.3.ark:41898521
017c020t /scratch/ravanelm/exp/dirha/data-fmllr-tri4/tr05_cont/data/feats_fmllr_tr05_cont.1.ark:61102121
40pc0216 /scratch/ravanelm/exp/dirha/data-fmllr-tri4/tr05_cont/data/feats_fmllr_tr05_cont.10.ark:91882417
01go0314 /scratch/ravanelm/exp/dirha/data-fmllr-tri4/tr05_cont/data/feats_fmllr_tr05_cont.2.ark:60681745
20qc010p /scratch/ravanelm/exp/dirha/data-fmllr-tri4/tr05_cont/data/feats_fmllr_tr05_cont.7.ark:47084105
20po0108 /scratch/ravanelm/exp/dirha/data-fmllr-tri4/tr05_cont/data/feats_fmllr_tr05_cont.7.ark:41787073
01rc0210 /scratch/ravanelm/exp/dirha/data-fmllr-tri4/tr05_cont/data/feats_fmllr_tr05_cont.3.ark:55645121
204o0109 /scratch/ravanelm/exp/dirha/data-fmllr-tri4/tr05_cont/data/feats_fmllr_tr05_cont.5.ark:78237033
40fc0205 /scratch/ravanelm/exp/dirha/data-fmllr-tri4/tr05_cont/data/feats_fmllr_tr05_cont.9.ark:56665593
024c0204 /scratch/ravanelm/exp/dirha/data-fmllr-tri4/tr05_cont/data/feats_fmllr_tr05_cont.4.ark:56706657
40eo030l /scratch/ravanelm/exp/dirha/data-fmllr-tri4/tr05_cont/data/feats_fmllr_tr05_cont.9.ark:53384209
40go030x /scratch/ravanelm/exp/dirha/data-fmllr-tri4/tr05_cont/data/feats_fmllr_tr05_cont.9.ark:81379745
405c020i /scratch/ravanelm/exp/dirha/data-fmllr-tri4/tr05_cont/data/feats_fmllr_tr05_cont.8.ark:22979569
028c0215 /scratch/ravanelm/exp/dirha/data-fmllr-tri4/tr05_cont/data/feats_fmllr_tr05_cont.5.ark:16435209
017o0305 /scratch/ravanelm/exp/dirha/data-fmllr-tri4/tr05_cont/data/feats_fmllr_tr05_cont.1.ark:64091913
01jc0207 /scratch/ravanelm/exp/dirha/data-fmllr-tri4/tr05_cont/data/feats_fmllr_tr05_cont.2.ark:76698249
404o031c /scratch/ravanelm/exp/dirha/data-fmllr-tri4/tr05_cont/data/feats_fmllr_tr05_cont.8.ark:20931273
011o030e /scratch/ravanelm/exp/dirha/data-fmllr-tri4/tr05_cont/data/feats_fmllr_tr05_cont.1.ark:7595281
01to031c /scratch/ravanelm/exp/dirha/data-fmllr-tri4/tr05_cont/data/feats_fmllr_tr05_cont.3.ark:76045377
027c020b /scratch/ravanelm/exp/dirha/data-fmllr-tri4/tr05_cont/data/feats_fmllr_tr05_cont.5.ark:1201689
403o031a /scratch/ravanelm/exp/dirha/data-fmllr-tri4/tr05_cont/data/feats_fmllr_tr05_cont.8.ark:10393353
026o030j /scratch/ravanelm/exp/dirha/data-fmllr-tri4/tr05_cont/data/feats_fmllr_tr05_cont.4.ark:75325409
40ao031a /scratch/ravanelm/exp/dirha/data-fmllr-tri4/tr05_cont/data/feats_fmllr_tr05_cont.9.ark:11807569
01bc0216 /scratch/ravanelm/exp/dirha/data-fmllr-tri4/tr05_cont/data/feats_fmllr_tr05_cont.2.ark:5177217
01eo0316 /scratch/ravanelm/exp/dirha/data-fmllr-tri4/tr05_cont/data/feats_fmllr_tr05_cont.2.ark:36584241
403c0204 /scratch/ravanelm/exp/dirha/data-fmllr-tri4/tr05_cont/data/feats_fmllr_tr05_cont.8.ark:363761
01ic021e /scratch/ravanelm/exp/dirha/data-fmllr-tri4/tr05_cont/data/feats_fmllr_tr05_cont.2.ark:68107713
40ho030d /scratch/ravanelm/exp/dirha/data-fmllr-tri4/tr05_cont/data/feats_fmllr_tr05_cont.10.ark:6449841
016c020o /scratch/ravanelm/exp/dirha/data-fmllr-tri4/tr05_cont/data/feats_fmllr_tr05_cont.1.ark:50965481
01bo030q /scratch/ravanelm/exp/dirha/data-fmllr-tri4/tr05_cont/data/feats_fmllr_tr05_cont.2.ark:10590465
029c021b /scratch/ravanelm/exp/dirha/data-fmllr-tri4/tr05_cont/data/feats_fmllr_tr05_cont.5.ark:29708313
028o0314 /scratch/ravanelm/exp/dirha/data-fmllr-tri4/tr05_cont/data/feats_fmllr_tr05_cont.5.ark:23340729
028o0317 /scratch/ravanelm/exp/dirha/data-fmllr-tri4/tr05_cont/data/feats_fmllr_tr05_cont.5.ark:23657761
01wo030l /scratch/ravanelm/exp/dirha/data-fmllr-tri4/tr05_cont/data/feats_fmllr_tr05_cont.4.ark:7886809
01lc020f /scratch/ravanelm/exp/dirha/data-fmllr-tri4/tr05_cont/data/feats_fmllr_tr05_cont.3.ark:1999865
014o030n /scratch/ravanelm/exp/dirha/data-fmllr-tri4/tr05_cont/data/feats_fmllr_tr05_cont.1.ark:33603961
029o0316 /scratch/ravanelm/exp/dirha/data-fmllr-tri4/tr05_cont/data/feats_fmllr_tr05_cont.5.ark:35947201
40nc021b /scratch/ravanelm/exp/dirha/data-fmllr-tri4/tr05_cont/data/feats_fmllr_tr05_cont.10.ark:80253073
01zo030l /scratch/ravanelm/exp/dirha/data-fmllr-tri4/tr05_cont/data/feats_fmllr_tr05_cont.4.ark:32437185
408o030i /scratch/ravanelm/exp/dirha/data-fmllr-tri4/tr05_cont/data/feats_fmllr_tr05_cont.8.ark:62421161
01kc020k /scratch/ravanelm/exp/dirha/data-fmllr-tri4/tr05_cont/data/feats_fmllr_tr05_cont.2.ark:92117097
20tc010p /scratch/ravanelm/exp/dirha/data-fmllr-tri4/tr05_cont/data/feats_fmllr_tr05_cont.7.ark:60462209
017o0313 /scratch/ravanelm/exp/dirha/data-fmllr-tri4/tr05_cont/data/feats_fmllr_tr05_cont.1.ark:68232409
20ao010e /scratch/ravanelm/exp/dirha/data-fmllr-tri4/tr05_cont/data/feats_fmllr_tr05_cont.6.ark:37625305
40po030c /scratch/ravanelm/exp/dirha/data-fmllr-tri4/tr05_cont/data/feats_fmllr_tr05_cont.10.ark:94148361
01bo030f /scratch/ravanelm/exp/dirha/data-fmllr-tri4/tr05_cont/data/feats_fmllr_tr05_cont.2.ark:8730361
20qo010b /scratch/ravanelm/exp/dirha/data-fmllr-tri4/tr05_cont/data/feats_fmllr_tr05_cont.7.ark:48783569
40mc021a /scratch/ravanelm/exp/dirha/data-fmllr-tri4/tr05_cont/data/feats_fmllr_tr05_cont.10.ark:67457985
01lo030o /scratch/ravanelm/exp/dirha/data-fmllr-tri4/tr05_cont/data/feats_fmllr_tr05_cont.3.ark:10561785
01tc0218 /scratch/ravanelm/exp/dirha/data-fmllr-tri4/tr05_cont/data/feats_fmllr_tr05_cont.3.ark:68782137
405o0318 /scratch/ravanelm/exp/dirha/data-fmllr-tri4/tr05_cont/data/feats_fmllr_tr05_cont.8.ark:30983657
026o0315 /scratch/ravanelm/exp/dirha/data-fmllr-tri4/tr05_cont/data/feats_fmllr_tr05_cont.4.ark:78140337
01gc020s /scratch/ravanelm/exp/dirha/data-fmllr-tri4/tr05_cont/data/feats_fmllr_tr05_cont.2.ark:52791617
01go0312 /scratch/ravanelm/exp/dirha/data-fmllr-tri4/tr05_cont/data/feats_fmllr_tr05_cont.2.ark:60377537
02co0312 /scratch/ravanelm/exp/dirha/data-fmllr-tri4/tr05_cont/data/feats_fmllr_tr05_cont.5.ark:59760089
01ec021a /scratch/ravanelm/exp/dirha/data-fmllr-tri4/tr05_cont/data/feats_fmllr_tr05_cont.2.ark:31264257
026o0311 /scratch/ravanelm/exp/dirha/data-fmllr-tri4/tr05_cont/data/feats_fmllr_tr05_cont.4.ark:77529681
40hc0208 /scratch/ravanelm/exp/dirha/data-fmllr-tri4/tr05_cont/data/feats_fmllr_tr05_cont.10.ark:684657
020o030u /scratch/ravanelm/exp/dirha/data-fmllr-tri4/tr05_cont/data/feats_fmllr_tr05_cont.4.ark:43256505
40go0302 /scratch/ravanelm/exp/dirha/data-fmllr-tri4/tr05_cont/data/feats_fmllr_tr05_cont.9.ark:76204281
408c0217 /scratch/ravanelm/exp/dirha/data-fmllr-tri4/tr05_cont/data/feats_fmllr_tr05_cont.8.ark:59588649
409o0312 /scratch/ravanelm/exp/dirha/data-fmllr-tri4/tr05_cont/data/feats_fmllr_tr05_cont.8.ark:75576361
40kc021f /scratch/ravanelm/exp/dirha/data-fmllr-tri4/tr05_cont/data/feats_fmllr_tr05_cont.10.ark:41541073
40mo030u /scratch/ravanelm/exp/dirha/data-fmllr-tri4/tr05_cont/data/feats_fmllr_tr05_cont.10.ark:72363169
20lo0109 /scratch/ravanelm/exp/dirha/data-fmllr-tri4/tr05_cont/data/feats_fmllr_tr05_cont.7.ark:16008049
20mo010m /scratch/ravanelm/exp/dirha/data-fmllr-tri4/tr05_cont/data/feats_fmllr_tr05_cont.7.ark:24374705
017o030i /scratch/ravanelm/exp/dirha/data-fmllr-tri4/tr05_cont/data/feats_fmllr_tr05_cont.1.ark:65667105
405o0301 /scratch/ravanelm/exp/dirha/data-fmllr-tri4/tr05_cont/data/feats_fmllr_tr05_cont.8.ark:26124225
016o031b /scratch/ravanelm/exp/dirha/data-fmllr-tri4/tr05_cont/data/feats_fmllr_tr05_cont.1.ark:57847729
019o030w /scratch/ravanelm/exp/dirha/data-fmllr-tri4/tr05_cont/data/feats_fmllr_tr05_cont.1.ark:92478393
027o0307 /scratch/ravanelm/exp/dirha/data-fmllr-tri4/tr05_cont/data/feats_fmllr_tr05_cont.5.ark:6579665
207o0107 /scratch/ravanelm/exp/dirha/data-fmllr-tri4/tr05_cont/data/feats_fmllr_tr05_cont.6.ark:17501689
020o030n /scratch/ravanelm/exp/dirha/data-fmllr-tri4/tr05_cont/data/feats_fmllr_tr05_cont.4.ark:42652041
01bo030b /scratch/ravanelm/exp/dirha/data-fmllr-tri4/tr05_cont/data/feats_fmllr_tr05_cont.2.ark:7975865
011o0318 /scratch/ravanelm/exp/dirha/data-fmllr-tri4/tr05_cont/data/feats_fmllr_tr05_cont.1.ark:12531201
20tc010h /scratch/ravanelm/exp/dirha/data-fmllr-tri4/tr05_cont/data/feats_fmllr_tr05_cont.7.ark:59491777
40do0306 /scratch/ravanelm/exp/dirha/data-fmllr-tri4/tr05_cont/data/feats_fmllr_tr05_cont.9.ark:40913561
20ic0104 /scratch/ravanelm/exp/dirha/data-fmllr-tri4/tr05_cont/data/feats_fmllr_tr05_cont.7.ark:5371545
024c0213 /scratch/ravanelm/exp/dirha/data-fmllr-tri4/tr05_cont/data/feats_fmllr_tr05_cont.4.ark:60725417
01rc020d /scratch/ravanelm/exp/dirha/data-fmllr-tri4/tr05_cont/data/feats_fmllr_tr05_cont.3.ark:52912089
01jc0218 /scratch/ravanelm/exp/dirha/data-fmllr-tri4/tr05_cont/data/feats_fmllr_tr05_cont.2.ark:81067297
408c0209 /scratch/ravanelm/exp/dirha/data-fmllr-tri4/tr05_cont/data/feats_fmllr_tr05_cont.8.ark:56595057
407c020o /scratch/ravanelm/exp/dirha/data-fmllr-tri4/tr05_cont/data/feats_fmllr_tr05_cont.8.ark:45439257
01bc020i /scratch/ravanelm/exp/dirha/data-fmllr-tri4/tr05_cont/data/feats_fmllr_tr05_cont.2.ark:2274929
20bc010h /scratch/ravanelm/exp/dirha/data-fmllr-tri4/tr05_cont/data/feats_fmllr_tr05_cont.6.ark:41447121
020c020l /scratch/ravanelm/exp/dirha/data-fmllr-tri4/tr05_cont/data/feats_fmllr_tr05_cont.4.ark:39112833
40mo0318 /scratch/ravanelm/exp/dirha/data-fmllr-tri4/tr05_cont/data/feats_fmllr_tr05_cont.10.ark:74021905
40gc020y /scratch/ravanelm/exp/dirha/data-fmllr-tri4/tr05_cont/data/feats_fmllr_tr05_cont.9.ark:73112465
028c020a /scratch/ravanelm/exp/dirha/data-fmllr-tri4/tr05_cont/data/feats_fmllr_tr05_cont.5.ark:13271745
401o030k /scratch/ravanelm/exp/dirha/data-fmllr-tri4/tr05_cont/data/feats_fmllr_tr05_cont.7.ark:77909281
407c020n /scratch/ravanelm/exp/dirha/data-fmllr-tri4/tr05_cont/data/feats_fmllr_tr05_cont.8.ark:45283873
406c0212 /scratch/ravanelm/exp/dirha/data-fmllr-tri4/tr05_cont/data/feats_fmllr_tr05_cont.8.ark:35459913
01uc020e /scratch/ravanelm/exp/dirha/data-fmllr-tri4/tr05_cont/data/feats_fmllr_tr05_cont.3.ark:78576369
20io010o /scratch/ravanelm/exp/dirha/data-fmllr-tri4/tr05_cont/data/feats_fmllr_tr05_cont.7.ark:10938041
01wc0209 /scratch/ravanelm/exp/dirha/data-fmllr-tri4/tr05_cont/data/feats_fmllr_tr05_cont.4.ark:904041
401c020c /scratch/ravanelm/exp/dirha/data-fmllr-tri4/tr05_cont/data/feats_fmllr_tr05_cont.7.ark:70682265
021c020x /scratch/ravanelm/exp/dirha/data-fmllr-tri4/tr05_cont/data/feats_fmllr_tr05_cont.4.ark:48758345
019c0211 /scratch/ravanelm/exp/dirha/data-fmllr-tri4/tr05_cont/data/feats_fmllr_tr05_cont.1.ark:86745241
20go0104 /scratch/ravanelm/exp/dirha/data-fmllr-tri4/tr05_cont/data/feats_fmllr_tr05_cont.6.ark:75058897
40dc021c /scratch/ravanelm/exp/dirha/data-fmllr-tri4/tr05_cont/data/feats_fmllr_tr05_cont.9.ark:39802441
20do0104 /scratch/ravanelm/exp/dirha/data-fmllr-tri4/tr05_cont/data/feats_fmllr_tr05_cont.6.ark:56391593
013c020q /scratch/ravanelm/exp/dirha/data-fmllr-tri4/tr05_cont/data/feats_fmllr_tr05_cont.1.ark:17140473
403o030n /scratch/ravanelm/exp/dirha/data-fmllr-tri4/tr05_cont/data/feats_fmllr_tr05_cont.8.ark:7503841
20vo010c /scratch/ravanelm/exp/dirha/data-fmllr-tri4/tr05_cont/data/feats_fmllr_tr05_cont.7.ark:67114921
01ic021f /scratch/ravanelm/exp/dirha/data-fmllr-tri4/tr05_cont/data/feats_fmllr_tr05_cont.2.ark:68217177
20tc0101 /scratch/ravanelm/exp/dirha/data-fmllr-tri4/tr05_cont/data/feats_fmllr_tr05_cont.7.ark:57839553
016c0209 /scratch/ravanelm/exp/dirha/data-fmllr-tri4/tr05_cont/data/feats_fmllr_tr05_cont.1.ark:49511681
406c0215 /scratch/ravanelm/exp/dirha/data-fmllr-tri4/tr05_cont/data/feats_fmllr_tr05_cont.8.ark:35842865
01wo0306 /scratch/ravanelm/exp/dirha/data-fmllr-tri4/tr05_cont/data/feats_fmllr_tr05_cont.4.ark:5825489
01po030d /scratch/ravanelm/exp/dirha/data-fmllr-tri4/tr05_cont/data/feats_fmllr_tr05_cont.3.ark:34172929
01mc021f /scratch/ravanelm/exp/dirha/data-fmllr-tri4/tr05_cont/data/feats_fmllr_tr05_cont.3.ark:20234329
01kc0217 /scratch/ravanelm/exp/dirha/data-fmllr-tri4/tr05_cont/data/feats_fmllr_tr05_cont.2.ark:94874129
40ic020f /scratch/ravanelm/exp/dirha/data-fmllr-tri4/tr05_cont/data/feats_fmllr_tr05_cont.10.ark:13169465
40no0318 /scratch/ravanelm/exp/dirha/data-fmllr-tri4/tr05_cont/data/feats_fmllr_tr05_cont.10.ark:87099689
026c0204 /scratch/ravanelm/exp/dirha/data-fmllr-tri4/tr05_cont/data/feats_fmllr_tr05_cont.4.ark:68597241
027o030z /scratch/ravanelm/exp/dirha/data-fmllr-tri4/tr05_cont/data/feats_fmllr_tr05_cont.5.ark:10840657
20oc0109 /scratch/ravanelm/exp/dirha/data-fmllr-tri4/tr05_cont/data/feats_fmllr_tr05_cont.7.ark:33478393
20co010i /scratch/ravanelm/exp/dirha/data-fmllr-tri4/tr05_cont/data/feats_fmllr_tr05_cont.6.ark:51714225
01fo030r /scratch/ravanelm/exp/dirha/data-fmllr-tri4/tr05_cont/data/feats_fmllr_tr05_cont.2.ark:46952201
01dc020l /scratch/ravanelm/exp/dirha/data-fmllr-tri4/tr05_cont/data/feats_fmllr_tr05_cont.2.ark:16372297
01jc0214 /scratch/ravanelm/exp/dirha/data-fmllr-tri4/tr05_cont/data/feats_fmllr_tr05_cont.2.ark:80649441
20ac0101 /scratch/ravanelm/exp/dirha/data-fmllr-tri4/tr05_cont/data/feats_fmllr_tr05_cont.6.ark:32747297
20go010g /scratch/ravanelm/exp/dirha/data-fmllr-tri4/tr05_cont/data/feats_fmllr_tr05_cont.6.ark:76450545
02bo030c /scratch/ravanelm/exp/dirha/data-fmllr-tri4/tr05_cont/data/feats_fmllr_tr05_cont.5.ark:44419489
40mc0210 /scratch/ravanelm/exp/dirha/data-fmllr-tri4/tr05_cont/data/feats_fmllr_tr05_cont.10.ark:66320945
01to030z /scratch/ravanelm/exp/dirha/data-fmllr-tri4/tr05_cont/data/feats_fmllr_tr05_cont.3.ark:74222985
40cc0212 /scratch/ravanelm/exp/dirha/data-fmllr-tri4/tr05_cont/data/feats_fmllr_tr05_cont.9.ark:27891593
406c0218 /scratch/ravanelm/exp/dirha/data-fmllr-tri4/tr05_cont/data/feats_fmllr_tr05_cont.8.ark:36216377
40do030b /scratch/ravanelm/exp/dirha/data-fmllr-tri4/tr05_cont/data/feats_fmllr_tr05_cont.9.ark:41265361
018o030w /scratch/ravanelm/exp/dirha/data-fmllr-tri4/tr05_cont/data/feats_fmllr_tr05_cont.1.ark:80555009
01lo030b /scratch/ravanelm/exp/dirha/data-fmllr-tri4/tr05_cont/data/feats_fmllr_tr05_cont.3.ark:8224673
02co030p /scratch/ravanelm/exp/dirha/data-fmllr-tri4/tr05_cont/data/feats_fmllr_tr05_cont.5.ark:57979137
209c010d /scratch/ravanelm/exp/dirha/data-fmllr-tri4/tr05_cont/data/feats_fmllr_tr05_cont.6.ark:28306361
01qo0307 /scratch/ravanelm/exp/dirha/data-fmllr-tri4/tr05_cont/data/feats_fmllr_tr05_cont.3.ark:45637737
029c020i /scratch/ravanelm/exp/dirha/data-fmllr-tri4/tr05_cont/data/feats_fmllr_tr05_cont.5.ark:26536417
40dc0204 /scratch/ravanelm/exp/dirha/data-fmllr-tri4/tr05_cont/data/feats_fmllr_tr05_cont.9.ark:34662345
40kc020l /scratch/ravanelm/exp/dirha/data-fmllr-tri4/tr05_cont/data/feats_fmllr_tr05_cont.10.ark:38326273
014o0312 /scratch/ravanelm/exp/dirha/data-fmllr-tri4/tr05_cont/data/feats_fmllr_tr05_cont.1.ark:35881921
01eo0311 /scratch/ravanelm/exp/dirha/data-fmllr-tri4/tr05_cont/data/feats_fmllr_tr05_cont.2.ark:36046201
020o0316 /scratch/ravanelm/exp/dirha/data-fmllr-tri4/tr05_cont/data/feats_fmllr_tr05_cont.4.ark:44170985
020c020h /scratch/ravanelm/exp/dirha/data-fmllr-tri4/tr05_cont/data/feats_fmllr_tr05_cont.4.ark:38805857
01dc020x /scratch/ravanelm/exp/dirha/data-fmllr-tri4/tr05_cont/data/feats_fmllr_tr05_cont.2.ark:17617385
026c0215 /scratch/ravanelm/exp/dirha/data-fmllr-tri4/tr05_cont/data/feats_fmllr_tr05_cont.4.ark:71881489
020c021e /scratch/ravanelm/exp/dirha/data-fmllr-tri4/tr05_cont/data/feats_fmllr_tr05_cont.4.ark:41166649
40bc021a /scratch/ravanelm/exp/dirha/data-fmllr-tri4/tr05_cont/data/feats_fmllr_tr05_cont.9.ark:17195833
20ao010b /scratch/ravanelm/exp/dirha/data-fmllr-tri4/tr05_cont/data/feats_fmllr_tr05_cont.6.ark:37107153
01mo030a /scratch/ravanelm/exp/dirha/data-fmllr-tri4/tr05_cont/data/feats_fmllr_tr05_cont.3.ark:21655369
