01dc0219 /scratch/ravanelm/exp/dirha/data-fmllr-tri4/tr05_cont/data/feats_fmllr_tr05_cont.2.ark:18856233
40fo030c /scratch/ravanelm/exp/dirha/data-fmllr-tri4/tr05_cont/data/feats_fmllr_tr05_cont.9.ark:63411329
20ac0108 /scratch/ravanelm/exp/dirha/data-fmllr-tri4/tr05_cont/data/feats_fmllr_tr05_cont.6.ark:33591945
40nc0202 /scratch/ravanelm/exp/dirha/data-fmllr-tri4/tr05_cont/data/feats_fmllr_tr05_cont.10.ark:74939353
409c020n /scratch/ravanelm/exp/dirha/data-fmllr-tri4/tr05_cont/data/feats_fmllr_tr05_cont.8.ark:67955873
016o0305 /scratch/ravanelm/exp/dirha/data-fmllr-tri4/tr05_cont/data/feats_fmllr_tr05_cont.1.ark:53516529
40gc020d /scratch/ravanelm/exp/dirha/data-fmllr-tri4/tr05_cont/data/feats_fmllr_tr05_cont.9.ark:70557721
02eo030r /scratch/ravanelm/exp/dirha/data-fmllr-tri4/tr05_cont/data/feats_fmllr_tr05_cont.5.ark:71864145
20qo0108 /scratch/ravanelm/exp/dirha/data-fmllr-tri4/tr05_cont/data/feats_fmllr_tr05_cont.7.ark:48357577
20ho010g /scratch/ravanelm/exp/dirha/data-fmllr-tri4/tr05_cont/data/feats_fmllr_tr05_cont.7.ark:3842593
40po0312 /scratch/ravanelm/exp/dirha/data-fmllr-tri4/tr05_cont/data/feats_fmllr_tr05_cont.10.ark:97809625
01rc020d /scratch/ravanelm/exp/dirha/data-fmllr-tri4/tr05_cont/data/feats_fmllr_tr05_cont.3.ark:52912089
40fc0219 /scratch/ravanelm/exp/dirha/data-fmllr-tri4/tr05_cont/data/feats_fmllr_tr05_cont.9.ark:61182713
409c020t /scratch/ravanelm/exp/dirha/data-fmllr-tri4/tr05_cont/data/feats_fmllr_tr05_cont.8.ark:68735217
01bo0305 /scratch/ravanelm/exp/dirha/data-fmllr-tri4/tr05_cont/data/feats_fmllr_tr05_cont.2.ark:7029185
013c0217 /scratch/ravanelm/exp/dirha/data-fmllr-tri4/tr05_cont/data/feats_fmllr_tr05_cont.1.ark:18853521
40mc0219 /scratch/ravanelm/exp/dirha/data-fmllr-tri4/tr05_cont/data/feats_fmllr_tr05_cont.10.ark:67351561
016c0202 /scratch/ravanelm/exp/dirha/data-fmllr-tri4/tr05_cont/data/feats_fmllr_tr05_cont.1.ark:48797113
011c020l /scratch/ravanelm/exp/dirha/data-fmllr-tri4/tr05_cont/data/feats_fmllr_tr05_cont.1.ark:2098089
011o0317 /scratch/ravanelm/exp/dirha/data-fmllr-tri4/tr05_cont/data/feats_fmllr_tr05_cont.1.ark:12324937
01to031c /scratch/ravanelm/exp/dirha/data-fmllr-tri4/tr05_cont/data/feats_fmllr_tr05_cont.3.ark:76045377
20pc010k /scratch/ravanelm/exp/dirha/data-fmllr-tri4/tr05_cont/data/feats_fmllr_tr05_cont.7.ark:40257161
01eo0302 /scratch/ravanelm/exp/dirha/data-fmllr-tri4/tr05_cont/data/feats_fmllr_tr05_cont.2.ark:32053521
01mc020u /scratch/ravanelm/exp/dirha/data-fmllr-tri4/tr05_cont/data/feats_fmllr_tr05_cont.3.ark:18050305
01dc020j /scratch/ravanelm/exp/dirha/data-fmllr-tri4/tr05_cont/data/feats_fmllr_tr05_cont.2.ark:16187609
01ec020a /scratch/ravanelm/exp/dirha/data-fmllr-tri4/tr05_cont/data/feats_fmllr_tr05_cont.2.ark:27159073
407c020q /scratch/ravanelm/exp/dirha/data-fmllr-tri4/tr05_cont/data/feats_fmllr_tr05_cont.8.ark:45726505
405c0208 /scratch/ravanelm/exp/dirha/data-fmllr-tri4/tr05_cont/data/feats_fmllr_tr05_cont.8.ark:21916129
01yo030e /scratch/ravanelm/exp/dirha/data-fmllr-tri4/tr05_cont/data/feats_fmllr_tr05_cont.4.ark:18684881
20ec010e /scratch/ravanelm/exp/dirha/data-fmllr-tri4/tr05_cont/data/feats_fmllr_tr05_cont.6.ark:61317281
40dc020z /scratch/ravanelm/exp/dirha/data-fmllr-tri4/tr05_cont/data/feats_fmllr_tr05_cont.9.ark:38393009
01wc020l /scratch/ravanelm/exp/dirha/data-fmllr-tri4/tr05_cont/data/feats_fmllr_tr05_cont.4.ark:2360329
029o030v /scratch/ravanelm/exp/dirha/data-fmllr-tri4/tr05_cont/data/feats_fmllr_tr05_cont.5.ark:34355097
013o031a /scratch/ravanelm/exp/dirha/data-fmllr-tri4/tr05_cont/data/feats_fmllr_tr05_cont.1.ark:25165537
40mo030a /scratch/ravanelm/exp/dirha/data-fmllr-tri4/tr05_cont/data/feats_fmllr_tr05_cont.10.ark:69594689
01zc0207 /scratch/ravanelm/exp/dirha/data-fmllr-tri4/tr05_cont/data/feats_fmllr_tr05_cont.4.ark:24354825
40ec0204 /scratch/ravanelm/exp/dirha/data-fmllr-tri4/tr05_cont/data/feats_fmllr_tr05_cont.9.ark:46303489
407o030p /scratch/ravanelm/exp/dirha/data-fmllr-tri4/tr05_cont/data/feats_fmllr_tr05_cont.8.ark:52640897
01mc020r /scratch/ravanelm/exp/dirha/data-fmllr-tri4/tr05_cont/data/feats_fmllr_tr05_cont.3.ark:17714233
409o030a /scratch/ravanelm/exp/dirha/data-fmllr-tri4/tr05_cont/data/feats_fmllr_tr05_cont.8.ark:72234409
40lc020w /scratch/ravanelm/exp/dirha/data-fmllr-tri4/tr05_cont/data/feats_fmllr_tr05_cont.10.ark:51721577
40no030c /scratch/ravanelm/exp/dirha/data-fmllr-tri4/tr05_cont/data/feats_fmllr_tr05_cont.10.ark:82605321
40fc0208 /scratch/ravanelm/exp/dirha/data-fmllr-tri4/tr05_cont/data/feats_fmllr_tr05_cont.9.ark:56967745
01ic021c /scratch/ravanelm/exp/dirha/data-fmllr-tri4/tr05_cont/data/feats_fmllr_tr05_cont.2.ark:67900305
405o030w /scratch/ravanelm/exp/dirha/data-fmllr-tri4/tr05_cont/data/feats_fmllr_tr05_cont.8.ark:29624329
40mo0311 /scratch/ravanelm/exp/dirha/data-fmllr-tri4/tr05_cont/data/feats_fmllr_tr05_cont.10.ark:73288457
408c021h /scratch/ravanelm/exp/dirha/data-fmllr-tri4/tr05_cont/data/feats_fmllr_tr05_cont.8.ark:60373849
206o010l /scratch/ravanelm/exp/dirha/data-fmllr-tri4/tr05_cont/data/feats_fmllr_tr05_cont.6.ark:12580505
01ko030z /scratch/ravanelm/exp/dirha/data-fmllr-tri4/tr05_cont/data/feats_fmllr_tr05_cont.2.ark:101556257
20co010d /scratch/ravanelm/exp/dirha/data-fmllr-tri4/tr05_cont/data/feats_fmllr_tr05_cont.6.ark:51213945
40ic0201 /scratch/ravanelm/exp/dirha/data-fmllr-tri4/tr05_cont/data/feats_fmllr_tr05_cont.10.ark:11406569
01ro030g /scratch/ravanelm/exp/dirha/data-fmllr-tri4/tr05_cont/data/feats_fmllr_tr05_cont.3.ark:58847489
40jo031d /scratch/ravanelm/exp/dirha/data-fmllr-tri4/tr05_cont/data/feats_fmllr_tr05_cont.10.ark:35683801
026o030g /scratch/ravanelm/exp/dirha/data-fmllr-tri4/tr05_cont/data/feats_fmllr_tr05_cont.4.ark:74917337
01gc020b /scratch/ravanelm/exp/dirha/data-fmllr-tri4/tr05_cont/data/feats_fmllr_tr05_cont.2.ark:50818409
01go0311 /scratch/ravanelm/exp/dirha/data-fmllr-tri4/tr05_cont/data/feats_fmllr_tr05_cont.2.ark:60244553
018o0307 /scratch/ravanelm/exp/dirha/data-fmllr-tri4/tr05_cont/data/feats_fmllr_tr05_cont.1.ark:76766889
01mo0317 /scratch/ravanelm/exp/dirha/data-fmllr-tri4/tr05_cont/data/feats_fmllr_tr05_cont.3.ark:25636161
40kc0203 /scratch/ravanelm/exp/dirha/data-fmllr-tri4/tr05_cont/data/feats_fmllr_tr05_cont.10.ark:36225361
407c020g /scratch/ravanelm/exp/dirha/data-fmllr-tri4/tr05_cont/data/feats_fmllr_tr05_cont.8.ark:44504985
018o0306 /scratch/ravanelm/exp/dirha/data-fmllr-tri4/tr05_cont/data/feats_fmllr_tr05_cont.1.ark:76615185
20fo010i /scratch/ravanelm/exp/dirha/data-fmllr-tri4/tr05_cont/data/feats_fmllr_tr05_cont.6.ark:71505441
20fo0104 /scratch/ravanelm/exp/dirha/data-fmllr-tri4/tr05_cont/data/feats_fmllr_tr05_cont.6.ark:69696145
01uo031d /scratch/ravanelm/exp/dirha/data-fmllr-tri4/tr05_cont/data/feats_fmllr_tr05_cont.3.ark:90466753
014c020i /scratch/ravanelm/exp/dirha/data-fmllr-tri4/tr05_cont/data/feats_fmllr_tr05_cont.1.ark:27500489
01wc020f /scratch/ravanelm/exp/dirha/data-fmllr-tri4/tr05_cont/data/feats_fmllr_tr05_cont.4.ark:1620025
406c020i /scratch/ravanelm/exp/dirha/data-fmllr-tri4/tr05_cont/data/feats_fmllr_tr05_cont.8.ark:33774017
208o0108 /scratch/ravanelm/exp/dirha/data-fmllr-tri4/tr05_cont/data/feats_fmllr_tr05_cont.6.ark:24476793
20oc0108 /scratch/ravanelm/exp/dirha/data-fmllr-tri4/tr05_cont/data/feats_fmllr_tr05_cont.7.ark:33404769
01wc0204 /scratch/ravanelm/exp/dirha/data-fmllr-tri4/tr05_cont/data/feats_fmllr_tr05_cont.4.ark:318001
019c0207 /scratch/ravanelm/exp/dirha/data-fmllr-tri4/tr05_cont/data/feats_fmllr_tr05_cont.1.ark:83987881
01uo0306 /scratch/ravanelm/exp/dirha/data-fmllr-tri4/tr05_cont/data/feats_fmllr_tr05_cont.3.ark:84135641
02co030z /scratch/ravanelm/exp/dirha/data-fmllr-tri4/tr05_cont/data/feats_fmllr_tr05_cont.5.ark:59380337
408c021g /scratch/ravanelm/exp/dirha/data-fmllr-tri4/tr05_cont/data/feats_fmllr_tr05_cont.8.ark:60291585
01to0319 /scratch/ravanelm/exp/dirha/data-fmllr-tri4/tr05_cont/data/feats_fmllr_tr05_cont.3.ark:75674585
408c020o /scratch/ravanelm/exp/dirha/data-fmllr-tri4/tr05_cont/data/feats_fmllr_tr05_cont.8.ark:58009497
021c020t /scratch/ravanelm/exp/dirha/data-fmllr-tri4/tr05_cont/data/feats_fmllr_tr05_cont.4.ark:48413449
026c020g /scratch/ravanelm/exp/dirha/data-fmllr-tri4/tr05_cont/data/feats_fmllr_tr05_cont.4.ark:69666969
01ko0310 /scratch/ravanelm/exp/dirha/data-fmllr-tri4/tr05_cont/data/feats_fmllr_tr05_cont.2.ark:101671481
40mc0211 /scratch/ravanelm/exp/dirha/data-fmllr-tri4/tr05_cont/data/feats_fmllr_tr05_cont.10.ark:66437289
01qo030g /scratch/ravanelm/exp/dirha/data-fmllr-tri4/tr05_cont/data/feats_fmllr_tr05_cont.3.ark:46985153
013c0216 /scratch/ravanelm/exp/dirha/data-fmllr-tri4/tr05_cont/data/feats_fmllr_tr05_cont.1.ark:18714937
01ec020h /scratch/ravanelm/exp/dirha/data-fmllr-tri4/tr05_cont/data/feats_fmllr_tr05_cont.2.ark:27814281
409c021c /scratch/ravanelm/exp/dirha/data-fmllr-tri4/tr05_cont/data/feats_fmllr_tr05_cont.8.ark:70771193
02ec020l /scratch/ravanelm/exp/dirha/data-fmllr-tri4/tr05_cont/data/feats_fmllr_tr05_cont.5.ark:64459601
20cc0108 /scratch/ravanelm/exp/dirha/data-fmllr-tri4/tr05_cont/data/feats_fmllr_tr05_cont.6.ark:47708289
40mo030z /scratch/ravanelm/exp/dirha/data-fmllr-tri4/tr05_cont/data/feats_fmllr_tr05_cont.10.ark:72982009
016c020g /scratch/ravanelm/exp/dirha/data-fmllr-tri4/tr05_cont/data/feats_fmllr_tr05_cont.1.ark:50209609
011o0305 /scratch/ravanelm/exp/dirha/data-fmllr-tri4/tr05_cont/data/feats_fmllr_tr05_cont.1.ark:6270585
207c0102 /scratch/ravanelm/exp/dirha/data-fmllr-tri4/tr05_cont/data/feats_fmllr_tr05_cont.6.ark:14106481
01lo0316 /scratch/ravanelm/exp/dirha/data-fmllr-tri4/tr05_cont/data/feats_fmllr_tr05_cont.3.ark:13629417
40do030k /scratch/ravanelm/exp/dirha/data-fmllr-tri4/tr05_cont/data/feats_fmllr_tr05_cont.9.ark:42509577
209c010h /scratch/ravanelm/exp/dirha/data-fmllr-tri4/tr05_cont/data/feats_fmllr_tr05_cont.6.ark:28598297
01io0319 /scratch/ravanelm/exp/dirha/data-fmllr-tri4/tr05_cont/data/feats_fmllr_tr05_cont.2.ark:75147697
015o030i /scratch/ravanelm/exp/dirha/data-fmllr-tri4/tr05_cont/data/feats_fmllr_tr05_cont.1.ark:44716553
015o0307 /scratch/ravanelm/exp/dirha/data-fmllr-tri4/tr05_cont/data/feats_fmllr_tr05_cont.1.ark:43357249
028o0303 /scratch/ravanelm/exp/dirha/data-fmllr-tri4/tr05_cont/data/feats_fmllr_tr05_cont.5.ark:17920481
20gc0102 /scratch/ravanelm/exp/dirha/data-fmllr-tri4/tr05_cont/data/feats_fmllr_tr05_cont.6.ark:72579257
02bc020n /scratch/ravanelm/exp/dirha/data-fmllr-tri4/tr05_cont/data/feats_fmllr_tr05_cont.5.ark:39688609
019c020o /scratch/ravanelm/exp/dirha/data-fmllr-tri4/tr05_cont/data/feats_fmllr_tr05_cont.1.ark:85500929
01lc020e /scratch/ravanelm/exp/dirha/data-fmllr-tri4/tr05_cont/data/feats_fmllr_tr05_cont.3.ark:1874241
02ec020k /scratch/ravanelm/exp/dirha/data-fmllr-tri4/tr05_cont/data/feats_fmllr_tr05_cont.5.ark:64312857
406c0205 /scratch/ravanelm/exp/dirha/data-fmllr-tri4/tr05_cont/data/feats_fmllr_tr05_cont.8.ark:32335785
01ec020v /scratch/ravanelm/exp/dirha/data-fmllr-tri4/tr05_cont/data/feats_fmllr_tr05_cont.2.ark:29266617
01gc0205 /scratch/ravanelm/exp/dirha/data-fmllr-tri4/tr05_cont/data/feats_fmllr_tr05_cont.2.ark:50187545
409o030e /scratch/ravanelm/exp/dirha/data-fmllr-tri4/tr05_cont/data/feats_fmllr_tr05_cont.8.ark:72661545
01kc020o /scratch/ravanelm/exp/dirha/data-fmllr-tri4/tr05_cont/data/feats_fmllr_tr05_cont.2.ark:92469033
01to031f /scratch/ravanelm/exp/dirha/data-fmllr-tri4/tr05_cont/data/feats_fmllr_tr05_cont.3.ark:76554249
20ac0102 /scratch/ravanelm/exp/dirha/data-fmllr-tri4/tr05_cont/data/feats_fmllr_tr05_cont.6.ark:32827001
406c0214 /scratch/ravanelm/exp/dirha/data-fmllr-tri4/tr05_cont/data/feats_fmllr_tr05_cont.8.ark:35716441
01io0317 /scratch/ravanelm/exp/dirha/data-fmllr-tri4/tr05_cont/data/feats_fmllr_tr05_cont.2.ark:74927969
01go0314 /scratch/ravanelm/exp/dirha/data-fmllr-tri4/tr05_cont/data/feats_fmllr_tr05_cont.2.ark:60681745
20fo010b /scratch/ravanelm/exp/dirha/data-fmllr-tri4/tr05_cont/data/feats_fmllr_tr05_cont.6.ark:70770553
40gc020f /scratch/ravanelm/exp/dirha/data-fmllr-tri4/tr05_cont/data/feats_fmllr_tr05_cont.9.ark:70731849
40eo030g /scratch/ravanelm/exp/dirha/data-fmllr-tri4/tr05_cont/data/feats_fmllr_tr05_cont.9.ark:52741209
20dc010d /scratch/ravanelm/exp/dirha/data-fmllr-tri4/tr05_cont/data/feats_fmllr_tr05_cont.6.ark:54163689
02cc0201 /scratch/ravanelm/exp/dirha/data-fmllr-tri4/tr05_cont/data/feats_fmllr_tr05_cont.5.ark:49917249
02eo030k /scratch/ravanelm/exp/dirha/data-fmllr-tri4/tr05_cont/data/feats_fmllr_tr05_cont.5.ark:70785417
02bc020z /scratch/ravanelm/exp/dirha/data-fmllr-tri4/tr05_cont/data/feats_fmllr_tr05_cont.5.ark:40879297
20ic010e /scratch/ravanelm/exp/dirha/data-fmllr-tri4/tr05_cont/data/feats_fmllr_tr05_cont.7.ark:6506825
01io030a /scratch/ravanelm/exp/dirha/data-fmllr-tri4/tr05_cont/data/feats_fmllr_tr05_cont.2.ark:70005737
01qo0310 /scratch/ravanelm/exp/dirha/data-fmllr-tri4/tr05_cont/data/feats_fmllr_tr05_cont.3.ark:49555073
40no030n /scratch/ravanelm/exp/dirha/data-fmllr-tri4/tr05_cont/data/feats_fmllr_tr05_cont.10.ark:84163185
01do030z /scratch/ravanelm/exp/dirha/data-fmllr-tri4/tr05_cont/data/feats_fmllr_tr05_cont.2.ark:23883409
403c020s /scratch/ravanelm/exp/dirha/data-fmllr-tri4/tr05_cont/data/feats_fmllr_tr05_cont.8.ark:2314897
01ko0304 /scratch/ravanelm/exp/dirha/data-fmllr-tri4/tr05_cont/data/feats_fmllr_tr05_cont.2.ark:96582553
209o010f /scratch/ravanelm/exp/dirha/data-fmllr-tri4/tr05_cont/data/feats_fmllr_tr05_cont.6.ark:31405273
406o0314 /scratch/ravanelm/exp/dirha/data-fmllr-tri4/tr05_cont/data/feats_fmllr_tr05_cont.8.ark:41769185
01pc020f /scratch/ravanelm/exp/dirha/data-fmllr-tri4/tr05_cont/data/feats_fmllr_tr05_cont.3.ark:28296369
013o030h /scratch/ravanelm/exp/dirha/data-fmllr-tri4/tr05_cont/data/feats_fmllr_tr05_cont.1.ark:21530281
01go0307 /scratch/ravanelm/exp/dirha/data-fmllr-tri4/tr05_cont/data/feats_fmllr_tr05_cont.2.ark:56226073
016o030l /scratch/ravanelm/exp/dirha/data-fmllr-tri4/tr05_cont/data/feats_fmllr_tr05_cont.1.ark:55183905
02bc0219 /scratch/ravanelm/exp/dirha/data-fmllr-tri4/tr05_cont/data/feats_fmllr_tr05_cont.5.ark:41986417
01jo030y /scratch/ravanelm/exp/dirha/data-fmllr-tri4/tr05_cont/data/feats_fmllr_tr05_cont.2.ark:87049745
01kc020q /scratch/ravanelm/exp/dirha/data-fmllr-tri4/tr05_cont/data/feats_fmllr_tr05_cont.2.ark:92827801
20tc010d /scratch/ravanelm/exp/dirha/data-fmllr-tri4/tr05_cont/data/feats_fmllr_tr05_cont.7.ark:59029601
404c020b /scratch/ravanelm/exp/dirha/data-fmllr-tri4/tr05_cont/data/feats_fmllr_tr05_cont.8.ark:11644521
021o030l /scratch/ravanelm/exp/dirha/data-fmllr-tri4/tr05_cont/data/feats_fmllr_tr05_cont.4.ark:52783921
020c0208 /scratch/ravanelm/exp/dirha/data-fmllr-tri4/tr05_cont/data/feats_fmllr_tr05_cont.4.ark:37992681
01zo0309 /scratch/ravanelm/exp/dirha/data-fmllr-tri4/tr05_cont/data/feats_fmllr_tr05_cont.4.ark:30583937
40go0312 /scratch/ravanelm/exp/dirha/data-fmllr-tri4/tr05_cont/data/feats_fmllr_tr05_cont.9.ark:82480985
01go030p /scratch/ravanelm/exp/dirha/data-fmllr-tri4/tr05_cont/data/feats_fmllr_tr05_cont.2.ark:58625225
20ic010m /scratch/ravanelm/exp/dirha/data-fmllr-tri4/tr05_cont/data/feats_fmllr_tr05_cont.7.ark:7296137
027o030g /scratch/ravanelm/exp/dirha/data-fmllr-tri4/tr05_cont/data/feats_fmllr_tr05_cont.5.ark:7885161
01rc0205 /scratch/ravanelm/exp/dirha/data-fmllr-tri4/tr05_cont/data/feats_fmllr_tr05_cont.3.ark:52118617
40go0317 /scratch/ravanelm/exp/dirha/data-fmllr-tri4/tr05_cont/data/feats_fmllr_tr05_cont.9.ark:83372305
024c0214 /scratch/ravanelm/exp/dirha/data-fmllr-tri4/tr05_cont/data/feats_fmllr_tr05_cont.4.ark:60817761
01ic020s /scratch/ravanelm/exp/dirha/data-fmllr-tri4/tr05_cont/data/feats_fmllr_tr05_cont.2.ark:65979505
01to030g /scratch/ravanelm/exp/dirha/data-fmllr-tri4/tr05_cont/data/feats_fmllr_tr05_cont.3.ark:71615169
01lo030t /scratch/ravanelm/exp/dirha/data-fmllr-tri4/tr05_cont/data/feats_fmllr_tr05_cont.3.ark:11103665
01uc020p /scratch/ravanelm/exp/dirha/data-fmllr-tri4/tr05_cont/data/feats_fmllr_tr05_cont.3.ark:79906393
018o030h /scratch/ravanelm/exp/dirha/data-fmllr-tri4/tr05_cont/data/feats_fmllr_tr05_cont.1.ark:78127929
20qo0103 /scratch/ravanelm/exp/dirha/data-fmllr-tri4/tr05_cont/data/feats_fmllr_tr05_cont.7.ark:47599697
40co0303 /scratch/ravanelm/exp/dirha/data-fmllr-tri4/tr05_cont/data/feats_fmllr_tr05_cont.9.ark:29291793
407c0219 /scratch/ravanelm/exp/dirha/data-fmllr-tri4/tr05_cont/data/feats_fmllr_tr05_cont.8.ark:47755281
405o030l /scratch/ravanelm/exp/dirha/data-fmllr-tri4/tr05_cont/data/feats_fmllr_tr05_cont.8.ark:28345345
013c021b /scratch/ravanelm/exp/dirha/data-fmllr-tri4/tr05_cont/data/feats_fmllr_tr05_cont.1.ark:19216017
01pc0208 /scratch/ravanelm/exp/dirha/data-fmllr-tri4/tr05_cont/data/feats_fmllr_tr05_cont.3.ark:27309481
027c020h /scratch/ravanelm/exp/dirha/data-fmllr-tri4/tr05_cont/data/feats_fmllr_tr05_cont.5.ark:1813033
40pc020s /scratch/ravanelm/exp/dirha/data-fmllr-tri4/tr05_cont/data/feats_fmllr_tr05_cont.10.ark:90388641
01qo030d /scratch/ravanelm/exp/dirha/data-fmllr-tri4/tr05_cont/data/feats_fmllr_tr05_cont.3.ark:46505721
40bo030x /scratch/ravanelm/exp/dirha/data-fmllr-tri4/tr05_cont/data/feats_fmllr_tr05_cont.9.ark:22678849
026o0317 /scratch/ravanelm/exp/dirha/data-fmllr-tri4/tr05_cont/data/feats_fmllr_tr05_cont.4.ark:78269825
40cc0206 /scratch/ravanelm/exp/dirha/data-fmllr-tri4/tr05_cont/data/feats_fmllr_tr05_cont.9.ark:24996585
40ec021a /scratch/ravanelm/exp/dirha/data-fmllr-tri4/tr05_cont/data/feats_fmllr_tr05_cont.9.ark:49909777
20ro010n /scratch/ravanelm/exp/dirha/data-fmllr-tri4/tr05_cont/data/feats_fmllr_tr05_cont.7.ark:57149513
401c020o /scratch/ravanelm/exp/dirha/data-fmllr-tri4/tr05_cont/data/feats_fmllr_tr05_cont.7.ark:71920793
019o030q /scratch/ravanelm/exp/dirha/data-fmllr-tri4/tr05_cont/data/feats_fmllr_tr05_cont.1.ark:91744329
01mo030p /scratch/ravanelm/exp/dirha/data-fmllr-tri4/tr05_cont/data/feats_fmllr_tr05_cont.3.ark:23215089
406c020y /scratch/ravanelm/exp/dirha/data-fmllr-tri4/tr05_cont/data/feats_fmllr_tr05_cont.8.ark:35064457
40kc0205 /scratch/ravanelm/exp/dirha/data-fmllr-tri4/tr05_cont/data/feats_fmllr_tr05_cont.10.ark:36485889
02bc0203 /scratch/ravanelm/exp/dirha/data-fmllr-tri4/tr05_cont/data/feats_fmllr_tr05_cont.5.ark:37513569
01ic020v /scratch/ravanelm/exp/dirha/data-fmllr-tri4/tr05_cont/data/feats_fmllr_tr05_cont.2.ark:66318137
20hc010p /scratch/ravanelm/exp/dirha/data-fmllr-tri4/tr05_cont/data/feats_fmllr_tr05_cont.7.ark:1788745
20co010o /scratch/ravanelm/exp/dirha/data-fmllr-tri4/tr05_cont/data/feats_fmllr_tr05_cont.6.ark:52423489
02bc0201 /scratch/ravanelm/exp/dirha/data-fmllr-tri4/tr05_cont/data/feats_fmllr_tr05_cont.5.ark:37229201
20vc010g /scratch/ravanelm/exp/dirha/data-fmllr-tri4/tr05_cont/data/feats_fmllr_tr05_cont.7.ark:64984497
40pc020f /scratch/ravanelm/exp/dirha/data-fmllr-tri4/tr05_cont/data/feats_fmllr_tr05_cont.10.ark:89256489
01uo030q /scratch/ravanelm/exp/dirha/data-fmllr-tri4/tr05_cont/data/feats_fmllr_tr05_cont.3.ark:86844281
20mo010p /scratch/ravanelm/exp/dirha/data-fmllr-tri4/tr05_cont/data/feats_fmllr_tr05_cont.7.ark:24658937
02ec021d /scratch/ravanelm/exp/dirha/data-fmllr-tri4/tr05_cont/data/feats_fmllr_tr05_cont.5.ark:67795473
017c0212 /scratch/ravanelm/exp/dirha/data-fmllr-tri4/tr05_cont/data/feats_fmllr_tr05_cont.1.ark:62020417
024c020f /scratch/ravanelm/exp/dirha/data-fmllr-tri4/tr05_cont/data/feats_fmllr_tr05_cont.4.ark:58120681
01mc0216 /scratch/ravanelm/exp/dirha/data-fmllr-tri4/tr05_cont/data/feats_fmllr_tr05_cont.3.ark:19344353
020c020w /scratch/ravanelm/exp/dirha/data-fmllr-tri4/tr05_cont/data/feats_fmllr_tr05_cont.4.ark:39963177
01lc020l /scratch/ravanelm/exp/dirha/data-fmllr-tri4/tr05_cont/data/feats_fmllr_tr05_cont.3.ark:2785129
01bo0311 /scratch/ravanelm/exp/dirha/data-fmllr-tri4/tr05_cont/data/feats_fmllr_tr05_cont.2.ark:12308969
40bc0214 /scratch/ravanelm/exp/dirha/data-fmllr-tri4/tr05_cont/data/feats_fmllr_tr05_cont.9.ark:16573289
020o0306 /scratch/ravanelm/exp/dirha/data-fmllr-tri4/tr05_cont/data/feats_fmllr_tr05_cont.4.ark:41705353
01po031c /scratch/ravanelm/exp/dirha/data-fmllr-tri4/tr05_cont/data/feats_fmllr_tr05_cont.3.ark:39235505
011c0210 /scratch/ravanelm/exp/dirha/data-fmllr-tri4/tr05_cont/data/feats_fmllr_tr05_cont.1.ark:3893169
40po031e /scratch/ravanelm/exp/dirha/data-fmllr-tri4/tr05_cont/data/feats_fmllr_tr05_cont.10.ark:99216793
027o030j /scratch/ravanelm/exp/dirha/data-fmllr-tri4/tr05_cont/data/feats_fmllr_tr05_cont.5.ark:8519633
01wc020j /scratch/ravanelm/exp/dirha/data-fmllr-tri4/tr05_cont/data/feats_fmllr_tr05_cont.4.ark:2118361
40ho0314 /scratch/ravanelm/exp/dirha/data-fmllr-tri4/tr05_cont/data/feats_fmllr_tr05_cont.10.ark:10154009
40mc021b /scratch/ravanelm/exp/dirha/data-fmllr-tri4/tr05_cont/data/feats_fmllr_tr05_cont.10.ark:67505049
014o030w /scratch/ravanelm/exp/dirha/data-fmllr-tri4/tr05_cont/data/feats_fmllr_tr05_cont.1.ark:35145937
029o030y /scratch/ravanelm/exp/dirha/data-fmllr-tri4/tr05_cont/data/feats_fmllr_tr05_cont.5.ark:34870689
01do030j /scratch/ravanelm/exp/dirha/data-fmllr-tri4/tr05_cont/data/feats_fmllr_tr05_cont.2.ark:22110273
20lc0101 /scratch/ravanelm/exp/dirha/data-fmllr-tri4/tr05_cont/data/feats_fmllr_tr05_cont.7.ark:11202113
205c010d /scratch/ravanelm/exp/dirha/data-fmllr-tri4/tr05_cont/data/feats_fmllr_tr05_cont.6.ark:1452777
40co0308 /scratch/ravanelm/exp/dirha/data-fmllr-tri4/tr05_cont/data/feats_fmllr_tr05_cont.9.ark:29799913
01uo0319 /scratch/ravanelm/exp/dirha/data-fmllr-tri4/tr05_cont/data/feats_fmllr_tr05_cont.3.ark:90064417
01jc020s /scratch/ravanelm/exp/dirha/data-fmllr-tri4/tr05_cont/data/feats_fmllr_tr05_cont.2.ark:79081953
019o0303 /scratch/ravanelm/exp/dirha/data-fmllr-tri4/tr05_cont/data/feats_fmllr_tr05_cont.1.ark:88806177
028c020j /scratch/ravanelm/exp/dirha/data-fmllr-tri4/tr05_cont/data/feats_fmllr_tr05_cont.5.ark:14105561
027o030c /scratch/ravanelm/exp/dirha/data-fmllr-tri4/tr05_cont/data/feats_fmllr_tr05_cont.5.ark:7290985
40pc020m /scratch/ravanelm/exp/dirha/data-fmllr-tri4/tr05_cont/data/feats_fmllr_tr05_cont.10.ark:89945457
20tc010k /scratch/ravanelm/exp/dirha/data-fmllr-tri4/tr05_cont/data/feats_fmllr_tr05_cont.7.ark:59860489
01wc0208 /scratch/ravanelm/exp/dirha/data-fmllr-tri4/tr05_cont/data/feats_fmllr_tr05_cont.4.ark:775697
40jo0318 /scratch/ravanelm/exp/dirha/data-fmllr-tri4/tr05_cont/data/feats_fmllr_tr05_cont.10.ark:34884161
01zo0305 /scratch/ravanelm/exp/dirha/data-fmllr-tri4/tr05_cont/data/feats_fmllr_tr05_cont.4.ark:30113441
40dc0202 /scratch/ravanelm/exp/dirha/data-fmllr-tri4/tr05_cont/data/feats_fmllr_tr05_cont.9.ark:34431737
40eo030s /scratch/ravanelm/exp/dirha/data-fmllr-tri4/tr05_cont/data/feats_fmllr_tr05_cont.9.ark:54020057
01mc0210 /scratch/ravanelm/exp/dirha/data-fmllr-tri4/tr05_cont/data/feats_fmllr_tr05_cont.3.ark:18679089
40cc020k /scratch/ravanelm/exp/dirha/data-fmllr-tri4/tr05_cont/data/feats_fmllr_tr05_cont.9.ark:26421561
019o030b /scratch/ravanelm/exp/dirha/data-fmllr-tri4/tr05_cont/data/feats_fmllr_tr05_cont.1.ark:89879169
021o0304 /scratch/ravanelm/exp/dirha/data-fmllr-tri4/tr05_cont/data/feats_fmllr_tr05_cont.4.ark:50765753
40bo0315 /scratch/ravanelm/exp/dirha/data-fmllr-tri4/tr05_cont/data/feats_fmllr_tr05_cont.9.ark:23516433
015c020t /scratch/ravanelm/exp/dirha/data-fmllr-tri4/tr05_cont/data/feats_fmllr_tr05_cont.1.ark:40375521
014c0207 /scratch/ravanelm/exp/dirha/data-fmllr-tri4/tr05_cont/data/feats_fmllr_tr05_cont.1.ark:26462945
209o010b /scratch/ravanelm/exp/dirha/data-fmllr-tri4/tr05_cont/data/feats_fmllr_tr05_cont.6.ark:30860217
015o030o /scratch/ravanelm/exp/dirha/data-fmllr-tri4/tr05_cont/data/feats_fmllr_tr05_cont.1.ark:45791577
017c020r /scratch/ravanelm/exp/dirha/data-fmllr-tri4/tr05_cont/data/feats_fmllr_tr05_cont.1.ark:60893113
01lc0207 /scratch/ravanelm/exp/dirha/data-fmllr-tri4/tr05_cont/data/feats_fmllr_tr05_cont.3.ark:863033
20mo010s /scratch/ravanelm/exp/dirha/data-fmllr-tri4/tr05_cont/data/feats_fmllr_tr05_cont.7.ark:24965569
01lo031a /scratch/ravanelm/exp/dirha/data-fmllr-tri4/tr05_cont/data/feats_fmllr_tr05_cont.3.ark:14416393
20dc0106 /scratch/ravanelm/exp/dirha/data-fmllr-tri4/tr05_cont/data/feats_fmllr_tr05_cont.6.ark:53319681
020c020i /scratch/ravanelm/exp/dirha/data-fmllr-tri4/tr05_cont/data/feats_fmllr_tr05_cont.4.ark:38872601
014o0316 /scratch/ravanelm/exp/dirha/data-fmllr-tri4/tr05_cont/data/feats_fmllr_tr05_cont.1.ark:36359617
01lo030h /scratch/ravanelm/exp/dirha/data-fmllr-tri4/tr05_cont/data/feats_fmllr_tr05_cont.3.ark:9415377
01dc020p /scratch/ravanelm/exp/dirha/data-fmllr-tri4/tr05_cont/data/feats_fmllr_tr05_cont.2.ark:16805353
01dc020x /scratch/ravanelm/exp/dirha/data-fmllr-tri4/tr05_cont/data/feats_fmllr_tr05_cont.2.ark:17617385
40bo031c /scratch/ravanelm/exp/dirha/data-fmllr-tri4/tr05_cont/data/feats_fmllr_tr05_cont.9.ark:24363161
01yc0208 /scratch/ravanelm/exp/dirha/data-fmllr-tri4/tr05_cont/data/feats_fmllr_tr05_cont.4.ark:12166369
40ic0214 /scratch/ravanelm/exp/dirha/data-fmllr-tri4/tr05_cont/data/feats_fmllr_tr05_cont.10.ark:16003185
20fc010j /scratch/ravanelm/exp/dirha/data-fmllr-tri4/tr05_cont/data/feats_fmllr_tr05_cont.6.ark:68496521
018o0304 /scratch/ravanelm/exp/dirha/data-fmllr-tri4/tr05_cont/data/feats_fmllr_tr05_cont.1.ark:76295777
029c021c /scratch/ravanelm/exp/dirha/data-fmllr-tri4/tr05_cont/data/feats_fmllr_tr05_cont.5.ark:29766897
014o0312 /scratch/ravanelm/exp/dirha/data-fmllr-tri4/tr05_cont/data/feats_fmllr_tr05_cont.1.ark:35881921
401c0203 /scratch/ravanelm/exp/dirha/data-fmllr-tri4/tr05_cont/data/feats_fmllr_tr05_cont.7.ark:69435489
01ko0318 /scratch/ravanelm/exp/dirha/data-fmllr-tri4/tr05_cont/data/feats_fmllr_tr05_cont.2.ark:102918553
02ec020d /scratch/ravanelm/exp/dirha/data-fmllr-tri4/tr05_cont/data/feats_fmllr_tr05_cont.5.ark:63343089
01go030y /scratch/ravanelm/exp/dirha/data-fmllr-tri4/tr05_cont/data/feats_fmllr_tr05_cont.2.ark:59796481
206c0109 /scratch/ravanelm/exp/dirha/data-fmllr-tri4/tr05_cont/data/feats_fmllr_tr05_cont.6.ark:7832809
01lo031f /scratch/ravanelm/exp/dirha/data-fmllr-tri4/tr05_cont/data/feats_fmllr_tr05_cont.3.ark:15151393
01qo030n /scratch/ravanelm/exp/dirha/data-fmllr-tri4/tr05_cont/data/feats_fmllr_tr05_cont.3.ark:48001001
208c0103 /scratch/ravanelm/exp/dirha/data-fmllr-tri4/tr05_cont/data/feats_fmllr_tr05_cont.6.ark:20771433
40mc020v /scratch/ravanelm/exp/dirha/data-fmllr-tri4/tr05_cont/data/feats_fmllr_tr05_cont.10.ark:65811865
20io0102 /scratch/ravanelm/exp/dirha/data-fmllr-tri4/tr05_cont/data/feats_fmllr_tr05_cont.7.ark:7824553
207o0104 /scratch/ravanelm/exp/dirha/data-fmllr-tri4/tr05_cont/data/feats_fmllr_tr05_cont.6.ark:17010097
028o0305 /scratch/ravanelm/exp/dirha/data-fmllr-tri4/tr05_cont/data/feats_fmllr_tr05_cont.5.ark:18241969
01ec021d /scratch/ravanelm/exp/dirha/data-fmllr-tri4/tr05_cont/data/feats_fmllr_tr05_cont.2.ark:31467185
02eo030x /scratch/ravanelm/exp/dirha/data-fmllr-tri4/tr05_cont/data/feats_fmllr_tr05_cont.5.ark:72668769
011c0205 /scratch/ravanelm/exp/dirha/data-fmllr-tri4/tr05_cont/data/feats_fmllr_tr05_cont.1.ark:458185
40go0318 /scratch/ravanelm/exp/dirha/data-fmllr-tri4/tr05_cont/data/feats_fmllr_tr05_cont.9.ark:83540649
01gc020i /scratch/ravanelm/exp/dirha/data-fmllr-tri4/tr05_cont/data/feats_fmllr_tr05_cont.2.ark:51757297
01uc0207 /scratch/ravanelm/exp/dirha/data-fmllr-tri4/tr05_cont/data/feats_fmllr_tr05_cont.3.ark:77667721
01lo0317 /scratch/ravanelm/exp/dirha/data-fmllr-tri4/tr05_cont/data/feats_fmllr_tr05_cont.3.ark:13749761
014c021c /scratch/ravanelm/exp/dirha/data-fmllr-tri4/tr05_cont/data/feats_fmllr_tr05_cont.1.ark:30116089
40fo030h /scratch/ravanelm/exp/dirha/data-fmllr-tri4/tr05_cont/data/feats_fmllr_tr05_cont.9.ark:64086489
027o030x /scratch/ravanelm/exp/dirha/data-fmllr-tri4/tr05_cont/data/feats_fmllr_tr05_cont.5.ark:10486849
01eo0312 /scratch/ravanelm/exp/dirha/data-fmllr-tri4/tr05_cont/data/feats_fmllr_tr05_cont.2.ark:36145745
021o031b /scratch/ravanelm/exp/dirha/data-fmllr-tri4/tr05_cont/data/feats_fmllr_tr05_cont.4.ark:55938945
40cc0216 /scratch/ravanelm/exp/dirha/data-fmllr-tri4/tr05_cont/data/feats_fmllr_tr05_cont.9.ark:28240809
01mo030l /scratch/ravanelm/exp/dirha/data-fmllr-tri4/tr05_cont/data/feats_fmllr_tr05_cont.3.ark:22713233
028o030e /scratch/ravanelm/exp/dirha/data-fmllr-tri4/tr05_cont/data/feats_fmllr_tr05_cont.5.ark:19681065
021c0215 /scratch/ravanelm/exp/dirha/data-fmllr-tri4/tr05_cont/data/feats_fmllr_tr05_cont.4.ark:49447177
02cc0209 /scratch/ravanelm/exp/dirha/data-fmllr-tri4/tr05_cont/data/feats_fmllr_tr05_cont.5.ark:50916001
02bc021c /scratch/ravanelm/exp/dirha/data-fmllr-tri4/tr05_cont/data/feats_fmllr_tr05_cont.5.ark:42402009
019o030f /scratch/ravanelm/exp/dirha/data-fmllr-tri4/tr05_cont/data/feats_fmllr_tr05_cont.1.ark:90419745
02bo031c /scratch/ravanelm/exp/dirha/data-fmllr-tri4/tr05_cont/data/feats_fmllr_tr05_cont.5.ark:49392513
017c020h /scratch/ravanelm/exp/dirha/data-fmllr-tri4/tr05_cont/data/feats_fmllr_tr05_cont.1.ark:60080393
40gc0205 /scratch/ravanelm/exp/dirha/data-fmllr-tri4/tr05_cont/data/feats_fmllr_tr05_cont.9.ark:69367929
019c0201 /scratch/ravanelm/exp/dirha/data-fmllr-tri4/tr05_cont/data/feats_fmllr_tr05_cont.1.ark:83317657
019c020x /scratch/ravanelm/exp/dirha/data-fmllr-tri4/tr05_cont/data/feats_fmllr_tr05_cont.1.ark:86384345
01qc020m /scratch/ravanelm/exp/dirha/data-fmllr-tri4/tr05_cont/data/feats_fmllr_tr05_cont.3.ark:42079689
011o030h /scratch/ravanelm/exp/dirha/data-fmllr-tri4/tr05_cont/data/feats_fmllr_tr05_cont.1.ark:7950233
20qo010j /scratch/ravanelm/exp/dirha/data-fmllr-tri4/tr05_cont/data/feats_fmllr_tr05_cont.7.ark:49972881
01wc021b /scratch/ravanelm/exp/dirha/data-fmllr-tri4/tr05_cont/data/feats_fmllr_tr05_cont.4.ark:4877409
01lo031c /scratch/ravanelm/exp/dirha/data-fmllr-tri4/tr05_cont/data/feats_fmllr_tr05_cont.3.ark:14808601
20mo010e /scratch/ravanelm/exp/dirha/data-fmllr-tri4/tr05_cont/data/feats_fmllr_tr05_cont.7.ark:23593393
40gc020x /scratch/ravanelm/exp/dirha/data-fmllr-tri4/tr05_cont/data/feats_fmllr_tr05_cont.9.ark:73038041
408o030t /scratch/ravanelm/exp/dirha/data-fmllr-tri4/tr05_cont/data/feats_fmllr_tr05_cont.8.ark:63710865
01eo030b /scratch/ravanelm/exp/dirha/data-fmllr-tri4/tr05_cont/data/feats_fmllr_tr05_cont.2.ark:32834857
208c010i /scratch/ravanelm/exp/dirha/data-fmllr-tri4/tr05_cont/data/feats_fmllr_tr05_cont.6.ark:22479633
403o030m /scratch/ravanelm/exp/dirha/data-fmllr-tri4/tr05_cont/data/feats_fmllr_tr05_cont.8.ark:7408617
40bc020g /scratch/ravanelm/exp/dirha/data-fmllr-tri4/tr05_cont/data/feats_fmllr_tr05_cont.9.ark:14164873
011c0219 /scratch/ravanelm/exp/dirha/data-fmllr-tri4/tr05_cont/data/feats_fmllr_tr05_cont.1.ark:4936105
40mc020n /scratch/ravanelm/exp/dirha/data-fmllr-tri4/tr05_cont/data/feats_fmllr_tr05_cont.10.ark:65053913
20to010a /scratch/ravanelm/exp/dirha/data-fmllr-tri4/tr05_cont/data/feats_fmllr_tr05_cont.7.ark:61327113
407o030u /scratch/ravanelm/exp/dirha/data-fmllr-tri4/tr05_cont/data/feats_fmllr_tr05_cont.8.ark:53429337
01fc021b /scratch/ravanelm/exp/dirha/data-fmllr-tri4/tr05_cont/data/feats_fmllr_tr05_cont.2.ark:42764873
01jc0208 /scratch/ravanelm/exp/dirha/data-fmllr-tri4/tr05_cont/data/feats_fmllr_tr05_cont.2.ark:76853313
403c020j /scratch/ravanelm/exp/dirha/data-fmllr-tri4/tr05_cont/data/feats_fmllr_tr05_cont.8.ark:1544921
20vo0103 /scratch/ravanelm/exp/dirha/data-fmllr-tri4/tr05_cont/data/feats_fmllr_tr05_cont.7.ark:66038225
014c020h /scratch/ravanelm/exp/dirha/data-fmllr-tri4/tr05_cont/data/feats_fmllr_tr05_cont.1.ark:27382865
01go030e /scratch/ravanelm/exp/dirha/data-fmllr-tri4/tr05_cont/data/feats_fmllr_tr05_cont.2.ark:57135841
208c010k /scratch/ravanelm/exp/dirha/data-fmllr-tri4/tr05_cont/data/feats_fmllr_tr05_cont.6.ark:22688321
401o0317 /scratch/ravanelm/exp/dirha/data-fmllr-tri4/tr05_cont/data/feats_fmllr_tr05_cont.7.ark:81170769
20lc0108 /scratch/ravanelm/exp/dirha/data-fmllr-tri4/tr05_cont/data/feats_fmllr_tr05_cont.7.ark:12231081
20vc010j /scratch/ravanelm/exp/dirha/data-fmllr-tri4/tr05_cont/data/feats_fmllr_tr05_cont.7.ark:65311609
404c0210 /scratch/ravanelm/exp/dirha/data-fmllr-tri4/tr05_cont/data/feats_fmllr_tr05_cont.8.ark:14001121
40fc0216 /scratch/ravanelm/exp/dirha/data-fmllr-tri4/tr05_cont/data/feats_fmllr_tr05_cont.9.ark:60925841
01lo030w /scratch/ravanelm/exp/dirha/data-fmllr-tri4/tr05_cont/data/feats_fmllr_tr05_cont.3.ark:11520537
401o0310 /scratch/ravanelm/exp/dirha/data-fmllr-tri4/tr05_cont/data/feats_fmllr_tr05_cont.7.ark:80113665
403c020x /scratch/ravanelm/exp/dirha/data-fmllr-tri4/tr05_cont/data/feats_fmllr_tr05_cont.8.ark:2706857
404o0309 /scratch/ravanelm/exp/dirha/data-fmllr-tri4/tr05_cont/data/feats_fmllr_tr05_cont.8.ark:16535617
40fo030d /scratch/ravanelm/exp/dirha/data-fmllr-tri4/tr05_cont/data/feats_fmllr_tr05_cont.9.ark:63529593
01tc020j /scratch/ravanelm/exp/dirha/data-fmllr-tri4/tr05_cont/data/feats_fmllr_tr05_cont.3.ark:65416257
011o030s /scratch/ravanelm/exp/dirha/data-fmllr-tri4/tr05_cont/data/feats_fmllr_tr05_cont.1.ark:9632897
02bo030l /scratch/ravanelm/exp/dirha/data-fmllr-tri4/tr05_cont/data/feats_fmllr_tr05_cont.5.ark:45597785
20po010g /scratch/ravanelm/exp/dirha/data-fmllr-tri4/tr05_cont/data/feats_fmllr_tr05_cont.7.ark:42499265
40bo0316 /scratch/ravanelm/exp/dirha/data-fmllr-tri4/tr05_cont/data/feats_fmllr_tr05_cont.9.ark:23611817
017o030s /scratch/ravanelm/exp/dirha/data-fmllr-tri4/tr05_cont/data/feats_fmllr_tr05_cont.1.ark:66921105
40lc020a /scratch/ravanelm/exp/dirha/data-fmllr-tri4/tr05_cont/data/feats_fmllr_tr05_cont.10.ark:49227449
024c020n /scratch/ravanelm/exp/dirha/data-fmllr-tri4/tr05_cont/data/feats_fmllr_tr05_cont.4.ark:59002953
01tc0208 /scratch/ravanelm/exp/dirha/data-fmllr-tri4/tr05_cont/data/feats_fmllr_tr05_cont.3.ark:63906073
406o030c /scratch/ravanelm/exp/dirha/data-fmllr-tri4/tr05_cont/data/feats_fmllr_tr05_cont.8.ark:38093313
407c020b /scratch/ravanelm/exp/dirha/data-fmllr-tri4/tr05_cont/data/feats_fmllr_tr05_cont.8.ark:43880065
01po030z /scratch/ravanelm/exp/dirha/data-fmllr-tri4/tr05_cont/data/feats_fmllr_tr05_cont.3.ark:37431033
40hc020b /scratch/ravanelm/exp/dirha/data-fmllr-tri4/tr05_cont/data/feats_fmllr_tr05_cont.10.ark:1082329
20lc010c /scratch/ravanelm/exp/dirha/data-fmllr-tri4/tr05_cont/data/feats_fmllr_tr05_cont.7.ark:12711817
01io0309 /scratch/ravanelm/exp/dirha/data-fmllr-tri4/tr05_cont/data/feats_fmllr_tr05_cont.2.ark:69817233
20mc0105 /scratch/ravanelm/exp/dirha/data-fmllr-tri4/tr05_cont/data/feats_fmllr_tr05_cont.7.ark:19752257
01kc020n /scratch/ravanelm/exp/dirha/data-fmllr-tri4/tr05_cont/data/feats_fmllr_tr05_cont.2.ark:92431569
018c020i /scratch/ravanelm/exp/dirha/data-fmllr-tri4/tr05_cont/data/feats_fmllr_tr05_cont.1.ark:71615345
01dc0209 /scratch/ravanelm/exp/dirha/data-fmllr-tri4/tr05_cont/data/feats_fmllr_tr05_cont.2.ark:14954729
207c0104 /scratch/ravanelm/exp/dirha/data-fmllr-tri4/tr05_cont/data/feats_fmllr_tr05_cont.6.ark:14199969
40nc020w /scratch/ravanelm/exp/dirha/data-fmllr-tri4/tr05_cont/data/feats_fmllr_tr05_cont.10.ark:78458153
40bo0313 /scratch/ravanelm/exp/dirha/data-fmllr-tri4/tr05_cont/data/feats_fmllr_tr05_cont.9.ark:23228865
40lo0312 /scratch/ravanelm/exp/dirha/data-fmllr-tri4/tr05_cont/data/feats_fmllr_tr05_cont.10.ark:60839105
20to0109 /scratch/ravanelm/exp/dirha/data-fmllr-tri4/tr05_cont/data/feats_fmllr_tr05_cont.7.ark:61276849
016o0316 /scratch/ravanelm/exp/dirha/data-fmllr-tri4/tr05_cont/data/feats_fmllr_tr05_cont.1.ark:57383609
01wc020v /scratch/ravanelm/exp/dirha/data-fmllr-tri4/tr05_cont/data/feats_fmllr_tr05_cont.4.ark:3397529
20qo010f /scratch/ravanelm/exp/dirha/data-fmllr-tri4/tr05_cont/data/feats_fmllr_tr05_cont.7.ark:49422065
02cc020u /scratch/ravanelm/exp/dirha/data-fmllr-tri4/tr05_cont/data/feats_fmllr_tr05_cont.5.ark:52831041
207o010l /scratch/ravanelm/exp/dirha/data-fmllr-tri4/tr05_cont/data/feats_fmllr_tr05_cont.6.ark:19304585
403c0206 /scratch/ravanelm/exp/dirha/data-fmllr-tri4/tr05_cont/data/feats_fmllr_tr05_cont.8.ark:496929
01ko030c /scratch/ravanelm/exp/dirha/data-fmllr-tri4/tr05_cont/data/feats_fmllr_tr05_cont.2.ark:97824185
01wc0219 /scratch/ravanelm/exp/dirha/data-fmllr-tri4/tr05_cont/data/feats_fmllr_tr05_cont.4.ark:4706641
02cc021f /scratch/ravanelm/exp/dirha/data-fmllr-tri4/tr05_cont/data/feats_fmllr_tr05_cont.5.ark:54949577
204o010p /scratch/ravanelm/exp/dirha/data-fmllr-tri4/tr05_cont/data/feats_fmllr_tr05_cont.5.ark:80513577
408o0308 /scratch/ravanelm/exp/dirha/data-fmllr-tri4/tr05_cont/data/feats_fmllr_tr05_cont.8.ark:61335001
02eo0316 /scratch/ravanelm/exp/dirha/data-fmllr-tri4/tr05_cont/data/feats_fmllr_tr05_cont.5.ark:73880641
40fc0207 /scratch/ravanelm/exp/dirha/data-fmllr-tri4/tr05_cont/data/feats_fmllr_tr05_cont.9.ark:56817801
028o0318 /scratch/ravanelm/exp/dirha/data-fmllr-tri4/tr05_cont/data/feats_fmllr_tr05_cont.5.ark:23782745
024c020q /scratch/ravanelm/exp/dirha/data-fmllr-tri4/tr05_cont/data/feats_fmllr_tr05_cont.4.ark:59287025
405o030r /scratch/ravanelm/exp/dirha/data-fmllr-tri4/tr05_cont/data/feats_fmllr_tr05_cont.8.ark:28959889
40no0309 /scratch/ravanelm/exp/dirha/data-fmllr-tri4/tr05_cont/data/feats_fmllr_tr05_cont.10.ark:82210209
40go030o /scratch/ravanelm/exp/dirha/data-fmllr-tri4/tr05_cont/data/feats_fmllr_tr05_cont.9.ark:79652649
026o0318 /scratch/ravanelm/exp/dirha/data-fmllr-tri4/tr05_cont/data/feats_fmllr_tr05_cont.4.ark:78429529
01dc020f /scratch/ravanelm/exp/dirha/data-fmllr-tri4/tr05_cont/data/feats_fmllr_tr05_cont.2.ark:15660953
027c0215 /scratch/ravanelm/exp/dirha/data-fmllr-tri4/tr05_cont/data/feats_fmllr_tr05_cont.5.ark:4243689
407c020u /scratch/ravanelm/exp/dirha/data-fmllr-tri4/tr05_cont/data/feats_fmllr_tr05_cont.8.ark:46085161
027c0206 /scratch/ravanelm/exp/dirha/data-fmllr-tri4/tr05_cont/data/feats_fmllr_tr05_cont.5.ark:696609
019o030j /scratch/ravanelm/exp/dirha/data-fmllr-tri4/tr05_cont/data/feats_fmllr_tr05_cont.1.ark:91022401
01go031g /scratch/ravanelm/exp/dirha/data-fmllr-tri4/tr05_cont/data/feats_fmllr_tr05_cont.2.ark:62536273
01eo030g /scratch/ravanelm/exp/dirha/data-fmllr-tri4/tr05_cont/data/feats_fmllr_tr05_cont.2.ark:33390177
406o0301 /scratch/ravanelm/exp/dirha/data-fmllr-tri4/tr05_cont/data/feats_fmllr_tr05_cont.8.ark:36858649
01wc0210 /scratch/ravanelm/exp/dirha/data-fmllr-tri4/tr05_cont/data/feats_fmllr_tr05_cont.4.ark:3940049
40jc0219 /scratch/ravanelm/exp/dirha/data-fmllr-tri4/tr05_cont/data/feats_fmllr_tr05_cont.10.ark:28381865
20ec010h /scratch/ravanelm/exp/dirha/data-fmllr-tri4/tr05_cont/data/feats_fmllr_tr05_cont.6.ark:61716073
40ec020j /scratch/ravanelm/exp/dirha/data-fmllr-tri4/tr05_cont/data/feats_fmllr_tr05_cont.9.ark:47653609
01lo030c /scratch/ravanelm/exp/dirha/data-fmllr-tri4/tr05_cont/data/feats_fmllr_tr05_cont.3.ark:8469497
20eo010c /scratch/ravanelm/exp/dirha/data-fmllr-tri4/tr05_cont/data/feats_fmllr_tr05_cont.6.ark:64452529
018c020m /scratch/ravanelm/exp/dirha/data-fmllr-tri4/tr05_cont/data/feats_fmllr_tr05_cont.1.ark:72100401
40ic0203 /scratch/ravanelm/exp/dirha/data-fmllr-tri4/tr05_cont/data/feats_fmllr_tr05_cont.10.ark:11651737
029c021a /scratch/ravanelm/exp/dirha/data-fmllr-tri4/tr05_cont/data/feats_fmllr_tr05_cont.5.ark:29608129
01lo030m /scratch/ravanelm/exp/dirha/data-fmllr-tri4/tr05_cont/data/feats_fmllr_tr05_cont.3.ark:10378857
01wo0305 /scratch/ravanelm/exp/dirha/data-fmllr-tri4/tr05_cont/data/feats_fmllr_tr05_cont.4.ark:5756825
40dc0209 /scratch/ravanelm/exp/dirha/data-fmllr-tri4/tr05_cont/data/feats_fmllr_tr05_cont.9.ark:35167105
01lc020u /scratch/ravanelm/exp/dirha/data-fmllr-tri4/tr05_cont/data/feats_fmllr_tr05_cont.3.ark:3762305
02cc0202 /scratch/ravanelm/exp/dirha/data-fmllr-tri4/tr05_cont/data/feats_fmllr_tr05_cont.5.ark:50024313
01mo0309 /scratch/ravanelm/exp/dirha/data-fmllr-tri4/tr05_cont/data/feats_fmllr_tr05_cont.3.ark:21441425
01bc0213 /scratch/ravanelm/exp/dirha/data-fmllr-tri4/tr05_cont/data/feats_fmllr_tr05_cont.2.ark:4663225
20do010e /scratch/ravanelm/exp/dirha/data-fmllr-tri4/tr05_cont/data/feats_fmllr_tr05_cont.6.ark:57658713
40go0313 /scratch/ravanelm/exp/dirha/data-fmllr-tri4/tr05_cont/data/feats_fmllr_tr05_cont.9.ark:82668209
01ko031a /scratch/ravanelm/exp/dirha/data-fmllr-tri4/tr05_cont/data/feats_fmllr_tr05_cont.2.ark:103309321
20ao0102 /scratch/ravanelm/exp/dirha/data-fmllr-tri4/tr05_cont/data/feats_fmllr_tr05_cont.6.ark:35510457
01rc0207 /scratch/ravanelm/exp/dirha/data-fmllr-tri4/tr05_cont/data/feats_fmllr_tr05_cont.3.ark:52273705
403o030w /scratch/ravanelm/exp/dirha/data-fmllr-tri4/tr05_cont/data/feats_fmllr_tr05_cont.8.ark:8633337
40ec020w /scratch/ravanelm/exp/dirha/data-fmllr-tri4/tr05_cont/data/feats_fmllr_tr05_cont.9.ark:48680801
013o030q /scratch/ravanelm/exp/dirha/data-fmllr-tri4/tr05_cont/data/feats_fmllr_tr05_cont.1.ark:22755777
01eo030o /scratch/ravanelm/exp/dirha/data-fmllr-tri4/tr05_cont/data/feats_fmllr_tr05_cont.2.ark:34382049
024c020d /scratch/ravanelm/exp/dirha/data-fmllr-tri4/tr05_cont/data/feats_fmllr_tr05_cont.4.ark:57867993
40io031c /scratch/ravanelm/exp/dirha/data-fmllr-tri4/tr05_cont/data/feats_fmllr_tr05_cont.10.ark:23461561
021c0216 /scratch/ravanelm/exp/dirha/data-fmllr-tri4/tr05_cont/data/feats_fmllr_tr05_cont.4.ark:49520321
017o030l /scratch/ravanelm/exp/dirha/data-fmllr-tri4/tr05_cont/data/feats_fmllr_tr05_cont.1.ark:66009897
011c020b /scratch/ravanelm/exp/dirha/data-fmllr-tri4/tr05_cont/data/feats_fmllr_tr05_cont.1.ark:1006009
40bc020d /scratch/ravanelm/exp/dirha/data-fmllr-tri4/tr05_cont/data/feats_fmllr_tr05_cont.9.ark:13787361
01bc020j /scratch/ravanelm/exp/dirha/data-fmllr-tri4/tr05_cont/data/feats_fmllr_tr05_cont.2.ark:2409673
409o031a /scratch/ravanelm/exp/dirha/data-fmllr-tri4/tr05_cont/data/feats_fmllr_tr05_cont.8.ark:76409833
01qo030f /scratch/ravanelm/exp/dirha/data-fmllr-tri4/tr05_cont/data/feats_fmllr_tr05_cont.3.ark:46789129
02co031e /scratch/ravanelm/exp/dirha/data-fmllr-tri4/tr05_cont/data/feats_fmllr_tr05_cont.5.ark:61656377
408c021f /scratch/ravanelm/exp/dirha/data-fmllr-tri4/tr05_cont/data/feats_fmllr_tr05_cont.8.ark:60263561
015o030f /scratch/ravanelm/exp/dirha/data-fmllr-tri4/tr05_cont/data/feats_fmllr_tr05_cont.1.ark:44443681
026o030p /scratch/ravanelm/exp/dirha/data-fmllr-tri4/tr05_cont/data/feats_fmllr_tr05_cont.4.ark:76023153
206o010h /scratch/ravanelm/exp/dirha/data-fmllr-tri4/tr05_cont/data/feats_fmllr_tr05_cont.6.ark:11894649
01uc021d /scratch/ravanelm/exp/dirha/data-fmllr-tri4/tr05_cont/data/feats_fmllr_tr05_cont.3.ark:82900409
209c010l /scratch/ravanelm/exp/dirha/data-fmllr-tri4/tr05_cont/data/feats_fmllr_tr05_cont.6.ark:28919673
01yc0210 /scratch/ravanelm/exp/dirha/data-fmllr-tri4/tr05_cont/data/feats_fmllr_tr05_cont.4.ark:15312481
02bo0312 /scratch/ravanelm/exp/dirha/data-fmllr-tri4/tr05_cont/data/feats_fmllr_tr05_cont.5.ark:47993073
405o0317 /scratch/ravanelm/exp/dirha/data-fmllr-tri4/tr05_cont/data/feats_fmllr_tr05_cont.8.ark:30849393
20eo0103 /scratch/ravanelm/exp/dirha/data-fmllr-tri4/tr05_cont/data/feats_fmllr_tr05_cont.6.ark:62946073
01qo030j /scratch/ravanelm/exp/dirha/data-fmllr-tri4/tr05_cont/data/feats_fmllr_tr05_cont.3.ark:47359465
013o0318 /scratch/ravanelm/exp/dirha/data-fmllr-tri4/tr05_cont/data/feats_fmllr_tr05_cont.1.ark:24944529
40cc0201 /scratch/ravanelm/exp/dirha/data-fmllr-tri4/tr05_cont/data/feats_fmllr_tr05_cont.9.ark:24477425
019c020d /scratch/ravanelm/exp/dirha/data-fmllr-tri4/tr05_cont/data/feats_fmllr_tr05_cont.1.ark:84594745
20ac010o /scratch/ravanelm/exp/dirha/data-fmllr-tri4/tr05_cont/data/feats_fmllr_tr05_cont.6.ark:35228489
015c021g /scratch/ravanelm/exp/dirha/data-fmllr-tri4/tr05_cont/data/feats_fmllr_tr05_cont.1.ark:42417033
024o0317 /scratch/ravanelm/exp/dirha/data-fmllr-tri4/tr05_cont/data/feats_fmllr_tr05_cont.4.ark:66939833
40ac020s /scratch/ravanelm/exp/dirha/data-fmllr-tri4/tr05_cont/data/feats_fmllr_tr05_cont.9.ark:3605297
01ic020d /scratch/ravanelm/exp/dirha/data-fmllr-tri4/tr05_cont/data/feats_fmllr_tr05_cont.2.ark:64314185
404o030n /scratch/ravanelm/exp/dirha/data-fmllr-tri4/tr05_cont/data/feats_fmllr_tr05_cont.8.ark:18180273
013c0204 /scratch/ravanelm/exp/dirha/data-fmllr-tri4/tr05_cont/data/feats_fmllr_tr05_cont.1.ark:14392425
01bc020q /scratch/ravanelm/exp/dirha/data-fmllr-tri4/tr05_cont/data/feats_fmllr_tr05_cont.2.ark:3239737
20no010j /scratch/ravanelm/exp/dirha/data-fmllr-tri4/tr05_cont/data/feats_fmllr_tr05_cont.7.ark:31247585
018o030b /scratch/ravanelm/exp/dirha/data-fmllr-tri4/tr05_cont/data/feats_fmllr_tr05_cont.1.ark:77172745
018c021g /scratch/ravanelm/exp/dirha/data-fmllr-tri4/tr05_cont/data/feats_fmllr_tr05_cont.1.ark:75751521
021o031c /scratch/ravanelm/exp/dirha/data-fmllr-tri4/tr05_cont/data/feats_fmllr_tr05_cont.4.ark:56010169
01ro030x /scratch/ravanelm/exp/dirha/data-fmllr-tri4/tr05_cont/data/feats_fmllr_tr05_cont.3.ark:61132697
40hc020q /scratch/ravanelm/exp/dirha/data-fmllr-tri4/tr05_cont/data/feats_fmllr_tr05_cont.10.ark:2512609
20bo0101 /scratch/ravanelm/exp/dirha/data-fmllr-tri4/tr05_cont/data/feats_fmllr_tr05_cont.6.ark:42352593
01yc020d /scratch/ravanelm/exp/dirha/data-fmllr-tri4/tr05_cont/data/feats_fmllr_tr05_cont.4.ark:12734169
40jc020g /scratch/ravanelm/exp/dirha/data-fmllr-tri4/tr05_cont/data/feats_fmllr_tr05_cont.10.ark:25143569
40jc020h /scratch/ravanelm/exp/dirha/data-fmllr-tri4/tr05_cont/data/feats_fmllr_tr05_cont.10.ark:25269673
20co010h /scratch/ravanelm/exp/dirha/data-fmllr-tri4/tr05_cont/data/feats_fmllr_tr05_cont.6.ark:51547801
408c020q /scratch/ravanelm/exp/dirha/data-fmllr-tri4/tr05_cont/data/feats_fmllr_tr05_cont.8.ark:58231465
017o0305 /scratch/ravanelm/exp/dirha/data-fmllr-tri4/tr05_cont/data/feats_fmllr_tr05_cont.1.ark:64091913
021o030n /scratch/ravanelm/exp/dirha/data-fmllr-tri4/tr05_cont/data/feats_fmllr_tr05_cont.4.ark:53028769
405o030y /scratch/ravanelm/exp/dirha/data-fmllr-tri4/tr05_cont/data/feats_fmllr_tr05_cont.8.ark:29792057
40mo030m /scratch/ravanelm/exp/dirha/data-fmllr-tri4/tr05_cont/data/feats_fmllr_tr05_cont.10.ark:71196257
027c021c /scratch/ravanelm/exp/dirha/data-fmllr-tri4/tr05_cont/data/feats_fmllr_tr05_cont.5.ark:5196177
017c020a /scratch/ravanelm/exp/dirha/data-fmllr-tri4/tr05_cont/data/feats_fmllr_tr05_cont.1.ark:59441665
406o031d /scratch/ravanelm/exp/dirha/data-fmllr-tri4/tr05_cont/data/feats_fmllr_tr05_cont.8.ark:42839961
40mo030e /scratch/ravanelm/exp/dirha/data-fmllr-tri4/tr05_cont/data/feats_fmllr_tr05_cont.10.ark:70108865
206o010f /scratch/ravanelm/exp/dirha/data-fmllr-tri4/tr05_cont/data/feats_fmllr_tr05_cont.6.ark:11487241
020o030n /scratch/ravanelm/exp/dirha/data-fmllr-tri4/tr05_cont/data/feats_fmllr_tr05_cont.4.ark:42652041
40gc020q /scratch/ravanelm/exp/dirha/data-fmllr-tri4/tr05_cont/data/feats_fmllr_tr05_cont.9.ark:72094993
01pc020m /scratch/ravanelm/exp/dirha/data-fmllr-tri4/tr05_cont/data/feats_fmllr_tr05_cont.3.ark:28864537
40dc0211 /scratch/ravanelm/exp/dirha/data-fmllr-tri4/tr05_cont/data/feats_fmllr_tr05_cont.9.ark:38685537
40do030n /scratch/ravanelm/exp/dirha/data-fmllr-tri4/tr05_cont/data/feats_fmllr_tr05_cont.9.ark:42968369
026c0204 /scratch/ravanelm/exp/dirha/data-fmllr-tri4/tr05_cont/data/feats_fmllr_tr05_cont.4.ark:68597241
01mo030a /scratch/ravanelm/exp/dirha/data-fmllr-tri4/tr05_cont/data/feats_fmllr_tr05_cont.3.ark:21655369
40bo030l /scratch/ravanelm/exp/dirha/data-fmllr-tri4/tr05_cont/data/feats_fmllr_tr05_cont.9.ark:20905921
016o030d /scratch/ravanelm/exp/dirha/data-fmllr-tri4/tr05_cont/data/feats_fmllr_tr05_cont.1.ark:54360057
20po010j /scratch/ravanelm/exp/dirha/data-fmllr-tri4/tr05_cont/data/feats_fmllr_tr05_cont.7.ark:42970057
40ho0302 /scratch/ravanelm/exp/dirha/data-fmllr-tri4/tr05_cont/data/feats_fmllr_tr05_cont.10.ark:5201097
401o0309 /scratch/ravanelm/exp/dirha/data-fmllr-tri4/tr05_cont/data/feats_fmllr_tr05_cont.7.ark:76141177
026c0212 /scratch/ravanelm/exp/dirha/data-fmllr-tri4/tr05_cont/data/feats_fmllr_tr05_cont.4.ark:71652457
403o030d /scratch/ravanelm/exp/dirha/data-fmllr-tri4/tr05_cont/data/feats_fmllr_tr05_cont.8.ark:6433361
017c0202 /scratch/ravanelm/exp/dirha/data-fmllr-tri4/tr05_cont/data/feats_fmllr_tr05_cont.1.ark:58625953
405o030q /scratch/ravanelm/exp/dirha/data-fmllr-tri4/tr05_cont/data/feats_fmllr_tr05_cont.8.ark:28869465
01bc020r /scratch/ravanelm/exp/dirha/data-fmllr-tri4/tr05_cont/data/feats_fmllr_tr05_cont.2.ark:3463121
02cc020m /scratch/ravanelm/exp/dirha/data-fmllr-tri4/tr05_cont/data/feats_fmllr_tr05_cont.5.ark:52000609
01yo030z /scratch/ravanelm/exp/dirha/data-fmllr-tri4/tr05_cont/data/feats_fmllr_tr05_cont.4.ark:21666025
40do031c /scratch/ravanelm/exp/dirha/data-fmllr-tri4/tr05_cont/data/feats_fmllr_tr05_cont.9.ark:45857449
015c0205 /scratch/ravanelm/exp/dirha/data-fmllr-tri4/tr05_cont/data/feats_fmllr_tr05_cont.1.ark:37880705
403c021a /scratch/ravanelm/exp/dirha/data-fmllr-tri4/tr05_cont/data/feats_fmllr_tr05_cont.8.ark:3980289
40fc020w /scratch/ravanelm/exp/dirha/data-fmllr-tri4/tr05_cont/data/feats_fmllr_tr05_cont.9.ark:59773761
403o030x /scratch/ravanelm/exp/dirha/data-fmllr-tri4/tr05_cont/data/feats_fmllr_tr05_cont.8.ark:8729681
407c020h /scratch/ravanelm/exp/dirha/data-fmllr-tri4/tr05_cont/data/feats_fmllr_tr05_cont.8.ark:44586609
20hc010q /scratch/ravanelm/exp/dirha/data-fmllr-tri4/tr05_cont/data/feats_fmllr_tr05_cont.7.ark:1914529
015o0314 /scratch/ravanelm/exp/dirha/data-fmllr-tri4/tr05_cont/data/feats_fmllr_tr05_cont.1.ark:47778041
20co010l /scratch/ravanelm/exp/dirha/data-fmllr-tri4/tr05_cont/data/feats_fmllr_tr05_cont.6.ark:52058617
20do010k /scratch/ravanelm/exp/dirha/data-fmllr-tri4/tr05_cont/data/feats_fmllr_tr05_cont.6.ark:58536937
024o0305 /scratch/ravanelm/exp/dirha/data-fmllr-tri4/tr05_cont/data/feats_fmllr_tr05_cont.4.ark:62573481
01lo030v /scratch/ravanelm/exp/dirha/data-fmllr-tri4/tr05_cont/data/feats_fmllr_tr05_cont.3.ark:11375073
40do0305 /scratch/ravanelm/exp/dirha/data-fmllr-tri4/tr05_cont/data/feats_fmllr_tr05_cont.9.ark:40834337
407c0206 /scratch/ravanelm/exp/dirha/data-fmllr-tri4/tr05_cont/data/feats_fmllr_tr05_cont.8.ark:43478345
01ic0217 /scratch/ravanelm/exp/dirha/data-fmllr-tri4/tr05_cont/data/feats_fmllr_tr05_cont.2.ark:67450425
40hc020y /scratch/ravanelm/exp/dirha/data-fmllr-tri4/tr05_cont/data/feats_fmllr_tr05_cont.10.ark:3162561
01eo0315 /scratch/ravanelm/exp/dirha/data-fmllr-tri4/tr05_cont/data/feats_fmllr_tr05_cont.2.ark:36506617
020o0307 /scratch/ravanelm/exp/dirha/data-fmllr-tri4/tr05_cont/data/feats_fmllr_tr05_cont.4.ark:41846177
02co0314 /scratch/ravanelm/exp/dirha/data-fmllr-tri4/tr05_cont/data/feats_fmllr_tr05_cont.5.ark:59978217
01do0306 /scratch/ravanelm/exp/dirha/data-fmllr-tri4/tr05_cont/data/feats_fmllr_tr05_cont.2.ark:20345481
406o0303 /scratch/ravanelm/exp/dirha/data-fmllr-tri4/tr05_cont/data/feats_fmllr_tr05_cont.8.ark:37149737
01fc020s /scratch/ravanelm/exp/dirha/data-fmllr-tri4/tr05_cont/data/feats_fmllr_tr05_cont.2.ark:40731777
20tc0109 /scratch/ravanelm/exp/dirha/data-fmllr-tri4/tr05_cont/data/feats_fmllr_tr05_cont.7.ark:58677185
40mo0308 /scratch/ravanelm/exp/dirha/data-fmllr-tri4/tr05_cont/data/feats_fmllr_tr05_cont.10.ark:69383281
20nc0104 /scratch/ravanelm/exp/dirha/data-fmllr-tri4/tr05_cont/data/feats_fmllr_tr05_cont.7.ark:25471265
40nc0215 /scratch/ravanelm/exp/dirha/data-fmllr-tri4/tr05_cont/data/feats_fmllr_tr05_cont.10.ark:79527969
02cc020k /scratch/ravanelm/exp/dirha/data-fmllr-tri4/tr05_cont/data/feats_fmllr_tr05_cont.5.ark:51912745
40co030g /scratch/ravanelm/exp/dirha/data-fmllr-tri4/tr05_cont/data/feats_fmllr_tr05_cont.9.ark:30723465
01fo030c /scratch/ravanelm/exp/dirha/data-fmllr-tri4/tr05_cont/data/feats_fmllr_tr05_cont.2.ark:45135041
01tc020w /scratch/ravanelm/exp/dirha/data-fmllr-tri4/tr05_cont/data/feats_fmllr_tr05_cont.3.ark:67327929
20gc010h /scratch/ravanelm/exp/dirha/data-fmllr-tri4/tr05_cont/data/feats_fmllr_tr05_cont.6.ark:73933537
20lc010d /scratch/ravanelm/exp/dirha/data-fmllr-tri4/tr05_cont/data/feats_fmllr_tr05_cont.7.ark:12849761
20lc010k /scratch/ravanelm/exp/dirha/data-fmllr-tri4/tr05_cont/data/feats_fmllr_tr05_cont.7.ark:13751369
01go030a /scratch/ravanelm/exp/dirha/data-fmllr-tri4/tr05_cont/data/feats_fmllr_tr05_cont.2.ark:56603105
40co030f /scratch/ravanelm/exp/dirha/data-fmllr-tri4/tr05_cont/data/feats_fmllr_tr05_cont.9.ark:30579921
20eo010f /scratch/ravanelm/exp/dirha/data-fmllr-tri4/tr05_cont/data/feats_fmllr_tr05_cont.6.ark:64848761
011o030u /scratch/ravanelm/exp/dirha/data-fmllr-tri4/tr05_cont/data/feats_fmllr_tr05_cont.1.ark:9952945
01pc0218 /scratch/ravanelm/exp/dirha/data-fmllr-tri4/tr05_cont/data/feats_fmllr_tr05_cont.3.ark:31446025
027c020w /scratch/ravanelm/exp/dirha/data-fmllr-tri4/tr05_cont/data/feats_fmllr_tr05_cont.5.ark:3116113
40dc020i /scratch/ravanelm/exp/dirha/data-fmllr-tri4/tr05_cont/data/feats_fmllr_tr05_cont.9.ark:36282041
40dc0216 /scratch/ravanelm/exp/dirha/data-fmllr-tri4/tr05_cont/data/feats_fmllr_tr05_cont.9.ark:39216057
01fo030y /scratch/ravanelm/exp/dirha/data-fmllr-tri4/tr05_cont/data/feats_fmllr_tr05_cont.2.ark:47641969
206o010n /scratch/ravanelm/exp/dirha/data-fmllr-tri4/tr05_cont/data/feats_fmllr_tr05_cont.6.ark:12974153
40no0304 /scratch/ravanelm/exp/dirha/data-fmllr-tri4/tr05_cont/data/feats_fmllr_tr05_cont.10.ark:81362249
026o030d /scratch/ravanelm/exp/dirha/data-fmllr-tri4/tr05_cont/data/feats_fmllr_tr05_cont.4.ark:74562705
02bc0208 /scratch/ravanelm/exp/dirha/data-fmllr-tri4/tr05_cont/data/feats_fmllr_tr05_cont.5.ark:37944889
40pc020b /scratch/ravanelm/exp/dirha/data-fmllr-tri4/tr05_cont/data/feats_fmllr_tr05_cont.10.ark:88966633
01qc020t /scratch/ravanelm/exp/dirha/data-fmllr-tri4/tr05_cont/data/feats_fmllr_tr05_cont.3.ark:42613273
40bo0305 /scratch/ravanelm/exp/dirha/data-fmllr-tri4/tr05_cont/data/feats_fmllr_tr05_cont.9.ark:18730817
028c020y /scratch/ravanelm/exp/dirha/data-fmllr-tri4/tr05_cont/data/feats_fmllr_tr05_cont.5.ark:15644961
40bo030i /scratch/ravanelm/exp/dirha/data-fmllr-tri4/tr05_cont/data/feats_fmllr_tr05_cont.9.ark:20537209
20dc010c /scratch/ravanelm/exp/dirha/data-fmllr-tri4/tr05_cont/data/feats_fmllr_tr05_cont.6.ark:53985105
01io0307 /scratch/ravanelm/exp/dirha/data-fmllr-tri4/tr05_cont/data/feats_fmllr_tr05_cont.2.ark:69426785
408o0318 /scratch/ravanelm/exp/dirha/data-fmllr-tri4/tr05_cont/data/feats_fmllr_tr05_cont.8.ark:65188665
20bc0104 /scratch/ravanelm/exp/dirha/data-fmllr-tri4/tr05_cont/data/feats_fmllr_tr05_cont.6.ark:40072409
40ho031c /scratch/ravanelm/exp/dirha/data-fmllr-tri4/tr05_cont/data/feats_fmllr_tr05_cont.10.ark:11215161
01lo0301 /scratch/ravanelm/exp/dirha/data-fmllr-tri4/tr05_cont/data/feats_fmllr_tr05_cont.3.ark:6488753
021o031a /scratch/ravanelm/exp/dirha/data-fmllr-tri4/tr05_cont/data/feats_fmllr_tr05_cont.4.ark:55790441
40mo031a /scratch/ravanelm/exp/dirha/data-fmllr-tri4/tr05_cont/data/feats_fmllr_tr05_cont.10.ark:74229633
205c0107 /scratch/ravanelm/exp/dirha/data-fmllr-tri4/tr05_cont/data/feats_fmllr_tr05_cont.6.ark:616153
20ac0109 /scratch/ravanelm/exp/dirha/data-fmllr-tri4/tr05_cont/data/feats_fmllr_tr05_cont.6.ark:33730849
404o030p /scratch/ravanelm/exp/dirha/data-fmllr-tri4/tr05_cont/data/feats_fmllr_tr05_cont.8.ark:18416641
20ho010b /scratch/ravanelm/exp/dirha/data-fmllr-tri4/tr05_cont/data/feats_fmllr_tr05_cont.7.ark:3334313
40po030n /scratch/ravanelm/exp/dirha/data-fmllr-tri4/tr05_cont/data/feats_fmllr_tr05_cont.10.ark:95814545
40ec020m /scratch/ravanelm/exp/dirha/data-fmllr-tri4/tr05_cont/data/feats_fmllr_tr05_cont.9.ark:47901841
01go030n /scratch/ravanelm/exp/dirha/data-fmllr-tri4/tr05_cont/data/feats_fmllr_tr05_cont.2.ark:58419257
014c0217 /scratch/ravanelm/exp/dirha/data-fmllr-tri4/tr05_cont/data/feats_fmllr_tr05_cont.1.ark:29662689
409c021d /scratch/ravanelm/exp/dirha/data-fmllr-tri4/tr05_cont/data/feats_fmllr_tr05_cont.8.ark:70837777
01tc020y /scratch/ravanelm/exp/dirha/data-fmllr-tri4/tr05_cont/data/feats_fmllr_tr05_cont.3.ark:67609737
20co010m /scratch/ravanelm/exp/dirha/data-fmllr-tri4/tr05_cont/data/feats_fmllr_tr05_cont.6.ark:52127761
40hc020d /scratch/ravanelm/exp/dirha/data-fmllr-tri4/tr05_cont/data/feats_fmllr_tr05_cont.10.ark:1188297
029o030i /scratch/ravanelm/exp/dirha/data-fmllr-tri4/tr05_cont/data/feats_fmllr_tr05_cont.5.ark:32520545
019o030d /scratch/ravanelm/exp/dirha/data-fmllr-tri4/tr05_cont/data/feats_fmllr_tr05_cont.1.ark:90101777
028o030s /scratch/ravanelm/exp/dirha/data-fmllr-tri4/tr05_cont/data/feats_fmllr_tr05_cont.5.ark:21672601
02bc020l /scratch/ravanelm/exp/dirha/data-fmllr-tri4/tr05_cont/data/feats_fmllr_tr05_cont.5.ark:39453201
014c0203 /scratch/ravanelm/exp/dirha/data-fmllr-tri4/tr05_cont/data/feats_fmllr_tr05_cont.1.ark:26043009
40ao0317 /scratch/ravanelm/exp/dirha/data-fmllr-tri4/tr05_cont/data/feats_fmllr_tr05_cont.9.ark:11404137
013c020n /scratch/ravanelm/exp/dirha/data-fmllr-tri4/tr05_cont/data/feats_fmllr_tr05_cont.1.ark:16790641
406c020x /scratch/ravanelm/exp/dirha/data-fmllr-tri4/tr05_cont/data/feats_fmllr_tr05_cont.8.ark:34974833
20ao010e /scratch/ravanelm/exp/dirha/data-fmllr-tri4/tr05_cont/data/feats_fmllr_tr05_cont.6.ark:37625305
20vo010n /scratch/ravanelm/exp/dirha/data-fmllr-tri4/tr05_cont/data/feats_fmllr_tr05_cont.7.ark:68534385
20oc010a /scratch/ravanelm/exp/dirha/data-fmllr-tri4/tr05_cont/data/feats_fmllr_tr05_cont.7.ark:33627537
011o030l /scratch/ravanelm/exp/dirha/data-fmllr-tri4/tr05_cont/data/feats_fmllr_tr05_cont.1.ark:8778329
40no030y /scratch/ravanelm/exp/dirha/data-fmllr-tri4/tr05_cont/data/feats_fmllr_tr05_cont.10.ark:85504889
018o0309 /scratch/ravanelm/exp/dirha/data-fmllr-tri4/tr05_cont/data/feats_fmllr_tr05_cont.1.ark:76933657
01bo030x /scratch/ravanelm/exp/dirha/data-fmllr-tri4/tr05_cont/data/feats_fmllr_tr05_cont.2.ark:11706793
01do0316 /scratch/ravanelm/exp/dirha/data-fmllr-tri4/tr05_cont/data/feats_fmllr_tr05_cont.2.ark:24848217
01ic0215 /scratch/ravanelm/exp/dirha/data-fmllr-tri4/tr05_cont/data/feats_fmllr_tr05_cont.2.ark:67290857
40io031a /scratch/ravanelm/exp/dirha/data-fmllr-tri4/tr05_cont/data/feats_fmllr_tr05_cont.10.ark:23107593
407c020k /scratch/ravanelm/exp/dirha/data-fmllr-tri4/tr05_cont/data/feats_fmllr_tr05_cont.8.ark:45009721
403c0214 /scratch/ravanelm/exp/dirha/data-fmllr-tri4/tr05_cont/data/feats_fmllr_tr05_cont.8.ark:3414865
20bc0103 /scratch/ravanelm/exp/dirha/data-fmllr-tri4/tr05_cont/data/feats_fmllr_tr05_cont.6.ark:40029185
01do0314 /scratch/ravanelm/exp/dirha/data-fmllr-tri4/tr05_cont/data/feats_fmllr_tr05_cont.2.ark:24540009
021c021a /scratch/ravanelm/exp/dirha/data-fmllr-tri4/tr05_cont/data/feats_fmllr_tr05_cont.4.ark:49942817
40mc020o /scratch/ravanelm/exp/dirha/data-fmllr-tri4/tr05_cont/data/feats_fmllr_tr05_cont.10.ark:65168977
011c020g /scratch/ravanelm/exp/dirha/data-fmllr-tri4/tr05_cont/data/feats_fmllr_tr05_cont.1.ark:1547569
409c020d /scratch/ravanelm/exp/dirha/data-fmllr-tri4/tr05_cont/data/feats_fmllr_tr05_cont.8.ark:66846993
20nc0101 /scratch/ravanelm/exp/dirha/data-fmllr-tri4/tr05_cont/data/feats_fmllr_tr05_cont.7.ark:25156953
20ec0102 /scratch/ravanelm/exp/dirha/data-fmllr-tri4/tr05_cont/data/feats_fmllr_tr05_cont.6.ark:59985153
20ac010a /scratch/ravanelm/exp/dirha/data-fmllr-tri4/tr05_cont/data/feats_fmllr_tr05_cont.6.ark:33885753
02eo030h /scratch/ravanelm/exp/dirha/data-fmllr-tri4/tr05_cont/data/feats_fmllr_tr05_cont.5.ark:70380225
40no030z /scratch/ravanelm/exp/dirha/data-fmllr-tri4/tr05_cont/data/feats_fmllr_tr05_cont.10.ark:85602833
01rc020i /scratch/ravanelm/exp/dirha/data-fmllr-tri4/tr05_cont/data/feats_fmllr_tr05_cont.3.ark:53585489
01uc0201 /scratch/ravanelm/exp/dirha/data-fmllr-tri4/tr05_cont/data/feats_fmllr_tr05_cont.3.ark:76905337
02eo030o /scratch/ravanelm/exp/dirha/data-fmllr-tri4/tr05_cont/data/feats_fmllr_tr05_cont.5.ark:71505833
40ko0304 /scratch/ravanelm/exp/dirha/data-fmllr-tri4/tr05_cont/data/feats_fmllr_tr05_cont.10.ark:42038633
01uc0219 /scratch/ravanelm/exp/dirha/data-fmllr-tri4/tr05_cont/data/feats_fmllr_tr05_cont.3.ark:82431353
02bo0302 /scratch/ravanelm/exp/dirha/data-fmllr-tri4/tr05_cont/data/feats_fmllr_tr05_cont.5.ark:42940689
20qo010h /scratch/ravanelm/exp/dirha/data-fmllr-tri4/tr05_cont/data/feats_fmllr_tr05_cont.7.ark:49693473
40bc020b /scratch/ravanelm/exp/dirha/data-fmllr-tri4/tr05_cont/data/feats_fmllr_tr05_cont.9.ark:13541233
02bo0309 /scratch/ravanelm/exp/dirha/data-fmllr-tri4/tr05_cont/data/feats_fmllr_tr05_cont.5.ark:43986617
016c0204 /scratch/ravanelm/exp/dirha/data-fmllr-tri4/tr05_cont/data/feats_fmllr_tr05_cont.1.ark:48927401
01bo030k /scratch/ravanelm/exp/dirha/data-fmllr-tri4/tr05_cont/data/feats_fmllr_tr05_cont.2.ark:9612241
40lc021e /scratch/ravanelm/exp/dirha/data-fmllr-tri4/tr05_cont/data/feats_fmllr_tr05_cont.10.ark:54205049
01gc020a /scratch/ravanelm/exp/dirha/data-fmllr-tri4/tr05_cont/data/feats_fmllr_tr05_cont.2.ark:50725745
01uc021b /scratch/ravanelm/exp/dirha/data-fmllr-tri4/tr05_cont/data/feats_fmllr_tr05_cont.3.ark:82617801
401o030r /scratch/ravanelm/exp/dirha/data-fmllr-tri4/tr05_cont/data/feats_fmllr_tr05_cont.7.ark:78999529
40eo030w /scratch/ravanelm/exp/dirha/data-fmllr-tri4/tr05_cont/data/feats_fmllr_tr05_cont.9.ark:54426233
01lc0212 /scratch/ravanelm/exp/dirha/data-fmllr-tri4/tr05_cont/data/feats_fmllr_tr05_cont.3.ark:4547297
015c0209 /scratch/ravanelm/exp/dirha/data-fmllr-tri4/tr05_cont/data/feats_fmllr_tr05_cont.1.ark:38303041
018o030o /scratch/ravanelm/exp/dirha/data-fmllr-tri4/tr05_cont/data/feats_fmllr_tr05_cont.1.ark:79342657
40nc020u /scratch/ravanelm/exp/dirha/data-fmllr-tri4/tr05_cont/data/feats_fmllr_tr05_cont.10.ark:78289145
20po010a /scratch/ravanelm/exp/dirha/data-fmllr-tri4/tr05_cont/data/feats_fmllr_tr05_cont.7.ark:41945521
20lo0109 /scratch/ravanelm/exp/dirha/data-fmllr-tri4/tr05_cont/data/feats_fmllr_tr05_cont.7.ark:16008049
403c0207 /scratch/ravanelm/exp/dirha/data-fmllr-tri4/tr05_cont/data/feats_fmllr_tr05_cont.8.ark:530553
01do0318 /scratch/ravanelm/exp/dirha/data-fmllr-tri4/tr05_cont/data/feats_fmllr_tr05_cont.2.ark:25096905
406o030m /scratch/ravanelm/exp/dirha/data-fmllr-tri4/tr05_cont/data/feats_fmllr_tr05_cont.8.ark:39336113
40no0303 /scratch/ravanelm/exp/dirha/data-fmllr-tri4/tr05_cont/data/feats_fmllr_tr05_cont.10.ark:81207825
40jc020u /scratch/ravanelm/exp/dirha/data-fmllr-tri4/tr05_cont/data/feats_fmllr_tr05_cont.10.ark:26699265
405c020l /scratch/ravanelm/exp/dirha/data-fmllr-tri4/tr05_cont/data/feats_fmllr_tr05_cont.8.ark:23303961
40ko0302 /scratch/ravanelm/exp/dirha/data-fmllr-tri4/tr05_cont/data/feats_fmllr_tr05_cont.10.ark:41802265
407o030c /scratch/ravanelm/exp/dirha/data-fmllr-tri4/tr05_cont/data/feats_fmllr_tr05_cont.8.ark:50513545
01zc020i /scratch/ravanelm/exp/dirha/data-fmllr-tri4/tr05_cont/data/feats_fmllr_tr05_cont.4.ark:25574769
01tc020q /scratch/ravanelm/exp/dirha/data-fmllr-tri4/tr05_cont/data/feats_fmllr_tr05_cont.3.ark:66416905
407o030q /scratch/ravanelm/exp/dirha/data-fmllr-tri4/tr05_cont/data/feats_fmllr_tr05_cont.8.ark:52762681
40po030l /scratch/ravanelm/exp/dirha/data-fmllr-tri4/tr05_cont/data/feats_fmllr_tr05_cont.10.ark:95549537
01yo0318 /scratch/ravanelm/exp/dirha/data-fmllr-tri4/tr05_cont/data/feats_fmllr_tr05_cont.4.ark:22802561
01yo030w /scratch/ravanelm/exp/dirha/data-fmllr-tri4/tr05_cont/data/feats_fmllr_tr05_cont.4.ark:21211233
01ko031c /scratch/ravanelm/exp/dirha/data-fmllr-tri4/tr05_cont/data/feats_fmllr_tr05_cont.2.ark:103580249
40jo030o /scratch/ravanelm/exp/dirha/data-fmllr-tri4/tr05_cont/data/feats_fmllr_tr05_cont.10.ark:32391521
40kc0218 /scratch/ravanelm/exp/dirha/data-fmllr-tri4/tr05_cont/data/feats_fmllr_tr05_cont.10.ark:40698505
208o010c /scratch/ravanelm/exp/dirha/data-fmllr-tri4/tr05_cont/data/feats_fmllr_tr05_cont.6.ark:24983129
40ko0308 /scratch/ravanelm/exp/dirha/data-fmllr-tri4/tr05_cont/data/feats_fmllr_tr05_cont.10.ark:42403849
40nc020k /scratch/ravanelm/exp/dirha/data-fmllr-tri4/tr05_cont/data/feats_fmllr_tr05_cont.10.ark:77030665
40pc0219 /scratch/ravanelm/exp/dirha/data-fmllr-tri4/tr05_cont/data/feats_fmllr_tr05_cont.10.ark:92179929
407o0315 /scratch/ravanelm/exp/dirha/data-fmllr-tri4/tr05_cont/data/feats_fmllr_tr05_cont.8.ark:55058081
02eo030b /scratch/ravanelm/exp/dirha/data-fmllr-tri4/tr05_cont/data/feats_fmllr_tr05_cont.5.ark:69568081
01ic0210 /scratch/ravanelm/exp/dirha/data-fmllr-tri4/tr05_cont/data/feats_fmllr_tr05_cont.2.ark:66774257
403o030n /scratch/ravanelm/exp/dirha/data-fmllr-tri4/tr05_cont/data/feats_fmllr_tr05_cont.8.ark:7503841
01lc020t /scratch/ravanelm/exp/dirha/data-fmllr-tri4/tr05_cont/data/feats_fmllr_tr05_cont.3.ark:3595081
01ec0202 /scratch/ravanelm/exp/dirha/data-fmllr-tri4/tr05_cont/data/feats_fmllr_tr05_cont.2.ark:26176961
20bc010i /scratch/ravanelm/exp/dirha/data-fmllr-tri4/tr05_cont/data/feats_fmllr_tr05_cont.6.ark:41531625
02co030o /scratch/ravanelm/exp/dirha/data-fmllr-tri4/tr05_cont/data/feats_fmllr_tr05_cont.5.ark:57877353
011c020a /scratch/ravanelm/exp/dirha/data-fmllr-tri4/tr05_cont/data/feats_fmllr_tr05_cont.1.ark:883905
02cc021c /scratch/ravanelm/exp/dirha/data-fmllr-tri4/tr05_cont/data/feats_fmllr_tr05_cont.5.ark:54652385
40bc021f /scratch/ravanelm/exp/dirha/data-fmllr-tri4/tr05_cont/data/feats_fmllr_tr05_cont.9.ark:17873233
407c021d /scratch/ravanelm/exp/dirha/data-fmllr-tri4/tr05_cont/data/feats_fmllr_tr05_cont.8.ark:48246417
40ec021d /scratch/ravanelm/exp/dirha/data-fmllr-tri4/tr05_cont/data/feats_fmllr_tr05_cont.9.ark:50258969
01qo0313 /scratch/ravanelm/exp/dirha/data-fmllr-tri4/tr05_cont/data/feats_fmllr_tr05_cont.3.ark:49980105
208c010j /scratch/ravanelm/exp/dirha/data-fmllr-tri4/tr05_cont/data/feats_fmllr_tr05_cont.6.ark:22556137
40gc020p /scratch/ravanelm/exp/dirha/data-fmllr-tri4/tr05_cont/data/feats_fmllr_tr05_cont.9.ark:72048889
40bo030d /scratch/ravanelm/exp/dirha/data-fmllr-tri4/tr05_cont/data/feats_fmllr_tr05_cont.9.ark:19714049
01qc0208 /scratch/ravanelm/exp/dirha/data-fmllr-tri4/tr05_cont/data/feats_fmllr_tr05_cont.3.ark:40378097
20cc0105 /scratch/ravanelm/exp/dirha/data-fmllr-tri4/tr05_cont/data/feats_fmllr_tr05_cont.6.ark:47321657
205c010g /scratch/ravanelm/exp/dirha/data-fmllr-tri4/tr05_cont/data/feats_fmllr_tr05_cont.6.ark:1748849
40eo030x /scratch/ravanelm/exp/dirha/data-fmllr-tri4/tr05_cont/data/feats_fmllr_tr05_cont.9.ark:54583217
01pc020o /scratch/ravanelm/exp/dirha/data-fmllr-tri4/tr05_cont/data/feats_fmllr_tr05_cont.3.ark:29083785
20no010h /scratch/ravanelm/exp/dirha/data-fmllr-tri4/tr05_cont/data/feats_fmllr_tr05_cont.7.ark:30885617
40lc021a /scratch/ravanelm/exp/dirha/data-fmllr-tri4/tr05_cont/data/feats_fmllr_tr05_cont.10.ark:53621913
40co0306 /scratch/ravanelm/exp/dirha/data-fmllr-tri4/tr05_cont/data/feats_fmllr_tr05_cont.9.ark:29598585
02ec0206 /scratch/ravanelm/exp/dirha/data-fmllr-tri4/tr05_cont/data/feats_fmllr_tr05_cont.5.ark:62464041
40hc0202 /scratch/ravanelm/exp/dirha/data-fmllr-tri4/tr05_cont/data/feats_fmllr_tr05_cont.10.ark:30113
40ko0319 /scratch/ravanelm/exp/dirha/data-fmllr-tri4/tr05_cont/data/feats_fmllr_tr05_cont.10.ark:47425537
017c020q /scratch/ravanelm/exp/dirha/data-fmllr-tri4/tr05_cont/data/feats_fmllr_tr05_cont.1.ark:60819329
20to0106 /scratch/ravanelm/exp/dirha/data-fmllr-tri4/tr05_cont/data/feats_fmllr_tr05_cont.7.ark:61027497
40cc020y /scratch/ravanelm/exp/dirha/data-fmllr-tri4/tr05_cont/data/feats_fmllr_tr05_cont.9.ark:27479337
01po030s /scratch/ravanelm/exp/dirha/data-fmllr-tri4/tr05_cont/data/feats_fmllr_tr05_cont.3.ark:36325425
40jc020m /scratch/ravanelm/exp/dirha/data-fmllr-tri4/tr05_cont/data/feats_fmllr_tr05_cont.10.ark:25796033
404c020h /scratch/ravanelm/exp/dirha/data-fmllr-tri4/tr05_cont/data/feats_fmllr_tr05_cont.8.ark:12119545
40io030w /scratch/ravanelm/exp/dirha/data-fmllr-tri4/tr05_cont/data/feats_fmllr_tr05_cont.10.ark:21143257
01uo030v /scratch/ravanelm/exp/dirha/data-fmllr-tri4/tr05_cont/data/feats_fmllr_tr05_cont.3.ark:87691761
029c020t /scratch/ravanelm/exp/dirha/data-fmllr-tri4/tr05_cont/data/feats_fmllr_tr05_cont.5.ark:27847721
401o030l /scratch/ravanelm/exp/dirha/data-fmllr-tri4/tr05_cont/data/feats_fmllr_tr05_cont.7.ark:78151865
018o0305 /scratch/ravanelm/exp/dirha/data-fmllr-tri4/tr05_cont/data/feats_fmllr_tr05_cont.1.ark:76528121
20ic0106 /scratch/ravanelm/exp/dirha/data-fmllr-tri4/tr05_cont/data/feats_fmllr_tr05_cont.7.ark:5643913
029c0213 /scratch/ravanelm/exp/dirha/data-fmllr-tri4/tr05_cont/data/feats_fmllr_tr05_cont.5.ark:28836441
01lc020w /scratch/ravanelm/exp/dirha/data-fmllr-tri4/tr05_cont/data/feats_fmllr_tr05_cont.3.ark:4035153
20no010n /scratch/ravanelm/exp/dirha/data-fmllr-tri4/tr05_cont/data/feats_fmllr_tr05_cont.7.ark:31854721
01io0311 /scratch/ravanelm/exp/dirha/data-fmllr-tri4/tr05_cont/data/feats_fmllr_tr05_cont.2.ark:74060465
01uo031e /scratch/ravanelm/exp/dirha/data-fmllr-tri4/tr05_cont/data/feats_fmllr_tr05_cont.3.ark:90603417
20fc0104 /scratch/ravanelm/exp/dirha/data-fmllr-tri4/tr05_cont/data/feats_fmllr_tr05_cont.6.ark:66930401
208o010g /scratch/ravanelm/exp/dirha/data-fmllr-tri4/tr05_cont/data/feats_fmllr_tr05_cont.6.ark:25430905
029o031f /scratch/ravanelm/exp/dirha/data-fmllr-tri4/tr05_cont/data/feats_fmllr_tr05_cont.5.ark:37077977
20mc010l /scratch/ravanelm/exp/dirha/data-fmllr-tri4/tr05_cont/data/feats_fmllr_tr05_cont.7.ark:21455681
029c020z /scratch/ravanelm/exp/dirha/data-fmllr-tri4/tr05_cont/data/feats_fmllr_tr05_cont.5.ark:28494265
405c0219 /scratch/ravanelm/exp/dirha/data-fmllr-tri4/tr05_cont/data/feats_fmllr_tr05_cont.8.ark:25363897
40mo0316 /scratch/ravanelm/exp/dirha/data-fmllr-tri4/tr05_cont/data/feats_fmllr_tr05_cont.10.ark:73830657
205c0109 /scratch/ravanelm/exp/dirha/data-fmllr-tri4/tr05_cont/data/feats_fmllr_tr05_cont.6.ark:895241
40mc020a /scratch/ravanelm/exp/dirha/data-fmllr-tri4/tr05_cont/data/feats_fmllr_tr05_cont.10.ark:63721921
015c0218 /scratch/ravanelm/exp/dirha/data-fmllr-tri4/tr05_cont/data/feats_fmllr_tr05_cont.1.ark:41807081
01lo0319 /scratch/ravanelm/exp/dirha/data-fmllr-tri4/tr05_cont/data/feats_fmllr_tr05_cont.3.ark:14165809
40bo0302 /scratch/ravanelm/exp/dirha/data-fmllr-tri4/tr05_cont/data/feats_fmllr_tr05_cont.9.ark:18256985
020o030m /scratch/ravanelm/exp/dirha/data-fmllr-tri4/tr05_cont/data/feats_fmllr_tr05_cont.4.ark:42593137
20hc010l /scratch/ravanelm/exp/dirha/data-fmllr-tri4/tr05_cont/data/feats_fmllr_tr05_cont.7.ark:1464169
01to0314 /scratch/ravanelm/exp/dirha/data-fmllr-tri4/tr05_cont/data/feats_fmllr_tr05_cont.3.ark:74900545
408c020f /scratch/ravanelm/exp/dirha/data-fmllr-tri4/tr05_cont/data/feats_fmllr_tr05_cont.8.ark:57179041
40gc020i /scratch/ravanelm/exp/dirha/data-fmllr-tri4/tr05_cont/data/feats_fmllr_tr05_cont.9.ark:71197841
01qc020g /scratch/ravanelm/exp/dirha/data-fmllr-tri4/tr05_cont/data/feats_fmllr_tr05_cont.3.ark:41386609
207o010r /scratch/ravanelm/exp/dirha/data-fmllr-tri4/tr05_cont/data/feats_fmllr_tr05_cont.6.ark:20021529
02eo030s /scratch/ravanelm/exp/dirha/data-fmllr-tri4/tr05_cont/data/feats_fmllr_tr05_cont.5.ark:72074729
024c0210 /scratch/ravanelm/exp/dirha/data-fmllr-tri4/tr05_cont/data/feats_fmllr_tr05_cont.4.ark:60370625
01rc020o /scratch/ravanelm/exp/dirha/data-fmllr-tri4/tr05_cont/data/feats_fmllr_tr05_cont.3.ark:54197953
01jo030m /scratch/ravanelm/exp/dirha/data-fmllr-tri4/tr05_cont/data/feats_fmllr_tr05_cont.2.ark:85314897
01eo030r /scratch/ravanelm/exp/dirha/data-fmllr-tri4/tr05_cont/data/feats_fmllr_tr05_cont.2.ark:34735401
01yc020i /scratch/ravanelm/exp/dirha/data-fmllr-tri4/tr05_cont/data/feats_fmllr_tr05_cont.4.ark:13409969
01mo031b /scratch/ravanelm/exp/dirha/data-fmllr-tri4/tr05_cont/data/feats_fmllr_tr05_cont.3.ark:26097857
02eo030p /scratch/ravanelm/exp/dirha/data-fmllr-tri4/tr05_cont/data/feats_fmllr_tr05_cont.5.ark:71586017
40dc020r /scratch/ravanelm/exp/dirha/data-fmllr-tri4/tr05_cont/data/feats_fmllr_tr05_cont.9.ark:37419217
40fo0318 /scratch/ravanelm/exp/dirha/data-fmllr-tri4/tr05_cont/data/feats_fmllr_tr05_cont.9.ark:67522017
01wc0211 /scratch/ravanelm/exp/dirha/data-fmllr-tri4/tr05_cont/data/feats_fmllr_tr05_cont.4.ark:4055433
01kc0218 /scratch/ravanelm/exp/dirha/data-fmllr-tri4/tr05_cont/data/feats_fmllr_tr05_cont.2.ark:95035433
409o0316 /scratch/ravanelm/exp/dirha/data-fmllr-tri4/tr05_cont/data/feats_fmllr_tr05_cont.8.ark:75987177
02eo031c /scratch/ravanelm/exp/dirha/data-fmllr-tri4/tr05_cont/data/feats_fmllr_tr05_cont.5.ark:74699001
01yc020x /scratch/ravanelm/exp/dirha/data-fmllr-tri4/tr05_cont/data/feats_fmllr_tr05_cont.4.ark:14961369
01ec020y /scratch/ravanelm/exp/dirha/data-fmllr-tri4/tr05_cont/data/feats_fmllr_tr05_cont.2.ark:29652609
206o010b /scratch/ravanelm/exp/dirha/data-fmllr-tri4/tr05_cont/data/feats_fmllr_tr05_cont.6.ark:10726825
401c0211 /scratch/ravanelm/exp/dirha/data-fmllr-tri4/tr05_cont/data/feats_fmllr_tr05_cont.7.ark:73329105
021c020i /scratch/ravanelm/exp/dirha/data-fmllr-tri4/tr05_cont/data/feats_fmllr_tr05_cont.4.ark:47014945
01wo030t /scratch/ravanelm/exp/dirha/data-fmllr-tri4/tr05_cont/data/feats_fmllr_tr05_cont.4.ark:8623617
01ro0309 /scratch/ravanelm/exp/dirha/data-fmllr-tri4/tr05_cont/data/feats_fmllr_tr05_cont.3.ark:58002521
011c021d /scratch/ravanelm/exp/dirha/data-fmllr-tri4/tr05_cont/data/feats_fmllr_tr05_cont.1.ark:5295561
20lo010d /scratch/ravanelm/exp/dirha/data-fmllr-tri4/tr05_cont/data/feats_fmllr_tr05_cont.7.ark:16903505
01yc020a /scratch/ravanelm/exp/dirha/data-fmllr-tri4/tr05_cont/data/feats_fmllr_tr05_cont.4.ark:12471697
027c021f /scratch/ravanelm/exp/dirha/data-fmllr-tri4/tr05_cont/data/feats_fmllr_tr05_cont.5.ark:5429209
01rc020m /scratch/ravanelm/exp/dirha/data-fmllr-tri4/tr05_cont/data/feats_fmllr_tr05_cont.3.ark:53972465
01zo030q /scratch/ravanelm/exp/dirha/data-fmllr-tri4/tr05_cont/data/feats_fmllr_tr05_cont.4.ark:33360985
20ro010k /scratch/ravanelm/exp/dirha/data-fmllr-tri4/tr05_cont/data/feats_fmllr_tr05_cont.7.ark:56656641
01fo0317 /scratch/ravanelm/exp/dirha/data-fmllr-tri4/tr05_cont/data/feats_fmllr_tr05_cont.2.ark:48768105
20mc010j /scratch/ravanelm/exp/dirha/data-fmllr-tri4/tr05_cont/data/feats_fmllr_tr05_cont.7.ark:21200273
401c0202 /scratch/ravanelm/exp/dirha/data-fmllr-tri4/tr05_cont/data/feats_fmllr_tr05_cont.7.ark:69342825
01mc0203 /scratch/ravanelm/exp/dirha/data-fmllr-tri4/tr05_cont/data/feats_fmllr_tr05_cont.3.ark:15413681
20ho010i /scratch/ravanelm/exp/dirha/data-fmllr-tri4/tr05_cont/data/feats_fmllr_tr05_cont.7.ark:4081361
019c0216 /scratch/ravanelm/exp/dirha/data-fmllr-tri4/tr05_cont/data/feats_fmllr_tr05_cont.1.ark:87408561
015c021f /scratch/ravanelm/exp/dirha/data-fmllr-tri4/tr05_cont/data/feats_fmllr_tr05_cont.1.ark:42349489
01jc0219 /scratch/ravanelm/exp/dirha/data-fmllr-tri4/tr05_cont/data/feats_fmllr_tr05_cont.2.ark:81193561
401o030u /scratch/ravanelm/exp/dirha/data-fmllr-tri4/tr05_cont/data/feats_fmllr_tr05_cont.7.ark:79365521
01eo030u /scratch/ravanelm/exp/dirha/data-fmllr-tri4/tr05_cont/data/feats_fmllr_tr05_cont.2.ark:35074673
013o0311 /scratch/ravanelm/exp/dirha/data-fmllr-tri4/tr05_cont/data/feats_fmllr_tr05_cont.1.ark:24010921
20oc010k /scratch/ravanelm/exp/dirha/data-fmllr-tri4/tr05_cont/data/feats_fmllr_tr05_cont.7.ark:34470337
014o0301 /scratch/ravanelm/exp/dirha/data-fmllr-tri4/tr05_cont/data/feats_fmllr_tr05_cont.1.ark:30771593
027o030e /scratch/ravanelm/exp/dirha/data-fmllr-tri4/tr05_cont/data/feats_fmllr_tr05_cont.5.ark:7555033
01wc021c /scratch/ravanelm/exp/dirha/data-fmllr-tri4/tr05_cont/data/feats_fmllr_tr05_cont.4.ark:4950553
408c0205 /scratch/ravanelm/exp/dirha/data-fmllr-tri4/tr05_cont/data/feats_fmllr_tr05_cont.8.ark:56162961
20go010p /scratch/ravanelm/exp/dirha/data-fmllr-tri4/tr05_cont/data/feats_fmllr_tr05_cont.6.ark:77352521
20dc0104 /scratch/ravanelm/exp/dirha/data-fmllr-tri4/tr05_cont/data/feats_fmllr_tr05_cont.6.ark:53114513
408o030i /scratch/ravanelm/exp/dirha/data-fmllr-tri4/tr05_cont/data/feats_fmllr_tr05_cont.8.ark:62421161
40jc0211 /scratch/ravanelm/exp/dirha/data-fmllr-tri4/tr05_cont/data/feats_fmllr_tr05_cont.10.ark:27474633
