01rc0215 /scratch/ravanelm/exp/dirha/fbank/raw_fbank_tr05_cont.2.ark:7919309
024o030y /scratch/ravanelm/exp/dirha/fbank/raw_fbank_tr05_cont.2.ark:33298289
01rc020z /scratch/ravanelm/exp/dirha/fbank/raw_fbank_tr05_cont.2.ark:7735609
40do030z /scratch/ravanelm/exp/dirha/fbank/raw_fbank_tr05_cont.4.ark:18997959
019o030d /scratch/ravanelm/exp/dirha/fbank/raw_fbank_tr05_cont.1.ark:22789299
01ro0319 /scratch/ravanelm/exp/dirha/fbank/raw_fbank_tr05_cont.2.ark:9498509
20ao0106 /scratch/ravanelm/exp/dirha/fbank/raw_fbank_tr05_cont.3.ark:11595109
028o031a /scratch/ravanelm/exp/dirha/fbank/raw_fbank_tr05_cont.2.ark:42712109
20ro010c /scratch/ravanelm/exp/dirha/fbank/raw_fbank_tr05_cont.3.ark:36083759
01ec020c /scratch/ravanelm/exp/dirha/fbank/raw_fbank_tr05_cont.1.ark:30724999
028o0312 /scratch/ravanelm/exp/dirha/fbank/raw_fbank_tr05_cont.2.ark:42417069
40ho030t /scratch/ravanelm/exp/dirha/fbank/raw_fbank_tr05_cont.4.ark:31325169
01yo030f /scratch/ravanelm/exp/dirha/fbank/raw_fbank_tr05_cont.2.ark:21382659
01po030x /scratch/ravanelm/exp/dirha/fbank/raw_fbank_tr05_cont.2.ark:3081009
02ec020g /scratch/ravanelm/exp/dirha/fbank/raw_fbank_tr05_cont.2.ark:52752969
02ec020m /scratch/ravanelm/exp/dirha/fbank/raw_fbank_tr05_cont.2.ark:52939469
016o0316 /scratch/ravanelm/exp/dirha/fbank/raw_fbank_tr05_cont.1.ark:14514469
01qo030z /scratch/ravanelm/exp/dirha/fbank/raw_fbank_tr05_cont.2.ark:6178489
01bo030i /scratch/ravanelm/exp/dirha/fbank/raw_fbank_tr05_cont.1.ark:26132579
01fc020c /scratch/ravanelm/exp/dirha/fbank/raw_fbank_tr05_cont.1.ark:33723379
40gc0201 /scratch/ravanelm/exp/dirha/fbank/raw_fbank_tr05_cont.4.ark:25186449
40pc0201 /scratch/ravanelm/exp/dirha/fbank/raw_fbank_tr05_cont.4.ark:51403899
01zc020a /scratch/ravanelm/exp/dirha/fbank/raw_fbank_tr05_cont.2.ark:22857909
40jc0216 /scratch/ravanelm/exp/dirha/fbank/raw_fbank_tr05_cont.4.ark:36228909
209o010d /scratch/ravanelm/exp/dirha/fbank/raw_fbank_tr05_cont.3.ark:10296649
011o0308 /scratch/ravanelm/exp/dirha/fbank/raw_fbank_tr05_cont.1.ark:1740239
401c0203 /scratch/ravanelm/exp/dirha/fbank/raw_fbank_tr05_cont.3.ark:39653479
20ic0101 /scratch/ravanelm/exp/dirha/fbank/raw_fbank_tr05_cont.3.ark:23384099
206o010f /scratch/ravanelm/exp/dirha/fbank/raw_fbank_tr05_cont.3.ark:5338129
024o030n /scratch/ravanelm/exp/dirha/fbank/raw_fbank_tr05_cont.2.ark:33034959
01bc020n /scratch/ravanelm/exp/dirha/fbank/raw_fbank_tr05_cont.1.ark:24519039
40hc020a /scratch/ravanelm/exp/dirha/fbank/raw_fbank_tr05_cont.4.ark:29384109
404c021c /scratch/ravanelm/exp/dirha/fbank/raw_fbank_tr05_cont.3.ark:46704299
024c020t /scratch/ravanelm/exp/dirha/fbank/raw_fbank_tr05_cont.2.ark:31716599
026o030y /scratch/ravanelm/exp/dirha/fbank/raw_fbank_tr05_cont.2.ark:36162219
40bc020a /scratch/ravanelm/exp/dirha/fbank/raw_fbank_tr05_cont.4.ark:11157169
020c021c /scratch/ravanelm/exp/dirha/fbank/raw_fbank_tr05_cont.2.ark:27017779
404c0208 /scratch/ravanelm/exp/dirha/fbank/raw_fbank_tr05_cont.3.ark:45737659
20vo010b /scratch/ravanelm/exp/dirha/fbank/raw_fbank_tr05_cont.3.ark:39032419
01wo0303 /scratch/ravanelm/exp/dirha/fbank/raw_fbank_tr05_cont.2.ark:18058379
20tc0107 /scratch/ravanelm/exp/dirha/fbank/raw_fbank_tr05_cont.3.ark:36893059
015c0203 /scratch/ravanelm/exp/dirha/fbank/raw_fbank_tr05_cont.1.ark:9514459
20nc010k /scratch/ravanelm/exp/dirha/fbank/raw_fbank_tr05_cont.3.ark:29070519
026o0316 /scratch/ravanelm/exp/dirha/fbank/raw_fbank_tr05_cont.2.ark:36420699
40po031a /scratch/ravanelm/exp/dirha/fbank/raw_fbank_tr05_cont.4.ark:54096419
403c020d /scratch/ravanelm/exp/dirha/fbank/raw_fbank_tr05_cont.3.ark:43099629
018c020r /scratch/ravanelm/exp/dirha/fbank/raw_fbank_tr05_cont.1.ark:18367689
407c020a /scratch/ravanelm/exp/dirha/fbank/raw_fbank_tr05_cont.3.ark:53969389
404c020l /scratch/ravanelm/exp/dirha/fbank/raw_fbank_tr05_cont.3.ark:46069129
02bc0215 /scratch/ravanelm/exp/dirha/fbank/raw_fbank_tr05_cont.2.ark:47103639
02bo0313 /scratch/ravanelm/exp/dirha/fbank/raw_fbank_tr05_cont.2.ark:48779149
01tc0210 /scratch/ravanelm/exp/dirha/fbank/raw_fbank_tr05_cont.2.ark:10849349
20hc0106 /scratch/ravanelm/exp/dirha/fbank/raw_fbank_tr05_cont.3.ark:22188399
404o0318 /scratch/ravanelm/exp/dirha/fbank/raw_fbank_tr05_cont.3.ark:48100669
409o031d /scratch/ravanelm/exp/dirha/fbank/raw_fbank_tr05_cont.4.ark:7741919
405o030v /scratch/ravanelm/exp/dirha/fbank/raw_fbank_tr05_cont.3.ark:50326479
01ro030a /scratch/ravanelm/exp/dirha/fbank/raw_fbank_tr05_cont.2.ark:8368819
01eo031d /scratch/ravanelm/exp/dirha/fbank/raw_fbank_tr05_cont.1.ark:33355169
40eo0301 /scratch/ravanelm/exp/dirha/fbank/raw_fbank_tr05_cont.4.ark:20639799
407o030a /scratch/ravanelm/exp/dirha/fbank/raw_fbank_tr05_cont.4.ark:990649
01gc020p /scratch/ravanelm/exp/dirha/fbank/raw_fbank_tr05_cont.1.ark:37104369
01tc020h /scratch/ravanelm/exp/dirha/fbank/raw_fbank_tr05_cont.2.ark:10178139
01dc020g /scratch/ravanelm/exp/dirha/fbank/raw_fbank_tr05_cont.1.ark:27823679
204o010b /scratch/ravanelm/exp/dirha/fbank/raw_fbank_tr05_cont.3.ark:1846529
01jo0303 /scratch/ravanelm/exp/dirha/fbank/raw_fbank_tr05_cont.1.ark:44691029
01yc020q /scratch/ravanelm/exp/dirha/fbank/raw_fbank_tr05_cont.2.ark:20231269
02bc020l /scratch/ravanelm/exp/dirha/fbank/raw_fbank_tr05_cont.2.ark:46594679
01ro030i /scratch/ravanelm/exp/dirha/fbank/raw_fbank_tr05_cont.2.ark:8650299
01fo030x /scratch/ravanelm/exp/dirha/fbank/raw_fbank_tr05_cont.1.ark:35848729
20tc010m /scratch/ravanelm/exp/dirha/fbank/raw_fbank_tr05_cont.3.ark:37292389
029c0204 /scratch/ravanelm/exp/dirha/fbank/raw_fbank_tr05_cont.2.ark:42948599
01kc0202 /scratch/ravanelm/exp/dirha/fbank/raw_fbank_tr05_cont.1.ark:46525479
401c020e /scratch/ravanelm/exp/dirha/fbank/raw_fbank_tr05_cont.3.ark:40009169
40mo030r /scratch/ravanelm/exp/dirha/fbank/raw_fbank_tr05_cont.4.ark:47342379
014o030w /scratch/ravanelm/exp/dirha/fbank/raw_fbank_tr05_cont.1.ark:8885219
40jc0203 /scratch/ravanelm/exp/dirha/fbank/raw_fbank_tr05_cont.4.ark:35193099
011c020l /scratch/ravanelm/exp/dirha/fbank/raw_fbank_tr05_cont.1.ark:531409
20bo0103 /scratch/ravanelm/exp/dirha/fbank/raw_fbank_tr05_cont.3.ark:13185319
02eo0305 /scratch/ravanelm/exp/dirha/fbank/raw_fbank_tr05_cont.2.ark:53980779
40ho030q /scratch/ravanelm/exp/dirha/fbank/raw_fbank_tr05_cont.4.ark:31251519
409o030h /scratch/ravanelm/exp/dirha/fbank/raw_fbank_tr05_cont.4.ark:6745079
013o030k /scratch/ravanelm/exp/dirha/fbank/raw_fbank_tr05_cont.1.ark:5539979
20lc010d /scratch/ravanelm/exp/dirha/fbank/raw_fbank_tr05_cont.3.ark:25351559
40bc020c /scratch/ravanelm/exp/dirha/fbank/raw_fbank_tr05_cont.4.ark:11216749
407c020u /scratch/ravanelm/exp/dirha/fbank/raw_fbank_tr05_cont.3.ark:54544589
20oo0109 /scratch/ravanelm/exp/dirha/fbank/raw_fbank_tr05_cont.3.ark:31117989
408c0202 /scratch/ravanelm/exp/dirha/fbank/raw_fbank_tr05_cont.4.ark:2440349
40gc0212 /scratch/ravanelm/exp/dirha/fbank/raw_fbank_tr05_cont.4.ark:26470159
028c0202 /scratch/ravanelm/exp/dirha/fbank/raw_fbank_tr05_cont.2.ark:39806059
40dc020q /scratch/ravanelm/exp/dirha/fbank/raw_fbank_tr05_cont.4.ark:17206489
40mc020t /scratch/ravanelm/exp/dirha/fbank/raw_fbank_tr05_cont.4.ark:45742719
02bo0310 /scratch/ravanelm/exp/dirha/fbank/raw_fbank_tr05_cont.2.ark:48693819
01qc020r /scratch/ravanelm/exp/dirha/fbank/raw_fbank_tr05_cont.2.ark:4414849
015o0301 /scratch/ravanelm/exp/dirha/fbank/raw_fbank_tr05_cont.1.ark:10803419
028o0305 /scratch/ravanelm/exp/dirha/fbank/raw_fbank_tr05_cont.2.ark:41234079
017c020j /scratch/ravanelm/exp/dirha/fbank/raw_fbank_tr05_cont.1.ark:15253869
403c020h /scratch/ravanelm/exp/dirha/fbank/raw_fbank_tr05_cont.3.ark:43195349
024o031c /scratch/ravanelm/exp/dirha/fbank/raw_fbank_tr05_cont.2.ark:33718029
02ec0203 /scratch/ravanelm/exp/dirha/fbank/raw_fbank_tr05_cont.2.ark:52323699
405c020q /scratch/ravanelm/exp/dirha/fbank/raw_fbank_tr05_cont.3.ark:48913439
40no0306 /scratch/ravanelm/exp/dirha/fbank/raw_fbank_tr05_cont.4.ark:49792899
20pc010e /scratch/ravanelm/exp/dirha/fbank/raw_fbank_tr05_cont.3.ark:32097989
407o030b /scratch/ravanelm/exp/dirha/fbank/raw_fbank_tr05_cont.4.ark:1031759
20go0101 /scratch/ravanelm/exp/dirha/fbank/raw_fbank_tr05_cont.3.ark:21313169
40mc021a /scratch/ravanelm/exp/dirha/fbank/raw_fbank_tr05_cont.4.ark:46200989
40ao030d /scratch/ravanelm/exp/dirha/fbank/raw_fbank_tr05_cont.4.ark:9675849
404c0213 /scratch/ravanelm/exp/dirha/fbank/raw_fbank_tr05_cont.3.ark:46498549
408o030q /scratch/ravanelm/exp/dirha/fbank/raw_fbank_tr05_cont.4.ark:4325189
01fc0216 /scratch/ravanelm/exp/dirha/fbank/raw_fbank_tr05_cont.1.ark:34505159
20lc010g /scratch/ravanelm/exp/dirha/fbank/raw_fbank_tr05_cont.3.ark:25454129
20bc0104 /scratch/ravanelm/exp/dirha/fbank/raw_fbank_tr05_cont.3.ark:12560789
01jc020d /scratch/ravanelm/exp/dirha/fbank/raw_fbank_tr05_cont.1.ark:43388929
011c0213 /scratch/ravanelm/exp/dirha/fbank/raw_fbank_tr05_cont.1.ark:1073389
024c020i /scratch/ravanelm/exp/dirha/fbank/raw_fbank_tr05_cont.2.ark:31425389
01qo031e /scratch/ravanelm/exp/dirha/fbank/raw_fbank_tr05_cont.2.ark:6619019
408o030z /scratch/ravanelm/exp/dirha/fbank/raw_fbank_tr05_cont.4.ark:4529139
01rc020k /scratch/ravanelm/exp/dirha/fbank/raw_fbank_tr05_cont.2.ark:7301679
40jo030z /scratch/ravanelm/exp/dirha/fbank/raw_fbank_tr05_cont.4.ark:37718959
20ic010n /scratch/ravanelm/exp/dirha/fbank/raw_fbank_tr05_cont.3.ark:23972279
20to010m /scratch/ravanelm/exp/dirha/fbank/raw_fbank_tr05_cont.3.ark:38001169
20no010f /scratch/ravanelm/exp/dirha/fbank/raw_fbank_tr05_cont.3.ark:29818959
01gc0213 /scratch/ravanelm/exp/dirha/fbank/raw_fbank_tr05_cont.1.ark:37463749
403o0304 /scratch/ravanelm/exp/dirha/fbank/raw_fbank_tr05_cont.3.ark:44169209
019o0306 /scratch/ravanelm/exp/dirha/fbank/raw_fbank_tr05_cont.1.ark:22557129
029o0313 /scratch/ravanelm/exp/dirha/fbank/raw_fbank_tr05_cont.2.ark:45600569
20fo0108 /scratch/ravanelm/exp/dirha/fbank/raw_fbank_tr05_cont.3.ark:20209219
013o0316 /scratch/ravanelm/exp/dirha/fbank/raw_fbank_tr05_cont.1.ark:6253319
01rc0210 /scratch/ravanelm/exp/dirha/fbank/raw_fbank_tr05_cont.2.ark:7762639
407o0304 /scratch/ravanelm/exp/dirha/fbank/raw_fbank_tr05_cont.4.ark:746989
407c0209 /scratch/ravanelm/exp/dirha/fbank/raw_fbank_tr05_cont.3.ark:53946759
208o010d /scratch/ravanelm/exp/dirha/fbank/raw_fbank_tr05_cont.3.ark:8788579
024o030b /scratch/ravanelm/exp/dirha/fbank/raw_fbank_tr05_cont.2.ark:32634079
01io0309 /scratch/ravanelm/exp/dirha/fbank/raw_fbank_tr05_cont.1.ark:41469159
406c020s /scratch/ravanelm/exp/dirha/fbank/raw_fbank_tr05_cont.3.ark:51602929
40ao030f /scratch/ravanelm/exp/dirha/fbank/raw_fbank_tr05_cont.4.ark:9748829
205c0101 /scratch/ravanelm/exp/dirha/fbank/raw_fbank_tr05_cont.3.ark:2436049
01to030r /scratch/ravanelm/exp/dirha/fbank/raw_fbank_tr05_cont.2.ark:12214169
20vc0105 /scratch/ravanelm/exp/dirha/fbank/raw_fbank_tr05_cont.3.ark:38191809
028o030s /scratch/ravanelm/exp/dirha/fbank/raw_fbank_tr05_cont.2.ark:42099649
20co010f /scratch/ravanelm/exp/dirha/fbank/raw_fbank_tr05_cont.3.ark:15417049
01rc0203 /scratch/ravanelm/exp/dirha/fbank/raw_fbank_tr05_cont.2.ark:6815529
016o030i /scratch/ravanelm/exp/dirha/fbank/raw_fbank_tr05_cont.1.ark:13874469
013c0216 /scratch/ravanelm/exp/dirha/fbank/raw_fbank_tr05_cont.1.ark:4727589
40jo030s /scratch/ravanelm/exp/dirha/fbank/raw_fbank_tr05_cont.4.ark:37470989
01bo030o /scratch/ravanelm/exp/dirha/fbank/raw_fbank_tr05_cont.1.ark:26389479
027c020r /scratch/ravanelm/exp/dirha/fbank/raw_fbank_tr05_cont.2.ark:37286969
01lc0219 /scratch/ravanelm/exp/dirha/fbank/raw_fbank_tr05_cont.1.ark:51657159
207c0104 /scratch/ravanelm/exp/dirha/fbank/raw_fbank_tr05_cont.3.ark:6022159
401o031b /scratch/ravanelm/exp/dirha/fbank/raw_fbank_tr05_cont.3.ark:42776099
01uo0315 /scratch/ravanelm/exp/dirha/fbank/raw_fbank_tr05_cont.2.ark:16299679
40lc0212 /scratch/ravanelm/exp/dirha/fbank/raw_fbank_tr05_cont.4.ark:42445779
02ec0209 /scratch/ravanelm/exp/dirha/fbank/raw_fbank_tr05_cont.2.ark:52504719
20lc0104 /scratch/ravanelm/exp/dirha/fbank/raw_fbank_tr05_cont.3.ark:25053369
01to030j /scratch/ravanelm/exp/dirha/fbank/raw_fbank_tr05_cont.2.ark:11950129
20oo010m /scratch/ravanelm/exp/dirha/fbank/raw_fbank_tr05_cont.3.ark:31588939
01wo0311 /scratch/ravanelm/exp/dirha/fbank/raw_fbank_tr05_cont.2.ark:19094609
016c0219 /scratch/ravanelm/exp/dirha/fbank/raw_fbank_tr05_cont.1.ark:13283989
20fc0102 /scratch/ravanelm/exp/dirha/fbank/raw_fbank_tr05_cont.3.ark:19295299
20no0109 /scratch/ravanelm/exp/dirha/fbank/raw_fbank_tr05_cont.3.ark:29538939
20bc010l /scratch/ravanelm/exp/dirha/fbank/raw_fbank_tr05_cont.3.ark:13018019
406o030g /scratch/ravanelm/exp/dirha/fbank/raw_fbank_tr05_cont.3.ark:52636419
405c020n /scratch/ravanelm/exp/dirha/fbank/raw_fbank_tr05_cont.3.ark:48815429
20lo010l /scratch/ravanelm/exp/dirha/fbank/raw_fbank_tr05_cont.3.ark:26772659
20go010b /scratch/ravanelm/exp/dirha/fbank/raw_fbank_tr05_cont.3.ark:21610909
208o010h /scratch/ravanelm/exp/dirha/fbank/raw_fbank_tr05_cont.3.ark:8886539
40po0316 /scratch/ravanelm/exp/dirha/fbank/raw_fbank_tr05_cont.4.ark:53994859
403o030m /scratch/ravanelm/exp/dirha/fbank/raw_fbank_tr05_cont.3.ark:44752989
02bc0210 /scratch/ravanelm/exp/dirha/fbank/raw_fbank_tr05_cont.2.ark:46977689
028c020o /scratch/ravanelm/exp/dirha/fbank/raw_fbank_tr05_cont.2.ark:40306919
205o0101 /scratch/ravanelm/exp/dirha/fbank/raw_fbank_tr05_cont.3.ark:3128719
408o030v /scratch/ravanelm/exp/dirha/fbank/raw_fbank_tr05_cont.4.ark:4452779
01fo0310 /scratch/ravanelm/exp/dirha/fbank/raw_fbank_tr05_cont.1.ark:35924779
406c020h /scratch/ravanelm/exp/dirha/fbank/raw_fbank_tr05_cont.3.ark:51393869
40gc020d /scratch/ravanelm/exp/dirha/fbank/raw_fbank_tr05_cont.4.ark:25625729
408o030s /scratch/ravanelm/exp/dirha/fbank/raw_fbank_tr05_cont.4.ark:4376329
016o0313 /scratch/ravanelm/exp/dirha/fbank/raw_fbank_tr05_cont.1.ark:14447499
20ro010a /scratch/ravanelm/exp/dirha/fbank/raw_fbank_tr05_cont.3.ark:36001139
408c021d /scratch/ravanelm/exp/dirha/fbank/raw_fbank_tr05_cont.4.ark:3502929
40fc020a /scratch/ravanelm/exp/dirha/fbank/raw_fbank_tr05_cont.4.ark:22242999
409o030j /scratch/ravanelm/exp/dirha/fbank/raw_fbank_tr05_cont.4.ark:6814859
01wc020d /scratch/ravanelm/exp/dirha/fbank/raw_fbank_tr05_cont.2.ark:16971739
01uo030r /scratch/ravanelm/exp/dirha/fbank/raw_fbank_tr05_cont.2.ark:15700019
207o010n /scratch/ravanelm/exp/dirha/fbank/raw_fbank_tr05_cont.3.ark:7390029
01mc020e /scratch/ravanelm/exp/dirha/fbank/raw_fbank_tr05_cont.1.ark:54370549
018c0210 /scratch/ravanelm/exp/dirha/fbank/raw_fbank_tr05_cont.1.ark:18641999
01eo0308 /scratch/ravanelm/exp/dirha/fbank/raw_fbank_tr05_cont.1.ark:32054779
016o030s /scratch/ravanelm/exp/dirha/fbank/raw_fbank_tr05_cont.1.ark:14109089
01wo030e /scratch/ravanelm/exp/dirha/fbank/raw_fbank_tr05_cont.2.ark:18391949
40lc0213 /scratch/ravanelm/exp/dirha/fbank/raw_fbank_tr05_cont.4.ark:42479289
20go010m /scratch/ravanelm/exp/dirha/fbank/raw_fbank_tr05_cont.3.ark:21930999
40jc020r /scratch/ravanelm/exp/dirha/fbank/raw_fbank_tr05_cont.4.ark:35815459
019c0210 /scratch/ravanelm/exp/dirha/fbank/raw_fbank_tr05_cont.1.ark:21904079
20vo0106 /scratch/ravanelm/exp/dirha/fbank/raw_fbank_tr05_cont.3.ark:38894269
40go031a /scratch/ravanelm/exp/dirha/fbank/raw_fbank_tr05_cont.4.ark:28980049
018o030g /scratch/ravanelm/exp/dirha/fbank/raw_fbank_tr05_cont.1.ark:19734719
018o030t /scratch/ravanelm/exp/dirha/fbank/raw_fbank_tr05_cont.1.ark:20238749
01uc0217 /scratch/ravanelm/exp/dirha/fbank/raw_fbank_tr05_cont.2.ark:14488009
409c020q /scratch/ravanelm/exp/dirha/fbank/raw_fbank_tr05_cont.4.ark:5555069
01qo031b /scratch/ravanelm/exp/dirha/fbank/raw_fbank_tr05_cont.2.ark:6536409
40fc0219 /scratch/ravanelm/exp/dirha/fbank/raw_fbank_tr05_cont.4.ark:23257209
20qo010d /scratch/ravanelm/exp/dirha/fbank/raw_fbank_tr05_cont.3.ark:34523199
40ao030a /scratch/ravanelm/exp/dirha/fbank/raw_fbank_tr05_cont.4.ark:9577999
405o030r /scratch/ravanelm/exp/dirha/fbank/raw_fbank_tr05_cont.3.ark:50210639
20oc0107 /scratch/ravanelm/exp/dirha/fbank/raw_fbank_tr05_cont.3.ark:30509529
20go0107 /scratch/ravanelm/exp/dirha/fbank/raw_fbank_tr05_cont.3.ark:21468789
01wc020j /scratch/ravanelm/exp/dirha/fbank/raw_fbank_tr05_cont.2.ark:17166999
01do030k /scratch/ravanelm/exp/dirha/fbank/raw_fbank_tr05_cont.1.ark:29440049
40fo030k /scratch/ravanelm/exp/dirha/fbank/raw_fbank_tr05_cont.4.ark:24110579
401c0215 /scratch/ravanelm/exp/dirha/fbank/raw_fbank_tr05_cont.3.ark:40757499
207c010k /scratch/ravanelm/exp/dirha/fbank/raw_fbank_tr05_cont.3.ark:6523199
01kc0205 /scratch/ravanelm/exp/dirha/fbank/raw_fbank_tr05_cont.1.ark:46627809
013c020a /scratch/ravanelm/exp/dirha/fbank/raw_fbank_tr05_cont.1.ark:3826429
01mo030b /scratch/ravanelm/exp/dirha/fbank/raw_fbank_tr05_cont.1.ark:55756709
026o030m /scratch/ravanelm/exp/dirha/fbank/raw_fbank_tr05_cont.2.ark:35791059
01io030l /scratch/ravanelm/exp/dirha/fbank/raw_fbank_tr05_cont.1.ark:41960639
40go030y /scratch/ravanelm/exp/dirha/fbank/raw_fbank_tr05_cont.4.ark:28407529
029c021g /scratch/ravanelm/exp/dirha/fbank/raw_fbank_tr05_cont.2.ark:44250959
01do030x /scratch/ravanelm/exp/dirha/fbank/raw_fbank_tr05_cont.1.ark:29792979
01to0309 /scratch/ravanelm/exp/dirha/fbank/raw_fbank_tr05_cont.2.ark:11585269
01ec020l /scratch/ravanelm/exp/dirha/fbank/raw_fbank_tr05_cont.1.ark:30951349
01uo0305 /scratch/ravanelm/exp/dirha/fbank/raw_fbank_tr05_cont.2.ark:14936599
01lc020i /scratch/ravanelm/exp/dirha/fbank/raw_fbank_tr05_cont.1.ark:50862509
018c020l /scratch/ravanelm/exp/dirha/fbank/raw_fbank_tr05_cont.1.ark:18219069
20hc0108 /scratch/ravanelm/exp/dirha/fbank/raw_fbank_tr05_cont.3.ark:22234139
011o0318 /scratch/ravanelm/exp/dirha/fbank/raw_fbank_tr05_cont.1.ark:3164799
40kc020w /scratch/ravanelm/exp/dirha/fbank/raw_fbank_tr05_cont.4.ark:39137239
020c0219 /scratch/ravanelm/exp/dirha/fbank/raw_fbank_tr05_cont.2.ark:26957609
404o030f /scratch/ravanelm/exp/dirha/fbank/raw_fbank_tr05_cont.3.ark:47227399
404c020q /scratch/ravanelm/exp/dirha/fbank/raw_fbank_tr05_cont.3.ark:46229679
019o030z /scratch/ravanelm/exp/dirha/fbank/raw_fbank_tr05_cont.1.ark:23477359
40gc020a /scratch/ravanelm/exp/dirha/fbank/raw_fbank_tr05_cont.4.ark:25517719
20hc0107 /scratch/ravanelm/exp/dirha/fbank/raw_fbank_tr05_cont.3.ark:22211389
026o0313 /scratch/ravanelm/exp/dirha/fbank/raw_fbank_tr05_cont.2.ark:36326609
01fc020g /scratch/ravanelm/exp/dirha/fbank/raw_fbank_tr05_cont.1.ark:33868099
40mo0311 /scratch/ravanelm/exp/dirha/fbank/raw_fbank_tr05_cont.4.ark:47673399
01jc0208 /scratch/ravanelm/exp/dirha/fbank/raw_fbank_tr05_cont.1.ark:43245379
409o031b /scratch/ravanelm/exp/dirha/fbank/raw_fbank_tr05_cont.4.ark:7662859
20ic010f /scratch/ravanelm/exp/dirha/fbank/raw_fbank_tr05_cont.3.ark:23780199
40ec0212 /scratch/ravanelm/exp/dirha/fbank/raw_fbank_tr05_cont.4.ark:20250599
20mo010h /scratch/ravanelm/exp/dirha/fbank/raw_fbank_tr05_cont.3.ark:28140629
20ic010m /scratch/ravanelm/exp/dirha/fbank/raw_fbank_tr05_cont.3.ark:23949049
015c021f /scratch/ravanelm/exp/dirha/fbank/raw_fbank_tr05_cont.1.ark:10709499
40pc0207 /scratch/ravanelm/exp/dirha/fbank/raw_fbank_tr05_cont.4.ark:51563839
20io0104 /scratch/ravanelm/exp/dirha/fbank/raw_fbank_tr05_cont.3.ark:24151149
017o030n /scratch/ravanelm/exp/dirha/fbank/raw_fbank_tr05_cont.1.ark:16765189
40hc021e /scratch/ravanelm/exp/dirha/fbank/raw_fbank_tr05_cont.4.ark:30353349
408c020k /scratch/ravanelm/exp/dirha/fbank/raw_fbank_tr05_cont.4.ark:2866969
02co0306 /scratch/ravanelm/exp/dirha/fbank/raw_fbank_tr05_cont.2.ark:50685329
40cc020x /scratch/ravanelm/exp/dirha/fbank/raw_fbank_tr05_cont.4.ark:14695479
01gc021b /scratch/ravanelm/exp/dirha/fbank/raw_fbank_tr05_cont.1.ark:37691149
014c020o /scratch/ravanelm/exp/dirha/fbank/raw_fbank_tr05_cont.1.ark:7057669
02eo0315 /scratch/ravanelm/exp/dirha/fbank/raw_fbank_tr05_cont.3.ark:640349
20cc0102 /scratch/ravanelm/exp/dirha/fbank/raw_fbank_tr05_cont.3.ark:14320419
20bc010k /scratch/ravanelm/exp/dirha/fbank/raw_fbank_tr05_cont.3.ark:12978549
018c020i /scratch/ravanelm/exp/dirha/fbank/raw_fbank_tr05_cont.1.ark:18116779
01go0318 /scratch/ravanelm/exp/dirha/fbank/raw_fbank_tr05_cont.1.ark:39316079
40po0319 /scratch/ravanelm/exp/dirha/fbank/raw_fbank_tr05_cont.4.ark:54077669
01gc021e /scratch/ravanelm/exp/dirha/fbank/raw_fbank_tr05_cont.1.ark:37763919
013o0318 /scratch/ravanelm/exp/dirha/fbank/raw_fbank_tr05_cont.1.ark:6303219
017c021b /scratch/ravanelm/exp/dirha/fbank/raw_fbank_tr05_cont.1.ark:15894069
20rc010a /scratch/ravanelm/exp/dirha/fbank/raw_fbank_tr05_cont.3.ark:35251889
40fo030a /scratch/ravanelm/exp/dirha/fbank/raw_fbank_tr05_cont.4.ark:23775879
015c020k /scratch/ravanelm/exp/dirha/fbank/raw_fbank_tr05_cont.1.ark:9999609
01io030w /scratch/ravanelm/exp/dirha/fbank/raw_fbank_tr05_cont.1.ark:42363769
024c020s /scratch/ravanelm/exp/dirha/fbank/raw_fbank_tr05_cont.2.ark:31685689
20rc010j /scratch/ravanelm/exp/dirha/fbank/raw_fbank_tr05_cont.3.ark:35539439
20bc010c /scratch/ravanelm/exp/dirha/fbank/raw_fbank_tr05_cont.3.ark:12732149
01rc021a /scratch/ravanelm/exp/dirha/fbank/raw_fbank_tr05_cont.2.ark:8002379
404o030p /scratch/ravanelm/exp/dirha/fbank/raw_fbank_tr05_cont.3.ark:47539739
01tc020m /scratch/ravanelm/exp/dirha/fbank/raw_fbank_tr05_cont.2.ark:10346649
01ic020f /scratch/ravanelm/exp/dirha/fbank/raw_fbank_tr05_cont.1.ark:40113169
01qc0203 /scratch/ravanelm/exp/dirha/fbank/raw_fbank_tr05_cont.2.ark:3713229
01uo031b /scratch/ravanelm/exp/dirha/fbank/raw_fbank_tr05_cont.2.ark:16516099
016c020k /scratch/ravanelm/exp/dirha/fbank/raw_fbank_tr05_cont.1.ark:12818689
409c020t /scratch/ravanelm/exp/dirha/fbank/raw_fbank_tr05_cont.4.ark:5672399
01jc020g /scratch/ravanelm/exp/dirha/fbank/raw_fbank_tr05_cont.1.ark:43451179
013o0310 /scratch/ravanelm/exp/dirha/fbank/raw_fbank_tr05_cont.1.ark:6055699
20do010p /scratch/ravanelm/exp/dirha/fbank/raw_fbank_tr05_cont.3.ark:17417759
01to0312 /scratch/ravanelm/exp/dirha/fbank/raw_fbank_tr05_cont.2.ark:12576699
403o030w /scratch/ravanelm/exp/dirha/fbank/raw_fbank_tr05_cont.3.ark:45062609
01yo0303 /scratch/ravanelm/exp/dirha/fbank/raw_fbank_tr05_cont.2.ark:21014739
404c020o /scratch/ravanelm/exp/dirha/fbank/raw_fbank_tr05_cont.3.ark:46155219
01bc021e /scratch/ravanelm/exp/dirha/fbank/raw_fbank_tr05_cont.1.ark:25367749
404c020e /scratch/ravanelm/exp/dirha/fbank/raw_fbank_tr05_cont.3.ark:45893039
40fo030y /scratch/ravanelm/exp/dirha/fbank/raw_fbank_tr05_cont.4.ark:24537719
40po0318 /scratch/ravanelm/exp/dirha/fbank/raw_fbank_tr05_cont.4.ark:54040799
40gc020v /scratch/ravanelm/exp/dirha/fbank/raw_fbank_tr05_cont.4.ark:26168669
018c0208 /scratch/ravanelm/exp/dirha/fbank/raw_fbank_tr05_cont.1.ark:17829079
40gc021e /scratch/ravanelm/exp/dirha/fbank/raw_fbank_tr05_cont.4.ark:26917279
40ho031a /scratch/ravanelm/exp/dirha/fbank/raw_fbank_tr05_cont.4.ark:31922759
02cc020c /scratch/ravanelm/exp/dirha/fbank/raw_fbank_tr05_cont.2.ark:49556909
027o0312 /scratch/ravanelm/exp/dirha/fbank/raw_fbank_tr05_cont.2.ark:39474929
01go0311 /scratch/ravanelm/exp/dirha/fbank/raw_fbank_tr05_cont.1.ark:39050189
20ro0102 /scratch/ravanelm/exp/dirha/fbank/raw_fbank_tr05_cont.3.ark:35691859
020c020b /scratch/ravanelm/exp/dirha/fbank/raw_fbank_tr05_cont.2.ark:26313989
026c020v /scratch/ravanelm/exp/dirha/fbank/raw_fbank_tr05_cont.2.ark:34580609
40hc020b /scratch/ravanelm/exp/dirha/fbank/raw_fbank_tr05_cont.4.ark:29421659
20ac0104 /scratch/ravanelm/exp/dirha/fbank/raw_fbank_tr05_cont.3.ark:10798009
02bo030x /scratch/ravanelm/exp/dirha/fbank/raw_fbank_tr05_cont.2.ark:48577049
01ko030t /scratch/ravanelm/exp/dirha/fbank/raw_fbank_tr05_cont.1.ark:49249039
407c020o /scratch/ravanelm/exp/dirha/fbank/raw_fbank_tr05_cont.3.ark:54381049
02eo030o /scratch/ravanelm/exp/dirha/fbank/raw_fbank_tr05_cont.3.ark:82229
01yo030j /scratch/ravanelm/exp/dirha/fbank/raw_fbank_tr05_cont.2.ark:21523619
024o0315 /scratch/ravanelm/exp/dirha/fbank/raw_fbank_tr05_cont.2.ark:33529939
40po030t /scratch/ravanelm/exp/dirha/fbank/raw_fbank_tr05_cont.4.ark:53555789
40go030j /scratch/ravanelm/exp/dirha/fbank/raw_fbank_tr05_cont.4.ark:27714599
026c0214 /scratch/ravanelm/exp/dirha/fbank/raw_fbank_tr05_cont.2.ark:34794599
209c010c /scratch/ravanelm/exp/dirha/fbank/raw_fbank_tr05_cont.3.ark:9558799
40ac020l /scratch/ravanelm/exp/dirha/fbank/raw_fbank_tr05_cont.4.ark:8461109
40cc020k /scratch/ravanelm/exp/dirha/fbank/raw_fbank_tr05_cont.4.ark:14454089
40pc020x /scratch/ravanelm/exp/dirha/fbank/raw_fbank_tr05_cont.4.ark:52149659
01ic020n /scratch/ravanelm/exp/dirha/fbank/raw_fbank_tr05_cont.1.ark:40367289
409c0211 /scratch/ravanelm/exp/dirha/fbank/raw_fbank_tr05_cont.4.ark:5893759
40jo0307 /scratch/ravanelm/exp/dirha/fbank/raw_fbank_tr05_cont.4.ark:36701599
204c010d /scratch/ravanelm/exp/dirha/fbank/raw_fbank_tr05_cont.3.ark:1309119
204c010e /scratch/ravanelm/exp/dirha/fbank/raw_fbank_tr05_cont.3.ark:1328109
209c0109 /scratch/ravanelm/exp/dirha/fbank/raw_fbank_tr05_cont.3.ark:9490229
01zo0303 /scratch/ravanelm/exp/dirha/fbank/raw_fbank_tr05_cont.2.ark:24185309
01do030v /scratch/ravanelm/exp/dirha/fbank/raw_fbank_tr05_cont.1.ark:29740479
015o030w /scratch/ravanelm/exp/dirha/fbank/raw_fbank_tr05_cont.1.ark:11793549
40nc020w /scratch/ravanelm/exp/dirha/fbank/raw_fbank_tr05_cont.4.ark:48980959
01ro031b /scratch/ravanelm/exp/dirha/fbank/raw_fbank_tr05_cont.2.ark:9533009
01uo031d /scratch/ravanelm/exp/dirha/fbank/raw_fbank_tr05_cont.2.ark:16560239
40nc020v /scratch/ravanelm/exp/dirha/fbank/raw_fbank_tr05_cont.4.ark:48947929
40hc020y /scratch/ravanelm/exp/dirha/fbank/raw_fbank_tr05_cont.4.ark:29949629
01fc020p /scratch/ravanelm/exp/dirha/fbank/raw_fbank_tr05_cont.1.ark:34020409
40ac0208 /scratch/ravanelm/exp/dirha/fbank/raw_fbank_tr05_cont.4.ark:8035999
40eo0302 /scratch/ravanelm/exp/dirha/fbank/raw_fbank_tr05_cont.4.ark:20675229
01lo030e /scratch/ravanelm/exp/dirha/fbank/raw_fbank_tr05_cont.1.ark:52507239
403o030s /scratch/ravanelm/exp/dirha/fbank/raw_fbank_tr05_cont.3.ark:44931769
20vc010d /scratch/ravanelm/exp/dirha/fbank/raw_fbank_tr05_cont.3.ark:38449329
401c0207 /scratch/ravanelm/exp/dirha/fbank/raw_fbank_tr05_cont.3.ark:39766359
40nc0208 /scratch/ravanelm/exp/dirha/fbank/raw_fbank_tr05_cont.4.ark:48240719
01do0312 /scratch/ravanelm/exp/dirha/fbank/raw_fbank_tr05_cont.1.ark:29947609
016o030w /scratch/ravanelm/exp/dirha/fbank/raw_fbank_tr05_cont.1.ark:14203649
01uo0311 /scratch/ravanelm/exp/dirha/fbank/raw_fbank_tr05_cont.2.ark:16138719
40co0319 /scratch/ravanelm/exp/dirha/fbank/raw_fbank_tr05_cont.4.ark:16252739
40hc0217 /scratch/ravanelm/exp/dirha/fbank/raw_fbank_tr05_cont.4.ark:30208419
40bc0205 /scratch/ravanelm/exp/dirha/fbank/raw_fbank_tr05_cont.4.ark:11007179
01mc020x /scratch/ravanelm/exp/dirha/fbank/raw_fbank_tr05_cont.1.ark:54866119
01po0312 /scratch/ravanelm/exp/dirha/fbank/raw_fbank_tr05_cont.2.ark:3278799
01to0301 /scratch/ravanelm/exp/dirha/fbank/raw_fbank_tr05_cont.2.ark:11309019
01gc020r /scratch/ravanelm/exp/dirha/fbank/raw_fbank_tr05_cont.1.ark:37156389
02eo030d /scratch/ravanelm/exp/dirha/fbank/raw_fbank_tr05_cont.2.ark:54284179
406c020a /scratch/ravanelm/exp/dirha/fbank/raw_fbank_tr05_cont.3.ark:51213019
027c020u /scratch/ravanelm/exp/dirha/fbank/raw_fbank_tr05_cont.2.ark:37369739
019c0211 /scratch/ravanelm/exp/dirha/fbank/raw_fbank_tr05_cont.1.ark:21940189
405o030y /scratch/ravanelm/exp/dirha/fbank/raw_fbank_tr05_cont.3.ark:50421089
01io0310 /scratch/ravanelm/exp/dirha/fbank/raw_fbank_tr05_cont.1.ark:42518129
029o030l /scratch/ravanelm/exp/dirha/fbank/raw_fbank_tr05_cont.2.ark:44930589
40co030y /scratch/ravanelm/exp/dirha/fbank/raw_fbank_tr05_cont.4.ark:15985489
021o031b /scratch/ravanelm/exp/dirha/fbank/raw_fbank_tr05_cont.2.ark:30784169
01wc020a /scratch/ravanelm/exp/dirha/fbank/raw_fbank_tr05_cont.2.ark:16883569
40no0303 /scratch/ravanelm/exp/dirha/fbank/raw_fbank_tr05_cont.4.ark:49676289
01ko030d /scratch/ravanelm/exp/dirha/fbank/raw_fbank_tr05_cont.1.ark:48580359
405c0213 /scratch/ravanelm/exp/dirha/fbank/raw_fbank_tr05_cont.3.ark:49146069
02bc020z /scratch/ravanelm/exp/dirha/fbank/raw_fbank_tr05_cont.2.ark:46956019
40ec020z /scratch/ravanelm/exp/dirha/fbank/raw_fbank_tr05_cont.4.ark:20170429
205o010i /scratch/ravanelm/exp/dirha/fbank/raw_fbank_tr05_cont.3.ark:3793869
01qc0216 /scratch/ravanelm/exp/dirha/fbank/raw_fbank_tr05_cont.2.ark:4768479
028o030g /scratch/ravanelm/exp/dirha/fbank/raw_fbank_tr05_cont.2.ark:41689329
013o0309 /scratch/ravanelm/exp/dirha/fbank/raw_fbank_tr05_cont.1.ark:5196209
20eo010b /scratch/ravanelm/exp/dirha/fbank/raw_fbank_tr05_cont.3.ark:18664549
40mo030h /scratch/ravanelm/exp/dirha/fbank/raw_fbank_tr05_cont.4.ark:46960879
20hc010p /scratch/ravanelm/exp/dirha/fbank/raw_fbank_tr05_cont.3.ark:22555689
407c020e /scratch/ravanelm/exp/dirha/fbank/raw_fbank_tr05_cont.3.ark:54074469
208c0108 /scratch/ravanelm/exp/dirha/fbank/raw_fbank_tr05_cont.3.ark:7836319
018c020c /scratch/ravanelm/exp/dirha/fbank/raw_fbank_tr05_cont.1.ark:17923919
40no030x /scratch/ravanelm/exp/dirha/fbank/raw_fbank_tr05_cont.4.ark:50725909
40bc020v /scratch/ravanelm/exp/dirha/fbank/raw_fbank_tr05_cont.4.ark:11722599
01dc0219 /scratch/ravanelm/exp/dirha/fbank/raw_fbank_tr05_cont.1.ark:28586149
20do010o /scratch/ravanelm/exp/dirha/fbank/raw_fbank_tr05_cont.3.ark:17371009
020o031d /scratch/ravanelm/exp/dirha/fbank/raw_fbank_tr05_cont.2.ark:27980199
40do0302 /scratch/ravanelm/exp/dirha/fbank/raw_fbank_tr05_cont.4.ark:18022969
40fo030d /scratch/ravanelm/exp/dirha/fbank/raw_fbank_tr05_cont.4.ark:23850809
20vo0101 /scratch/ravanelm/exp/dirha/fbank/raw_fbank_tr05_cont.3.ark:38755879
40dc021d /scratch/ravanelm/exp/dirha/fbank/raw_fbank_tr05_cont.4.ark:17863779
026c020p /scratch/ravanelm/exp/dirha/fbank/raw_fbank_tr05_cont.2.ark:34459109
02co0313 /scratch/ravanelm/exp/dirha/fbank/raw_fbank_tr05_cont.2.ark:51757759
01jo0301 /scratch/ravanelm/exp/dirha/fbank/raw_fbank_tr05_cont.1.ark:44590409
40bc020g /scratch/ravanelm/exp/dirha/fbank/raw_fbank_tr05_cont.4.ark:11354829
01fc020r /scratch/ravanelm/exp/dirha/fbank/raw_fbank_tr05_cont.1.ark:34096829
01dc020b /scratch/ravanelm/exp/dirha/fbank/raw_fbank_tr05_cont.1.ark:27648289
40bo0316 /scratch/ravanelm/exp/dirha/fbank/raw_fbank_tr05_cont.4.ark:13742709
40ko031a /scratch/ravanelm/exp/dirha/fbank/raw_fbank_tr05_cont.4.ark:41187939
01wo0305 /scratch/ravanelm/exp/dirha/fbank/raw_fbank_tr05_cont.2.ark:18088999
40bc020y /scratch/ravanelm/exp/dirha/fbank/raw_fbank_tr05_cont.4.ark:11799329
40pc020o /scratch/ravanelm/exp/dirha/fbank/raw_fbank_tr05_cont.4.ark:51918829
40fo031d /scratch/ravanelm/exp/dirha/fbank/raw_fbank_tr05_cont.4.ark:25019089
029c020r /scratch/ravanelm/exp/dirha/fbank/raw_fbank_tr05_cont.2.ark:43589049
01yc020m /scratch/ravanelm/exp/dirha/fbank/raw_fbank_tr05_cont.2.ark:20126109
20go010d /scratch/ravanelm/exp/dirha/fbank/raw_fbank_tr05_cont.3.ark:21641529
40bc020b /scratch/ravanelm/exp/dirha/fbank/raw_fbank_tr05_cont.4.ark:11197199
014o0313 /scratch/ravanelm/exp/dirha/fbank/raw_fbank_tr05_cont.1.ark:9110549
20ac0106 /scratch/ravanelm/exp/dirha/fbank/raw_fbank_tr05_cont.3.ark:10866789
209c0105 /scratch/ravanelm/exp/dirha/fbank/raw_fbank_tr05_cont.3.ark:9371949
026o031b /scratch/ravanelm/exp/dirha/fbank/raw_fbank_tr05_cont.2.ark:36561209
024o031e /scratch/ravanelm/exp/dirha/fbank/raw_fbank_tr05_cont.2.ark:33764929
403c0218 /scratch/ravanelm/exp/dirha/fbank/raw_fbank_tr05_cont.3.ark:43848399
405c020x /scratch/ravanelm/exp/dirha/fbank/raw_fbank_tr05_cont.3.ark:49021369
01fo030j /scratch/ravanelm/exp/dirha/fbank/raw_fbank_tr05_cont.1.ark:35441189
20pc0106 /scratch/ravanelm/exp/dirha/fbank/raw_fbank_tr05_cont.3.ark:31912389
01yo030n /scratch/ravanelm/exp/dirha/fbank/raw_fbank_tr05_cont.2.ark:21688939
406c020q /scratch/ravanelm/exp/dirha/fbank/raw_fbank_tr05_cont.3.ark:51586549
01eo030o /scratch/ravanelm/exp/dirha/fbank/raw_fbank_tr05_cont.1.ark:32511979
403c0217 /scratch/ravanelm/exp/dirha/fbank/raw_fbank_tr05_cont.3.ark:43836209
01lo0303 /scratch/ravanelm/exp/dirha/fbank/raw_fbank_tr05_cont.1.ark:51979869
40no0301 /scratch/ravanelm/exp/dirha/fbank/raw_fbank_tr05_cont.4.ark:49586469
403o0306 /scratch/ravanelm/exp/dirha/fbank/raw_fbank_tr05_cont.3.ark:44249149
027o0317 /scratch/ravanelm/exp/dirha/fbank/raw_fbank_tr05_cont.2.ark:39663919
206o010d /scratch/ravanelm/exp/dirha/fbank/raw_fbank_tr05_cont.3.ark:5261029
01mc0212 /scratch/ravanelm/exp/dirha/fbank/raw_fbank_tr05_cont.1.ark:55023269
01zo0319 /scratch/ravanelm/exp/dirha/fbank/raw_fbank_tr05_cont.2.ark:25827649
408o0301 /scratch/ravanelm/exp/dirha/fbank/raw_fbank_tr05_cont.4.ark:3573839
02bc0202 /scratch/ravanelm/exp/dirha/fbank/raw_fbank_tr05_cont.2.ark:46062789
40pc020k /scratch/ravanelm/exp/dirha/fbank/raw_fbank_tr05_cont.4.ark:51827709
40ho030a /scratch/ravanelm/exp/dirha/fbank/raw_fbank_tr05_cont.4.ark:30699039
40do030c /scratch/ravanelm/exp/dirha/fbank/raw_fbank_tr05_cont.4.ark:18244349
20to010c /scratch/ravanelm/exp/dirha/fbank/raw_fbank_tr05_cont.3.ark:37674069
40do030j /scratch/ravanelm/exp/dirha/fbank/raw_fbank_tr05_cont.4.ark:18488999
405o030z /scratch/ravanelm/exp/dirha/fbank/raw_fbank_tr05_cont.3.ark:50438279
20po010l /scratch/ravanelm/exp/dirha/fbank/raw_fbank_tr05_cont.3.ark:33030629
026o030e /scratch/ravanelm/exp/dirha/fbank/raw_fbank_tr05_cont.2.ark:35523539
401o0317 /scratch/ravanelm/exp/dirha/fbank/raw_fbank_tr05_cont.3.ark:42618259
01fo0302 /scratch/ravanelm/exp/dirha/fbank/raw_fbank_tr05_cont.1.ark:34834559
40eo0303 /scratch/ravanelm/exp/dirha/fbank/raw_fbank_tr05_cont.4.ark:20710979
01jc020h /scratch/ravanelm/exp/dirha/fbank/raw_fbank_tr05_cont.1.ark:43485609
40jc021e /scratch/ravanelm/exp/dirha/fbank/raw_fbank_tr05_cont.4.ark:36458189
205c010p /scratch/ravanelm/exp/dirha/fbank/raw_fbank_tr05_cont.3.ark:3103009
02eo030x /scratch/ravanelm/exp/dirha/fbank/raw_fbank_tr05_cont.3.ark:376059
20mc0108 /scratch/ravanelm/exp/dirha/fbank/raw_fbank_tr05_cont.3.ark:27181049
028c0215 /scratch/ravanelm/exp/dirha/fbank/raw_fbank_tr05_cont.2.ark:40777229
40po031e /scratch/ravanelm/exp/dirha/fbank/raw_fbank_tr05_cont.4.ark:54229099
20po0109 /scratch/ravanelm/exp/dirha/fbank/raw_fbank_tr05_cont.3.ark:32689709
024o031f /scratch/ravanelm/exp/dirha/fbank/raw_fbank_tr05_cont.2.ark:33807999
404c020i /scratch/ravanelm/exp/dirha/fbank/raw_fbank_tr05_cont.3.ark:45975879
01mc0218 /scratch/ravanelm/exp/dirha/fbank/raw_fbank_tr05_cont.1.ark:55163169
40fc021a /scratch/ravanelm/exp/dirha/fbank/raw_fbank_tr05_cont.4.ark:23295199
40do030y /scratch/ravanelm/exp/dirha/fbank/raw_fbank_tr05_cont.4.ark:18943689
409c0208 /scratch/ravanelm/exp/dirha/fbank/raw_fbank_tr05_cont.4.ark:5059329
020c020f /scratch/ravanelm/exp/dirha/fbank/raw_fbank_tr05_cont.2.ark:26397189
01go030x /scratch/ravanelm/exp/dirha/fbank/raw_fbank_tr05_cont.1.ark:38898349
401o030o /scratch/ravanelm/exp/dirha/fbank/raw_fbank_tr05_cont.3.ark:41945879
01lc0201 /scratch/ravanelm/exp/dirha/fbank/raw_fbank_tr05_cont.1.ark:50248399
01bc0209 /scratch/ravanelm/exp/dirha/fbank/raw_fbank_tr05_cont.1.ark:24077289
406o030c /scratch/ravanelm/exp/dirha/fbank/raw_fbank_tr05_cont.3.ark:52523579
017c0212 /scratch/ravanelm/exp/dirha/fbank/raw_fbank_tr05_cont.1.ark:15689839
40bc021d /scratch/ravanelm/exp/dirha/fbank/raw_fbank_tr05_cont.4.ark:12233979
206o010c /scratch/ravanelm/exp/dirha/fbank/raw_fbank_tr05_cont.3.ark:5198599
20no0105 /scratch/ravanelm/exp/dirha/fbank/raw_fbank_tr05_cont.3.ark:29387139
020c0201 /scratch/ravanelm/exp/dirha/fbank/raw_fbank_tr05_cont.2.ark:26131329
01jc020l /scratch/ravanelm/exp/dirha/fbank/raw_fbank_tr05_cont.1.ark:43614889
01rc020n /scratch/ravanelm/exp/dirha/fbank/raw_fbank_tr05_cont.2.ark:7366209
01jc020o /scratch/ravanelm/exp/dirha/fbank/raw_fbank_tr05_cont.1.ark:43683739
40do030n /scratch/ravanelm/exp/dirha/fbank/raw_fbank_tr05_cont.4.ark:18644799
01zo0317 /scratch/ravanelm/exp/dirha/fbank/raw_fbank_tr05_cont.2.ark:25789429
01wo0312 /scratch/ravanelm/exp/dirha/fbank/raw_fbank_tr05_cont.2.ark:19125879
20bo010a /scratch/ravanelm/exp/dirha/fbank/raw_fbank_tr05_cont.3.ark:13504169
02bc020j /scratch/ravanelm/exp/dirha/fbank/raw_fbank_tr05_cont.2.ark:46544219
20to010j /scratch/ravanelm/exp/dirha/fbank/raw_fbank_tr05_cont.3.ark:37898679
404c020y /scratch/ravanelm/exp/dirha/fbank/raw_fbank_tr05_cont.3.ark:46374279
016c0207 /scratch/ravanelm/exp/dirha/fbank/raw_fbank_tr05_cont.1.ark:12455819
407c021a /scratch/ravanelm/exp/dirha/fbank/raw_fbank_tr05_cont.4.ark:393029
017o030b /scratch/ravanelm/exp/dirha/fbank/raw_fbank_tr05_cont.1.ark:16380909
01mo0311 /scratch/ravanelm/exp/dirha/fbank/raw_fbank_tr05_cont.1.ark:56530929
01uc020u /scratch/ravanelm/exp/dirha/fbank/raw_fbank_tr05_cont.2.ark:14012139
20mc0109 /scratch/ravanelm/exp/dirha/fbank/raw_fbank_tr05_cont.3.ark:27211719
40lc020w /scratch/ravanelm/exp/dirha/fbank/raw_fbank_tr05_cont.4.ark:42226639
01ic0209 /scratch/ravanelm/exp/dirha/fbank/raw_fbank_tr05_cont.1.ark:39939589
20go010h /scratch/ravanelm/exp/dirha/fbank/raw_fbank_tr05_cont.3.ark:21783569
01ec020y /scratch/ravanelm/exp/dirha/fbank/raw_fbank_tr05_cont.1.ark:31315859
01bc0217 /scratch/ravanelm/exp/dirha/fbank/raw_fbank_tr05_cont.1.ark:25162649
01mc020z /scratch/ravanelm/exp/dirha/fbank/raw_fbank_tr05_cont.1.ark:54942259
027c020w /scratch/ravanelm/exp/dirha/fbank/raw_fbank_tr05_cont.2.ark:37409959
01mo0303 /scratch/ravanelm/exp/dirha/fbank/raw_fbank_tr05_cont.1.ark:55457949
01pc0206 /scratch/ravanelm/exp/dirha/fbank/raw_fbank_tr05_cont.2.ark:553789
40pc020j /scratch/ravanelm/exp/dirha/fbank/raw_fbank_tr05_cont.4.ark:51791999
40co030o /scratch/ravanelm/exp/dirha/fbank/raw_fbank_tr05_cont.4.ark:15762029
20qo0107 /scratch/ravanelm/exp/dirha/fbank/raw_fbank_tr05_cont.3.ark:34282059
018o0301 /scratch/ravanelm/exp/dirha/fbank/raw_fbank_tr05_cont.1.ark:19195229
40hc020f /scratch/ravanelm/exp/dirha/fbank/raw_fbank_tr05_cont.4.ark:29500059
018o0315 /scratch/ravanelm/exp/dirha/fbank/raw_fbank_tr05_cont.1.ark:20787989
409c020d /scratch/ravanelm/exp/dirha/fbank/raw_fbank_tr05_cont.4.ark:5194839
403c0212 /scratch/ravanelm/exp/dirha/fbank/raw_fbank_tr05_cont.3.ark:43692579
01uc021a /scratch/ravanelm/exp/dirha/fbank/raw_fbank_tr05_cont.2.ark:14552979
02co030b /scratch/ravanelm/exp/dirha/fbank/raw_fbank_tr05_cont.2.ark:50819319
40fo0316 /scratch/ravanelm/exp/dirha/fbank/raw_fbank_tr05_cont.4.ark:24784839
401c020s /scratch/ravanelm/exp/dirha/fbank/raw_fbank_tr05_cont.3.ark:40375989
40mc020p /scratch/ravanelm/exp/dirha/fbank/raw_fbank_tr05_cont.4.ark:45653039
01uc020n /scratch/ravanelm/exp/dirha/fbank/raw_fbank_tr05_cont.2.ark:13836209
20lc0101 /scratch/ravanelm/exp/dirha/fbank/raw_fbank_tr05_cont.3.ark:24935519
02bo030y /scratch/ravanelm/exp/dirha/fbank/raw_fbank_tr05_cont.2.ark:48599519
029c0214 /scratch/ravanelm/exp/dirha/fbank/raw_fbank_tr05_cont.2.ark:43939759
01uc0206 /scratch/ravanelm/exp/dirha/fbank/raw_fbank_tr05_cont.2.ark:13299259
40hc0215 /scratch/ravanelm/exp/dirha/fbank/raw_fbank_tr05_cont.4.ark:30148479
207o010h /scratch/ravanelm/exp/dirha/fbank/raw_fbank_tr05_cont.3.ark:7176409
024c0211 /scratch/ravanelm/exp/dirha/fbank/raw_fbank_tr05_cont.2.ark:31928399
208c010n /scratch/ravanelm/exp/dirha/fbank/raw_fbank_tr05_cont.3.ark:8264449
20io010o /scratch/ravanelm/exp/dirha/fbank/raw_fbank_tr05_cont.3.ark:24868469
018c020j /scratch/ravanelm/exp/dirha/fbank/raw_fbank_tr05_cont.1.ark:18159689
40lc020q /scratch/ravanelm/exp/dirha/fbank/raw_fbank_tr05_cont.4.ark:42069739
20ao010l /scratch/ravanelm/exp/dirha/fbank/raw_fbank_tr05_cont.3.ark:12240439
017c0214 /scratch/ravanelm/exp/dirha/fbank/raw_fbank_tr05_cont.1.ark:15723099
01io0317 /scratch/ravanelm/exp/dirha/fbank/raw_fbank_tr05_cont.1.ark:42758539
018c020h /scratch/ravanelm/exp/dirha/fbank/raw_fbank_tr05_cont.1.ark:18082389
40do0305 /scratch/ravanelm/exp/dirha/fbank/raw_fbank_tr05_cont.4.ark:18105099
01tc020r /scratch/ravanelm/exp/dirha/fbank/raw_fbank_tr05_cont.2.ark:10516559
40lo0315 /scratch/ravanelm/exp/dirha/fbank/raw_fbank_tr05_cont.4.ark:44621959
401c020l /scratch/ravanelm/exp/dirha/fbank/raw_fbank_tr05_cont.3.ark:40202779
016c020b /scratch/ravanelm/exp/dirha/fbank/raw_fbank_tr05_cont.1.ark:12553939
20go010c /scratch/ravanelm/exp/dirha/fbank/raw_fbank_tr05_cont.3.ark:21630699
40co0309 /scratch/ravanelm/exp/dirha/fbank/raw_fbank_tr05_cont.4.ark:15330659
026c021e /scratch/ravanelm/exp/dirha/fbank/raw_fbank_tr05_cont.2.ark:35063939
408c020d /scratch/ravanelm/exp/dirha/fbank/raw_fbank_tr05_cont.4.ark:2679119
40ao031e /scratch/ravanelm/exp/dirha/fbank/raw_fbank_tr05_cont.4.ark:10833999
014o0302 /scratch/ravanelm/exp/dirha/fbank/raw_fbank_tr05_cont.1.ark:7802799
40dc021e /scratch/ravanelm/exp/dirha/fbank/raw_fbank_tr05_cont.4.ark:17891329
20bc0103 /scratch/ravanelm/exp/dirha/fbank/raw_fbank_tr05_cont.3.ark:12549639
01zc020n /scratch/ravanelm/exp/dirha/fbank/raw_fbank_tr05_cont.2.ark:23257859
40ao030q /scratch/ravanelm/exp/dirha/fbank/raw_fbank_tr05_cont.4.ark:10095239
01uc020h /scratch/ravanelm/exp/dirha/fbank/raw_fbank_tr05_cont.2.ark:13642749
40dc021c /scratch/ravanelm/exp/dirha/fbank/raw_fbank_tr05_cont.4.ark:17844029
40mc021b /scratch/ravanelm/exp/dirha/fbank/raw_fbank_tr05_cont.4.ark:46213099
028c020l /scratch/ravanelm/exp/dirha/fbank/raw_fbank_tr05_cont.2.ark:40221709
20cc010h /scratch/ravanelm/exp/dirha/fbank/raw_fbank_tr05_cont.3.ark:14731589
40kc020a /scratch/ravanelm/exp/dirha/fbank/raw_fbank_tr05_cont.4.ark:38524859
01pc020l /scratch/ravanelm/exp/dirha/fbank/raw_fbank_tr05_cont.2.ark:981519
01zo031a /scratch/ravanelm/exp/dirha/fbank/raw_fbank_tr05_cont.2.ark:25852599
20pc010d /scratch/ravanelm/exp/dirha/fbank/raw_fbank_tr05_cont.3.ark:32081799
20bc010e /scratch/ravanelm/exp/dirha/fbank/raw_fbank_tr05_cont.3.ark:12795009
029c0201 /scratch/ravanelm/exp/dirha/fbank/raw_fbank_tr05_cont.2.ark:42867989
20mo0104 /scratch/ravanelm/exp/dirha/fbank/raw_fbank_tr05_cont.3.ark:27763919
026c020q /scratch/ravanelm/exp/dirha/fbank/raw_fbank_tr05_cont.2.ark:34488499
01po0310 /scratch/ravanelm/exp/dirha/fbank/raw_fbank_tr05_cont.2.ark:3189099
205o010b /scratch/ravanelm/exp/dirha/fbank/raw_fbank_tr05_cont.3.ark:3498059
028c021b /scratch/ravanelm/exp/dirha/fbank/raw_fbank_tr05_cont.2.ark:40938689
20co010c /scratch/ravanelm/exp/dirha/fbank/raw_fbank_tr05_cont.3.ark:15351279
403c0209 /scratch/ravanelm/exp/dirha/fbank/raw_fbank_tr05_cont.3.ark:43033669
207o010m /scratch/ravanelm/exp/dirha/fbank/raw_fbank_tr05_cont.3.ark:7354159
01to0316 /scratch/ravanelm/exp/dirha/fbank/raw_fbank_tr05_cont.2.ark:12711939
204o010m /scratch/ravanelm/exp/dirha/fbank/raw_fbank_tr05_cont.3.ark:2242379
40pc020v /scratch/ravanelm/exp/dirha/fbank/raw_fbank_tr05_cont.4.ark:52097119
40fc020z /scratch/ravanelm/exp/dirha/fbank/raw_fbank_tr05_cont.4.ark:22996229
01fc020b /scratch/ravanelm/exp/dirha/fbank/raw_fbank_tr05_cont.1.ark:33679029
018c021d /scratch/ravanelm/exp/dirha/fbank/raw_fbank_tr05_cont.1.ark:19040189
40lc021d /scratch/ravanelm/exp/dirha/fbank/raw_fbank_tr05_cont.4.ark:42825909
40jo030x /scratch/ravanelm/exp/dirha/fbank/raw_fbank_tr05_cont.4.ark:37630219
01pc0204 /scratch/ravanelm/exp/dirha/fbank/raw_fbank_tr05_cont.2.ark:497009
013c020k /scratch/ravanelm/exp/dirha/fbank/raw_fbank_tr05_cont.1.ark:4135169
019o0314 /scratch/ravanelm/exp/dirha/fbank/raw_fbank_tr05_cont.1.ark:23613149
20lo010b /scratch/ravanelm/exp/dirha/fbank/raw_fbank_tr05_cont.3.ark:26255239
01po0308 /scratch/ravanelm/exp/dirha/fbank/raw_fbank_tr05_cont.2.ark:2194849
40ko0318 /scratch/ravanelm/exp/dirha/fbank/raw_fbank_tr05_cont.4.ark:41120999
20oc0102 /scratch/ravanelm/exp/dirha/fbank/raw_fbank_tr05_cont.3.ark:30359459
01eo030u /scratch/ravanelm/exp/dirha/fbank/raw_fbank_tr05_cont.1.ark:32687199
407c0205 /scratch/ravanelm/exp/dirha/fbank/raw_fbank_tr05_cont.3.ark:53857359
013c0214 /scratch/ravanelm/exp/dirha/fbank/raw_fbank_tr05_cont.1.ark:4690009
018c021b /scratch/ravanelm/exp/dirha/fbank/raw_fbank_tr05_cont.1.ark:18974049
20io010h /scratch/ravanelm/exp/dirha/fbank/raw_fbank_tr05_cont.3.ark:24627299
029c021a /scratch/ravanelm/exp/dirha/fbank/raw_fbank_tr05_cont.2.ark:44106579
40po0306 /scratch/ravanelm/exp/dirha/fbank/raw_fbank_tr05_cont.4.ark:52728059
01rc020d /scratch/ravanelm/exp/dirha/fbank/raw_fbank_tr05_cont.2.ark:7071469
40lo0302 /scratch/ravanelm/exp/dirha/fbank/raw_fbank_tr05_cont.4.ark:42956229
20do010q /scratch/ravanelm/exp/dirha/fbank/raw_fbank_tr05_cont.3.ark:17454189
01uc021d /scratch/ravanelm/exp/dirha/fbank/raw_fbank_tr05_cont.2.ark:14651109
01yo0306 /scratch/ravanelm/exp/dirha/fbank/raw_fbank_tr05_cont.2.ark:21108909
01yc021g /scratch/ravanelm/exp/dirha/fbank/raw_fbank_tr05_cont.2.ark:20922249
40ko0309 /scratch/ravanelm/exp/dirha/fbank/raw_fbank_tr05_cont.4.ark:39897749
40fc020n /scratch/ravanelm/exp/dirha/fbank/raw_fbank_tr05_cont.4.ark:22621669
01qo030t /scratch/ravanelm/exp/dirha/fbank/raw_fbank_tr05_cont.2.ark:6028509
01io030v /scratch/ravanelm/exp/dirha/fbank/raw_fbank_tr05_cont.1.ark:42335819
020o0305 /scratch/ravanelm/exp/dirha/fbank/raw_fbank_tr05_cont.2.ark:27144229
20do0103 /scratch/ravanelm/exp/dirha/fbank/raw_fbank_tr05_cont.3.ark:16618139
205o0109 /scratch/ravanelm/exp/dirha/fbank/raw_fbank_tr05_cont.3.ark:3423919
015o0312 /scratch/ravanelm/exp/dirha/fbank/raw_fbank_tr05_cont.1.ark:12015129
02co030d /scratch/ravanelm/exp/dirha/fbank/raw_fbank_tr05_cont.2.ark:50894419
01fc020h /scratch/ravanelm/exp/dirha/fbank/raw_fbank_tr05_cont.1.ark:33880769
01to030k /scratch/ravanelm/exp/dirha/fbank/raw_fbank_tr05_cont.2.ark:11989159
40nc020d /scratch/ravanelm/exp/dirha/fbank/raw_fbank_tr05_cont.4.ark:48386949
20qc010j /scratch/ravanelm/exp/dirha/fbank/raw_fbank_tr05_cont.3.ark:33815829
019o030y /scratch/ravanelm/exp/dirha/fbank/raw_fbank_tr05_cont.1.ark:23450049
01kc021d /scratch/ravanelm/exp/dirha/fbank/raw_fbank_tr05_cont.1.ark:47980939
40fc0215 /scratch/ravanelm/exp/dirha/fbank/raw_fbank_tr05_cont.4.ark:23172369
40nc020e /scratch/ravanelm/exp/dirha/fbank/raw_fbank_tr05_cont.4.ark:48428659
20hc010f /scratch/ravanelm/exp/dirha/fbank/raw_fbank_tr05_cont.3.ark:22372589
20go010r /scratch/ravanelm/exp/dirha/fbank/raw_fbank_tr05_cont.3.ark:22022189
40ho030n /scratch/ravanelm/exp/dirha/fbank/raw_fbank_tr05_cont.4.ark:31145549
40ho0311 /scratch/ravanelm/exp/dirha/fbank/raw_fbank_tr05_cont.4.ark:31617369
40co030r /scratch/ravanelm/exp/dirha/fbank/raw_fbank_tr05_cont.4.ark:15863999
20do010c /scratch/ravanelm/exp/dirha/fbank/raw_fbank_tr05_cont.3.ark:16903049
027c020h /scratch/ravanelm/exp/dirha/fbank/raw_fbank_tr05_cont.2.ark:37079029
026c020j /scratch/ravanelm/exp/dirha/fbank/raw_fbank_tr05_cont.2.ark:34335969
40jo030i /scratch/ravanelm/exp/dirha/fbank/raw_fbank_tr05_cont.4.ark:37080129
20mc010d /scratch/ravanelm/exp/dirha/fbank/raw_fbank_tr05_cont.3.ark:27306879
021o030r /scratch/ravanelm/exp/dirha/fbank/raw_fbank_tr05_cont.2.ark:30201129
014c021b /scratch/ravanelm/exp/dirha/fbank/raw_fbank_tr05_cont.1.ark:7588639
40mc0219 /scratch/ravanelm/exp/dirha/fbank/raw_fbank_tr05_cont.4.ark:46174039
20vc0104 /scratch/ravanelm/exp/dirha/fbank/raw_fbank_tr05_cont.3.ark:38164179
40ic021c /scratch/ravanelm/exp/dirha/fbank/raw_fbank_tr05_cont.4.ark:33422089
01lo031b /scratch/ravanelm/exp/dirha/fbank/raw_fbank_tr05_cont.1.ark:53935349
01eo030s /scratch/ravanelm/exp/dirha/fbank/raw_fbank_tr05_cont.1.ark:32637379
40lo031d /scratch/ravanelm/exp/dirha/fbank/raw_fbank_tr05_cont.4.ark:44863279
406o030i /scratch/ravanelm/exp/dirha/fbank/raw_fbank_tr05_cont.3.ark:52682519
406c0206 /scratch/ravanelm/exp/dirha/fbank/raw_fbank_tr05_cont.3.ark:51093339
02bc0207 /scratch/ravanelm/exp/dirha/fbank/raw_fbank_tr05_cont.2.ark:46180459
01bc020o /scratch/ravanelm/exp/dirha/fbank/raw_fbank_tr05_cont.1.ark:24567309
20dc0103 /scratch/ravanelm/exp/dirha/fbank/raw_fbank_tr05_cont.3.ark:15818829
206o010h /scratch/ravanelm/exp/dirha/fbank/raw_fbank_tr05_cont.3.ark:5440669
20ec010c /scratch/ravanelm/exp/dirha/fbank/raw_fbank_tr05_cont.3.ark:17861379
02ec0204 /scratch/ravanelm/exp/dirha/fbank/raw_fbank_tr05_cont.2.ark:52344369
404o030j /scratch/ravanelm/exp/dirha/fbank/raw_fbank_tr05_cont.3.ark:47369159
408c0201 /scratch/ravanelm/exp/dirha/fbank/raw_fbank_tr05_cont.4.ark:2409879
021o030i /scratch/ravanelm/exp/dirha/fbank/raw_fbank_tr05_cont.2.ark:29892059
027c020l /scratch/ravanelm/exp/dirha/fbank/raw_fbank_tr05_cont.2.ark:37171669
01wc0208 /scratch/ravanelm/exp/dirha/fbank/raw_fbank_tr05_cont.2.ark:16827549
20rc010m /scratch/ravanelm/exp/dirha/fbank/raw_fbank_tr05_cont.3.ark:35616729
40mc0207 /scratch/ravanelm/exp/dirha/fbank/raw_fbank_tr05_cont.4.ark:45172019
40mo0313 /scratch/ravanelm/exp/dirha/fbank/raw_fbank_tr05_cont.4.ark:47742059
01ko030o /scratch/ravanelm/exp/dirha/fbank/raw_fbank_tr05_cont.1.ark:49057369
20do0102 /scratch/ravanelm/exp/dirha/fbank/raw_fbank_tr05_cont.3.ark:16589229
40mc020q /scratch/ravanelm/exp/dirha/fbank/raw_fbank_tr05_cont.4.ark:45666749
40lc020j /scratch/ravanelm/exp/dirha/fbank/raw_fbank_tr05_cont.4.ark:41870609
20io010g /scratch/ravanelm/exp/dirha/fbank/raw_fbank_tr05_cont.3.ark:24576629
027o031b /scratch/ravanelm/exp/dirha/fbank/raw_fbank_tr05_cont.2.ark:39754879
02co0319 /scratch/ravanelm/exp/dirha/fbank/raw_fbank_tr05_cont.2.ark:51969899
029o030r /scratch/ravanelm/exp/dirha/fbank/raw_fbank_tr05_cont.2.ark:45184569
40nc0207 /scratch/ravanelm/exp/dirha/fbank/raw_fbank_tr05_cont.4.ark:48210689
20io010f /scratch/ravanelm/exp/dirha/fbank/raw_fbank_tr05_cont.3.ark:24535719
01lo030m /scratch/ravanelm/exp/dirha/fbank/raw_fbank_tr05_cont.1.ark:52867879
40fo030c /scratch/ravanelm/exp/dirha/fbank/raw_fbank_tr05_cont.4.ark:23820899
404c020c /scratch/ravanelm/exp/dirha/fbank/raw_fbank_tr05_cont.3.ark:45840859
40bo0310 /scratch/ravanelm/exp/dirha/fbank/raw_fbank_tr05_cont.4.ark:13580719
018c020w /scratch/ravanelm/exp/dirha/fbank/raw_fbank_tr05_cont.1.ark:18520639
011o0313 /scratch/ravanelm/exp/dirha/fbank/raw_fbank_tr05_cont.1.ark:2923089
204c010k /scratch/ravanelm/exp/dirha/fbank/raw_fbank_tr05_cont.3.ark:1459729
01qc021e /scratch/ravanelm/exp/dirha/fbank/raw_fbank_tr05_cont.2.ark:5000919
01mc020v /scratch/ravanelm/exp/dirha/fbank/raw_fbank_tr05_cont.1.ark:54823619
018o0310 /scratch/ravanelm/exp/dirha/fbank/raw_fbank_tr05_cont.1.ark:20544519
01zc021a /scratch/ravanelm/exp/dirha/fbank/raw_fbank_tr05_cont.2.ark:23909229
02co030s /scratch/ravanelm/exp/dirha/fbank/raw_fbank_tr05_cont.2.ark:51398669
40ko030x /scratch/ravanelm/exp/dirha/fbank/raw_fbank_tr05_cont.4.ark:40755349
020c020t /scratch/ravanelm/exp/dirha/fbank/raw_fbank_tr05_cont.2.ark:26669489
02cc0204 /scratch/ravanelm/exp/dirha/fbank/raw_fbank_tr05_cont.2.ark:49330389
020c020v /scratch/ravanelm/exp/dirha/fbank/raw_fbank_tr05_cont.2.ark:26720589
40dc0216 /scratch/ravanelm/exp/dirha/fbank/raw_fbank_tr05_cont.4.ark:17695369
01jc021f /scratch/ravanelm/exp/dirha/fbank/raw_fbank_tr05_cont.1.ark:44513669
20lc010o /scratch/ravanelm/exp/dirha/fbank/raw_fbank_tr05_cont.3.ark:25716049
02eo0304 /scratch/ravanelm/exp/dirha/fbank/raw_fbank_tr05_cont.2.ark:53958149
020o030i /scratch/ravanelm/exp/dirha/fbank/raw_fbank_tr05_cont.2.ark:27334869
01qc0206 /scratch/ravanelm/exp/dirha/fbank/raw_fbank_tr05_cont.2.ark:3814839
20go0102 /scratch/ravanelm/exp/dirha/fbank/raw_fbank_tr05_cont.3.ark:21338319
01yc020z /scratch/ravanelm/exp/dirha/fbank/raw_fbank_tr05_cont.2.ark:20493539
02bo030c /scratch/ravanelm/exp/dirha/fbank/raw_fbank_tr05_cont.2.ark:47850699
20bc0101 /scratch/ravanelm/exp/dirha/fbank/raw_fbank_tr05_cont.3.ark:12508459
40ao030r /scratch/ravanelm/exp/dirha/fbank/raw_fbank_tr05_cont.4.ark:10133309
01mc020o /scratch/ravanelm/exp/dirha/fbank/raw_fbank_tr05_cont.1.ark:54633129
01uc020a /scratch/ravanelm/exp/dirha/fbank/raw_fbank_tr05_cont.2.ark:13439779
01ko030f /scratch/ravanelm/exp/dirha/fbank/raw_fbank_tr05_cont.1.ark:48676539
01po030j /scratch/ravanelm/exp/dirha/fbank/raw_fbank_tr05_cont.2.ark:2531029
018c021c /scratch/ravanelm/exp/dirha/fbank/raw_fbank_tr05_cont.1.ark:19003959
40ko030n /scratch/ravanelm/exp/dirha/fbank/raw_fbank_tr05_cont.4.ark:40392969
015c020i /scratch/ravanelm/exp/dirha/fbank/raw_fbank_tr05_cont.1.ark:9944509
20mc010e /scratch/ravanelm/exp/dirha/fbank/raw_fbank_tr05_cont.3.ark:27341949
01fo030n /scratch/ravanelm/exp/dirha/fbank/raw_fbank_tr05_cont.1.ark:35559229
401o030n /scratch/ravanelm/exp/dirha/fbank/raw_fbank_tr05_cont.3.ark:41925169
40jo0309 /scratch/ravanelm/exp/dirha/fbank/raw_fbank_tr05_cont.4.ark:36774579
01wo030t /scratch/ravanelm/exp/dirha/fbank/raw_fbank_tr05_cont.2.ark:18813609
020o030q /scratch/ravanelm/exp/dirha/fbank/raw_fbank_tr05_cont.2.ark:27497709
029c0213 /scratch/ravanelm/exp/dirha/fbank/raw_fbank_tr05_cont.2.ark:43911249
018c020z /scratch/ravanelm/exp/dirha/fbank/raw_fbank_tr05_cont.1.ark:18599849
024o031b /scratch/ravanelm/exp/dirha/fbank/raw_fbank_tr05_cont.2.ark:33678559
401o030d /scratch/ravanelm/exp/dirha/fbank/raw_fbank_tr05_cont.3.ark:41488989
01lo0316 /scratch/ravanelm/exp/dirha/fbank/raw_fbank_tr05_cont.1.ark:53687399
01eo0314 /scratch/ravanelm/exp/dirha/fbank/raw_fbank_tr05_cont.1.ark:33015899
20lo010g /scratch/ravanelm/exp/dirha/fbank/raw_fbank_tr05_cont.3.ark:26546109
01mo030y /scratch/ravanelm/exp/dirha/fbank/raw_fbank_tr05_cont.1.ark:56437359
40fo0306 /scratch/ravanelm/exp/dirha/fbank/raw_fbank_tr05_cont.4.ark:23613399
40mc020v /scratch/ravanelm/exp/dirha/fbank/raw_fbank_tr05_cont.4.ark:45784299
408c020w /scratch/ravanelm/exp/dirha/fbank/raw_fbank_tr05_cont.4.ark:3152129
409c020h /scratch/ravanelm/exp/dirha/fbank/raw_fbank_tr05_cont.4.ark:5321039
40ec020p /scratch/ravanelm/exp/dirha/fbank/raw_fbank_tr05_cont.4.ark:19948369
01kc0206 /scratch/ravanelm/exp/dirha/fbank/raw_fbank_tr05_cont.1.ark:46657919
40nc021g /scratch/ravanelm/exp/dirha/fbank/raw_fbank_tr05_cont.4.ark:49556639
206o010o /scratch/ravanelm/exp/dirha/fbank/raw_fbank_tr05_cont.3.ark:5743119
01bo0310 /scratch/ravanelm/exp/dirha/fbank/raw_fbank_tr05_cont.1.ark:26914719
207o010f /scratch/ravanelm/exp/dirha/fbank/raw_fbank_tr05_cont.3.ark:7124989
013c0209 /scratch/ravanelm/exp/dirha/fbank/raw_fbank_tr05_cont.1.ark:3797559
01lc0208 /scratch/ravanelm/exp/dirha/fbank/raw_fbank_tr05_cont.1.ark:50495089
028c021f /scratch/ravanelm/exp/dirha/fbank/raw_fbank_tr05_cont.2.ark:41071729
028o030p /scratch/ravanelm/exp/dirha/fbank/raw_fbank_tr05_cont.2.ark:41992999
01ec0207 /scratch/ravanelm/exp/dirha/fbank/raw_fbank_tr05_cont.1.ark:30599449
01yc020e /scratch/ravanelm/exp/dirha/fbank/raw_fbank_tr05_cont.2.ark:19889909
019c0215 /scratch/ravanelm/exp/dirha/fbank/raw_fbank_tr05_cont.1.ark:22072949
20qc010b /scratch/ravanelm/exp/dirha/fbank/raw_fbank_tr05_cont.3.ark:33589349
021o030w /scratch/ravanelm/exp/dirha/fbank/raw_fbank_tr05_cont.2.ark:30325879
01pc0209 /scratch/ravanelm/exp/dirha/fbank/raw_fbank_tr05_cont.2.ark:631079
027o0311 /scratch/ravanelm/exp/dirha/fbank/raw_fbank_tr05_cont.2.ark:39439939
409c020x /scratch/ravanelm/exp/dirha/fbank/raw_fbank_tr05_cont.4.ark:5792439
20mc010b /scratch/ravanelm/exp/dirha/fbank/raw_fbank_tr05_cont.3.ark:27274979
02co0301 /scratch/ravanelm/exp/dirha/fbank/raw_fbank_tr05_cont.2.ark:50541459
020c0211 /scratch/ravanelm/exp/dirha/fbank/raw_fbank_tr05_cont.2.ark:26822249
01dc020c /scratch/ravanelm/exp/dirha/fbank/raw_fbank_tr05_cont.1.ark:27685999
027o0301 /scratch/ravanelm/exp/dirha/fbank/raw_fbank_tr05_cont.2.ark:38045699
208o0106 /scratch/ravanelm/exp/dirha/fbank/raw_fbank_tr05_cont.3.ark:8552849
40io030i /scratch/ravanelm/exp/dirha/fbank/raw_fbank_tr05_cont.4.ark:34094359
403o0314 /scratch/ravanelm/exp/dirha/fbank/raw_fbank_tr05_cont.3.ark:45315849
01fc0218 /scratch/ravanelm/exp/dirha/fbank/raw_fbank_tr05_cont.1.ark:34542139
01mo030o /scratch/ravanelm/exp/dirha/fbank/raw_fbank_tr05_cont.1.ark:56073579
40mo030n /scratch/ravanelm/exp/dirha/fbank/raw_fbank_tr05_cont.4.ark:47192859
015o030z /scratch/ravanelm/exp/dirha/fbank/raw_fbank_tr05_cont.1.ark:11894719
40dc0218 /scratch/ravanelm/exp/dirha/fbank/raw_fbank_tr05_cont.4.ark:17743629
01uc020s /scratch/ravanelm/exp/dirha/fbank/raw_fbank_tr05_cont.2.ark:13953239
20do0105 /scratch/ravanelm/exp/dirha/fbank/raw_fbank_tr05_cont.3.ark:16718039
028o0307 /scratch/ravanelm/exp/dirha/fbank/raw_fbank_tr05_cont.2.ark:41302179
