40gc020h /scratch/ravanelm/exp/dirha/fbank/raw_fbank_tr05_cont.4.ark:25744489
20rc010n /scratch/ravanelm/exp/dirha/fbank/raw_fbank_tr05_cont.3.ark:35637239
01ec020n /scratch/ravanelm/exp/dirha/fbank/raw_fbank_tr05_cont.1.ark:31007409
01lc020g /scratch/ravanelm/exp/dirha/fbank/raw_fbank_tr05_cont.1.ark:50778209
01qo030d /scratch/ravanelm/exp/dirha/fbank/raw_fbank_tr05_cont.2.ark:5451989
018o030j /scratch/ravanelm/exp/dirha/fbank/raw_fbank_tr05_cont.1.ark:19861489
406o030k /scratch/ravanelm/exp/dirha/fbank/raw_fbank_tr05_cont.3.ark:52749139
01ro030d /scratch/ravanelm/exp/dirha/fbank/raw_fbank_tr05_cont.2.ark:8474469
40no030x /scratch/ravanelm/exp/dirha/fbank/raw_fbank_tr05_cont.4.ark:50725909
016c0211 /scratch/ravanelm/exp/dirha/fbank/raw_fbank_tr05_cont.1.ark:13147329
01tc020k /scratch/ravanelm/exp/dirha/fbank/raw_fbank_tr05_cont.2.ark:10267869
405c020b /scratch/ravanelm/exp/dirha/fbank/raw_fbank_tr05_cont.3.ark:48512429
40gc0208 /scratch/ravanelm/exp/dirha/fbank/raw_fbank_tr05_cont.4.ark:25427459
019c0206 /scratch/ravanelm/exp/dirha/fbank/raw_fbank_tr05_cont.1.ark:21218899
40lc0214 /scratch/ravanelm/exp/dirha/fbank/raw_fbank_tr05_cont.4.ark:42514279
02bo030f /scratch/ravanelm/exp/dirha/fbank/raw_fbank_tr05_cont.2.ark:47964629
20fo0107 /scratch/ravanelm/exp/dirha/fbank/raw_fbank_tr05_cont.3.ark:20177029
209o0106 /scratch/ravanelm/exp/dirha/fbank/raw_fbank_tr05_cont.3.ark:10103559
01jc021e /scratch/ravanelm/exp/dirha/fbank/raw_fbank_tr05_cont.1.ark:44489079
020o0314 /scratch/ravanelm/exp/dirha/fbank/raw_fbank_tr05_cont.2.ark:27771519
024o0319 /scratch/ravanelm/exp/dirha/fbank/raw_fbank_tr05_cont.2.ark:33621499
40pc0213 /scratch/ravanelm/exp/dirha/fbank/raw_fbank_tr05_cont.4.ark:52301319
02co030u /scratch/ravanelm/exp/dirha/fbank/raw_fbank_tr05_cont.2.ark:51449529
020o030l /scratch/ravanelm/exp/dirha/fbank/raw_fbank_tr05_cont.2.ark:27393999
207c0109 /scratch/ravanelm/exp/dirha/fbank/raw_fbank_tr05_cont.3.ark:6144629
01kc021e /scratch/ravanelm/exp/dirha/fbank/raw_fbank_tr05_cont.1.ark:48017369
01ko030d /scratch/ravanelm/exp/dirha/fbank/raw_fbank_tr05_cont.1.ark:48580359
01go0315 /scratch/ravanelm/exp/dirha/fbank/raw_fbank_tr05_cont.1.ark:39199109
026o0313 /scratch/ravanelm/exp/dirha/fbank/raw_fbank_tr05_cont.2.ark:36326609
01io031a /scratch/ravanelm/exp/dirha/fbank/raw_fbank_tr05_cont.1.ark:42843869
40lo0305 /scratch/ravanelm/exp/dirha/fbank/raw_fbank_tr05_cont.4.ark:43055079
020c0219 /scratch/ravanelm/exp/dirha/fbank/raw_fbank_tr05_cont.2.ark:26957609
014c0202 /scratch/ravanelm/exp/dirha/fbank/raw_fbank_tr05_cont.1.ark:6548409
405c020w /scratch/ravanelm/exp/dirha/fbank/raw_fbank_tr05_cont.3.ark:48993179
408o030q /scratch/ravanelm/exp/dirha/fbank/raw_fbank_tr05_cont.4.ark:4325189
018c0206 /scratch/ravanelm/exp/dirha/fbank/raw_fbank_tr05_cont.1.ark:17784059
01uc0210 /scratch/ravanelm/exp/dirha/fbank/raw_fbank_tr05_cont.2.ark:14225959
20ic010g /scratch/ravanelm/exp/dirha/fbank/raw_fbank_tr05_cont.3.ark:23794789
01yc021g /scratch/ravanelm/exp/dirha/fbank/raw_fbank_tr05_cont.2.ark:20922249
021c021c /scratch/ravanelm/exp/dirha/fbank/raw_fbank_tr05_cont.2.ark:29297789
401c0217 /scratch/ravanelm/exp/dirha/fbank/raw_fbank_tr05_cont.3.ark:40822119
40do0317 /scratch/ravanelm/exp/dirha/fbank/raw_fbank_tr05_cont.4.ark:19227119
021o030s /scratch/ravanelm/exp/dirha/fbank/raw_fbank_tr05_cont.2.ark:30229159
01tc0204 /scratch/ravanelm/exp/dirha/fbank/raw_fbank_tr05_cont.2.ark:9733949
01to030y /scratch/ravanelm/exp/dirha/fbank/raw_fbank_tr05_cont.2.ark:12444059
20no010n /scratch/ravanelm/exp/dirha/fbank/raw_fbank_tr05_cont.3.ark:30150959
40ic020i /scratch/ravanelm/exp/dirha/fbank/raw_fbank_tr05_cont.4.ark:32584829
01ic0201 /scratch/ravanelm/exp/dirha/fbank/raw_fbank_tr05_cont.1.ark:39677869
01yc021e /scratch/ravanelm/exp/dirha/fbank/raw_fbank_tr05_cont.2.ark:20881709
02bc0213 /scratch/ravanelm/exp/dirha/fbank/raw_fbank_tr05_cont.2.ark:47048339
013c0210 /scratch/ravanelm/exp/dirha/fbank/raw_fbank_tr05_cont.1.ark:4582689
40lc020k /scratch/ravanelm/exp/dirha/fbank/raw_fbank_tr05_cont.4.ark:41900719
027o0313 /scratch/ravanelm/exp/dirha/fbank/raw_fbank_tr05_cont.2.ark:39508959
029c020k /scratch/ravanelm/exp/dirha/fbank/raw_fbank_tr05_cont.2.ark:43405039
40mc020b /scratch/ravanelm/exp/dirha/fbank/raw_fbank_tr05_cont.4.ark:45285579
40jo0317 /scratch/ravanelm/exp/dirha/fbank/raw_fbank_tr05_cont.4.ark:37951799
01dc0216 /scratch/ravanelm/exp/dirha/fbank/raw_fbank_tr05_cont.1.ark:28492899
20bc010i /scratch/ravanelm/exp/dirha/fbank/raw_fbank_tr05_cont.3.ark:12930409
408c020d /scratch/ravanelm/exp/dirha/fbank/raw_fbank_tr05_cont.4.ark:2679119
20co0109 /scratch/ravanelm/exp/dirha/fbank/raw_fbank_tr05_cont.3.ark:15231349
01tc021b /scratch/ravanelm/exp/dirha/fbank/raw_fbank_tr05_cont.2.ark:11170999
20ec010b /scratch/ravanelm/exp/dirha/fbank/raw_fbank_tr05_cont.3.ark:17825829
401c020r /scratch/ravanelm/exp/dirha/fbank/raw_fbank_tr05_cont.3.ark:40346679
20vo010c /scratch/ravanelm/exp/dirha/fbank/raw_fbank_tr05_cont.3.ark:39067489
01wc020t /scratch/ravanelm/exp/dirha/fbank/raw_fbank_tr05_cont.2.ark:17444019
01zc0209 /scratch/ravanelm/exp/dirha/fbank/raw_fbank_tr05_cont.2.ark:22837799
401c020p /scratch/ravanelm/exp/dirha/fbank/raw_fbank_tr05_cont.3.ark:40304499
01bo030j /scratch/ravanelm/exp/dirha/fbank/raw_fbank_tr05_cont.1.ark:26182289
01lc0206 /scratch/ravanelm/exp/dirha/fbank/raw_fbank_tr05_cont.1.ark:50417909
40fc020b /scratch/ravanelm/exp/dirha/fbank/raw_fbank_tr05_cont.4.ark:22280389
40do030f /scratch/ravanelm/exp/dirha/fbank/raw_fbank_tr05_cont.4.ark:18346679
02cc020y /scratch/ravanelm/exp/dirha/fbank/raw_fbank_tr05_cont.2.ark:50090779
01ko0316 /scratch/ravanelm/exp/dirha/fbank/raw_fbank_tr05_cont.1.ark:49740949
015o030m /scratch/ravanelm/exp/dirha/fbank/raw_fbank_tr05_cont.1.ark:11478409
016c0216 /scratch/ravanelm/exp/dirha/fbank/raw_fbank_tr05_cont.1.ark:13215899
20hc010e /scratch/ravanelm/exp/dirha/fbank/raw_fbank_tr05_cont.3.ark:22349279
20eo010c /scratch/ravanelm/exp/dirha/fbank/raw_fbank_tr05_cont.3.ark:18719459
403o030e /scratch/ravanelm/exp/dirha/fbank/raw_fbank_tr05_cont.3.ark:44536549
40hc020u /scratch/ravanelm/exp/dirha/fbank/raw_fbank_tr05_cont.4.ark:29857229
01tc0211 /scratch/ravanelm/exp/dirha/fbank/raw_fbank_tr05_cont.2.ark:10878099
20qo010m /scratch/ravanelm/exp/dirha/fbank/raw_fbank_tr05_cont.3.ark:34825709
01qo0314 /scratch/ravanelm/exp/dirha/fbank/raw_fbank_tr05_cont.2.ark:6351999
406c0206 /scratch/ravanelm/exp/dirha/fbank/raw_fbank_tr05_cont.3.ark:51093339
01jc020x /scratch/ravanelm/exp/dirha/fbank/raw_fbank_tr05_cont.1.ark:43944089
40do030c /scratch/ravanelm/exp/dirha/fbank/raw_fbank_tr05_cont.4.ark:18244349
01qc0206 /scratch/ravanelm/exp/dirha/fbank/raw_fbank_tr05_cont.2.ark:3814839
02bc020e /scratch/ravanelm/exp/dirha/fbank/raw_fbank_tr05_cont.2.ark:46392869
01wo031c /scratch/ravanelm/exp/dirha/fbank/raw_fbank_tr05_cont.2.ark:19438139
20ac010k /scratch/ravanelm/exp/dirha/fbank/raw_fbank_tr05_cont.3.ark:11252729
01ko030g /scratch/ravanelm/exp/dirha/fbank/raw_fbank_tr05_cont.1.ark:48721849
20cc010d /scratch/ravanelm/exp/dirha/fbank/raw_fbank_tr05_cont.3.ark:14638509
028o030n /scratch/ravanelm/exp/dirha/fbank/raw_fbank_tr05_cont.2.ark:41954659
029o030j /scratch/ravanelm/exp/dirha/fbank/raw_fbank_tr05_cont.2.ark:44877529
408c021h /scratch/ravanelm/exp/dirha/fbank/raw_fbank_tr05_cont.4.ark:3555569
01yc021a /scratch/ravanelm/exp/dirha/fbank/raw_fbank_tr05_cont.2.ark:20750349
021o030z /scratch/ravanelm/exp/dirha/fbank/raw_fbank_tr05_cont.2.ark:30421009
401o0301 /scratch/ravanelm/exp/dirha/fbank/raw_fbank_tr05_cont.3.ark:41071189
40pc0207 /scratch/ravanelm/exp/dirha/fbank/raw_fbank_tr05_cont.4.ark:51563839
021o0304 /scratch/ravanelm/exp/dirha/fbank/raw_fbank_tr05_cont.2.ark:29476079
20vo0106 /scratch/ravanelm/exp/dirha/fbank/raw_fbank_tr05_cont.3.ark:38894269
40dc020x /scratch/ravanelm/exp/dirha/fbank/raw_fbank_tr05_cont.4.ark:17426259
40io0309 /scratch/ravanelm/exp/dirha/fbank/raw_fbank_tr05_cont.4.ark:33762929
027c020q /scratch/ravanelm/exp/dirha/fbank/raw_fbank_tr05_cont.2.ark:37255419
015o0310 /scratch/ravanelm/exp/dirha/fbank/raw_fbank_tr05_cont.1.ark:11937309
029c0211 /scratch/ravanelm/exp/dirha/fbank/raw_fbank_tr05_cont.2.ark:43868949
20ao0102 /scratch/ravanelm/exp/dirha/fbank/raw_fbank_tr05_cont.3.ark:11410669
018o0307 /scratch/ravanelm/exp/dirha/fbank/raw_fbank_tr05_cont.1.ark:19418769
01lo030s /scratch/ravanelm/exp/dirha/fbank/raw_fbank_tr05_cont.1.ark:53030819
403c020n /scratch/ravanelm/exp/dirha/fbank/raw_fbank_tr05_cont.3.ark:43390769
029o030r /scratch/ravanelm/exp/dirha/fbank/raw_fbank_tr05_cont.2.ark:45184569
01rc0211 /scratch/ravanelm/exp/dirha/fbank/raw_fbank_tr05_cont.2.ark:7800269
20tc0106 /scratch/ravanelm/exp/dirha/fbank/raw_fbank_tr05_cont.3.ark:36865509
01to030s /scratch/ravanelm/exp/dirha/fbank/raw_fbank_tr05_cont.2.ark:12255199
40go030b /scratch/ravanelm/exp/dirha/fbank/raw_fbank_tr05_cont.4.ark:27437599
40mo030s /scratch/ravanelm/exp/dirha/fbank/raw_fbank_tr05_cont.4.ark:47375009
013c020s /scratch/ravanelm/exp/dirha/fbank/raw_fbank_tr05_cont.1.ark:4396449
01io031e /scratch/ravanelm/exp/dirha/fbank/raw_fbank_tr05_cont.1.ark:42933389
01bo030n /scratch/ravanelm/exp/dirha/fbank/raw_fbank_tr05_cont.1.ark:26360609
01uo030b /scratch/ravanelm/exp/dirha/fbank/raw_fbank_tr05_cont.2.ark:15135059
01mo0312 /scratch/ravanelm/exp/dirha/fbank/raw_fbank_tr05_cont.2.ark:9
409o0302 /scratch/ravanelm/exp/dirha/fbank/raw_fbank_tr05_cont.4.ark:6327949
01uo030r /scratch/ravanelm/exp/dirha/fbank/raw_fbank_tr05_cont.2.ark:15700019
40jo0304 /scratch/ravanelm/exp/dirha/fbank/raw_fbank_tr05_cont.4.ark:36572629
019o0311 /scratch/ravanelm/exp/dirha/fbank/raw_fbank_tr05_cont.1.ark:23538499
403o030y /scratch/ravanelm/exp/dirha/fbank/raw_fbank_tr05_cont.3.ark:45126309
02bc0201 /scratch/ravanelm/exp/dirha/fbank/raw_fbank_tr05_cont.2.ark:46031799
011o0314 /scratch/ravanelm/exp/dirha/fbank/raw_fbank_tr05_cont.1.ark:2977759
408o030h /scratch/ravanelm/exp/dirha/fbank/raw_fbank_tr05_cont.4.ark:4035199
40hc020v /scratch/ravanelm/exp/dirha/fbank/raw_fbank_tr05_cont.4.ark:29868859
02bc0219 /scratch/ravanelm/exp/dirha/fbank/raw_fbank_tr05_cont.2.ark:47236239
404c0207 /scratch/ravanelm/exp/dirha/fbank/raw_fbank_tr05_cont.3.ark:45710349
40do0318 /scratch/ravanelm/exp/dirha/fbank/raw_fbank_tr05_cont.4.ark:19254229
20no010f /scratch/ravanelm/exp/dirha/fbank/raw_fbank_tr05_cont.3.ark:29818959
01fc020i /scratch/ravanelm/exp/dirha/fbank/raw_fbank_tr05_cont.1.ark:33905079
017c0209 /scratch/ravanelm/exp/dirha/fbank/raw_fbank_tr05_cont.1.ark:15010369
40go030x /scratch/ravanelm/exp/dirha/fbank/raw_fbank_tr05_cont.4.ark:28355659
406o0310 /scratch/ravanelm/exp/dirha/fbank/raw_fbank_tr05_cont.3.ark:53295659
01ec0205 /scratch/ravanelm/exp/dirha/fbank/raw_fbank_tr05_cont.1.ark:30536829
40kc021a /scratch/ravanelm/exp/dirha/fbank/raw_fbank_tr05_cont.4.ark:39500419
406o030g /scratch/ravanelm/exp/dirha/fbank/raw_fbank_tr05_cont.3.ark:52636419
409c0217 /scratch/ravanelm/exp/dirha/fbank/raw_fbank_tr05_cont.4.ark:6055379
40jc0209 /scratch/ravanelm/exp/dirha/fbank/raw_fbank_tr05_cont.4.ark:35337839
029c020a /scratch/ravanelm/exp/dirha/fbank/raw_fbank_tr05_cont.2.ark:43101059
40gc020d /scratch/ravanelm/exp/dirha/fbank/raw_fbank_tr05_cont.4.ark:25625729
01ro030z /scratch/ravanelm/exp/dirha/fbank/raw_fbank_tr05_cont.2.ark:9222369
40jc020w /scratch/ravanelm/exp/dirha/fbank/raw_fbank_tr05_cont.4.ark:35967489
01mc020f /scratch/ravanelm/exp/dirha/fbank/raw_fbank_tr05_cont.1.ark:54387419
20mc0106 /scratch/ravanelm/exp/dirha/fbank/raw_fbank_tr05_cont.3.ark:27131709
20oc010c /scratch/ravanelm/exp/dirha/fbank/raw_fbank_tr05_cont.3.ark:30654399
011o031f /scratch/ravanelm/exp/dirha/fbank/raw_fbank_tr05_cont.1.ark:3490329
01yc020v /scratch/ravanelm/exp/dirha/fbank/raw_fbank_tr05_cont.2.ark:20365499
207o010b /scratch/ravanelm/exp/dirha/fbank/raw_fbank_tr05_cont.3.ark:7006069
01io031d /scratch/ravanelm/exp/dirha/fbank/raw_fbank_tr05_cont.1.ark:42902159
018o030u /scratch/ravanelm/exp/dirha/fbank/raw_fbank_tr05_cont.1.ark:20289099
01wc0209 /scratch/ravanelm/exp/dirha/fbank/raw_fbank_tr05_cont.2.ark:16859979
20mo010c /scratch/ravanelm/exp/dirha/fbank/raw_fbank_tr05_cont.3.ark:28004799
01zo030u /scratch/ravanelm/exp/dirha/fbank/raw_fbank_tr05_cont.2.ark:25272079
01uc021c /scratch/ravanelm/exp/dirha/fbank/raw_fbank_tr05_cont.2.ark:14614519
405c020x /scratch/ravanelm/exp/dirha/fbank/raw_fbank_tr05_cont.3.ark:49021369
028o0301 /scratch/ravanelm/exp/dirha/fbank/raw_fbank_tr05_cont.2.ark:41095519
40fc0214 /scratch/ravanelm/exp/dirha/fbank/raw_fbank_tr05_cont.4.ark:23129499
20bo010c /scratch/ravanelm/exp/dirha/fbank/raw_fbank_tr05_cont.3.ark:13591669
01zo031f /scratch/ravanelm/exp/dirha/fbank/raw_fbank_tr05_cont.2.ark:26069829
40jc020f /scratch/ravanelm/exp/dirha/fbank/raw_fbank_tr05_cont.4.ark:35481299
20fc010m /scratch/ravanelm/exp/dirha/fbank/raw_fbank_tr05_cont.3.ark:19830539
01dc020w /scratch/ravanelm/exp/dirha/fbank/raw_fbank_tr05_cont.1.ark:28235839
017o030i /scratch/ravanelm/exp/dirha/fbank/raw_fbank_tr05_cont.1.ark:16612519
01tc020c /scratch/ravanelm/exp/dirha/fbank/raw_fbank_tr05_cont.2.ark:9997109
20dc010n /scratch/ravanelm/exp/dirha/fbank/raw_fbank_tr05_cont.3.ark:16451029
01jo0308 /scratch/ravanelm/exp/dirha/fbank/raw_fbank_tr05_cont.1.ark:44867259
01qo031c /scratch/ravanelm/exp/dirha/fbank/raw_fbank_tr05_cont.2.ark:6551199
408o031c /scratch/ravanelm/exp/dirha/fbank/raw_fbank_tr05_cont.4.ark:4855689
02co030d /scratch/ravanelm/exp/dirha/fbank/raw_fbank_tr05_cont.2.ark:50894419
40bc020g /scratch/ravanelm/exp/dirha/fbank/raw_fbank_tr05_cont.4.ark:11354829
029c020j /scratch/ravanelm/exp/dirha/fbank/raw_fbank_tr05_cont.2.ark:43361889
40lo0308 /scratch/ravanelm/exp/dirha/fbank/raw_fbank_tr05_cont.4.ark:43132849
029c0218 /scratch/ravanelm/exp/dirha/fbank/raw_fbank_tr05_cont.2.ark:44051599
406c020g /scratch/ravanelm/exp/dirha/fbank/raw_fbank_tr05_cont.3.ark:51361239
20ro0104 /scratch/ravanelm/exp/dirha/fbank/raw_fbank_tr05_cont.3.ark:35783519
01pc020b /scratch/ravanelm/exp/dirha/fbank/raw_fbank_tr05_cont.2.ark:712699
02ec0210 /scratch/ravanelm/exp/dirha/fbank/raw_fbank_tr05_cont.2.ark:53331849
409o0310 /scratch/ravanelm/exp/dirha/fbank/raw_fbank_tr05_cont.4.ark:7347849
01zo0314 /scratch/ravanelm/exp/dirha/fbank/raw_fbank_tr05_cont.2.ark:25696979
205c010b /scratch/ravanelm/exp/dirha/fbank/raw_fbank_tr05_cont.3.ark:2720669
20ec0106 /scratch/ravanelm/exp/dirha/fbank/raw_fbank_tr05_cont.3.ark:17723839
024c0203 /scratch/ravanelm/exp/dirha/fbank/raw_fbank_tr05_cont.2.ark:30962699
20pc0104 /scratch/ravanelm/exp/dirha/fbank/raw_fbank_tr05_cont.3.ark:31865289
01mo0301 /scratch/ravanelm/exp/dirha/fbank/raw_fbank_tr05_cont.1.ark:55392569
404o030e /scratch/ravanelm/exp/dirha/fbank/raw_fbank_tr05_cont.3.ark:47208329
403o030t /scratch/ravanelm/exp/dirha/fbank/raw_fbank_tr05_cont.3.ark:44976759
20io0102 /scratch/ravanelm/exp/dirha/fbank/raw_fbank_tr05_cont.3.ark:24082529
207c0105 /scratch/ravanelm/exp/dirha/fbank/raw_fbank_tr05_cont.3.ark:6039309
01qo031e /scratch/ravanelm/exp/dirha/fbank/raw_fbank_tr05_cont.2.ark:6619019
026c020o /scratch/ravanelm/exp/dirha/fbank/raw_fbank_tr05_cont.2.ark:34431599
01uc020g /scratch/ravanelm/exp/dirha/fbank/raw_fbank_tr05_cont.2.ark:13597959
206c0104 /scratch/ravanelm/exp/dirha/fbank/raw_fbank_tr05_cont.3.ark:4287699
01io030b /scratch/ravanelm/exp/dirha/fbank/raw_fbank_tr05_cont.1.ark:41563019
401o030d /scratch/ravanelm/exp/dirha/fbank/raw_fbank_tr05_cont.3.ark:41488989
01yo0317 /scratch/ravanelm/exp/dirha/fbank/raw_fbank_tr05_cont.2.ark:22371859
018c0218 /scratch/ravanelm/exp/dirha/fbank/raw_fbank_tr05_cont.1.ark:18867679
405o030z /scratch/ravanelm/exp/dirha/fbank/raw_fbank_tr05_cont.3.ark:50438279
024c0215 /scratch/ravanelm/exp/dirha/fbank/raw_fbank_tr05_cont.2.ark:32054079
409c020p /scratch/ravanelm/exp/dirha/fbank/raw_fbank_tr05_cont.4.ark:5531799
01lo030i /scratch/ravanelm/exp/dirha/fbank/raw_fbank_tr05_cont.1.ark:52657079
01qo0303 /scratch/ravanelm/exp/dirha/fbank/raw_fbank_tr05_cont.2.ark:5102689
40io030o /scratch/ravanelm/exp/dirha/fbank/raw_fbank_tr05_cont.4.ark:34280019
401o030e /scratch/ravanelm/exp/dirha/fbank/raw_fbank_tr05_cont.3.ark:41525859
01mo0304 /scratch/ravanelm/exp/dirha/fbank/raw_fbank_tr05_cont.1.ark:55494059
01qc020g /scratch/ravanelm/exp/dirha/fbank/raw_fbank_tr05_cont.2.ark:4157419
207c010a /scratch/ravanelm/exp/dirha/fbank/raw_fbank_tr05_cont.3.ark:6167219
01lo0309 /scratch/ravanelm/exp/dirha/fbank/raw_fbank_tr05_cont.1.ark:52221969
40po030n /scratch/ravanelm/exp/dirha/fbank/raw_fbank_tr05_cont.4.ark:53369249
20qo010e /scratch/ravanelm/exp/dirha/fbank/raw_fbank_tr05_cont.3.ark:34551389
018o0305 /scratch/ravanelm/exp/dirha/fbank/raw_fbank_tr05_cont.1.ark:19358389
40lo030v /scratch/ravanelm/exp/dirha/fbank/raw_fbank_tr05_cont.4.ark:44171739
01dc021b /scratch/ravanelm/exp/dirha/fbank/raw_fbank_tr05_cont.1.ark:28654889
403o031a /scratch/ravanelm/exp/dirha/fbank/raw_fbank_tr05_cont.3.ark:45507429
40ec020e /scratch/ravanelm/exp/dirha/fbank/raw_fbank_tr05_cont.4.ark:19718519
01ko030e /scratch/ravanelm/exp/dirha/fbank/raw_fbank_tr05_cont.1.ark:48642069
40pc020p /scratch/ravanelm/exp/dirha/fbank/raw_fbank_tr05_cont.4.ark:51938539
40co030a /scratch/ravanelm/exp/dirha/fbank/raw_fbank_tr05_cont.4.ark:15367649
01do0302 /scratch/ravanelm/exp/dirha/fbank/raw_fbank_tr05_cont.1.ark:28831189
01jc020m /scratch/ravanelm/exp/dirha/fbank/raw_fbank_tr05_cont.1.ark:43643919
406o0303 /scratch/ravanelm/exp/dirha/fbank/raw_fbank_tr05_cont.3.ark:52284589
01pc020o /scratch/ravanelm/exp/dirha/fbank/raw_fbank_tr05_cont.2.ark:1050409
019c0217 /scratch/ravanelm/exp/dirha/fbank/raw_fbank_tr05_cont.1.ark:22147769
40mo0318 /scratch/ravanelm/exp/dirha/fbank/raw_fbank_tr05_cont.4.ark:47859169
40ac0201 /scratch/ravanelm/exp/dirha/fbank/raw_fbank_tr05_cont.4.ark:7773709
026o030k /scratch/ravanelm/exp/dirha/fbank/raw_fbank_tr05_cont.2.ark:35727639
01mo030o /scratch/ravanelm/exp/dirha/fbank/raw_fbank_tr05_cont.1.ark:56073579
01mc020e /scratch/ravanelm/exp/dirha/fbank/raw_fbank_tr05_cont.1.ark:54370549
01tc020b /scratch/ravanelm/exp/dirha/fbank/raw_fbank_tr05_cont.2.ark:9950839
01wc0203 /scratch/ravanelm/exp/dirha/fbank/raw_fbank_tr05_cont.2.ark:16687839
021o0315 /scratch/ravanelm/exp/dirha/fbank/raw_fbank_tr05_cont.2.ark:30607589
40bo030l /scratch/ravanelm/exp/dirha/fbank/raw_fbank_tr05_cont.4.ark:13059699
02bc020i /scratch/ravanelm/exp/dirha/fbank/raw_fbank_tr05_cont.2.ark:46522829
407c020c /scratch/ravanelm/exp/dirha/fbank/raw_fbank_tr05_cont.3.ark:54006969
01uc020k /scratch/ravanelm/exp/dirha/fbank/raw_fbank_tr05_cont.2.ark:13744679
20dc0105 /scratch/ravanelm/exp/dirha/fbank/raw_fbank_tr05_cont.3.ark:15890489
01yo030b /scratch/ravanelm/exp/dirha/fbank/raw_fbank_tr05_cont.2.ark:21269339
40mo030p /scratch/ravanelm/exp/dirha/fbank/raw_fbank_tr05_cont.4.ark:47249759
01eo030o /scratch/ravanelm/exp/dirha/fbank/raw_fbank_tr05_cont.1.ark:32511979
40gc021b /scratch/ravanelm/exp/dirha/fbank/raw_fbank_tr05_cont.4.ark:26801589
021c020u /scratch/ravanelm/exp/dirha/fbank/raw_fbank_tr05_cont.2.ark:28903009
409o030u /scratch/ravanelm/exp/dirha/fbank/raw_fbank_tr05_cont.4.ark:7182349
01kc020s /scratch/ravanelm/exp/dirha/fbank/raw_fbank_tr05_cont.1.ark:47325109
20ec010l /scratch/ravanelm/exp/dirha/fbank/raw_fbank_tr05_cont.3.ark:18141809
20to010o /scratch/ravanelm/exp/dirha/fbank/raw_fbank_tr05_cont.3.ark:38040589
40bc020e /scratch/ravanelm/exp/dirha/fbank/raw_fbank_tr05_cont.4.ark:11295329
02co0318 /scratch/ravanelm/exp/dirha/fbank/raw_fbank_tr05_cont.2.ark:51917749
40fo0310 /scratch/ravanelm/exp/dirha/fbank/raw_fbank_tr05_cont.4.ark:24581859
019o0313 /scratch/ravanelm/exp/dirha/fbank/raw_fbank_tr05_cont.1.ark:23595839
018c020w /scratch/ravanelm/exp/dirha/fbank/raw_fbank_tr05_cont.1.ark:18520639
01uo0306 /scratch/ravanelm/exp/dirha/fbank/raw_fbank_tr05_cont.2.ark:14962669
204c010c /scratch/ravanelm/exp/dirha/fbank/raw_fbank_tr05_cont.3.ark:1281969
01po0309 /scratch/ravanelm/exp/dirha/fbank/raw_fbank_tr05_cont.2.ark:2239159
01wo030j /scratch/ravanelm/exp/dirha/fbank/raw_fbank_tr05_cont.2.ark:18563339
017c0203 /scratch/ravanelm/exp/dirha/fbank/raw_fbank_tr05_cont.1.ark:14868149
40dc020l /scratch/ravanelm/exp/dirha/fbank/raw_fbank_tr05_cont.4.ark:17043699
20ac010g /scratch/ravanelm/exp/dirha/fbank/raw_fbank_tr05_cont.3.ark:11176289
01eo0313 /scratch/ravanelm/exp/dirha/fbank/raw_fbank_tr05_cont.1.ark:32988069
40do030i /scratch/ravanelm/exp/dirha/fbank/raw_fbank_tr05_cont.4.ark:18451089
021o030m /scratch/ravanelm/exp/dirha/fbank/raw_fbank_tr05_cont.2.ark:30007579
024o0304 /scratch/ravanelm/exp/dirha/fbank/raw_fbank_tr05_cont.2.ark:32419429
01lc0211 /scratch/ravanelm/exp/dirha/fbank/raw_fbank_tr05_cont.1.ark:51375999
027c0206 /scratch/ravanelm/exp/dirha/fbank/raw_fbank_tr05_cont.2.ark:36796139
405c021b /scratch/ravanelm/exp/dirha/fbank/raw_fbank_tr05_cont.3.ark:49356629
018o031a /scratch/ravanelm/exp/dirha/fbank/raw_fbank_tr05_cont.1.ark:20949059
01wo030l /scratch/ravanelm/exp/dirha/fbank/raw_fbank_tr05_cont.2.ark:18626999
01qc020o /scratch/ravanelm/exp/dirha/fbank/raw_fbank_tr05_cont.2.ark:4365749
01io030f /scratch/ravanelm/exp/dirha/fbank/raw_fbank_tr05_cont.1.ark:41723659
020c0214 /scratch/ravanelm/exp/dirha/fbank/raw_fbank_tr05_cont.2.ark:26881379
013c020n /scratch/ravanelm/exp/dirha/fbank/raw_fbank_tr05_cont.1.ark:4239979
404o0312 /scratch/ravanelm/exp/dirha/fbank/raw_fbank_tr05_cont.3.ark:47925889
20go010q /scratch/ravanelm/exp/dirha/fbank/raw_fbank_tr05_cont.3.ark:21995919
40mo0312 /scratch/ravanelm/exp/dirha/fbank/raw_fbank_tr05_cont.4.ark:47711029
204o0107 /scratch/ravanelm/exp/dirha/fbank/raw_fbank_tr05_cont.3.ark:1761769
40go030q /scratch/ravanelm/exp/dirha/fbank/raw_fbank_tr05_cont.4.ark:28008969
40mc020u /scratch/ravanelm/exp/dirha/fbank/raw_fbank_tr05_cont.4.ark:45766469
01uc0202 /scratch/ravanelm/exp/dirha/fbank/raw_fbank_tr05_cont.2.ark:13165899
017c0216 /scratch/ravanelm/exp/dirha/fbank/raw_fbank_tr05_cont.1.ark:15798999
02bo030r /scratch/ravanelm/exp/dirha/fbank/raw_fbank_tr05_cont.2.ark:48387629
40lc0202 /scratch/ravanelm/exp/dirha/fbank/raw_fbank_tr05_cont.4.ark:41340699
01to0310 /scratch/ravanelm/exp/dirha/fbank/raw_fbank_tr05_cont.2.ark:12487759
40cc020n /scratch/ravanelm/exp/dirha/fbank/raw_fbank_tr05_cont.4.ark:14503579
40no0314 /scratch/ravanelm/exp/dirha/fbank/raw_fbank_tr05_cont.4.ark:50998919
20vo0107 /scratch/ravanelm/exp/dirha/fbank/raw_fbank_tr05_cont.3.ark:38924539
029o0303 /scratch/ravanelm/exp/dirha/fbank/raw_fbank_tr05_cont.2.ark:44351969
40fo030q /scratch/ravanelm/exp/dirha/fbank/raw_fbank_tr05_cont.4.ark:24274199
014o030n /scratch/ravanelm/exp/dirha/fbank/raw_fbank_tr05_cont.1.ark:8496629
014c020q /scratch/ravanelm/exp/dirha/fbank/raw_fbank_tr05_cont.1.ark:7099129
40cc0208 /scratch/ravanelm/exp/dirha/fbank/raw_fbank_tr05_cont.4.ark:14152529
406c020e /scratch/ravanelm/exp/dirha/fbank/raw_fbank_tr05_cont.3.ark:51323739
40fc020y /scratch/ravanelm/exp/dirha/fbank/raw_fbank_tr05_cont.4.ark:22959599
40lo030p /scratch/ravanelm/exp/dirha/fbank/raw_fbank_tr05_cont.4.ark:43868279
015o0316 /scratch/ravanelm/exp/dirha/fbank/raw_fbank_tr05_cont.1.ark:12145969
01mo0316 /scratch/ravanelm/exp/dirha/fbank/raw_fbank_tr05_cont.2.ark:133449
40pc020b /scratch/ravanelm/exp/dirha/fbank/raw_fbank_tr05_cont.4.ark:51635599
01lc020f /scratch/ravanelm/exp/dirha/fbank/raw_fbank_tr05_cont.1.ark:50753179
40fc0206 /scratch/ravanelm/exp/dirha/fbank/raw_fbank_tr05_cont.4.ark:22135439
40io030l /scratch/ravanelm/exp/dirha/fbank/raw_fbank_tr05_cont.4.ark:34189809
207c0108 /scratch/ravanelm/exp/dirha/fbank/raw_fbank_tr05_cont.3.ark:6104039
02ec020k /scratch/ravanelm/exp/dirha/fbank/raw_fbank_tr05_cont.2.ark:52878049
40ko030o /scratch/ravanelm/exp/dirha/fbank/raw_fbank_tr05_cont.4.ark:40423799
40dc0218 /scratch/ravanelm/exp/dirha/fbank/raw_fbank_tr05_cont.4.ark:17743629
40ao0306 /scratch/ravanelm/exp/dirha/fbank/raw_fbank_tr05_cont.4.ark:9442119
408c020g /scratch/ravanelm/exp/dirha/fbank/raw_fbank_tr05_cont.4.ark:2769929
011o0305 /scratch/ravanelm/exp/dirha/fbank/raw_fbank_tr05_cont.1.ark:1586229
01bo030e /scratch/ravanelm/exp/dirha/fbank/raw_fbank_tr05_cont.1.ark:25965059
40bc020r /scratch/ravanelm/exp/dirha/fbank/raw_fbank_tr05_cont.4.ark:11608719
40mo030h /scratch/ravanelm/exp/dirha/fbank/raw_fbank_tr05_cont.4.ark:46960879
01dc020u /scratch/ravanelm/exp/dirha/fbank/raw_fbank_tr05_cont.1.ark:28173499
20lo0101 /scratch/ravanelm/exp/dirha/fbank/raw_fbank_tr05_cont.3.ark:25832219
20mo0101 /scratch/ravanelm/exp/dirha/fbank/raw_fbank_tr05_cont.3.ark:27669589
028o030u /scratch/ravanelm/exp/dirha/fbank/raw_fbank_tr05_cont.2.ark:42182149
207o010d /scratch/ravanelm/exp/dirha/fbank/raw_fbank_tr05_cont.3.ark:7082289
01io030n /scratch/ravanelm/exp/dirha/fbank/raw_fbank_tr05_cont.1.ark:42016339
01rc020m /scratch/ravanelm/exp/dirha/fbank/raw_fbank_tr05_cont.2.ark:7339659
20cc010o /scratch/ravanelm/exp/dirha/fbank/raw_fbank_tr05_cont.3.ark:14892519
408c020b /scratch/ravanelm/exp/dirha/fbank/raw_fbank_tr05_cont.4.ark:2635779
02ec0212 /scratch/ravanelm/exp/dirha/fbank/raw_fbank_tr05_cont.2.ark:53423869
02bo030b /scratch/ravanelm/exp/dirha/fbank/raw_fbank_tr05_cont.2.ark:47807949
015o030i /scratch/ravanelm/exp/dirha/fbank/raw_fbank_tr05_cont.1.ark:11308489
016o030t /scratch/ravanelm/exp/dirha/fbank/raw_fbank_tr05_cont.1.ark:14122919
20go010j /scratch/ravanelm/exp/dirha/fbank/raw_fbank_tr05_cont.3.ark:21854509
01wo031d /scratch/ravanelm/exp/dirha/fbank/raw_fbank_tr05_cont.2.ark:19457249
40cc020y /scratch/ravanelm/exp/dirha/fbank/raw_fbank_tr05_cont.4.ark:14723349
405o0312 /scratch/ravanelm/exp/dirha/fbank/raw_fbank_tr05_cont.3.ark:50506489
40po031c /scratch/ravanelm/exp/dirha/fbank/raw_fbank_tr05_cont.4.ark:54158039
40bo030c /scratch/ravanelm/exp/dirha/fbank/raw_fbank_tr05_cont.4.ark:12731509
01fc0207 /scratch/ravanelm/exp/dirha/fbank/raw_fbank_tr05_cont.1.ark:33571669
409o030z /scratch/ravanelm/exp/dirha/fbank/raw_fbank_tr05_cont.4.ark:7307779
015c0204 /scratch/ravanelm/exp/dirha/fbank/raw_fbank_tr05_cont.1.ark:9551849
01qc020a /scratch/ravanelm/exp/dirha/fbank/raw_fbank_tr05_cont.2.ark:3962839
01mo030g /scratch/ravanelm/exp/dirha/fbank/raw_fbank_tr05_cont.1.ark:55877299
01jo030m /scratch/ravanelm/exp/dirha/fbank/raw_fbank_tr05_cont.1.ark:45383479
015c020m /scratch/ravanelm/exp/dirha/fbank/raw_fbank_tr05_cont.1.ark:10049829
206c010c /scratch/ravanelm/exp/dirha/fbank/raw_fbank_tr05_cont.3.ark:4464579
40ho030y /scratch/ravanelm/exp/dirha/fbank/raw_fbank_tr05_cont.4.ark:31517839
404c020r /scratch/ravanelm/exp/dirha/fbank/raw_fbank_tr05_cont.3.ark:46258709
403o0312 /scratch/ravanelm/exp/dirha/fbank/raw_fbank_tr05_cont.3.ark:45255149
207o010i /scratch/ravanelm/exp/dirha/fbank/raw_fbank_tr05_cont.3.ark:7222679
01uo030d /scratch/ravanelm/exp/dirha/fbank/raw_fbank_tr05_cont.2.ark:15198959
40jo030j /scratch/ravanelm/exp/dirha/fbank/raw_fbank_tr05_cont.4.ark:37118759
017o0315 /scratch/ravanelm/exp/dirha/fbank/raw_fbank_tr05_cont.1.ark:17314529
02cc020b /scratch/ravanelm/exp/dirha/fbank/raw_fbank_tr05_cont.2.ark:49534959
407o0304 /scratch/ravanelm/exp/dirha/fbank/raw_fbank_tr05_cont.4.ark:746989
01ec0201 /scratch/ravanelm/exp/dirha/fbank/raw_fbank_tr05_cont.1.ark:30406189
02bo030a /scratch/ravanelm/exp/dirha/fbank/raw_fbank_tr05_cont.2.ark:47789239
01wo030x /scratch/ravanelm/exp/dirha/fbank/raw_fbank_tr05_cont.2.ark:18923249
020o0305 /scratch/ravanelm/exp/dirha/fbank/raw_fbank_tr05_cont.2.ark:27144229
01ro0307 /scratch/ravanelm/exp/dirha/fbank/raw_fbank_tr05_cont.2.ark:8334169
20ao0109 /scratch/ravanelm/exp/dirha/fbank/raw_fbank_tr05_cont.3.ark:11718079
40hc0212 /scratch/ravanelm/exp/dirha/fbank/raw_fbank_tr05_cont.4.ark:30054309
20po0104 /scratch/ravanelm/exp/dirha/fbank/raw_fbank_tr05_cont.3.ark:32540359
40do030o /scratch/ravanelm/exp/dirha/fbank/raw_fbank_tr05_cont.4.ark:18668389
028c020u /scratch/ravanelm/exp/dirha/fbank/raw_fbank_tr05_cont.2.ark:40494859
01pc020i /scratch/ravanelm/exp/dirha/fbank/raw_fbank_tr05_cont.2.ark:934269
01yc0212 /scratch/ravanelm/exp/dirha/fbank/raw_fbank_tr05_cont.2.ark:20546829
20hc010m /scratch/ravanelm/exp/dirha/fbank/raw_fbank_tr05_cont.3.ark:22503359
40co031c /scratch/ravanelm/exp/dirha/fbank/raw_fbank_tr05_cont.4.ark:16297149
409o030m /scratch/ravanelm/exp/dirha/fbank/raw_fbank_tr05_cont.4.ark:6944469
013o030a /scratch/ravanelm/exp/dirha/fbank/raw_fbank_tr05_cont.1.ark:5226119
01fo030t /scratch/ravanelm/exp/dirha/fbank/raw_fbank_tr05_cont.1.ark:35751489
02bc020v /scratch/ravanelm/exp/dirha/fbank/raw_fbank_tr05_cont.2.ark:46832819
209c010m /scratch/ravanelm/exp/dirha/fbank/raw_fbank_tr05_cont.3.ark:9779739
027c020z /scratch/ravanelm/exp/dirha/fbank/raw_fbank_tr05_cont.2.ark:37477089
01qc020z /scratch/ravanelm/exp/dirha/fbank/raw_fbank_tr05_cont.2.ark:4575069
01fo0307 /scratch/ravanelm/exp/dirha/fbank/raw_fbank_tr05_cont.1.ark:35001789
204c010m /scratch/ravanelm/exp/dirha/fbank/raw_fbank_tr05_cont.3.ark:1496589
011c0204 /scratch/ravanelm/exp/dirha/fbank/raw_fbank_tr05_cont.1.ark:97619
024o031b /scratch/ravanelm/exp/dirha/fbank/raw_fbank_tr05_cont.2.ark:33678559
011c0209 /scratch/ravanelm/exp/dirha/fbank/raw_fbank_tr05_cont.1.ark:193449
01jo030z /scratch/ravanelm/exp/dirha/fbank/raw_fbank_tr05_cont.1.ark:45866389
404o030y /scratch/ravanelm/exp/dirha/fbank/raw_fbank_tr05_cont.3.ark:47822329
01lo030l /scratch/ravanelm/exp/dirha/fbank/raw_fbank_tr05_cont.1.ark:52799449
401c0211 /scratch/ravanelm/exp/dirha/fbank/raw_fbank_tr05_cont.3.ark:40638579
20qc010k /scratch/ravanelm/exp/dirha/fbank/raw_fbank_tr05_cont.3.ark:33831619
013o0318 /scratch/ravanelm/exp/dirha/fbank/raw_fbank_tr05_cont.1.ark:6303219
014o030f /scratch/ravanelm/exp/dirha/fbank/raw_fbank_tr05_cont.1.ark:8238349
01mo031e /scratch/ravanelm/exp/dirha/fbank/raw_fbank_tr05_cont.2.ark:397369
01lo030u /scratch/ravanelm/exp/dirha/fbank/raw_fbank_tr05_cont.1.ark:53086079
40mo0314 /scratch/ravanelm/exp/dirha/fbank/raw_fbank_tr05_cont.4.ark:47764569
20bo010d /scratch/ravanelm/exp/dirha/fbank/raw_fbank_tr05_cont.3.ark:13649379
40po030t /scratch/ravanelm/exp/dirha/fbank/raw_fbank_tr05_cont.4.ark:53555789
206c010g /scratch/ravanelm/exp/dirha/fbank/raw_fbank_tr05_cont.3.ark:4557899
021o030e /scratch/ravanelm/exp/dirha/fbank/raw_fbank_tr05_cont.2.ark:29738939
408c020c /scratch/ravanelm/exp/dirha/fbank/raw_fbank_tr05_cont.4.ark:2666209
208c0104 /scratch/ravanelm/exp/dirha/fbank/raw_fbank_tr05_cont.3.ark:7703559
02bo0314 /scratch/ravanelm/exp/dirha/fbank/raw_fbank_tr05_cont.2.ark:48833899
408o030r /scratch/ravanelm/exp/dirha/fbank/raw_fbank_tr05_cont.4.ark:4351579
40do031b /scratch/ravanelm/exp/dirha/fbank/raw_fbank_tr05_cont.4.ark:19332999
40mc0215 /scratch/ravanelm/exp/dirha/fbank/raw_fbank_tr05_cont.4.ark:46050719
401o0306 /scratch/ravanelm/exp/dirha/fbank/raw_fbank_tr05_cont.3.ark:41269059
021c020t /scratch/ravanelm/exp/dirha/fbank/raw_fbank_tr05_cont.2.ark:28879059
016o0303 /scratch/ravanelm/exp/dirha/fbank/raw_fbank_tr05_cont.1.ark:13455799
01jc020y /scratch/ravanelm/exp/dirha/fbank/raw_fbank_tr05_cont.1.ark:43969079
20ec010d /scratch/ravanelm/exp/dirha/fbank/raw_fbank_tr05_cont.3.ark:17904689
01lo031e /scratch/ravanelm/exp/dirha/fbank/raw_fbank_tr05_cont.1.ark:54020599
027o0301 /scratch/ravanelm/exp/dirha/fbank/raw_fbank_tr05_cont.2.ark:38045699
01mc020w /scratch/ravanelm/exp/dirha/fbank/raw_fbank_tr05_cont.1.ark:54854369
40ic0218 /scratch/ravanelm/exp/dirha/fbank/raw_fbank_tr05_cont.4.ark:33300889
026c0219 /scratch/ravanelm/exp/dirha/fbank/raw_fbank_tr05_cont.2.ark:34913749
01ic021f /scratch/ravanelm/exp/dirha/fbank/raw_fbank_tr05_cont.1.ark:41066049
20co010n /scratch/ravanelm/exp/dirha/fbank/raw_fbank_tr05_cont.3.ark:15649529
016o0314 /scratch/ravanelm/exp/dirha/fbank/raw_fbank_tr05_cont.1.ark:14474529
40ic020b /scratch/ravanelm/exp/dirha/fbank/raw_fbank_tr05_cont.4.ark:32353939
40mc021e /scratch/ravanelm/exp/dirha/fbank/raw_fbank_tr05_cont.4.ark:46283589
20pc010d /scratch/ravanelm/exp/dirha/fbank/raw_fbank_tr05_cont.3.ark:32081799
01uc020t /scratch/ravanelm/exp/dirha/fbank/raw_fbank_tr05_cont.2.ark:13995429
01kc020q /scratch/ravanelm/exp/dirha/fbank/raw_fbank_tr05_cont.1.ark:47279249
01jc020u /scratch/ravanelm/exp/dirha/fbank/raw_fbank_tr05_cont.1.ark:43849919
024c021a /scratch/ravanelm/exp/dirha/fbank/raw_fbank_tr05_cont.2.ark:32188229
40lc021a /scratch/ravanelm/exp/dirha/fbank/raw_fbank_tr05_cont.4.ark:42706539
401o0303 /scratch/ravanelm/exp/dirha/fbank/raw_fbank_tr05_cont.3.ark:41150129
40ac021c /scratch/ravanelm/exp/dirha/fbank/raw_fbank_tr05_cont.4.ark:9252199
01mo031b /scratch/ravanelm/exp/dirha/fbank/raw_fbank_tr05_cont.2.ark:294639
20oo010m /scratch/ravanelm/exp/dirha/fbank/raw_fbank_tr05_cont.3.ark:31588939
015c020f /scratch/ravanelm/exp/dirha/fbank/raw_fbank_tr05_cont.1.ark:9862939
40no030c /scratch/ravanelm/exp/dirha/fbank/raw_fbank_tr05_cont.4.ark:50028759
20tc0109 /scratch/ravanelm/exp/dirha/fbank/raw_fbank_tr05_cont.3.ark:36930879
017o030m /scratch/ravanelm/exp/dirha/fbank/raw_fbank_tr05_cont.1.ark:16740359
401c021a /scratch/ravanelm/exp/dirha/fbank/raw_fbank_tr05_cont.3.ark:40920329
019o030l /scratch/ravanelm/exp/dirha/fbank/raw_fbank_tr05_cont.1.ark:23078699
409c0203 /scratch/ravanelm/exp/dirha/fbank/raw_fbank_tr05_cont.4.ark:4922139
02eo0308 /scratch/ravanelm/exp/dirha/fbank/raw_fbank_tr05_cont.2.ark:54110469
205o010g /scratch/ravanelm/exp/dirha/fbank/raw_fbank_tr05_cont.3.ark:3724689
01jo030k /scratch/ravanelm/exp/dirha/fbank/raw_fbank_tr05_cont.1.ark:45322059
20eo0106 /scratch/ravanelm/exp/dirha/fbank/raw_fbank_tr05_cont.3.ark:18484719
40gc020p /scratch/ravanelm/exp/dirha/fbank/raw_fbank_tr05_cont.4.ark:26002649
40mc0208 /scratch/ravanelm/exp/dirha/fbank/raw_fbank_tr05_cont.4.ark:45202729
40do031d /scratch/ravanelm/exp/dirha/fbank/raw_fbank_tr05_cont.4.ark:19393659
405c0217 /scratch/ravanelm/exp/dirha/fbank/raw_fbank_tr05_cont.3.ark:49257549
20qc010l /scratch/ravanelm/exp/dirha/fbank/raw_fbank_tr05_cont.3.ark:33852769
016o030a /scratch/ravanelm/exp/dirha/fbank/raw_fbank_tr05_cont.1.ark:13647859
20fo010b /scratch/ravanelm/exp/dirha/fbank/raw_fbank_tr05_cont.3.ark:20316509
01wc0218 /scratch/ravanelm/exp/dirha/fbank/raw_fbank_tr05_cont.2.ark:17783319
02eo030e /scratch/ravanelm/exp/dirha/fbank/raw_fbank_tr05_cont.2.ark:54310529
01eo0310 /scratch/ravanelm/exp/dirha/fbank/raw_fbank_tr05_cont.1.ark:32892139
019o030b /scratch/ravanelm/exp/dirha/fbank/raw_fbank_tr05_cont.1.ark:22732959
40gc020i /scratch/ravanelm/exp/dirha/fbank/raw_fbank_tr05_cont.4.ark:25787479
40dc020g /scratch/ravanelm/exp/dirha/fbank/raw_fbank_tr05_cont.4.ark:16879349
20mo0109 /scratch/ravanelm/exp/dirha/fbank/raw_fbank_tr05_cont.3.ark:27922229
01gc021e /scratch/ravanelm/exp/dirha/fbank/raw_fbank_tr05_cont.1.ark:37763919
401c0204 /scratch/ravanelm/exp/dirha/fbank/raw_fbank_tr05_cont.3.ark:39671869
40cc020h /scratch/ravanelm/exp/dirha/fbank/raw_fbank_tr05_cont.4.ark:14368359
407c0203 /scratch/ravanelm/exp/dirha/fbank/raw_fbank_tr05_cont.3.ark:53802659
016o030r /scratch/ravanelm/exp/dirha/fbank/raw_fbank_tr05_cont.1.ark:14092579
017c0213 /scratch/ravanelm/exp/dirha/fbank/raw_fbank_tr05_cont.1.ark:15699789
40lo0302 /scratch/ravanelm/exp/dirha/fbank/raw_fbank_tr05_cont.4.ark:42956229
40ec020t /scratch/ravanelm/exp/dirha/fbank/raw_fbank_tr05_cont.4.ark:20020089
40lo0304 /scratch/ravanelm/exp/dirha/fbank/raw_fbank_tr05_cont.4.ark:43025209
016o030q /scratch/ravanelm/exp/dirha/fbank/raw_fbank_tr05_cont.1.ark:14075349
011c0213 /scratch/ravanelm/exp/dirha/fbank/raw_fbank_tr05_cont.1.ark:1073389
405c021d /scratch/ravanelm/exp/dirha/fbank/raw_fbank_tr05_cont.3.ark:49422249
40po0313 /scratch/ravanelm/exp/dirha/fbank/raw_fbank_tr05_cont.4.ark:53897129
01ko031d /scratch/ravanelm/exp/dirha/fbank/raw_fbank_tr05_cont.1.ark:50039959
026o030q /scratch/ravanelm/exp/dirha/fbank/raw_fbank_tr05_cont.2.ark:35901619
01qc021d /scratch/ravanelm/exp/dirha/fbank/raw_fbank_tr05_cont.2.ark:4959369
01ic020e /scratch/ravanelm/exp/dirha/fbank/raw_fbank_tr05_cont.1.ark:40094139
01mo031d /scratch/ravanelm/exp/dirha/fbank/raw_fbank_tr05_cont.2.ark:360459
405c020n /scratch/ravanelm/exp/dirha/fbank/raw_fbank_tr05_cont.3.ark:48815429
018o0316 /scratch/ravanelm/exp/dirha/fbank/raw_fbank_tr05_cont.1.ark:20816339
01po030x /scratch/ravanelm/exp/dirha/fbank/raw_fbank_tr05_cont.2.ark:3081009
01mc020k /scratch/ravanelm/exp/dirha/fbank/raw_fbank_tr05_cont.1.ark:54548409
209c0101 /scratch/ravanelm/exp/dirha/fbank/raw_fbank_tr05_cont.3.ark:9279749
02co0303 /scratch/ravanelm/exp/dirha/fbank/raw_fbank_tr05_cont.2.ark:50615919
024c020e /scratch/ravanelm/exp/dirha/fbank/raw_fbank_tr05_cont.2.ark:31306909
40eo0307 /scratch/ravanelm/exp/dirha/fbank/raw_fbank_tr05_cont.4.ark:20822979
01yo0312 /scratch/ravanelm/exp/dirha/fbank/raw_fbank_tr05_cont.2.ark:22243109
20ec010g /scratch/ravanelm/exp/dirha/fbank/raw_fbank_tr05_cont.3.ark:18006379
01uc020z /scratch/ravanelm/exp/dirha/fbank/raw_fbank_tr05_cont.2.ark:14179929
40ac0212 /scratch/ravanelm/exp/dirha/fbank/raw_fbank_tr05_cont.4.ark:8981139
40gc0215 /scratch/ravanelm/exp/dirha/fbank/raw_fbank_tr05_cont.4.ark:26601249
01wo030e /scratch/ravanelm/exp/dirha/fbank/raw_fbank_tr05_cont.2.ark:18391949
016c020l /scratch/ravanelm/exp/dirha/fbank/raw_fbank_tr05_cont.1.ark:12843479
01ro030c /scratch/ravanelm/exp/dirha/fbank/raw_fbank_tr05_cont.2.ark:8437719
40cc0216 /scratch/ravanelm/exp/dirha/fbank/raw_fbank_tr05_cont.4.ark:14916469
018o030o /scratch/ravanelm/exp/dirha/fbank/raw_fbank_tr05_cont.1.ark:20068559
40jo030m /scratch/ravanelm/exp/dirha/fbank/raw_fbank_tr05_cont.4.ark:37266049
40do0304 /scratch/ravanelm/exp/dirha/fbank/raw_fbank_tr05_cont.4.ark:18077389
02ec020f /scratch/ravanelm/exp/dirha/fbank/raw_fbank_tr05_cont.2.ark:52715139
013c0217 /scratch/ravanelm/exp/dirha/fbank/raw_fbank_tr05_cont.1.ark:4762579
20oo010i /scratch/ravanelm/exp/dirha/fbank/raw_fbank_tr05_cont.3.ark:31455139
015o030p /scratch/ravanelm/exp/dirha/fbank/raw_fbank_tr05_cont.1.ark:11629059
20fo0101 /scratch/ravanelm/exp/dirha/fbank/raw_fbank_tr05_cont.3.ark:19939729
40bo030h /scratch/ravanelm/exp/dirha/fbank/raw_fbank_tr05_cont.4.ark:12935099
40bo031b /scratch/ravanelm/exp/dirha/fbank/raw_fbank_tr05_cont.4.ark:13905699
40pc020m /scratch/ravanelm/exp/dirha/fbank/raw_fbank_tr05_cont.4.ark:51884089
40kc0216 /scratch/ravanelm/exp/dirha/fbank/raw_fbank_tr05_cont.4.ark:39407259
20nc010n /scratch/ravanelm/exp/dirha/fbank/raw_fbank_tr05_cont.3.ark:29164849
409c020l /scratch/ravanelm/exp/dirha/fbank/raw_fbank_tr05_cont.4.ark:5421599
01mc021a /scratch/ravanelm/exp/dirha/fbank/raw_fbank_tr05_cont.1.ark:55182069
029c0214 /scratch/ravanelm/exp/dirha/fbank/raw_fbank_tr05_cont.2.ark:43939759
20rc010e /scratch/ravanelm/exp/dirha/fbank/raw_fbank_tr05_cont.3.ark:35368569
01uc020u /scratch/ravanelm/exp/dirha/fbank/raw_fbank_tr05_cont.2.ark:14012139
01zc0202 /scratch/ravanelm/exp/dirha/fbank/raw_fbank_tr05_cont.2.ark:22615229
01pc020n /scratch/ravanelm/exp/dirha/fbank/raw_fbank_tr05_cont.2.ark:1013659
01go030q /scratch/ravanelm/exp/dirha/fbank/raw_fbank_tr05_cont.1.ark:38672979
40ko0315 /scratch/ravanelm/exp/dirha/fbank/raw_fbank_tr05_cont.4.ark:41042469
01fc020h /scratch/ravanelm/exp/dirha/fbank/raw_fbank_tr05_cont.1.ark:33880769
40bc020m /scratch/ravanelm/exp/dirha/fbank/raw_fbank_tr05_cont.4.ark:11464209
017o030t /scratch/ravanelm/exp/dirha/fbank/raw_fbank_tr05_cont.1.ark:16958289
01to030p /scratch/ravanelm/exp/dirha/fbank/raw_fbank_tr05_cont.2.ark:12134989
40jo031d /scratch/ravanelm/exp/dirha/fbank/raw_fbank_tr05_cont.4.ark:38171099
206c010e /scratch/ravanelm/exp/dirha/fbank/raw_fbank_tr05_cont.3.ark:4514639
01go031f /scratch/ravanelm/exp/dirha/fbank/raw_fbank_tr05_cont.1.ark:39603129
024c0217 /scratch/ravanelm/exp/dirha/fbank/raw_fbank_tr05_cont.2.ark:32093259
20cc010l /scratch/ravanelm/exp/dirha/fbank/raw_fbank_tr05_cont.3.ark:14821229
20ao0106 /scratch/ravanelm/exp/dirha/fbank/raw_fbank_tr05_cont.3.ark:11595109
20lc010l /scratch/ravanelm/exp/dirha/fbank/raw_fbank_tr05_cont.3.ark:25612119
403c020g /scratch/ravanelm/exp/dirha/fbank/raw_fbank_tr05_cont.3.ark:43177839
020o0312 /scratch/ravanelm/exp/dirha/fbank/raw_fbank_tr05_cont.2.ark:27716699
40ac020f /scratch/ravanelm/exp/dirha/fbank/raw_fbank_tr05_cont.4.ark:8281129
20mo0106 /scratch/ravanelm/exp/dirha/fbank/raw_fbank_tr05_cont.3.ark:27819739
40jo0308 /scratch/ravanelm/exp/dirha/fbank/raw_fbank_tr05_cont.4.ark:36733389
021o030g /scratch/ravanelm/exp/dirha/fbank/raw_fbank_tr05_cont.2.ark:29815199
40kc0205 /scratch/ravanelm/exp/dirha/fbank/raw_fbank_tr05_cont.4.ark:38374029
40lc020d /scratch/ravanelm/exp/dirha/fbank/raw_fbank_tr05_cont.4.ark:41686669
01kc0206 /scratch/ravanelm/exp/dirha/fbank/raw_fbank_tr05_cont.1.ark:46657919
40lo0310 /scratch/ravanelm/exp/dirha/fbank/raw_fbank_tr05_cont.4.ark:44438969
20oc010d /scratch/ravanelm/exp/dirha/fbank/raw_fbank_tr05_cont.3.ark:30663869
404o031c /scratch/ravanelm/exp/dirha/fbank/raw_fbank_tr05_cont.3.ark:48176309
20po010o /scratch/ravanelm/exp/dirha/fbank/raw_fbank_tr05_cont.3.ark:33140959
027o030n /scratch/ravanelm/exp/dirha/fbank/raw_fbank_tr05_cont.2.ark:38907679
015c020h /scratch/ravanelm/exp/dirha/fbank/raw_fbank_tr05_cont.1.ark:9908039
01yc020g /scratch/ravanelm/exp/dirha/fbank/raw_fbank_tr05_cont.2.ark:19968889
405o0318 /scratch/ravanelm/exp/dirha/fbank/raw_fbank_tr05_cont.3.ark:50722429
024o030d /scratch/ravanelm/exp/dirha/fbank/raw_fbank_tr05_cont.2.ark:32716539
40gc0210 /scratch/ravanelm/exp/dirha/fbank/raw_fbank_tr05_cont.4.ark:26375419
028c020t /scratch/ravanelm/exp/dirha/fbank/raw_fbank_tr05_cont.2.ark:40463789
40bc0211 /scratch/ravanelm/exp/dirha/fbank/raw_fbank_tr05_cont.4.ark:11874739
01kc021a /scratch/ravanelm/exp/dirha/fbank/raw_fbank_tr05_cont.1.ark:47900769
20qc0102 /scratch/ravanelm/exp/dirha/fbank/raw_fbank_tr05_cont.3.ark:33264279
016c020u /scratch/ravanelm/exp/dirha/fbank/raw_fbank_tr05_cont.1.ark:12977799
408o030i /scratch/ravanelm/exp/dirha/fbank/raw_fbank_tr05_cont.4.ark:4073589
40lc020h /scratch/ravanelm/exp/dirha/fbank/raw_fbank_tr05_cont.4.ark:41829069
40ec0207 /scratch/ravanelm/exp/dirha/fbank/raw_fbank_tr05_cont.4.ark:19555069
018c020i /scratch/ravanelm/exp/dirha/fbank/raw_fbank_tr05_cont.1.ark:18116779
401o030y /scratch/ravanelm/exp/dirha/fbank/raw_fbank_tr05_cont.3.ark:42292219
027c020s /scratch/ravanelm/exp/dirha/fbank/raw_fbank_tr05_cont.2.ark:37319359
01ic020o /scratch/ravanelm/exp/dirha/fbank/raw_fbank_tr05_cont.1.ark:40391279
207o0103 /scratch/ravanelm/exp/dirha/fbank/raw_fbank_tr05_cont.3.ark:6685669
40eo030j /scratch/ravanelm/exp/dirha/fbank/raw_fbank_tr05_cont.4.ark:21212019
20ho0108 /scratch/ravanelm/exp/dirha/fbank/raw_fbank_tr05_cont.3.ark:22862119
017o030u /scratch/ravanelm/exp/dirha/fbank/raw_fbank_tr05_cont.1.ark:16972399
40bc0208 /scratch/ravanelm/exp/dirha/fbank/raw_fbank_tr05_cont.4.ark:11089069
029c020l /scratch/ravanelm/exp/dirha/fbank/raw_fbank_tr05_cont.2.ark:43432509
021o030f /scratch/ravanelm/exp/dirha/fbank/raw_fbank_tr05_cont.2.ark:29782729
20lc010o /scratch/ravanelm/exp/dirha/fbank/raw_fbank_tr05_cont.3.ark:25716049
01gc020s /scratch/ravanelm/exp/dirha/fbank/raw_fbank_tr05_cont.1.ark:37166659
020o030z /scratch/ravanelm/exp/dirha/fbank/raw_fbank_tr05_cont.2.ark:27655929
40ac020n /scratch/ravanelm/exp/dirha/fbank/raw_fbank_tr05_cont.4.ark:8521929
40ic020o /scratch/ravanelm/exp/dirha/fbank/raw_fbank_tr05_cont.4.ark:32773369
02ec020l /scratch/ravanelm/exp/dirha/fbank/raw_fbank_tr05_cont.2.ark:52915079
01to0319 /scratch/ravanelm/exp/dirha/fbank/raw_fbank_tr05_cont.2.ark:12825389
20qc0107 /scratch/ravanelm/exp/dirha/fbank/raw_fbank_tr05_cont.3.ark:33460429
014c021b /scratch/ravanelm/exp/dirha/fbank/raw_fbank_tr05_cont.1.ark:7588639
01zo0304 /scratch/ravanelm/exp/dirha/fbank/raw_fbank_tr05_cont.2.ark:24216979
401c020a /scratch/ravanelm/exp/dirha/fbank/raw_fbank_tr05_cont.3.ark:39887369
20vc010g /scratch/ravanelm/exp/dirha/fbank/raw_fbank_tr05_cont.3.ark:38527659
01rc021c /scratch/ravanelm/exp/dirha/fbank/raw_fbank_tr05_cont.2.ark:8059679
021o030o /scratch/ravanelm/exp/dirha/fbank/raw_fbank_tr05_cont.2.ark:30091559
20lc010k /scratch/ravanelm/exp/dirha/fbank/raw_fbank_tr05_cont.3.ark:25579369
01qo030l /scratch/ravanelm/exp/dirha/fbank/raw_fbank_tr05_cont.2.ark:5756629
407c0207 /scratch/ravanelm/exp/dirha/fbank/raw_fbank_tr05_cont.3.ark:53901979
40ho030m /scratch/ravanelm/exp/dirha/fbank/raw_fbank_tr05_cont.4.ark:31121119
02co031a /scratch/ravanelm/exp/dirha/fbank/raw_fbank_tr05_cont.2.ark:52002329
40cc020v /scratch/ravanelm/exp/dirha/fbank/raw_fbank_tr05_cont.4.ark:14657579
20po010b /scratch/ravanelm/exp/dirha/fbank/raw_fbank_tr05_cont.3.ark:32750569
40kc020j /scratch/ravanelm/exp/dirha/fbank/raw_fbank_tr05_cont.4.ark:38775209
204o010n /scratch/ravanelm/exp/dirha/fbank/raw_fbank_tr05_cont.3.ark:2290809
01mo0305 /scratch/ravanelm/exp/dirha/fbank/raw_fbank_tr05_cont.1.ark:55538249
014c0215 /scratch/ravanelm/exp/dirha/fbank/raw_fbank_tr05_cont.1.ark:7457019
40go0314 /scratch/ravanelm/exp/dirha/fbank/raw_fbank_tr05_cont.4.ark:28749789
40go030r /scratch/ravanelm/exp/dirha/fbank/raw_fbank_tr05_cont.4.ark:28074439
20fc010a /scratch/ravanelm/exp/dirha/fbank/raw_fbank_tr05_cont.3.ark:19525859
409c021f /scratch/ravanelm/exp/dirha/fbank/raw_fbank_tr05_cont.4.ark:6260579
20vc010j /scratch/ravanelm/exp/dirha/fbank/raw_fbank_tr05_cont.3.ark:38610469
01pc020g /scratch/ravanelm/exp/dirha/fbank/raw_fbank_tr05_cont.2.ark:871649
20po010q /scratch/ravanelm/exp/dirha/fbank/raw_fbank_tr05_cont.3.ark:33196939
40eo030x /scratch/ravanelm/exp/dirha/fbank/raw_fbank_tr05_cont.4.ark:21587039
409c020s /scratch/ravanelm/exp/dirha/fbank/raw_fbank_tr05_cont.4.ark:5633769
20pc010e /scratch/ravanelm/exp/dirha/fbank/raw_fbank_tr05_cont.3.ark:32097989
404c020t /scratch/ravanelm/exp/dirha/fbank/raw_fbank_tr05_cont.3.ark:46306969
403c020o /scratch/ravanelm/exp/dirha/fbank/raw_fbank_tr05_cont.3.ark:43413319
01io0307 /scratch/ravanelm/exp/dirha/fbank/raw_fbank_tr05_cont.1.ark:41370859
40ko0306 /scratch/ravanelm/exp/dirha/fbank/raw_fbank_tr05_cont.4.ark:39829779
01qc0213 /scratch/ravanelm/exp/dirha/fbank/raw_fbank_tr05_cont.2.ark:4684309
40eo0304 /scratch/ravanelm/exp/dirha/fbank/raw_fbank_tr05_cont.4.ark:20743049
02cc0217 /scratch/ravanelm/exp/dirha/fbank/raw_fbank_tr05_cont.2.ark:50305069
20oc010k /scratch/ravanelm/exp/dirha/fbank/raw_fbank_tr05_cont.3.ark:30813119
403o030x /scratch/ravanelm/exp/dirha/fbank/raw_fbank_tr05_cont.3.ark:45087039
405c020j /scratch/ravanelm/exp/dirha/fbank/raw_fbank_tr05_cont.3.ark:48722709
01qc020d /scratch/ravanelm/exp/dirha/fbank/raw_fbank_tr05_cont.2.ark:4056609
20rc0108 /scratch/ravanelm/exp/dirha/fbank/raw_fbank_tr05_cont.3.ark:35223669
206o010m /scratch/ravanelm/exp/dirha/fbank/raw_fbank_tr05_cont.3.ark:5655539
020c020v /scratch/ravanelm/exp/dirha/fbank/raw_fbank_tr05_cont.2.ark:26720589
20do010o /scratch/ravanelm/exp/dirha/fbank/raw_fbank_tr05_cont.3.ark:17371009
01do031c /scratch/ravanelm/exp/dirha/fbank/raw_fbank_tr05_cont.1.ark:30280749
40po031e /scratch/ravanelm/exp/dirha/fbank/raw_fbank_tr05_cont.4.ark:54229099
01yo030l /scratch/ravanelm/exp/dirha/fbank/raw_fbank_tr05_cont.2.ark:21603919
026o030h /scratch/ravanelm/exp/dirha/fbank/raw_fbank_tr05_cont.2.ark:35611109
01ic020w /scratch/ravanelm/exp/dirha/fbank/raw_fbank_tr05_cont.1.ark:40617319
209c010c /scratch/ravanelm/exp/dirha/fbank/raw_fbank_tr05_cont.3.ark:9558799
208o010k /scratch/ravanelm/exp/dirha/fbank/raw_fbank_tr05_cont.3.ark:9013749
01ec0208 /scratch/ravanelm/exp/dirha/fbank/raw_fbank_tr05_cont.1.ark:30630279
01uo0301 /scratch/ravanelm/exp/dirha/fbank/raw_fbank_tr05_cont.2.ark:14742879
01zo030k /scratch/ravanelm/exp/dirha/fbank/raw_fbank_tr05_cont.2.ark:24793859
403c020f /scratch/ravanelm/exp/dirha/fbank/raw_fbank_tr05_cont.3.ark:43143849
01lo0306 /scratch/ravanelm/exp/dirha/fbank/raw_fbank_tr05_cont.1.ark:52080079
20ro0105 /scratch/ravanelm/exp/dirha/fbank/raw_fbank_tr05_cont.3.ark:35828429
40jo0312 /scratch/ravanelm/exp/dirha/fbank/raw_fbank_tr05_cont.4.ark:37787009
01ko0309 /scratch/ravanelm/exp/dirha/fbank/raw_fbank_tr05_cont.1.ark:48434879
01tc020q /scratch/ravanelm/exp/dirha/fbank/raw_fbank_tr05_cont.2.ark:10486889
014o0302 /scratch/ravanelm/exp/dirha/fbank/raw_fbank_tr05_cont.1.ark:7802799
01ec020a /scratch/ravanelm/exp/dirha/fbank/raw_fbank_tr05_cont.1.ark:30684219
40bo0308 /scratch/ravanelm/exp/dirha/fbank/raw_fbank_tr05_cont.4.ark:12609029
020o0313 /scratch/ravanelm/exp/dirha/fbank/raw_fbank_tr05_cont.2.ark:27744249
20vo010e /scratch/ravanelm/exp/dirha/fbank/raw_fbank_tr05_cont.3.ark:39132269
019c0202 /scratch/ravanelm/exp/dirha/fbank/raw_fbank_tr05_cont.1.ark:21111339
20hc0104 /scratch/ravanelm/exp/dirha/fbank/raw_fbank_tr05_cont.3.ark:22153299
405o031a /scratch/ravanelm/exp/dirha/fbank/raw_fbank_tr05_cont.3.ark:50781009
01to0315 /scratch/ravanelm/exp/dirha/fbank/raw_fbank_tr05_cont.2.ark:12657509
014c0208 /scratch/ravanelm/exp/dirha/fbank/raw_fbank_tr05_cont.1.ark:6716669
401c020y /scratch/ravanelm/exp/dirha/fbank/raw_fbank_tr05_cont.3.ark:40560489
01rc0214 /scratch/ravanelm/exp/dirha/fbank/raw_fbank_tr05_cont.2.ark:7891359
40jo030g /scratch/ravanelm/exp/dirha/fbank/raw_fbank_tr05_cont.4.ark:37036309
013o030c /scratch/ravanelm/exp/dirha/fbank/raw_fbank_tr05_cont.1.ark:5279059
20ho0101 /scratch/ravanelm/exp/dirha/fbank/raw_fbank_tr05_cont.3.ark:22603269
020o030k /scratch/ravanelm/exp/dirha/fbank/raw_fbank_tr05_cont.2.ark:27376169
20mo010i /scratch/ravanelm/exp/dirha/fbank/raw_fbank_tr05_cont.3.ark:28160099
40pc020k /scratch/ravanelm/exp/dirha/fbank/raw_fbank_tr05_cont.4.ark:51827709
40eo030o /scratch/ravanelm/exp/dirha/fbank/raw_fbank_tr05_cont.4.ark:21351209
011o030o /scratch/ravanelm/exp/dirha/fbank/raw_fbank_tr05_cont.1.ark:2326599
20to010a /scratch/ravanelm/exp/dirha/fbank/raw_fbank_tr05_cont.3.ark:37602649
02cc020n /scratch/ravanelm/exp/dirha/fbank/raw_fbank_tr05_cont.2.ark:49779889
014o030i /scratch/ravanelm/exp/dirha/fbank/raw_fbank_tr05_cont.1.ark:8323759
016c020y /scratch/ravanelm/exp/dirha/fbank/raw_fbank_tr05_cont.1.ark:13072639
017c020t /scratch/ravanelm/exp/dirha/fbank/raw_fbank_tr05_cont.1.ark:15457169
017c020j /scratch/ravanelm/exp/dirha/fbank/raw_fbank_tr05_cont.1.ark:15253869
407c020f /scratch/ravanelm/exp/dirha/fbank/raw_fbank_tr05_cont.3.ark:54117859
01wc0207 /scratch/ravanelm/exp/dirha/fbank/raw_fbank_tr05_cont.2.ark:16788519
029o031d /scratch/ravanelm/exp/dirha/fbank/raw_fbank_tr05_cont.2.ark:45929389
015o030c /scratch/ravanelm/exp/dirha/fbank/raw_fbank_tr05_cont.1.ark:11147789
01kc0207 /scratch/ravanelm/exp/dirha/fbank/raw_fbank_tr05_cont.1.ark:46693349
011o031e /scratch/ravanelm/exp/dirha/fbank/raw_fbank_tr05_cont.1.ark:3452059
403c0207 /scratch/ravanelm/exp/dirha/fbank/raw_fbank_tr05_cont.3.ark:43010769
20bo010e /scratch/ravanelm/exp/dirha/fbank/raw_fbank_tr05_cont.3.ark:13702369
20qc010f /scratch/ravanelm/exp/dirha/fbank/raw_fbank_tr05_cont.3.ark:33722349
40ac020h /scratch/ravanelm/exp/dirha/fbank/raw_fbank_tr05_cont.4.ark:8351909
404c021c /scratch/ravanelm/exp/dirha/fbank/raw_fbank_tr05_cont.3.ark:46704299
404c0218 /scratch/ravanelm/exp/dirha/fbank/raw_fbank_tr05_cont.3.ark:46614179
01jc021g /scratch/ravanelm/exp/dirha/fbank/raw_fbank_tr05_cont.1.ark:44550379
021o0302 /scratch/ravanelm/exp/dirha/fbank/raw_fbank_tr05_cont.2.ark:29432979
01qo030k /scratch/ravanelm/exp/dirha/fbank/raw_fbank_tr05_cont.2.ark:5727119
20po010d /scratch/ravanelm/exp/dirha/fbank/raw_fbank_tr05_cont.3.ark:32783989
406c020w /scratch/ravanelm/exp/dirha/fbank/raw_fbank_tr05_cont.3.ark:51698969
01bo0309 /scratch/ravanelm/exp/dirha/fbank/raw_fbank_tr05_cont.1.ark:25790499
20nc010j /scratch/ravanelm/exp/dirha/fbank/raw_fbank_tr05_cont.3.ark:29021049
40io030b /scratch/ravanelm/exp/dirha/fbank/raw_fbank_tr05_cont.4.ark:33832149
024c020b /scratch/ravanelm/exp/dirha/fbank/raw_fbank_tr05_cont.2.ark:31191059
209c0103 /scratch/ravanelm/exp/dirha/fbank/raw_fbank_tr05_cont.3.ark:9328769
408c020o /scratch/ravanelm/exp/dirha/fbank/raw_fbank_tr05_cont.4.ark:2954849
40no0318 /scratch/ravanelm/exp/dirha/fbank/raw_fbank_tr05_cont.4.ark:51163359
01lo030c /scratch/ravanelm/exp/dirha/fbank/raw_fbank_tr05_cont.1.ark:52387099
01zc021a /scratch/ravanelm/exp/dirha/fbank/raw_fbank_tr05_cont.2.ark:23909229
20cc010c /scratch/ravanelm/exp/dirha/fbank/raw_fbank_tr05_cont.3.ark:14621759
01bc020k /scratch/ravanelm/exp/dirha/fbank/raw_fbank_tr05_cont.1.ark:24448179
01yc020i /scratch/ravanelm/exp/dirha/fbank/raw_fbank_tr05_cont.2.ark:20023269
40hc021c /scratch/ravanelm/exp/dirha/fbank/raw_fbank_tr05_cont.4.ark:30319009
20io010d /scratch/ravanelm/exp/dirha/fbank/raw_fbank_tr05_cont.3.ark:24461899
01do030u /scratch/ravanelm/exp/dirha/fbank/raw_fbank_tr05_cont.1.ark:29707689
40do030h /scratch/ravanelm/exp/dirha/fbank/raw_fbank_tr05_cont.4.ark:18401019
40dc020c /scratch/ravanelm/exp/dirha/fbank/raw_fbank_tr05_cont.4.ark:16758309
01kc020y /scratch/ravanelm/exp/dirha/fbank/raw_fbank_tr05_cont.1.ark:47524249
40bc020o /scratch/ravanelm/exp/dirha/fbank/raw_fbank_tr05_cont.4.ark:11513669
017c020p /scratch/ravanelm/exp/dirha/fbank/raw_fbank_tr05_cont.1.ark:15365649
01jo0315 /scratch/ravanelm/exp/dirha/fbank/raw_fbank_tr05_cont.1.ark:46144449
01lc0214 /scratch/ravanelm/exp/dirha/fbank/raw_fbank_tr05_cont.1.ark:51474249
40mc020z /scratch/ravanelm/exp/dirha/fbank/raw_fbank_tr05_cont.4.ark:45899859
20rc010a /scratch/ravanelm/exp/dirha/fbank/raw_fbank_tr05_cont.3.ark:35251889
02cc021d /scratch/ravanelm/exp/dirha/fbank/raw_fbank_tr05_cont.2.ark:50448729
029c021f /scratch/ravanelm/exp/dirha/fbank/raw_fbank_tr05_cont.2.ark:44222489
405c020p /scratch/ravanelm/exp/dirha/fbank/raw_fbank_tr05_cont.3.ark:48877689
017c0207 /scratch/ravanelm/exp/dirha/fbank/raw_fbank_tr05_cont.1.ark:14965629
40ac020i /scratch/ravanelm/exp/dirha/fbank/raw_fbank_tr05_cont.4.ark:8393859
01pc021d /scratch/ravanelm/exp/dirha/fbank/raw_fbank_tr05_cont.2.ark:1824639
01lc0202 /scratch/ravanelm/exp/dirha/fbank/raw_fbank_tr05_cont.1.ark:50275669
40go030u /scratch/ravanelm/exp/dirha/fbank/raw_fbank_tr05_cont.4.ark:28194969
01to030f /scratch/ravanelm/exp/dirha/fbank/raw_fbank_tr05_cont.2.ark:11770289
40gc020c /scratch/ravanelm/exp/dirha/fbank/raw_fbank_tr05_cont.4.ark:25606299
015c020d /scratch/ravanelm/exp/dirha/fbank/raw_fbank_tr05_cont.1.ark:9792319
01wo0302 /scratch/ravanelm/exp/dirha/fbank/raw_fbank_tr05_cont.2.ark:18039949
01zc0207 /scratch/ravanelm/exp/dirha/fbank/raw_fbank_tr05_cont.2.ark:22790099
40do030t /scratch/ravanelm/exp/dirha/fbank/raw_fbank_tr05_cont.4.ark:18811139
40lc020j /scratch/ravanelm/exp/dirha/fbank/raw_fbank_tr05_cont.4.ark:41870609
01zo0307 /scratch/ravanelm/exp/dirha/fbank/raw_fbank_tr05_cont.2.ark:24307909
01ec0206 /scratch/ravanelm/exp/dirha/fbank/raw_fbank_tr05_cont.1.ark:30564819
013o0316 /scratch/ravanelm/exp/dirha/fbank/raw_fbank_tr05_cont.1.ark:6253319
01qc020m /scratch/ravanelm/exp/dirha/fbank/raw_fbank_tr05_cont.2.ark:4332409
01qo030f /scratch/ravanelm/exp/dirha/fbank/raw_fbank_tr05_cont.2.ark:5523529
01go0310 /scratch/ravanelm/exp/dirha/fbank/raw_fbank_tr05_cont.1.ark:39020999
406o0313 /scratch/ravanelm/exp/dirha/fbank/raw_fbank_tr05_cont.3.ark:53421189
40nc0215 /scratch/ravanelm/exp/dirha/fbank/raw_fbank_tr05_cont.4.ark:49251509
02co0309 /scratch/ravanelm/exp/dirha/fbank/raw_fbank_tr05_cont.2.ark:50762579
40ko0309 /scratch/ravanelm/exp/dirha/fbank/raw_fbank_tr05_cont.4.ark:39897749
205c010j /scratch/ravanelm/exp/dirha/fbank/raw_fbank_tr05_cont.3.ark:2945149
01wc020d /scratch/ravanelm/exp/dirha/fbank/raw_fbank_tr05_cont.2.ark:16971739
209c0106 /scratch/ravanelm/exp/dirha/fbank/raw_fbank_tr05_cont.3.ark:9406459
406o030j /scratch/ravanelm/exp/dirha/fbank/raw_fbank_tr05_cont.3.ark:52705109
20io010q /scratch/ravanelm/exp/dirha/fbank/raw_fbank_tr05_cont.3.ark:24902049
02bo030j /scratch/ravanelm/exp/dirha/fbank/raw_fbank_tr05_cont.2.ark:48094109
01qo0305 /scratch/ravanelm/exp/dirha/fbank/raw_fbank_tr05_cont.2.ark:5187709
