407o0318 /scratch/ravanelm/exp/dirha/fbank/raw_fbank_tr05_cont.4.ark:2310469
20ho010i /scratch/ravanelm/exp/dirha/fbank/raw_fbank_tr05_cont.3.ark:23135379
02bo030t /scratch/ravanelm/exp/dirha/fbank/raw_fbank_tr05_cont.2.ark:48442889
01wo0311 /scratch/ravanelm/exp/dirha/fbank/raw_fbank_tr05_cont.2.ark:19094609
407c020y /scratch/ravanelm/exp/dirha/fbank/raw_fbank_tr05_cont.4.ark:37709
40bc0219 /scratch/ravanelm/exp/dirha/fbank/raw_fbank_tr05_cont.4.ark:12090779
40po031e /scratch/ravanelm/exp/dirha/fbank/raw_fbank_tr05_cont.4.ark:54229099
407o030l /scratch/ravanelm/exp/dirha/fbank/raw_fbank_tr05_cont.4.ark:1411179
01zo0309 /scratch/ravanelm/exp/dirha/fbank/raw_fbank_tr05_cont.2.ark:24365609
40pc0217 /scratch/ravanelm/exp/dirha/fbank/raw_fbank_tr05_cont.4.ark:52396919
20qo010g /scratch/ravanelm/exp/dirha/fbank/raw_fbank_tr05_cont.3.ark:34643049
40po030j /scratch/ravanelm/exp/dirha/fbank/raw_fbank_tr05_cont.4.ark:53228009
206o010j /scratch/ravanelm/exp/dirha/fbank/raw_fbank_tr05_cont.3.ark:5510409
01mc021f /scratch/ravanelm/exp/dirha/fbank/raw_fbank_tr05_cont.1.ark:55358579
20lc0107 /scratch/ravanelm/exp/dirha/fbank/raw_fbank_tr05_cont.3.ark:25156899
01tc020g /scratch/ravanelm/exp/dirha/fbank/raw_fbank_tr05_cont.2.ark:10128149
40ac020z /scratch/ravanelm/exp/dirha/fbank/raw_fbank_tr05_cont.4.ark:8899209
013o030f /scratch/ravanelm/exp/dirha/fbank/raw_fbank_tr05_cont.1.ark:5379389
01lc020z /scratch/ravanelm/exp/dirha/fbank/raw_fbank_tr05_cont.1.ark:51323059
026o0311 /scratch/ravanelm/exp/dirha/fbank/raw_fbank_tr05_cont.2.ark:36248589
017o030s /scratch/ravanelm/exp/dirha/fbank/raw_fbank_tr05_cont.1.ark:16929459
01go0315 /scratch/ravanelm/exp/dirha/fbank/raw_fbank_tr05_cont.1.ark:39199109
01wo030q /scratch/ravanelm/exp/dirha/fbank/raw_fbank_tr05_cont.2.ark:18744039
011o031e /scratch/ravanelm/exp/dirha/fbank/raw_fbank_tr05_cont.1.ark:3452059
013c020d /scratch/ravanelm/exp/dirha/fbank/raw_fbank_tr05_cont.1.ark:3915079
01ec0201 /scratch/ravanelm/exp/dirha/fbank/raw_fbank_tr05_cont.1.ark:30406189
204c0105 /scratch/ravanelm/exp/dirha/fbank/raw_fbank_tr05_cont.3.ark:1153759
01tc0215 /scratch/ravanelm/exp/dirha/fbank/raw_fbank_tr05_cont.2.ark:11016219
40cc0205 /scratch/ravanelm/exp/dirha/fbank/raw_fbank_tr05_cont.4.ark:14056079
01zc020j /scratch/ravanelm/exp/dirha/fbank/raw_fbank_tr05_cont.2.ark:23122659
01jc020x /scratch/ravanelm/exp/dirha/fbank/raw_fbank_tr05_cont.1.ark:43944089
01uo031b /scratch/ravanelm/exp/dirha/fbank/raw_fbank_tr05_cont.2.ark:16516099
20tc0106 /scratch/ravanelm/exp/dirha/fbank/raw_fbank_tr05_cont.3.ark:36865509
013o030a /scratch/ravanelm/exp/dirha/fbank/raw_fbank_tr05_cont.1.ark:5226119
029c020d /scratch/ravanelm/exp/dirha/fbank/raw_fbank_tr05_cont.2.ark:43198949
026o030w /scratch/ravanelm/exp/dirha/fbank/raw_fbank_tr05_cont.2.ark:36082239
01bo0302 /scratch/ravanelm/exp/dirha/fbank/raw_fbank_tr05_cont.1.ark:25471569
021c020t /scratch/ravanelm/exp/dirha/fbank/raw_fbank_tr05_cont.2.ark:28879059
01gc020m /scratch/ravanelm/exp/dirha/fbank/raw_fbank_tr05_cont.1.ark:37012319
20mc010j /scratch/ravanelm/exp/dirha/fbank/raw_fbank_tr05_cont.3.ark:27459139
40ac0202 /scratch/ravanelm/exp/dirha/fbank/raw_fbank_tr05_cont.4.ark:7828139
01jc020k /scratch/ravanelm/exp/dirha/fbank/raw_fbank_tr05_cont.1.ark:43601099
40fc0204 /scratch/ravanelm/exp/dirha/fbank/raw_fbank_tr05_cont.4.ark:22099899
40mc020z /scratch/ravanelm/exp/dirha/fbank/raw_fbank_tr05_cont.4.ark:45899859
01pc021a /scratch/ravanelm/exp/dirha/fbank/raw_fbank_tr05_cont.2.ark:1705589
029o0314 /scratch/ravanelm/exp/dirha/fbank/raw_fbank_tr05_cont.2.ark:45643039
013o031b /scratch/ravanelm/exp/dirha/fbank/raw_fbank_tr05_cont.1.ark:6395669
016o030g /scratch/ravanelm/exp/dirha/fbank/raw_fbank_tr05_cont.1.ark:13801569
018o030a /scratch/ravanelm/exp/dirha/fbank/raw_fbank_tr05_cont.1.ark:19485499
01yo0314 /scratch/ravanelm/exp/dirha/fbank/raw_fbank_tr05_cont.2.ark:22299009
01wc020l /scratch/ravanelm/exp/dirha/fbank/raw_fbank_tr05_cont.2.ark:17228179
20hc010j /scratch/ravanelm/exp/dirha/fbank/raw_fbank_tr05_cont.3.ark:22458549
01fo030n /scratch/ravanelm/exp/dirha/fbank/raw_fbank_tr05_cont.1.ark:35559229
01mo030w /scratch/ravanelm/exp/dirha/fbank/raw_fbank_tr05_cont.1.ark:56373019
01ro0306 /scratch/ravanelm/exp/dirha/fbank/raw_fbank_tr05_cont.2.ark:8324419
204o010l /scratch/ravanelm/exp/dirha/fbank/raw_fbank_tr05_cont.3.ark:2202189
01ec020x /scratch/ravanelm/exp/dirha/fbank/raw_fbank_tr05_cont.1.ark:31281989
405c0218 /scratch/ravanelm/exp/dirha/fbank/raw_fbank_tr05_cont.3.ark:49279579
013c021c /scratch/ravanelm/exp/dirha/fbank/raw_fbank_tr05_cont.1.ark:4871169
20rc010h /scratch/ravanelm/exp/dirha/fbank/raw_fbank_tr05_cont.3.ark:35478019
01wc0205 /scratch/ravanelm/exp/dirha/fbank/raw_fbank_tr05_cont.2.ark:16741339
01qc020h /scratch/ravanelm/exp/dirha/fbank/raw_fbank_tr05_cont.2.ark:4191129
01gc0203 /scratch/ravanelm/exp/dirha/fbank/raw_fbank_tr05_cont.1.ark:36450669
40jo0301 /scratch/ravanelm/exp/dirha/fbank/raw_fbank_tr05_cont.4.ark:36485379
40io030p /scratch/ravanelm/exp/dirha/fbank/raw_fbank_tr05_cont.4.ark:34293729
016o0311 /scratch/ravanelm/exp/dirha/fbank/raw_fbank_tr05_cont.1.ark:14375279
406c020p /scratch/ravanelm/exp/dirha/fbank/raw_fbank_tr05_cont.3.ark:51558519
024c020m /scratch/ravanelm/exp/dirha/fbank/raw_fbank_tr05_cont.2.ark:31547469
40lc021e /scratch/ravanelm/exp/dirha/fbank/raw_fbank_tr05_cont.4.ark:42853699
20mc010c /scratch/ravanelm/exp/dirha/fbank/raw_fbank_tr05_cont.3.ark:27290849
40do0316 /scratch/ravanelm/exp/dirha/fbank/raw_fbank_tr05_cont.4.ark:19199369
01pc020d /scratch/ravanelm/exp/dirha/fbank/raw_fbank_tr05_cont.2.ark:770999
01zo030s /scratch/ravanelm/exp/dirha/fbank/raw_fbank_tr05_cont.2.ark:25171619
20rc0107 /scratch/ravanelm/exp/dirha/fbank/raw_fbank_tr05_cont.3.ark:35200279
40po0310 /scratch/ravanelm/exp/dirha/fbank/raw_fbank_tr05_cont.4.ark:53830559
01po0311 /scratch/ravanelm/exp/dirha/fbank/raw_fbank_tr05_cont.2.ark:3233209
406o030l /scratch/ravanelm/exp/dirha/fbank/raw_fbank_tr05_cont.3.ark:52797769
40jc0202 /scratch/ravanelm/exp/dirha/fbank/raw_fbank_tr05_cont.4.ark:35175029
01uo0302 /scratch/ravanelm/exp/dirha/fbank/raw_fbank_tr05_cont.2.ark:14798949
409c0208 /scratch/ravanelm/exp/dirha/fbank/raw_fbank_tr05_cont.4.ark:5059329
01mo030n /scratch/ravanelm/exp/dirha/fbank/raw_fbank_tr05_cont.1.ark:56057189
01wo030l /scratch/ravanelm/exp/dirha/fbank/raw_fbank_tr05_cont.2.ark:18626999
021o030h /scratch/ravanelm/exp/dirha/fbank/raw_fbank_tr05_cont.2.ark:29842389
20rc010e /scratch/ravanelm/exp/dirha/fbank/raw_fbank_tr05_cont.3.ark:35368569
206o0105 /scratch/ravanelm/exp/dirha/fbank/raw_fbank_tr05_cont.3.ark:4915109
01ec021e /scratch/ravanelm/exp/dirha/fbank/raw_fbank_tr05_cont.1.ark:31807509
018c0207 /scratch/ravanelm/exp/dirha/fbank/raw_fbank_tr05_cont.1.ark:17810049
20ic0102 /scratch/ravanelm/exp/dirha/fbank/raw_fbank_tr05_cont.3.ark:23405089
01rc020f /scratch/ravanelm/exp/dirha/fbank/raw_fbank_tr05_cont.2.ark:7127689
021o0301 /scratch/ravanelm/exp/dirha/fbank/raw_fbank_tr05_cont.2.ark:29384229
20gc0104 /scratch/ravanelm/exp/dirha/fbank/raw_fbank_tr05_cont.3.ark:20811529
01qo030b /scratch/ravanelm/exp/dirha/fbank/raw_fbank_tr05_cont.2.ark:5398649
01qo0302 /scratch/ravanelm/exp/dirha/fbank/raw_fbank_tr05_cont.2.ark:5078259
01jc020t /scratch/ravanelm/exp/dirha/fbank/raw_fbank_tr05_cont.1.ark:43825289
20io010n /scratch/ravanelm/exp/dirha/fbank/raw_fbank_tr05_cont.3.ark:24840039
021o0307 /scratch/ravanelm/exp/dirha/fbank/raw_fbank_tr05_cont.2.ark:29560649
011o030t /scratch/ravanelm/exp/dirha/fbank/raw_fbank_tr05_cont.1.ark:2472989
40gc0201 /scratch/ravanelm/exp/dirha/fbank/raw_fbank_tr05_cont.4.ark:25186449
406c020t /scratch/ravanelm/exp/dirha/fbank/raw_fbank_tr05_cont.3.ark:51627399
01eo0316 /scratch/ravanelm/exp/dirha/fbank/raw_fbank_tr05_cont.1.ark:33068719
40ko030s /scratch/ravanelm/exp/dirha/fbank/raw_fbank_tr05_cont.4.ark:40580479
01eo030h /scratch/ravanelm/exp/dirha/fbank/raw_fbank_tr05_cont.1.ark:32300929
20gc010f /scratch/ravanelm/exp/dirha/fbank/raw_fbank_tr05_cont.3.ark:21067539
01zo031e /scratch/ravanelm/exp/dirha/fbank/raw_fbank_tr05_cont.2.ark:26007159
40bc020b /scratch/ravanelm/exp/dirha/fbank/raw_fbank_tr05_cont.4.ark:11197199
021o030r /scratch/ravanelm/exp/dirha/fbank/raw_fbank_tr05_cont.2.ark:30201129
02cc020d /scratch/ravanelm/exp/dirha/fbank/raw_fbank_tr05_cont.2.ark:49587339
01ic0219 /scratch/ravanelm/exp/dirha/fbank/raw_fbank_tr05_cont.1.ark:40925589
028o0302 /scratch/ravanelm/exp/dirha/fbank/raw_fbank_tr05_cont.2.ark:41122869
01uo0306 /scratch/ravanelm/exp/dirha/fbank/raw_fbank_tr05_cont.2.ark:14962669
20bc010h /scratch/ravanelm/exp/dirha/fbank/raw_fbank_tr05_cont.3.ark:12908939
01uc020v /scratch/ravanelm/exp/dirha/fbank/raw_fbank_tr05_cont.2.ark:14044449
01mo030j /scratch/ravanelm/exp/dirha/fbank/raw_fbank_tr05_cont.1.ark:55933989
01wo031a /scratch/ravanelm/exp/dirha/fbank/raw_fbank_tr05_cont.2.ark:19352279
01eo030c /scratch/ravanelm/exp/dirha/fbank/raw_fbank_tr05_cont.1.ark:32157579
01kc020w /scratch/ravanelm/exp/dirha/fbank/raw_fbank_tr05_cont.1.ark:47461989
20eo010l /scratch/ravanelm/exp/dirha/fbank/raw_fbank_tr05_cont.3.ark:19024209
015o030a /scratch/ravanelm/exp/dirha/fbank/raw_fbank_tr05_cont.1.ark:11063809
01qo030z /scratch/ravanelm/exp/dirha/fbank/raw_fbank_tr05_cont.2.ark:6178489
40do030r /scratch/ravanelm/exp/dirha/fbank/raw_fbank_tr05_cont.4.ark:18764239
40ec0204 /scratch/ravanelm/exp/dirha/fbank/raw_fbank_tr05_cont.4.ark:19488899
409o030e /scratch/ravanelm/exp/dirha/fbank/raw_fbank_tr05_cont.4.ark:6666709
40eo030z /scratch/ravanelm/exp/dirha/fbank/raw_fbank_tr05_cont.4.ark:21643859
01go0311 /scratch/ravanelm/exp/dirha/fbank/raw_fbank_tr05_cont.1.ark:39050189
20cc010a /scratch/ravanelm/exp/dirha/fbank/raw_fbank_tr05_cont.3.ark:14565219
40jo0307 /scratch/ravanelm/exp/dirha/fbank/raw_fbank_tr05_cont.4.ark:36701599
017o0314 /scratch/ravanelm/exp/dirha/fbank/raw_fbank_tr05_cont.1.ark:17302579
20fo010g /scratch/ravanelm/exp/dirha/fbank/raw_fbank_tr05_cont.3.ark:20439779
40ac020m /scratch/ravanelm/exp/dirha/fbank/raw_fbank_tr05_cont.4.ark:8487179
011c020r /scratch/ravanelm/exp/dirha/fbank/raw_fbank_tr05_cont.1.ark:740029
40lc0201 /scratch/ravanelm/exp/dirha/fbank/raw_fbank_tr05_cont.4.ark:41298709
40co0317 /scratch/ravanelm/exp/dirha/fbank/raw_fbank_tr05_cont.4.ark:16208559
40pc021e /scratch/ravanelm/exp/dirha/fbank/raw_fbank_tr05_cont.4.ark:52542449
01uo031e /scratch/ravanelm/exp/dirha/fbank/raw_fbank_tr05_cont.2.ark:16594749
20go0103 /scratch/ravanelm/exp/dirha/fbank/raw_fbank_tr05_cont.3.ark:21387469
01kc0205 /scratch/ravanelm/exp/dirha/fbank/raw_fbank_tr05_cont.1.ark:46627809
40no0315 /scratch/ravanelm/exp/dirha/fbank/raw_fbank_tr05_cont.4.ark:51053509
01mc0218 /scratch/ravanelm/exp/dirha/fbank/raw_fbank_tr05_cont.1.ark:55163169
205o0106 /scratch/ravanelm/exp/dirha/fbank/raw_fbank_tr05_cont.3.ark:3313909
026o0307 /scratch/ravanelm/exp/dirha/fbank/raw_fbank_tr05_cont.2.ark:35333249
403o0317 /scratch/ravanelm/exp/dirha/fbank/raw_fbank_tr05_cont.3.ark:45429699
403c0214 /scratch/ravanelm/exp/dirha/fbank/raw_fbank_tr05_cont.3.ark:43743199
40do0308 /scratch/ravanelm/exp/dirha/fbank/raw_fbank_tr05_cont.4.ark:18153149
20mo010n /scratch/ravanelm/exp/dirha/fbank/raw_fbank_tr05_cont.3.ark:28284329
021c020i /scratch/ravanelm/exp/dirha/fbank/raw_fbank_tr05_cont.2.ark:28525649
20qc010f /scratch/ravanelm/exp/dirha/fbank/raw_fbank_tr05_cont.3.ark:33722349
20ec010a /scratch/ravanelm/exp/dirha/fbank/raw_fbank_tr05_cont.3.ark:17816999
20po010m /scratch/ravanelm/exp/dirha/fbank/raw_fbank_tr05_cont.3.ark:33063299
403o0304 /scratch/ravanelm/exp/dirha/fbank/raw_fbank_tr05_cont.3.ark:44169209
021o030n /scratch/ravanelm/exp/dirha/fbank/raw_fbank_tr05_cont.2.ark:30048369
40dc021a /scratch/ravanelm/exp/dirha/fbank/raw_fbank_tr05_cont.4.ark:17782249
01fc020t /scratch/ravanelm/exp/dirha/fbank/raw_fbank_tr05_cont.1.ark:34141649
40bo030l /scratch/ravanelm/exp/dirha/fbank/raw_fbank_tr05_cont.4.ark:13059699
01mo030t /scratch/ravanelm/exp/dirha/fbank/raw_fbank_tr05_cont.1.ark:56250329
40lc0219 /scratch/ravanelm/exp/dirha/fbank/raw_fbank_tr05_cont.4.ark:42695509
013c0218 /scratch/ravanelm/exp/dirha/fbank/raw_fbank_tr05_cont.1.ark:4792809
02ec0210 /scratch/ravanelm/exp/dirha/fbank/raw_fbank_tr05_cont.2.ark:53331849
021o030k /scratch/ravanelm/exp/dirha/fbank/raw_fbank_tr05_cont.2.ark:29951039
017o0317 /scratch/ravanelm/exp/dirha/fbank/raw_fbank_tr05_cont.1.ark:17377869
20mo010p /scratch/ravanelm/exp/dirha/fbank/raw_fbank_tr05_cont.3.ark:28334469
011o0305 /scratch/ravanelm/exp/dirha/fbank/raw_fbank_tr05_cont.1.ark:1586229
015o030p /scratch/ravanelm/exp/dirha/fbank/raw_fbank_tr05_cont.1.ark:11629059
404o030g /scratch/ravanelm/exp/dirha/fbank/raw_fbank_tr05_cont.3.ark:47257149
01jc020o /scratch/ravanelm/exp/dirha/fbank/raw_fbank_tr05_cont.1.ark:43683739
20ic010c /scratch/ravanelm/exp/dirha/fbank/raw_fbank_tr05_cont.3.ark:23706029
014o0315 /scratch/ravanelm/exp/dirha/fbank/raw_fbank_tr05_cont.1.ark:9170329
405o0302 /scratch/ravanelm/exp/dirha/fbank/raw_fbank_tr05_cont.3.ark:49518489
017c021c /scratch/ravanelm/exp/dirha/fbank/raw_fbank_tr05_cont.1.ark:15932659
01dc0202 /scratch/ravanelm/exp/dirha/fbank/raw_fbank_tr05_cont.1.ark:27460139
01uc020y /scratch/ravanelm/exp/dirha/fbank/raw_fbank_tr05_cont.2.ark:14142059
01zc0212 /scratch/ravanelm/exp/dirha/fbank/raw_fbank_tr05_cont.2.ark:23658389
01rc0216 /scratch/ravanelm/exp/dirha/fbank/raw_fbank_tr05_cont.2.ark:7927659
40fo0305 /scratch/ravanelm/exp/dirha/fbank/raw_fbank_tr05_cont.4.ark:23579729
028c020b /scratch/ravanelm/exp/dirha/fbank/raw_fbank_tr05_cont.2.ark:39991249
02cc020y /scratch/ravanelm/exp/dirha/fbank/raw_fbank_tr05_cont.2.ark:50090779
40pc020m /scratch/ravanelm/exp/dirha/fbank/raw_fbank_tr05_cont.4.ark:51884089
40mo030d /scratch/ravanelm/exp/dirha/fbank/raw_fbank_tr05_cont.4.ark:46838079
016o0306 /scratch/ravanelm/exp/dirha/fbank/raw_fbank_tr05_cont.1.ark:13577409
027o030o /scratch/ravanelm/exp/dirha/fbank/raw_fbank_tr05_cont.2.ark:38926269
029c020b /scratch/ravanelm/exp/dirha/fbank/raw_fbank_tr05_cont.2.ark:43135729
01ic020g /scratch/ravanelm/exp/dirha/fbank/raw_fbank_tr05_cont.1.ark:40159399
024c0218 /scratch/ravanelm/exp/dirha/fbank/raw_fbank_tr05_cont.2.ark:32108609
401c0218 /scratch/ravanelm/exp/dirha/fbank/raw_fbank_tr05_cont.3.ark:40847989
02ec020j /scratch/ravanelm/exp/dirha/fbank/raw_fbank_tr05_cont.2.ark:52844899
018o0305 /scratch/ravanelm/exp/dirha/fbank/raw_fbank_tr05_cont.1.ark:19358389
01jc020p /scratch/ravanelm/exp/dirha/fbank/raw_fbank_tr05_cont.1.ark:43728529
01yc0203 /scratch/ravanelm/exp/dirha/fbank/raw_fbank_tr05_cont.2.ark:19561619
01zc0215 /scratch/ravanelm/exp/dirha/fbank/raw_fbank_tr05_cont.2.ark:23759119
404o030m /scratch/ravanelm/exp/dirha/fbank/raw_fbank_tr05_cont.3.ark:47452649
026o030h /scratch/ravanelm/exp/dirha/fbank/raw_fbank_tr05_cont.2.ark:35611109
018c020a /scratch/ravanelm/exp/dirha/fbank/raw_fbank_tr05_cont.1.ark:17868019
029o0311 /scratch/ravanelm/exp/dirha/fbank/raw_fbank_tr05_cont.2.ark:45537029
01mc020z /scratch/ravanelm/exp/dirha/fbank/raw_fbank_tr05_cont.1.ark:54942259
01wc0213 /scratch/ravanelm/exp/dirha/fbank/raw_fbank_tr05_cont.2.ark:17703399
01qc020m /scratch/ravanelm/exp/dirha/fbank/raw_fbank_tr05_cont.2.ark:4332409
028c020a /scratch/ravanelm/exp/dirha/fbank/raw_fbank_tr05_cont.2.ark:39975699
40lc020x /scratch/ravanelm/exp/dirha/fbank/raw_fbank_tr05_cont.4.ark:42263549
40pc0215 /scratch/ravanelm/exp/dirha/fbank/raw_fbank_tr05_cont.4.ark:52356379
01qo0309 /scratch/ravanelm/exp/dirha/fbank/raw_fbank_tr05_cont.2.ark:5291549
01lo031b /scratch/ravanelm/exp/dirha/fbank/raw_fbank_tr05_cont.1.ark:53935349
011c020l /scratch/ravanelm/exp/dirha/fbank/raw_fbank_tr05_cont.1.ark:531409
018o0301 /scratch/ravanelm/exp/dirha/fbank/raw_fbank_tr05_cont.1.ark:19195229
40go030n /scratch/ravanelm/exp/dirha/fbank/raw_fbank_tr05_cont.4.ark:27902199
40lo031g /scratch/ravanelm/exp/dirha/fbank/raw_fbank_tr05_cont.4.ark:44999209
40bc021f /scratch/ravanelm/exp/dirha/fbank/raw_fbank_tr05_cont.4.ark:12293959
40kc0206 /scratch/ravanelm/exp/dirha/fbank/raw_fbank_tr05_cont.4.ark:38387459
20co010c /scratch/ravanelm/exp/dirha/fbank/raw_fbank_tr05_cont.3.ark:15351279
01mc0206 /scratch/ravanelm/exp/dirha/fbank/raw_fbank_tr05_cont.1.ark:54180629
40eo030g /scratch/ravanelm/exp/dirha/fbank/raw_fbank_tr05_cont.4.ark:21120689
20dc0104 /scratch/ravanelm/exp/dirha/fbank/raw_fbank_tr05_cont.3.ark:15856059
01io031b /scratch/ravanelm/exp/dirha/fbank/raw_fbank_tr05_cont.1.ark:42874059
01go030x /scratch/ravanelm/exp/dirha/fbank/raw_fbank_tr05_cont.1.ark:38898349
40go0308 /scratch/ravanelm/exp/dirha/fbank/raw_fbank_tr05_cont.4.ark:27281469
01ic020q /scratch/ravanelm/exp/dirha/fbank/raw_fbank_tr05_cont.1.ark:40434459
02bc020w /scratch/ravanelm/exp/dirha/fbank/raw_fbank_tr05_cont.2.ark:46875409
02ec0209 /scratch/ravanelm/exp/dirha/fbank/raw_fbank_tr05_cont.2.ark:52504719
408c021a /scratch/ravanelm/exp/dirha/fbank/raw_fbank_tr05_cont.4.ark:3422839
40fo030h /scratch/ravanelm/exp/dirha/fbank/raw_fbank_tr05_cont.4.ark:23991409
01fc020q /scratch/ravanelm/exp/dirha/fbank/raw_fbank_tr05_cont.1.ark:34063079
01mo0316 /scratch/ravanelm/exp/dirha/fbank/raw_fbank_tr05_cont.2.ark:133449
01zo030o /scratch/ravanelm/exp/dirha/fbank/raw_fbank_tr05_cont.2.ark:25000739
01fc021c /scratch/ravanelm/exp/dirha/fbank/raw_fbank_tr05_cont.1.ark:34657859
019c0215 /scratch/ravanelm/exp/dirha/fbank/raw_fbank_tr05_cont.1.ark:22072949
01po030z /scratch/ravanelm/exp/dirha/fbank/raw_fbank_tr05_cont.2.ark:3158549
20mo0103 /scratch/ravanelm/exp/dirha/fbank/raw_fbank_tr05_cont.3.ark:27747409
405c021b /scratch/ravanelm/exp/dirha/fbank/raw_fbank_tr05_cont.3.ark:49356629
408c020l /scratch/ravanelm/exp/dirha/fbank/raw_fbank_tr05_cont.4.ark:2877359
018o0310 /scratch/ravanelm/exp/dirha/fbank/raw_fbank_tr05_cont.1.ark:20544519
40po030c /scratch/ravanelm/exp/dirha/fbank/raw_fbank_tr05_cont.4.ark:52948919
20ao0104 /scratch/ravanelm/exp/dirha/fbank/raw_fbank_tr05_cont.3.ark:11482409
20no0107 /scratch/ravanelm/exp/dirha/fbank/raw_fbank_tr05_cont.3.ark:29454639
014o030a /scratch/ravanelm/exp/dirha/fbank/raw_fbank_tr05_cont.1.ark:8090239
01lo030w /scratch/ravanelm/exp/dirha/fbank/raw_fbank_tr05_cont.1.ark:53156739
20io010l /scratch/ravanelm/exp/dirha/fbank/raw_fbank_tr05_cont.3.ark:24766299
40mc0213 /scratch/ravanelm/exp/dirha/fbank/raw_fbank_tr05_cont.4.ark:45985339
015c020i /scratch/ravanelm/exp/dirha/fbank/raw_fbank_tr05_cont.1.ark:9944509
01wo030w /scratch/ravanelm/exp/dirha/fbank/raw_fbank_tr05_cont.2.ark:18900459
01bc020d /scratch/ravanelm/exp/dirha/fbank/raw_fbank_tr05_cont.1.ark:24204489
01ro030j /scratch/ravanelm/exp/dirha/fbank/raw_fbank_tr05_cont.2.ark:8691049
01po030t /scratch/ravanelm/exp/dirha/fbank/raw_fbank_tr05_cont.2.ark:2916889
027c020p /scratch/ravanelm/exp/dirha/fbank/raw_fbank_tr05_cont.2.ark:37238509
013c0219 /scratch/ravanelm/exp/dirha/fbank/raw_fbank_tr05_cont.1.ark:4811919
204c010n /scratch/ravanelm/exp/dirha/fbank/raw_fbank_tr05_cont.3.ark:1531659
20go010h /scratch/ravanelm/exp/dirha/fbank/raw_fbank_tr05_cont.3.ark:21783569
40mc0207 /scratch/ravanelm/exp/dirha/fbank/raw_fbank_tr05_cont.4.ark:45172019
40pc020n /scratch/ravanelm/exp/dirha/fbank/raw_fbank_tr05_cont.4.ark:51892919
40ho030l /scratch/ravanelm/exp/dirha/fbank/raw_fbank_tr05_cont.4.ark:31081529
01bo030y /scratch/ravanelm/exp/dirha/fbank/raw_fbank_tr05_cont.1.ark:26831539
40ic020o /scratch/ravanelm/exp/dirha/fbank/raw_fbank_tr05_cont.4.ark:32773369
20dc0107 /scratch/ravanelm/exp/dirha/fbank/raw_fbank_tr05_cont.3.ark:15922709
024c020b /scratch/ravanelm/exp/dirha/fbank/raw_fbank_tr05_cont.2.ark:31191059
40pc0204 /scratch/ravanelm/exp/dirha/fbank/raw_fbank_tr05_cont.4.ark:51486629
40mo0308 /scratch/ravanelm/exp/dirha/fbank/raw_fbank_tr05_cont.4.ark:46687129
20ho010o /scratch/ravanelm/exp/dirha/fbank/raw_fbank_tr05_cont.3.ark:23318439
40dc0211 /scratch/ravanelm/exp/dirha/fbank/raw_fbank_tr05_cont.4.ark:17561019
017o030n /scratch/ravanelm/exp/dirha/fbank/raw_fbank_tr05_cont.1.ark:16765189
20ac0105 /scratch/ravanelm/exp/dirha/fbank/raw_fbank_tr05_cont.3.ark:10831159
40cc0212 /scratch/ravanelm/exp/dirha/fbank/raw_fbank_tr05_cont.4.ark:14827789
014o0309 /scratch/ravanelm/exp/dirha/fbank/raw_fbank_tr05_cont.1.ark:8036489
01ec0215 /scratch/ravanelm/exp/dirha/fbank/raw_fbank_tr05_cont.1.ark:31555669
01qo030w /scratch/ravanelm/exp/dirha/fbank/raw_fbank_tr05_cont.2.ark:6097679
409c0210 /scratch/ravanelm/exp/dirha/fbank/raw_fbank_tr05_cont.4.ark:5850289
019c0213 /scratch/ravanelm/exp/dirha/fbank/raw_fbank_tr05_cont.1.ark:22017169
014o0306 /scratch/ravanelm/exp/dirha/fbank/raw_fbank_tr05_cont.1.ark:7927079
20mo010m /scratch/ravanelm/exp/dirha/fbank/raw_fbank_tr05_cont.3.ark:28262379
405c020h /scratch/ravanelm/exp/dirha/fbank/raw_fbank_tr05_cont.3.ark:48663569
01zc020f /scratch/ravanelm/exp/dirha/fbank/raw_fbank_tr05_cont.2.ark:23018299
20ec0108 /scratch/ravanelm/exp/dirha/fbank/raw_fbank_tr05_cont.3.ark:17769099
40cc0214 /scratch/ravanelm/exp/dirha/fbank/raw_fbank_tr05_cont.4.ark:14881209
20cc010o /scratch/ravanelm/exp/dirha/fbank/raw_fbank_tr05_cont.3.ark:14892519
40ao030w /scratch/ravanelm/exp/dirha/fbank/raw_fbank_tr05_cont.4.ark:10294579
01lc0201 /scratch/ravanelm/exp/dirha/fbank/raw_fbank_tr05_cont.1.ark:50248399
01qc020g /scratch/ravanelm/exp/dirha/fbank/raw_fbank_tr05_cont.2.ark:4157419
01zc0214 /scratch/ravanelm/exp/dirha/fbank/raw_fbank_tr05_cont.2.ark:23724889
021c020j /scratch/ravanelm/exp/dirha/fbank/raw_fbank_tr05_cont.2.ark:28564039
404c0202 /scratch/ravanelm/exp/dirha/fbank/raw_fbank_tr05_cont.3.ark:45595679
01jc020j /scratch/ravanelm/exp/dirha/fbank/raw_fbank_tr05_cont.1.ark:43580989
40po0313 /scratch/ravanelm/exp/dirha/fbank/raw_fbank_tr05_cont.4.ark:53897129
20to010i /scratch/ravanelm/exp/dirha/fbank/raw_fbank_tr05_cont.3.ark:37867129
20lo0103 /scratch/ravanelm/exp/dirha/fbank/raw_fbank_tr05_cont.3.ark:25892759
406c021b /scratch/ravanelm/exp/dirha/fbank/raw_fbank_tr05_cont.3.ark:52115979
013c020u /scratch/ravanelm/exp/dirha/fbank/raw_fbank_tr05_cont.1.ark:4461869
01to0301 /scratch/ravanelm/exp/dirha/fbank/raw_fbank_tr05_cont.2.ark:11309019
019o031a /scratch/ravanelm/exp/dirha/fbank/raw_fbank_tr05_cont.1.ark:23781889
01ko031d /scratch/ravanelm/exp/dirha/fbank/raw_fbank_tr05_cont.1.ark:50039959
404c020e /scratch/ravanelm/exp/dirha/fbank/raw_fbank_tr05_cont.3.ark:45893039
02ec020k /scratch/ravanelm/exp/dirha/fbank/raw_fbank_tr05_cont.2.ark:52878049
028o0317 /scratch/ravanelm/exp/dirha/fbank/raw_fbank_tr05_cont.2.ark:42601099
01zc020k /scratch/ravanelm/exp/dirha/fbank/raw_fbank_tr05_cont.2.ark:23151369
40nc0214 /scratch/ravanelm/exp/dirha/fbank/raw_fbank_tr05_cont.4.ark:49218079
406o0301 /scratch/ravanelm/exp/dirha/fbank/raw_fbank_tr05_cont.3.ark:52211129
40dc020w /scratch/ravanelm/exp/dirha/fbank/raw_fbank_tr05_cont.4.ark:17406029
011o030y /scratch/ravanelm/exp/dirha/fbank/raw_fbank_tr05_cont.1.ark:2685219
02co030n /scratch/ravanelm/exp/dirha/fbank/raw_fbank_tr05_cont.2.ark:51232319
409c020k /scratch/ravanelm/exp/dirha/fbank/raw_fbank_tr05_cont.4.ark:5390769
014c021a /scratch/ravanelm/exp/dirha/fbank/raw_fbank_tr05_cont.1.ark:7556409
01zo030g /scratch/ravanelm/exp/dirha/fbank/raw_fbank_tr05_cont.2.ark:24620259
408c0204 /scratch/ravanelm/exp/dirha/fbank/raw_fbank_tr05_cont.4.ark:2466329
014c0217 /scratch/ravanelm/exp/dirha/fbank/raw_fbank_tr05_cont.1.ark:7499959
01wc020n /scratch/ravanelm/exp/dirha/fbank/raw_fbank_tr05_cont.2.ark:17287839
016c020e /scratch/ravanelm/exp/dirha/fbank/raw_fbank_tr05_cont.1.ark:12648749
024o0312 /scratch/ravanelm/exp/dirha/fbank/raw_fbank_tr05_cont.2.ark:33466529
40eo030k /scratch/ravanelm/exp/dirha/fbank/raw_fbank_tr05_cont.4.ark:21251969
01go030s /scratch/ravanelm/exp/dirha/fbank/raw_fbank_tr05_cont.1.ark:38761439
01zo030p /scratch/ravanelm/exp/dirha/fbank/raw_fbank_tr05_cont.2.ark:25041489
207o010u /scratch/ravanelm/exp/dirha/fbank/raw_fbank_tr05_cont.3.ark:7584399
40gc0215 /scratch/ravanelm/exp/dirha/fbank/raw_fbank_tr05_cont.4.ark:26601249
40cc021b /scratch/ravanelm/exp/dirha/fbank/raw_fbank_tr05_cont.4.ark:15021979
016c0206 /scratch/ravanelm/exp/dirha/fbank/raw_fbank_tr05_cont.1.ark:12428189
01gc020x /scratch/ravanelm/exp/dirha/fbank/raw_fbank_tr05_cont.1.ark:37285969
019o030c /scratch/ravanelm/exp/dirha/fbank/raw_fbank_tr05_cont.1.ark:22769429
01yc021a /scratch/ravanelm/exp/dirha/fbank/raw_fbank_tr05_cont.2.ark:20750349
40no0316 /scratch/ravanelm/exp/dirha/fbank/raw_fbank_tr05_cont.4.ark:51082099
20no0105 /scratch/ravanelm/exp/dirha/fbank/raw_fbank_tr05_cont.3.ark:29387139
40nc020n /scratch/ravanelm/exp/dirha/fbank/raw_fbank_tr05_cont.4.ark:48731729
021o031e /scratch/ravanelm/exp/dirha/fbank/raw_fbank_tr05_cont.2.ark:30853539
404c0209 /scratch/ravanelm/exp/dirha/fbank/raw_fbank_tr05_cont.3.ark:45762169
01rc021b /scratch/ravanelm/exp/dirha/fbank/raw_fbank_tr05_cont.2.ark:8028689
40kc020j /scratch/ravanelm/exp/dirha/fbank/raw_fbank_tr05_cont.4.ark:38775209
01tc0211 /scratch/ravanelm/exp/dirha/fbank/raw_fbank_tr05_cont.2.ark:10878099
01dc0210 /scratch/ravanelm/exp/dirha/fbank/raw_fbank_tr05_cont.1.ark:28336639
40cc020n /scratch/ravanelm/exp/dirha/fbank/raw_fbank_tr05_cont.4.ark:14503579
017c020w /scratch/ravanelm/exp/dirha/fbank/raw_fbank_tr05_cont.1.ark:15531659
024o030h /scratch/ravanelm/exp/dirha/fbank/raw_fbank_tr05_cont.2.ark:32839219
401o0317 /scratch/ravanelm/exp/dirha/fbank/raw_fbank_tr05_cont.3.ark:42618259
404c020f /scratch/ravanelm/exp/dirha/fbank/raw_fbank_tr05_cont.3.ark:45903589
01wo030e /scratch/ravanelm/exp/dirha/fbank/raw_fbank_tr05_cont.2.ark:18391949
01uc020m /scratch/ravanelm/exp/dirha/fbank/raw_fbank_tr05_cont.2.ark:13808299
40ao0319 /scratch/ravanelm/exp/dirha/fbank/raw_fbank_tr05_cont.4.ark:10734129
40lo031b /scratch/ravanelm/exp/dirha/fbank/raw_fbank_tr05_cont.4.ark:44792219
01qo031d /scratch/ravanelm/exp/dirha/fbank/raw_fbank_tr05_cont.2.ark:6571549
40go0309 /scratch/ravanelm/exp/dirha/fbank/raw_fbank_tr05_cont.4.ark:27315819
028o0310 /scratch/ravanelm/exp/dirha/fbank/raw_fbank_tr05_cont.2.ark:42341929
01pc0212 /scratch/ravanelm/exp/dirha/fbank/raw_fbank_tr05_cont.2.ark:1461189
20cc010h /scratch/ravanelm/exp/dirha/fbank/raw_fbank_tr05_cont.3.ark:14731589
20do010e /scratch/ravanelm/exp/dirha/fbank/raw_fbank_tr05_cont.3.ark:17004149
01ec020j /scratch/ravanelm/exp/dirha/fbank/raw_fbank_tr05_cont.1.ark:30901689
01fo030k /scratch/ravanelm/exp/dirha/fbank/raw_fbank_tr05_cont.1.ark:35465019
40dc021c /scratch/ravanelm/exp/dirha/fbank/raw_fbank_tr05_cont.4.ark:17844029
20vc0108 /scratch/ravanelm/exp/dirha/fbank/raw_fbank_tr05_cont.3.ark:38295979
40dc020p /scratch/ravanelm/exp/dirha/fbank/raw_fbank_tr05_cont.4.ark:17156699
01go0304 /scratch/ravanelm/exp/dirha/fbank/raw_fbank_tr05_cont.1.ark:37909039
404o0302 /scratch/ravanelm/exp/dirha/fbank/raw_fbank_tr05_cont.3.ark:46841729
01qc020d /scratch/ravanelm/exp/dirha/fbank/raw_fbank_tr05_cont.2.ark:4056609
02bc0206 /scratch/ravanelm/exp/dirha/fbank/raw_fbank_tr05_cont.2.ark:46164789
01bc0203 /scratch/ravanelm/exp/dirha/fbank/raw_fbank_tr05_cont.1.ark:23873459
02cc020o /scratch/ravanelm/exp/dirha/fbank/raw_fbank_tr05_cont.2.ark:49805519
016c0203 /scratch/ravanelm/exp/dirha/fbank/raw_fbank_tr05_cont.1.ark:12359179
029o0316 /scratch/ravanelm/exp/dirha/fbank/raw_fbank_tr05_cont.2.ark:45707859
40dc020r /scratch/ravanelm/exp/dirha/fbank/raw_fbank_tr05_cont.4.ark:17240999
01mc0212 /scratch/ravanelm/exp/dirha/fbank/raw_fbank_tr05_cont.1.ark:55023269
026c0205 /scratch/ravanelm/exp/dirha/fbank/raw_fbank_tr05_cont.2.ark:34009829
028c020h /scratch/ravanelm/exp/dirha/fbank/raw_fbank_tr05_cont.2.ark:40133749
020c0205 /scratch/ravanelm/exp/dirha/fbank/raw_fbank_tr05_cont.2.ark:26173329
407c0201 /scratch/ravanelm/exp/dirha/fbank/raw_fbank_tr05_cont.3.ark:53736359
20cc010i /scratch/ravanelm/exp/dirha/fbank/raw_fbank_tr05_cont.3.ark:14759939
408c020i /scratch/ravanelm/exp/dirha/fbank/raw_fbank_tr05_cont.4.ark:2826949
01bo030e /scratch/ravanelm/exp/dirha/fbank/raw_fbank_tr05_cont.1.ark:25965059
01tc0216 /scratch/ravanelm/exp/dirha/fbank/raw_fbank_tr05_cont.2.ark:11039489
011o030k /scratch/ravanelm/exp/dirha/fbank/raw_fbank_tr05_cont.1.ark:2193039
01lo030q /scratch/ravanelm/exp/dirha/fbank/raw_fbank_tr05_cont.1.ark:52963879
20vc0109 /scratch/ravanelm/exp/dirha/fbank/raw_fbank_tr05_cont.3.ark:38332089
01fo0311 /scratch/ravanelm/exp/dirha/fbank/raw_fbank_tr05_cont.1.ark:35962489
01fc020y /scratch/ravanelm/exp/dirha/fbank/raw_fbank_tr05_cont.1.ark:34272519
015c0201 /scratch/ravanelm/exp/dirha/fbank/raw_fbank_tr05_cont.1.ark:9457479
018o030x /scratch/ravanelm/exp/dirha/fbank/raw_fbank_tr05_cont.1.ark:20427269
407c020b /scratch/ravanelm/exp/dirha/fbank/raw_fbank_tr05_cont.3.ark:53986779
01bc020m /scratch/ravanelm/exp/dirha/fbank/raw_fbank_tr05_cont.1.ark:24475369
40fo031d /scratch/ravanelm/exp/dirha/fbank/raw_fbank_tr05_cont.4.ark:25019089
014c020f /scratch/ravanelm/exp/dirha/fbank/raw_fbank_tr05_cont.1.ark:6866159
01lo030f /scratch/ravanelm/exp/dirha/fbank/raw_fbank_tr05_cont.1.ark:52538309
40no030l /scratch/ravanelm/exp/dirha/fbank/raw_fbank_tr05_cont.4.ark:50345509
40ec020y /scratch/ravanelm/exp/dirha/fbank/raw_fbank_tr05_cont.4.ark:20151599
01zo030v /scratch/ravanelm/exp/dirha/fbank/raw_fbank_tr05_cont.2.ark:25319429
016c020i /scratch/ravanelm/exp/dirha/fbank/raw_fbank_tr05_cont.1.ark:12752629
405o0304 /scratch/ravanelm/exp/dirha/fbank/raw_fbank_tr05_cont.3.ark:49559469
409o030u /scratch/ravanelm/exp/dirha/fbank/raw_fbank_tr05_cont.4.ark:7182349
206c0101 /scratch/ravanelm/exp/dirha/fbank/raw_fbank_tr05_cont.3.ark:4235449
40fo030k /scratch/ravanelm/exp/dirha/fbank/raw_fbank_tr05_cont.4.ark:24110579
01qc021c /scratch/ravanelm/exp/dirha/fbank/raw_fbank_tr05_cont.2.ark:4924419
405c021d /scratch/ravanelm/exp/dirha/fbank/raw_fbank_tr05_cont.3.ark:49422249
026o030v /scratch/ravanelm/exp/dirha/fbank/raw_fbank_tr05_cont.2.ark:36053369
017o030e /scratch/ravanelm/exp/dirha/fbank/raw_fbank_tr05_cont.1.ark:16478159
013o0302 /scratch/ravanelm/exp/dirha/fbank/raw_fbank_tr05_cont.1.ark:5016679
01io0308 /scratch/ravanelm/exp/dirha/fbank/raw_fbank_tr05_cont.1.ark:41417889
206c0108 /scratch/ravanelm/exp/dirha/fbank/raw_fbank_tr05_cont.3.ark:4387339
40ec0214 /scratch/ravanelm/exp/dirha/fbank/raw_fbank_tr05_cont.4.ark:20292779
01rc0206 /scratch/ravanelm/exp/dirha/fbank/raw_fbank_tr05_cont.2.ark:6885499
406o0317 /scratch/ravanelm/exp/dirha/fbank/raw_fbank_tr05_cont.3.ark:53558229
020c021f /scratch/ravanelm/exp/dirha/fbank/raw_fbank_tr05_cont.2.ark:27060789
20dc010o /scratch/ravanelm/exp/dirha/fbank/raw_fbank_tr05_cont.3.ark:16480259
20co010e /scratch/ravanelm/exp/dirha/fbank/raw_fbank_tr05_cont.3.ark:15395259
204o0102 /scratch/ravanelm/exp/dirha/fbank/raw_fbank_tr05_cont.3.ark:1619379
018c0214 /scratch/ravanelm/exp/dirha/fbank/raw_fbank_tr05_cont.1.ark:18753039
20ac010l /scratch/ravanelm/exp/dirha/fbank/raw_fbank_tr05_cont.3.ark:11269159
40cc020v /scratch/ravanelm/exp/dirha/fbank/raw_fbank_tr05_cont.4.ark:14657579
40ao0313 /scratch/ravanelm/exp/dirha/fbank/raw_fbank_tr05_cont.4.ark:10532829
20qc010n /scratch/ravanelm/exp/dirha/fbank/raw_fbank_tr05_cont.3.ark:33931629
404o030k /scratch/ravanelm/exp/dirha/fbank/raw_fbank_tr05_cont.3.ark:47396829
408o030p /scratch/ravanelm/exp/dirha/fbank/raw_fbank_tr05_cont.4.ark:4303799
20mo010k /scratch/ravanelm/exp/dirha/fbank/raw_fbank_tr05_cont.3.ark:28208239
019c0216 /scratch/ravanelm/exp/dirha/fbank/raw_fbank_tr05_cont.1.ark:22107739
01rc020t /scratch/ravanelm/exp/dirha/fbank/raw_fbank_tr05_cont.2.ark:7561669
407o030u /scratch/ravanelm/exp/dirha/fbank/raw_fbank_tr05_cont.4.ark:1796049
015o030h /scratch/ravanelm/exp/dirha/fbank/raw_fbank_tr05_cont.1.ark:11294979
208c010i /scratch/ravanelm/exp/dirha/fbank/raw_fbank_tr05_cont.3.ark:8114779
40eo030h /scratch/ravanelm/exp/dirha/fbank/raw_fbank_tr05_cont.4.ark:21154759
40mc021f /scratch/ravanelm/exp/dirha/fbank/raw_fbank_tr05_cont.4.ark:46305979
20bc010l /scratch/ravanelm/exp/dirha/fbank/raw_fbank_tr05_cont.3.ark:13018019
01gc0202 /scratch/ravanelm/exp/dirha/fbank/raw_fbank_tr05_cont.1.ark:36414679
02ec0219 /scratch/ravanelm/exp/dirha/fbank/raw_fbank_tr05_cont.2.ark:53639119
01zo030i /scratch/ravanelm/exp/dirha/fbank/raw_fbank_tr05_cont.2.ark:24699399
40ko030v /scratch/ravanelm/exp/dirha/fbank/raw_fbank_tr05_cont.4.ark:40667529
405o0306 /scratch/ravanelm/exp/dirha/fbank/raw_fbank_tr05_cont.3.ark:49609609
40bc0210 /scratch/ravanelm/exp/dirha/fbank/raw_fbank_tr05_cont.4.ark:11853389
40bc020c /scratch/ravanelm/exp/dirha/fbank/raw_fbank_tr05_cont.4.ark:11216749
026o030s /scratch/ravanelm/exp/dirha/fbank/raw_fbank_tr05_cont.2.ark:35961799
01yc020g /scratch/ravanelm/exp/dirha/fbank/raw_fbank_tr05_cont.2.ark:19968889
20ao0109 /scratch/ravanelm/exp/dirha/fbank/raw_fbank_tr05_cont.3.ark:11718079
40ec0211 /scratch/ravanelm/exp/dirha/fbank/raw_fbank_tr05_cont.4.ark:20219729
020c0204 /scratch/ravanelm/exp/dirha/fbank/raw_fbank_tr05_cont.2.ark:26165699
40ao0309 /scratch/ravanelm/exp/dirha/fbank/raw_fbank_tr05_cont.4.ark:9551649
40ec020l /scratch/ravanelm/exp/dirha/fbank/raw_fbank_tr05_cont.4.ark:19869449
01ic0201 /scratch/ravanelm/exp/dirha/fbank/raw_fbank_tr05_cont.1.ark:39677869
01fc020m /scratch/ravanelm/exp/dirha/fbank/raw_fbank_tr05_cont.1.ark:33954399
20to010p /scratch/ravanelm/exp/dirha/fbank/raw_fbank_tr05_cont.3.ark:38083899
01eo030m /scratch/ravanelm/exp/dirha/fbank/raw_fbank_tr05_cont.1.ark:32462559
021o030z /scratch/ravanelm/exp/dirha/fbank/raw_fbank_tr05_cont.2.ark:30421009
01do0304 /scratch/ravanelm/exp/dirha/fbank/raw_fbank_tr05_cont.1.ark:28912449
01fo0306 /scratch/ravanelm/exp/dirha/fbank/raw_fbank_tr05_cont.1.ark:34966999
029o030s /scratch/ravanelm/exp/dirha/fbank/raw_fbank_tr05_cont.2.ark:45227759
01fc0215 /scratch/ravanelm/exp/dirha/fbank/raw_fbank_tr05_cont.1.ark:34485969
016c020o /scratch/ravanelm/exp/dirha/fbank/raw_fbank_tr05_cont.1.ark:12888609
01ro0310 /scratch/ravanelm/exp/dirha/fbank/raw_fbank_tr05_cont.2.ark:9254559
01ro030a /scratch/ravanelm/exp/dirha/fbank/raw_fbank_tr05_cont.2.ark:8368819
01mo031c /scratch/ravanelm/exp/dirha/fbank/raw_fbank_tr05_cont.2.ark:331949
01do030b /scratch/ravanelm/exp/dirha/fbank/raw_fbank_tr05_cont.1.ark:29141299
207o010d /scratch/ravanelm/exp/dirha/fbank/raw_fbank_tr05_cont.3.ark:7082289
40mc0217 /scratch/ravanelm/exp/dirha/fbank/raw_fbank_tr05_cont.4.ark:46114419
20mo010i /scratch/ravanelm/exp/dirha/fbank/raw_fbank_tr05_cont.3.ark:28160099
019o0314 /scratch/ravanelm/exp/dirha/fbank/raw_fbank_tr05_cont.1.ark:23613149
015c020w /scratch/ravanelm/exp/dirha/fbank/raw_fbank_tr05_cont.1.ark:10282569
01uc0201 /scratch/ravanelm/exp/dirha/fbank/raw_fbank_tr05_cont.2.ark:13135829
20mo0109 /scratch/ravanelm/exp/dirha/fbank/raw_fbank_tr05_cont.3.ark:27922229
20ho010j /scratch/ravanelm/exp/dirha/fbank/raw_fbank_tr05_cont.3.ark:23165969
02bc020h /scratch/ravanelm/exp/dirha/fbank/raw_fbank_tr05_cont.2.ark:46489159
01ro030x /scratch/ravanelm/exp/dirha/fbank/raw_fbank_tr05_cont.2.ark:9151389
40mc021e /scratch/ravanelm/exp/dirha/fbank/raw_fbank_tr05_cont.4.ark:46283589
40ic020i /scratch/ravanelm/exp/dirha/fbank/raw_fbank_tr05_cont.4.ark:32584829
01yo030i /scratch/ravanelm/exp/dirha/fbank/raw_fbank_tr05_cont.2.ark:21474629
401c020a /scratch/ravanelm/exp/dirha/fbank/raw_fbank_tr05_cont.3.ark:39887369
016c020y /scratch/ravanelm/exp/dirha/fbank/raw_fbank_tr05_cont.1.ark:13072639
204o0104 /scratch/ravanelm/exp/dirha/fbank/raw_fbank_tr05_cont.3.ark:1680559
01do030x /scratch/ravanelm/exp/dirha/fbank/raw_fbank_tr05_cont.1.ark:29792979
01uc021e /scratch/ravanelm/exp/dirha/fbank/raw_fbank_tr05_cont.2.ark:14683499
40io030e /scratch/ravanelm/exp/dirha/fbank/raw_fbank_tr05_cont.4.ark:33941959
204c010o /scratch/ravanelm/exp/dirha/fbank/raw_fbank_tr05_cont.3.ark:1547049
407c021i /scratch/ravanelm/exp/dirha/fbank/raw_fbank_tr05_cont.4.ark:615549
40mc0218 /scratch/ravanelm/exp/dirha/fbank/raw_fbank_tr05_cont.4.ark:46145009
016c0202 /scratch/ravanelm/exp/dirha/fbank/raw_fbank_tr05_cont.1.ark:12338949
01dc020b /scratch/ravanelm/exp/dirha/fbank/raw_fbank_tr05_cont.1.ark:27648289
40ac020e /scratch/ravanelm/exp/dirha/fbank/raw_fbank_tr05_cont.4.ark:8242739
206c0102 /scratch/ravanelm/exp/dirha/fbank/raw_fbank_tr05_cont.3.ark:4260359
021o0311 /scratch/ravanelm/exp/dirha/fbank/raw_fbank_tr05_cont.2.ark:30470109
01kc0216 /scratch/ravanelm/exp/dirha/fbank/raw_fbank_tr05_cont.1.ark:47766129
01po030v /scratch/ravanelm/exp/dirha/fbank/raw_fbank_tr05_cont.2.ark:3011869
01mo030b /scratch/ravanelm/exp/dirha/fbank/raw_fbank_tr05_cont.1.ark:55756709
204c0108 /scratch/ravanelm/exp/dirha/fbank/raw_fbank_tr05_cont.3.ark:1210489
016c020s /scratch/ravanelm/exp/dirha/fbank/raw_fbank_tr05_cont.1.ark:12942099
02eo0318 /scratch/ravanelm/exp/dirha/fbank/raw_fbank_tr05_cont.3.ark:755359
02bo030u /scratch/ravanelm/exp/dirha/fbank/raw_fbank_tr05_cont.2.ark:48482799
01uo0305 /scratch/ravanelm/exp/dirha/fbank/raw_fbank_tr05_cont.2.ark:14936599
02eo031e /scratch/ravanelm/exp/dirha/fbank/raw_fbank_tr05_cont.3.ark:958309
40mc0203 /scratch/ravanelm/exp/dirha/fbank/raw_fbank_tr05_cont.4.ark:45085059
204o010f /scratch/ravanelm/exp/dirha/fbank/raw_fbank_tr05_cont.3.ark:2004329
20lc010j /scratch/ravanelm/exp/dirha/fbank/raw_fbank_tr05_cont.3.ark:25549499
20hc010k /scratch/ravanelm/exp/dirha/fbank/raw_fbank_tr05_cont.3.ark:22466739
20oc010c /scratch/ravanelm/exp/dirha/fbank/raw_fbank_tr05_cont.3.ark:30654399
024c021d /scratch/ravanelm/exp/dirha/fbank/raw_fbank_tr05_cont.2.ark:32255599
20fo010h /scratch/ravanelm/exp/dirha/fbank/raw_fbank_tr05_cont.3.ark:20469489
40fo0316 /scratch/ravanelm/exp/dirha/fbank/raw_fbank_tr05_cont.4.ark:24784839
40jc020m /scratch/ravanelm/exp/dirha/fbank/raw_fbank_tr05_cont.4.ark:35672669
019c020t /scratch/ravanelm/exp/dirha/fbank/raw_fbank_tr05_cont.1.ark:21753789
20dc010i /scratch/ravanelm/exp/dirha/fbank/raw_fbank_tr05_cont.3.ark:16240399
01lo030y /scratch/ravanelm/exp/dirha/fbank/raw_fbank_tr05_cont.1.ark:53279239
40ec0219 /scratch/ravanelm/exp/dirha/fbank/raw_fbank_tr05_cont.4.ark:20397409
01jo0313 /scratch/ravanelm/exp/dirha/fbank/raw_fbank_tr05_cont.1.ark:46026909
021o0302 /scratch/ravanelm/exp/dirha/fbank/raw_fbank_tr05_cont.2.ark:29432979
01tc020k /scratch/ravanelm/exp/dirha/fbank/raw_fbank_tr05_cont.2.ark:10267869
40lc020c /scratch/ravanelm/exp/dirha/fbank/raw_fbank_tr05_cont.4.ark:41655359
40jc0203 /scratch/ravanelm/exp/dirha/fbank/raw_fbank_tr05_cont.4.ark:35193099
01gc0209 /scratch/ravanelm/exp/dirha/fbank/raw_fbank_tr05_cont.1.ark:36623249
408o030g /scratch/ravanelm/exp/dirha/fbank/raw_fbank_tr05_cont.4.ark:4009369
029c0204 /scratch/ravanelm/exp/dirha/fbank/raw_fbank_tr05_cont.2.ark:42948599
205c010d /scratch/ravanelm/exp/dirha/fbank/raw_fbank_tr05_cont.3.ark:2803369
027c0212 /scratch/ravanelm/exp/dirha/fbank/raw_fbank_tr05_cont.2.ark:37586939
404c0210 /scratch/ravanelm/exp/dirha/fbank/raw_fbank_tr05_cont.3.ark:46422099
01bc0211 /scratch/ravanelm/exp/dirha/fbank/raw_fbank_tr05_cont.1.ark:24924909
016o031f /scratch/ravanelm/exp/dirha/fbank/raw_fbank_tr05_cont.1.ark:14755099
01qc0217 /scratch/ravanelm/exp/dirha/fbank/raw_fbank_tr05_cont.2.ark:4785349
029c020o /scratch/ravanelm/exp/dirha/fbank/raw_fbank_tr05_cont.2.ark:43509879
206c0106 /scratch/ravanelm/exp/dirha/fbank/raw_fbank_tr05_cont.3.ark:4356079
017o0304 /scratch/ravanelm/exp/dirha/fbank/raw_fbank_tr05_cont.1.ark:16176939
20lo0109 /scratch/ravanelm/exp/dirha/fbank/raw_fbank_tr05_cont.3.ark:26148699
01kc0210 /scratch/ravanelm/exp/dirha/fbank/raw_fbank_tr05_cont.1.ark:47605109
20qc010a /scratch/ravanelm/exp/dirha/fbank/raw_fbank_tr05_cont.3.ark:33572439
408c020k /scratch/ravanelm/exp/dirha/fbank/raw_fbank_tr05_cont.4.ark:2866969
40ic0209 /scratch/ravanelm/exp/dirha/fbank/raw_fbank_tr05_cont.4.ark:32292039
20eo010f /scratch/ravanelm/exp/dirha/fbank/raw_fbank_tr05_cont.3.ark:18819549
40co0309 /scratch/ravanelm/exp/dirha/fbank/raw_fbank_tr05_cont.4.ark:15330659
40fo030q /scratch/ravanelm/exp/dirha/fbank/raw_fbank_tr05_cont.4.ark:24274199
019c0212 /scratch/ravanelm/exp/dirha/fbank/raw_fbank_tr05_cont.1.ark:21975939
01fo030c /scratch/ravanelm/exp/dirha/fbank/raw_fbank_tr05_cont.1.ark:35230499
40ec0213 /scratch/ravanelm/exp/dirha/fbank/raw_fbank_tr05_cont.4.ark:20261149
01zo030m /scratch/ravanelm/exp/dirha/fbank/raw_fbank_tr05_cont.2.ark:24893159
20io010b /scratch/ravanelm/exp/dirha/fbank/raw_fbank_tr05_cont.3.ark:24392079
20ec010k /scratch/ravanelm/exp/dirha/fbank/raw_fbank_tr05_cont.3.ark:18131779
01zc0216 /scratch/ravanelm/exp/dirha/fbank/raw_fbank_tr05_cont.2.ark:23795389
40mc021c /scratch/ravanelm/exp/dirha/fbank/raw_fbank_tr05_cont.4.ark:46225249
401c020z /scratch/ravanelm/exp/dirha/fbank/raw_fbank_tr05_cont.3.ark:40575679
021c020e /scratch/ravanelm/exp/dirha/fbank/raw_fbank_tr05_cont.2.ark:28405889
406o031d /scratch/ravanelm/exp/dirha/fbank/raw_fbank_tr05_cont.3.ark:53722969
01qc020e /scratch/ravanelm/exp/dirha/fbank/raw_fbank_tr05_cont.2.ark:4096759
20mo010g /scratch/ravanelm/exp/dirha/fbank/raw_fbank_tr05_cont.3.ark:28118679
02co030b /scratch/ravanelm/exp/dirha/fbank/raw_fbank_tr05_cont.2.ark:50819319
40io030n /scratch/ravanelm/exp/dirha/fbank/raw_fbank_tr05_cont.4.ark:34240349
01io0309 /scratch/ravanelm/exp/dirha/fbank/raw_fbank_tr05_cont.1.ark:41469159
01qo030r /scratch/ravanelm/exp/dirha/fbank/raw_fbank_tr05_cont.2.ark:5986449
40cc021c /scratch/ravanelm/exp/dirha/fbank/raw_fbank_tr05_cont.4.ark:15044129
01dc020p /scratch/ravanelm/exp/dirha/fbank/raw_fbank_tr05_cont.1.ark:28066549
01to030c /scratch/ravanelm/exp/dirha/fbank/raw_fbank_tr05_cont.2.ark:11677239
40fc020u /scratch/ravanelm/exp/dirha/fbank/raw_fbank_tr05_cont.4.ark:22834999
40hc021d /scratch/ravanelm/exp/dirha/fbank/raw_fbank_tr05_cont.4.ark:30338319
40gc0214 /scratch/ravanelm/exp/dirha/fbank/raw_fbank_tr05_cont.4.ark:26570379
20no010b /scratch/ravanelm/exp/dirha/fbank/raw_fbank_tr05_cont.3.ark:29631159
01gc020j /scratch/ravanelm/exp/dirha/fbank/raw_fbank_tr05_cont.1.ark:36924629
40jc020o /scratch/ravanelm/exp/dirha/fbank/raw_fbank_tr05_cont.4.ark:35729809
02eo030r /scratch/ravanelm/exp/dirha/fbank/raw_fbank_tr05_cont.3.ark:172839
02co030j /scratch/ravanelm/exp/dirha/fbank/raw_fbank_tr05_cont.2.ark:51070479
40go030v /scratch/ravanelm/exp/dirha/fbank/raw_fbank_tr05_cont.4.ark:28255319
01qc020z /scratch/ravanelm/exp/dirha/fbank/raw_fbank_tr05_cont.2.ark:4575069
406c020b /scratch/ravanelm/exp/dirha/fbank/raw_fbank_tr05_cont.3.ark:51238369
01po030r /scratch/ravanelm/exp/dirha/fbank/raw_fbank_tr05_cont.2.ark:2843269
016c021a /scratch/ravanelm/exp/dirha/fbank/raw_fbank_tr05_cont.1.ark:13316779
40dc020c /scratch/ravanelm/exp/dirha/fbank/raw_fbank_tr05_cont.4.ark:16758309
408o030h /scratch/ravanelm/exp/dirha/fbank/raw_fbank_tr05_cont.4.ark:4035199
01lc0204 /scratch/ravanelm/exp/dirha/fbank/raw_fbank_tr05_cont.1.ark:50343009
01ic020b /scratch/ravanelm/exp/dirha/fbank/raw_fbank_tr05_cont.1.ark:40024169
40pc0205 /scratch/ravanelm/exp/dirha/fbank/raw_fbank_tr05_cont.4.ark:51512939
028c021d /scratch/ravanelm/exp/dirha/fbank/raw_fbank_tr05_cont.2.ark:41004789
01dc021e /scratch/ravanelm/exp/dirha/fbank/raw_fbank_tr05_cont.1.ark:28731059
011c020p /scratch/ravanelm/exp/dirha/fbank/raw_fbank_tr05_cont.1.ark:664729
40hc020b /scratch/ravanelm/exp/dirha/fbank/raw_fbank_tr05_cont.4.ark:29421659
020c020f /scratch/ravanelm/exp/dirha/fbank/raw_fbank_tr05_cont.2.ark:26397189
01mo0318 /scratch/ravanelm/exp/dirha/fbank/raw_fbank_tr05_cont.2.ark:208109
01fo030s /scratch/ravanelm/exp/dirha/fbank/raw_fbank_tr05_cont.1.ark:35727019
405o030k /scratch/ravanelm/exp/dirha/fbank/raw_fbank_tr05_cont.3.ark:50035109
20ho010d /scratch/ravanelm/exp/dirha/fbank/raw_fbank_tr05_cont.3.ark:22996749
01uc021a /scratch/ravanelm/exp/dirha/fbank/raw_fbank_tr05_cont.2.ark:14552979
01ko030d /scratch/ravanelm/exp/dirha/fbank/raw_fbank_tr05_cont.1.ark:48580359
016c020a /scratch/ravanelm/exp/dirha/fbank/raw_fbank_tr05_cont.1.ark:12539429
01zo030f /scratch/ravanelm/exp/dirha/fbank/raw_fbank_tr05_cont.2.ark:24585829
01gc020e /scratch/ravanelm/exp/dirha/fbank/raw_fbank_tr05_cont.1.ark:36768439
40dc020d /scratch/ravanelm/exp/dirha/fbank/raw_fbank_tr05_cont.4.ark:16785299
40ac021b /scratch/ravanelm/exp/dirha/fbank/raw_fbank_tr05_cont.4.ark:9217329
20ro0109 /scratch/ravanelm/exp/dirha/fbank/raw_fbank_tr05_cont.3.ark:35958709
01uo0308 /scratch/ravanelm/exp/dirha/fbank/raw_fbank_tr05_cont.2.ark:15004169
02ec0218 /scratch/ravanelm/exp/dirha/fbank/raw_fbank_tr05_cont.2.ark:53601809
01mo030v /scratch/ravanelm/exp/dirha/fbank/raw_fbank_tr05_cont.1.ark:56329789
409o031a /scratch/ravanelm/exp/dirha/fbank/raw_fbank_tr05_cont.4.ark:7614789
40io030u /scratch/ravanelm/exp/dirha/fbank/raw_fbank_tr05_cont.4.ark:34434959
028o030r /scratch/ravanelm/exp/dirha/fbank/raw_fbank_tr05_cont.2.ark:42066579
409o0318 /scratch/ravanelm/exp/dirha/fbank/raw_fbank_tr05_cont.4.ark:7563929
40mc020i /scratch/ravanelm/exp/dirha/fbank/raw_fbank_tr05_cont.4.ark:45441149
01fo030g /scratch/ravanelm/exp/dirha/fbank/raw_fbank_tr05_cont.1.ark:35321139
20to010o /scratch/ravanelm/exp/dirha/fbank/raw_fbank_tr05_cont.3.ark:38040589
027c0206 /scratch/ravanelm/exp/dirha/fbank/raw_fbank_tr05_cont.2.ark:36796139
40jc020w /scratch/ravanelm/exp/dirha/fbank/raw_fbank_tr05_cont.4.ark:35967489
40ao030n /scratch/ravanelm/exp/dirha/fbank/raw_fbank_tr05_cont.4.ark:9969469
01wo0309 /scratch/ravanelm/exp/dirha/fbank/raw_fbank_tr05_cont.2.ark:18205519
02co0307 /scratch/ravanelm/exp/dirha/fbank/raw_fbank_tr05_cont.2.ark:50703119
20lo0101 /scratch/ravanelm/exp/dirha/fbank/raw_fbank_tr05_cont.3.ark:25832219
40bo030w /scratch/ravanelm/exp/dirha/fbank/raw_fbank_tr05_cont.4.ark:13463389
40jo030t /scratch/ravanelm/exp/dirha/fbank/raw_fbank_tr05_cont.4.ark:37500179
207c010g /scratch/ravanelm/exp/dirha/fbank/raw_fbank_tr05_cont.3.ark:6362199
01ko0309 /scratch/ravanelm/exp/dirha/fbank/raw_fbank_tr05_cont.1.ark:48434879
020o0308 /scratch/ravanelm/exp/dirha/fbank/raw_fbank_tr05_cont.2.ark:27235119
01lc020l /scratch/ravanelm/exp/dirha/fbank/raw_fbank_tr05_cont.1.ark:50951559
01po0315 /scratch/ravanelm/exp/dirha/fbank/raw_fbank_tr05_cont.2.ark:3388169
026o0303 /scratch/ravanelm/exp/dirha/fbank/raw_fbank_tr05_cont.2.ark:35208049
01rc020d /scratch/ravanelm/exp/dirha/fbank/raw_fbank_tr05_cont.2.ark:7071469
019c0214 /scratch/ravanelm/exp/dirha/fbank/raw_fbank_tr05_cont.1.ark:22036639
40lc020n /scratch/ravanelm/exp/dirha/fbank/raw_fbank_tr05_cont.4.ark:42011249
018c0212 /scratch/ravanelm/exp/dirha/fbank/raw_fbank_tr05_cont.1.ark:18710939
013c0203 /scratch/ravanelm/exp/dirha/fbank/raw_fbank_tr05_cont.1.ark:3608019
01to030b /scratch/ravanelm/exp/dirha/fbank/raw_fbank_tr05_cont.2.ark:11657089
01io030d /scratch/ravanelm/exp/dirha/fbank/raw_fbank_tr05_cont.1.ark:41671999
019o030m /scratch/ravanelm/exp/dirha/fbank/raw_fbank_tr05_cont.1.ark:23103809
027c020b /scratch/ravanelm/exp/dirha/fbank/raw_fbank_tr05_cont.2.ark:36924129
01to0305 /scratch/ravanelm/exp/dirha/fbank/raw_fbank_tr05_cont.2.ark:11407029
40pc020b /scratch/ravanelm/exp/dirha/fbank/raw_fbank_tr05_cont.4.ark:51635599
40mo030z /scratch/ravanelm/exp/dirha/fbank/raw_fbank_tr05_cont.4.ark:47596099
40jc0214 /scratch/ravanelm/exp/dirha/fbank/raw_fbank_tr05_cont.4.ark:36170729
029c020l /scratch/ravanelm/exp/dirha/fbank/raw_fbank_tr05_cont.2.ark:43432509
013c020p /scratch/ravanelm/exp/dirha/fbank/raw_fbank_tr05_cont.1.ark:4319359
40jo030v /scratch/ravanelm/exp/dirha/fbank/raw_fbank_tr05_cont.4.ark:37565039
01fc020a /scratch/ravanelm/exp/dirha/fbank/raw_fbank_tr05_cont.1.ark:33640279
406c0214 /scratch/ravanelm/exp/dirha/fbank/raw_fbank_tr05_cont.3.ark:51921449
20ro0101 /scratch/ravanelm/exp/dirha/fbank/raw_fbank_tr05_cont.3.ark:35671349
01dc020y /scratch/ravanelm/exp/dirha/fbank/raw_fbank_tr05_cont.1.ark:28295219
021o031a /scratch/ravanelm/exp/dirha/fbank/raw_fbank_tr05_cont.2.ark:30746699
021c020r /scratch/ravanelm/exp/dirha/fbank/raw_fbank_tr05_cont.2.ark:28813919
01ko030h /scratch/ravanelm/exp/dirha/fbank/raw_fbank_tr05_cont.1.ark:48781599
01dc0204 /scratch/ravanelm/exp/dirha/fbank/raw_fbank_tr05_cont.1.ark:27515439
204c0107 /scratch/ravanelm/exp/dirha/fbank/raw_fbank_tr05_cont.3.ark:1179179
40bc020o /scratch/ravanelm/exp/dirha/fbank/raw_fbank_tr05_cont.4.ark:11513669
20po0105 /scratch/ravanelm/exp/dirha/fbank/raw_fbank_tr05_cont.3.ark:32558549
01ic020h /scratch/ravanelm/exp/dirha/fbank/raw_fbank_tr05_cont.1.ark:40190309
40po030h /scratch/ravanelm/exp/dirha/fbank/raw_fbank_tr05_cont.4.ark:53135629
01pc0207 /scratch/ravanelm/exp/dirha/fbank/raw_fbank_tr05_cont.2.ark:585459
409o0302 /scratch/ravanelm/exp/dirha/fbank/raw_fbank_tr05_cont.4.ark:6327949
01ko0310 /scratch/ravanelm/exp/dirha/fbank/raw_fbank_tr05_cont.1.ark:49510809
019o0315 /scratch/ravanelm/exp/dirha/fbank/raw_fbank_tr05_cont.1.ark:23648499
01lo0318 /scratch/ravanelm/exp/dirha/fbank/raw_fbank_tr05_cont.1.ark:53766819
017o031d /scratch/ravanelm/exp/dirha/fbank/raw_fbank_tr05_cont.1.ark:17574369
01fc020w /scratch/ravanelm/exp/dirha/fbank/raw_fbank_tr05_cont.1.ark:34230779
20lc010n /scratch/ravanelm/exp/dirha/fbank/raw_fbank_tr05_cont.3.ark:25681539
20vc010e /scratch/ravanelm/exp/dirha/fbank/raw_fbank_tr05_cont.3.ark:38478399
20io0108 /scratch/ravanelm/exp/dirha/fbank/raw_fbank_tr05_cont.3.ark:24302149
401o0306 /scratch/ravanelm/exp/dirha/fbank/raw_fbank_tr05_cont.3.ark:41269059
20vo0105 /scratch/ravanelm/exp/dirha/fbank/raw_fbank_tr05_cont.3.ark:38842079
01wc0206 /scratch/ravanelm/exp/dirha/fbank/raw_fbank_tr05_cont.2.ark:16763809
026o030k /scratch/ravanelm/exp/dirha/fbank/raw_fbank_tr05_cont.2.ark:35727639
01pc0213 /scratch/ravanelm/exp/dirha/fbank/raw_fbank_tr05_cont.2.ark:1495859
40po0316 /scratch/ravanelm/exp/dirha/fbank/raw_fbank_tr05_cont.4.ark:53994859
40bc020s /scratch/ravanelm/exp/dirha/fbank/raw_fbank_tr05_cont.4.ark:11640829
016c020n /scratch/ravanelm/exp/dirha/fbank/raw_fbank_tr05_cont.1.ark:12862539
028o030w /scratch/ravanelm/exp/dirha/fbank/raw_fbank_tr05_cont.2.ark:42256929
40jc020x /scratch/ravanelm/exp/dirha/fbank/raw_fbank_tr05_cont.4.ark:35992399
029o030v /scratch/ravanelm/exp/dirha/fbank/raw_fbank_tr05_cont.2.ark:45306049
209c010h /scratch/ravanelm/exp/dirha/fbank/raw_fbank_tr05_cont.3.ark:9661989
028c020t /scratch/ravanelm/exp/dirha/fbank/raw_fbank_tr05_cont.2.ark:40463789
20lc010k /scratch/ravanelm/exp/dirha/fbank/raw_fbank_tr05_cont.3.ark:25579369
01lc020v /scratch/ravanelm/exp/dirha/fbank/raw_fbank_tr05_cont.1.ark:51231539
01wo0307 /scratch/ravanelm/exp/dirha/fbank/raw_fbank_tr05_cont.2.ark:18148819
40dc0201 /scratch/ravanelm/exp/dirha/fbank/raw_fbank_tr05_cont.4.ark:16456579
01go030g /scratch/ravanelm/exp/dirha/fbank/raw_fbank_tr05_cont.1.ark:38341799
40kc020r /scratch/ravanelm/exp/dirha/fbank/raw_fbank_tr05_cont.4.ark:39017769
40bc0202 /scratch/ravanelm/exp/dirha/fbank/raw_fbank_tr05_cont.4.ark:10948209
01uc021d /scratch/ravanelm/exp/dirha/fbank/raw_fbank_tr05_cont.2.ark:14651109
028o0315 /scratch/ravanelm/exp/dirha/fbank/raw_fbank_tr05_cont.2.ark:42541799
01mo030m /scratch/ravanelm/exp/dirha/fbank/raw_fbank_tr05_cont.1.ark:56024479
020c020k /scratch/ravanelm/exp/dirha/fbank/raw_fbank_tr05_cont.2.ark:26497819
208o010p /scratch/ravanelm/exp/dirha/fbank/raw_fbank_tr05_cont.3.ark:9201099
01wo030z /scratch/ravanelm/exp/dirha/fbank/raw_fbank_tr05_cont.2.ark:18998109
40io030f /scratch/ravanelm/exp/dirha/fbank/raw_fbank_tr05_cont.4.ark:33971229
014o030r /scratch/ravanelm/exp/dirha/fbank/raw_fbank_tr05_cont.1.ark:8662749
40bo030q /scratch/ravanelm/exp/dirha/fbank/raw_fbank_tr05_cont.4.ark:13243689
01fc020l /scratch/ravanelm/exp/dirha/fbank/raw_fbank_tr05_cont.1.ark:33939409
01jo030c /scratch/ravanelm/exp/dirha/fbank/raw_fbank_tr05_cont.1.ark:45012859
40no030y /scratch/ravanelm/exp/dirha/fbank/raw_fbank_tr05_cont.4.ark:50761219
026o030i /scratch/ravanelm/exp/dirha/fbank/raw_fbank_tr05_cont.2.ark:35657739
40bo030u /scratch/ravanelm/exp/dirha/fbank/raw_fbank_tr05_cont.4.ark:13398609
40do030c /scratch/ravanelm/exp/dirha/fbank/raw_fbank_tr05_cont.4.ark:18244349
40gc0218 /scratch/ravanelm/exp/dirha/fbank/raw_fbank_tr05_cont.4.ark:26728019
404o030h /scratch/ravanelm/exp/dirha/fbank/raw_fbank_tr05_cont.3.ark:47290499
02bo030j /scratch/ravanelm/exp/dirha/fbank/raw_fbank_tr05_cont.2.ark:48094109
408o0315 /scratch/ravanelm/exp/dirha/fbank/raw_fbank_tr05_cont.4.ark:4668439
024o030o /scratch/ravanelm/exp/dirha/fbank/raw_fbank_tr05_cont.2.ark:33050789
01fc020o /scratch/ravanelm/exp/dirha/fbank/raw_fbank_tr05_cont.1.ark:33994659
20ao0108 /scratch/ravanelm/exp/dirha/fbank/raw_fbank_tr05_cont.3.ark:11688209
40po030v /scratch/ravanelm/exp/dirha/fbank/raw_fbank_tr05_cont.4.ark:53626209
408o030j /scratch/ravanelm/exp/dirha/fbank/raw_fbank_tr05_cont.4.ark:4113019
20hc010p /scratch/ravanelm/exp/dirha/fbank/raw_fbank_tr05_cont.3.ark:22555689
20bc010o /scratch/ravanelm/exp/dirha/fbank/raw_fbank_tr05_cont.3.ark:13095629
40ac0209 /scratch/ravanelm/exp/dirha/fbank/raw_fbank_tr05_cont.4.ark:8073789
020c020z /scratch/ravanelm/exp/dirha/fbank/raw_fbank_tr05_cont.2.ark:26783749
20qc0107 /scratch/ravanelm/exp/dirha/fbank/raw_fbank_tr05_cont.3.ark:33460429
017c0206 /scratch/ravanelm/exp/dirha/fbank/raw_fbank_tr05_cont.1.ark:14942119
029o030r /scratch/ravanelm/exp/dirha/fbank/raw_fbank_tr05_cont.2.ark:45184569
014o030j /scratch/ravanelm/exp/dirha/fbank/raw_fbank_tr05_cont.1.ark:8340349
020o030o /scratch/ravanelm/exp/dirha/fbank/raw_fbank_tr05_cont.2.ark:27443809
408o030c /scratch/ravanelm/exp/dirha/fbank/raw_fbank_tr05_cont.4.ark:3917129
40cc0207 /scratch/ravanelm/exp/dirha/fbank/raw_fbank_tr05_cont.4.ark:14123699
40fc0214 /scratch/ravanelm/exp/dirha/fbank/raw_fbank_tr05_cont.4.ark:23129499
209o010e /scratch/ravanelm/exp/dirha/fbank/raw_fbank_tr05_cont.3.ark:10338839
024o030k /scratch/ravanelm/exp/dirha/fbank/raw_fbank_tr05_cont.2.ark:32952949
20go0108 /scratch/ravanelm/exp/dirha/fbank/raw_fbank_tr05_cont.3.ark:21489859
028o0304 /scratch/ravanelm/exp/dirha/fbank/raw_fbank_tr05_cont.2.ark:41192849
015c020s /scratch/ravanelm/exp/dirha/fbank/raw_fbank_tr05_cont.1.ark:10193609
01gc0208 /scratch/ravanelm/exp/dirha/fbank/raw_fbank_tr05_cont.1.ark:36601059
01fc0212 /scratch/ravanelm/exp/dirha/fbank/raw_fbank_tr05_cont.1.ark:34394559
027o0313 /scratch/ravanelm/exp/dirha/fbank/raw_fbank_tr05_cont.2.ark:39508959
40bo030j /scratch/ravanelm/exp/dirha/fbank/raw_fbank_tr05_cont.4.ark:13000039
40do0311 /scratch/ravanelm/exp/dirha/fbank/raw_fbank_tr05_cont.4.ark:19070819
019o030l /scratch/ravanelm/exp/dirha/fbank/raw_fbank_tr05_cont.1.ark:23078699
01go031d /scratch/ravanelm/exp/dirha/fbank/raw_fbank_tr05_cont.1.ark:39519389
406c0203 /scratch/ravanelm/exp/dirha/fbank/raw_fbank_tr05_cont.3.ark:51018009
01bc020g /scratch/ravanelm/exp/dirha/fbank/raw_fbank_tr05_cont.1.ark:24317019
01rc0207 /scratch/ravanelm/exp/dirha/fbank/raw_fbank_tr05_cont.2.ark:6909809
40io030r /scratch/ravanelm/exp/dirha/fbank/raw_fbank_tr05_cont.4.ark:34341389
01yo030q /scratch/ravanelm/exp/dirha/fbank/raw_fbank_tr05_cont.2.ark:21795229
01gc0206 /scratch/ravanelm/exp/dirha/fbank/raw_fbank_tr05_cont.1.ark:36543199
20ho010b /scratch/ravanelm/exp/dirha/fbank/raw_fbank_tr05_cont.3.ark:22946209
20vo010a /scratch/ravanelm/exp/dirha/fbank/raw_fbank_tr05_cont.3.ark:39001269
40io0314 /scratch/ravanelm/exp/dirha/fbank/raw_fbank_tr05_cont.4.ark:34824899
024c0210 /scratch/ravanelm/exp/dirha/fbank/raw_fbank_tr05_cont.2.ark:31905849
40pc0203 /scratch/ravanelm/exp/dirha/fbank/raw_fbank_tr05_cont.4.ark:51460999
01ko031a /scratch/ravanelm/exp/dirha/fbank/raw_fbank_tr05_cont.1.ark:49923709
01ec021f /scratch/ravanelm/exp/dirha/fbank/raw_fbank_tr05_cont.1.ark:31845579
01rc021e /scratch/ravanelm/exp/dirha/fbank/raw_fbank_tr05_cont.2.ark:8105459
01tc0202 /scratch/ravanelm/exp/dirha/fbank/raw_fbank_tr05_cont.2.ark:9675089
40bc0205 /scratch/ravanelm/exp/dirha/fbank/raw_fbank_tr05_cont.4.ark:11007179
20lc010a /scratch/ravanelm/exp/dirha/fbank/raw_fbank_tr05_cont.3.ark:25259149
