017c0217 /scratch/ravanelm/exp/dirha/fbank/raw_fbank_tr05_cont.1.ark:15820669
40lc020y /scratch/ravanelm/exp/dirha/fbank/raw_fbank_tr05_cont.4.ark:42302659
209c010g /scratch/ravanelm/exp/dirha/fbank/raw_fbank_tr05_cont.3.ark:9651719
40eo0304 /scratch/ravanelm/exp/dirha/fbank/raw_fbank_tr05_cont.4.ark:20743049
40po031c /scratch/ravanelm/exp/dirha/fbank/raw_fbank_tr05_cont.4.ark:54158039
20nc0104 /scratch/ravanelm/exp/dirha/fbank/raw_fbank_tr05_cont.3.ark:28539959
01ic020i /scratch/ravanelm/exp/dirha/fbank/raw_fbank_tr05_cont.1.ark:40221259
01to0318 /scratch/ravanelm/exp/dirha/fbank/raw_fbank_tr05_cont.2.ark:12804159
027c020z /scratch/ravanelm/exp/dirha/fbank/raw_fbank_tr05_cont.2.ark:37477089
01lc0209 /scratch/ravanelm/exp/dirha/fbank/raw_fbank_tr05_cont.1.ark:50528399
02bc020o /scratch/ravanelm/exp/dirha/fbank/raw_fbank_tr05_cont.2.ark:46680849
40lo030q /scratch/ravanelm/exp/dirha/fbank/raw_fbank_tr05_cont.4.ark:43898549
018o030z /scratch/ravanelm/exp/dirha/fbank/raw_fbank_tr05_cont.1.ark:20493729
40lc020e /scratch/ravanelm/exp/dirha/fbank/raw_fbank_tr05_cont.4.ark:41727739
20pc010m /scratch/ravanelm/exp/dirha/fbank/raw_fbank_tr05_cont.3.ark:32319749
404o0301 /scratch/ravanelm/exp/dirha/fbank/raw_fbank_tr05_cont.3.ark:46806219
01fo0316 /scratch/ravanelm/exp/dirha/fbank/raw_fbank_tr05_cont.1.ark:36114399
403c0217 /scratch/ravanelm/exp/dirha/fbank/raw_fbank_tr05_cont.3.ark:43836209
40kc020g /scratch/ravanelm/exp/dirha/fbank/raw_fbank_tr05_cont.4.ark:38703479
017o0310 /scratch/ravanelm/exp/dirha/fbank/raw_fbank_tr05_cont.1.ark:17162219
40no0317 /scratch/ravanelm/exp/dirha/fbank/raw_fbank_tr05_cont.4.ark:51108289
01pc0206 /scratch/ravanelm/exp/dirha/fbank/raw_fbank_tr05_cont.2.ark:553789
20mo010f /scratch/ravanelm/exp/dirha/fbank/raw_fbank_tr05_cont.3.ark:28085209
029c021b /scratch/ravanelm/exp/dirha/fbank/raw_fbank_tr05_cont.2.ark:44131969
40no030k /scratch/ravanelm/exp/dirha/fbank/raw_fbank_tr05_cont.4.ark:50309639
029c020f /scratch/ravanelm/exp/dirha/fbank/raw_fbank_tr05_cont.2.ark:43246849
024o030s /scratch/ravanelm/exp/dirha/fbank/raw_fbank_tr05_cont.2.ark:33126949
20to010d /scratch/ravanelm/exp/dirha/fbank/raw_fbank_tr05_cont.3.ark:37715859
205c010g /scratch/ravanelm/exp/dirha/fbank/raw_fbank_tr05_cont.3.ark:2878419
01io030a /scratch/ravanelm/exp/dirha/fbank/raw_fbank_tr05_cont.1.ark:41516629
01ec020p /scratch/ravanelm/exp/dirha/fbank/raw_fbank_tr05_cont.1.ark:31067749
40ko0311 /scratch/ravanelm/exp/dirha/fbank/raw_fbank_tr05_cont.4.ark:40922829
40dc0203 /scratch/ravanelm/exp/dirha/fbank/raw_fbank_tr05_cont.4.ark:16522359
01uo030b /scratch/ravanelm/exp/dirha/fbank/raw_fbank_tr05_cont.2.ark:15135059
40hc020t /scratch/ravanelm/exp/dirha/fbank/raw_fbank_tr05_cont.4.ark:29839119
02eo030q /scratch/ravanelm/exp/dirha/fbank/raw_fbank_tr05_cont.3.ark:133409
02ec0207 /scratch/ravanelm/exp/dirha/fbank/raw_fbank_tr05_cont.2.ark:52428659
40gc0212 /scratch/ravanelm/exp/dirha/fbank/raw_fbank_tr05_cont.4.ark:26470159
015o030t /scratch/ravanelm/exp/dirha/fbank/raw_fbank_tr05_cont.1.ark:11740459
20cc010e /scratch/ravanelm/exp/dirha/fbank/raw_fbank_tr05_cont.3.ark:14659259
019o030x /scratch/ravanelm/exp/dirha/fbank/raw_fbank_tr05_cont.1.ark:23416179
408c021h /scratch/ravanelm/exp/dirha/fbank/raw_fbank_tr05_cont.4.ark:3555569
01yo0311 /scratch/ravanelm/exp/dirha/fbank/raw_fbank_tr05_cont.2.ark:22196839
015o0302 /scratch/ravanelm/exp/dirha/fbank/raw_fbank_tr05_cont.1.ark:10817409
40bo030p /scratch/ravanelm/exp/dirha/fbank/raw_fbank_tr05_cont.4.ark:13203939
40no0313 /scratch/ravanelm/exp/dirha/fbank/raw_fbank_tr05_cont.4.ark:50962889
408c0203 /scratch/ravanelm/exp/dirha/fbank/raw_fbank_tr05_cont.4.ark:2453819
407o0311 /scratch/ravanelm/exp/dirha/fbank/raw_fbank_tr05_cont.4.ark:2066059
40cc020e /scratch/ravanelm/exp/dirha/fbank/raw_fbank_tr05_cont.4.ark:14297749
02co031a /scratch/ravanelm/exp/dirha/fbank/raw_fbank_tr05_cont.2.ark:52002329
40lc020z /scratch/ravanelm/exp/dirha/fbank/raw_fbank_tr05_cont.4.ark:42347529
011o0314 /scratch/ravanelm/exp/dirha/fbank/raw_fbank_tr05_cont.1.ark:2977759
20ac0109 /scratch/ravanelm/exp/dirha/fbank/raw_fbank_tr05_cont.3.ark:10959919
018c020y /scratch/ravanelm/exp/dirha/fbank/raw_fbank_tr05_cont.1.ark:18573659
016c021d /scratch/ravanelm/exp/dirha/fbank/raw_fbank_tr05_cont.1.ark:13375629
20eo0101 /scratch/ravanelm/exp/dirha/fbank/raw_fbank_tr05_cont.3.ark:18255769
408c0214 /scratch/ravanelm/exp/dirha/fbank/raw_fbank_tr05_cont.4.ark:3287339
403c020m /scratch/ravanelm/exp/dirha/fbank/raw_fbank_tr05_cont.3.ark:43355619
018o0304 /scratch/ravanelm/exp/dirha/fbank/raw_fbank_tr05_cont.1.ark:19299959
40jc020g /scratch/ravanelm/exp/dirha/fbank/raw_fbank_tr05_cont.4.ark:35507489
40bc020y /scratch/ravanelm/exp/dirha/fbank/raw_fbank_tr05_cont.4.ark:11799329
017c020x /scratch/ravanelm/exp/dirha/fbank/raw_fbank_tr05_cont.1.ark:15555729
406o030q /scratch/ravanelm/exp/dirha/fbank/raw_fbank_tr05_cont.3.ark:52963759
026o0302 /scratch/ravanelm/exp/dirha/fbank/raw_fbank_tr05_cont.2.ark:35181619
019o0305 /scratch/ravanelm/exp/dirha/fbank/raw_fbank_tr05_cont.1.ark:22501139
40go031c /scratch/ravanelm/exp/dirha/fbank/raw_fbank_tr05_cont.4.ark:29040829
01uc020a /scratch/ravanelm/exp/dirha/fbank/raw_fbank_tr05_cont.2.ark:13439779
01mo031d /scratch/ravanelm/exp/dirha/fbank/raw_fbank_tr05_cont.2.ark:360459
013o0303 /scratch/ravanelm/exp/dirha/fbank/raw_fbank_tr05_cont.1.ark:5036869
208o0109 /scratch/ravanelm/exp/dirha/fbank/raw_fbank_tr05_cont.3.ark:8638939
40fo0307 /scratch/ravanelm/exp/dirha/fbank/raw_fbank_tr05_cont.4.ark:23648669
40ic0212 /scratch/ravanelm/exp/dirha/fbank/raw_fbank_tr05_cont.4.ark:33153989
403o030a /scratch/ravanelm/exp/dirha/fbank/raw_fbank_tr05_cont.3.ark:44397749
015c0205 /scratch/ravanelm/exp/dirha/fbank/raw_fbank_tr05_cont.1.ark:9576479
20ho0108 /scratch/ravanelm/exp/dirha/fbank/raw_fbank_tr05_cont.3.ark:22862119
40cc020r /scratch/ravanelm/exp/dirha/fbank/raw_fbank_tr05_cont.4.ark:14586819
027o030i /scratch/ravanelm/exp/dirha/fbank/raw_fbank_tr05_cont.2.ark:38724689
40mo0312 /scratch/ravanelm/exp/dirha/fbank/raw_fbank_tr05_cont.4.ark:47711029
20ac0101 /scratch/ravanelm/exp/dirha/fbank/raw_fbank_tr05_cont.3.ark:10711279
406c020d /scratch/ravanelm/exp/dirha/fbank/raw_fbank_tr05_cont.3.ark:51297549
011o030m /scratch/ravanelm/exp/dirha/fbank/raw_fbank_tr05_cont.1.ark:2263019
20fo0102 /scratch/ravanelm/exp/dirha/fbank/raw_fbank_tr05_cont.3.ark:19972639
408o030b /scratch/ravanelm/exp/dirha/fbank/raw_fbank_tr05_cont.4.ark:3894099
40io030o /scratch/ravanelm/exp/dirha/fbank/raw_fbank_tr05_cont.4.ark:34280019
40ko0301 /scratch/ravanelm/exp/dirha/fbank/raw_fbank_tr05_cont.4.ark:39703349
20ac010m /scratch/ravanelm/exp/dirha/fbank/raw_fbank_tr05_cont.3.ark:11299269
01to0315 /scratch/ravanelm/exp/dirha/fbank/raw_fbank_tr05_cont.2.ark:12657509
405c020m /scratch/ravanelm/exp/dirha/fbank/raw_fbank_tr05_cont.3.ark:48804639
406o031a /scratch/ravanelm/exp/dirha/fbank/raw_fbank_tr05_cont.3.ark:53648119
20no0109 /scratch/ravanelm/exp/dirha/fbank/raw_fbank_tr05_cont.3.ark:29538939
40fc0216 /scratch/ravanelm/exp/dirha/fbank/raw_fbank_tr05_cont.4.ark:23191959
01wc0207 /scratch/ravanelm/exp/dirha/fbank/raw_fbank_tr05_cont.2.ark:16788519
408c020m /scratch/ravanelm/exp/dirha/fbank/raw_fbank_tr05_cont.4.ark:2907709
024o030r /scratch/ravanelm/exp/dirha/fbank/raw_fbank_tr05_cont.2.ark:33111159
40do0314 /scratch/ravanelm/exp/dirha/fbank/raw_fbank_tr05_cont.4.ark:19156309
406o030e /scratch/ravanelm/exp/dirha/fbank/raw_fbank_tr05_cont.3.ark:52569479
40gc020w /scratch/ravanelm/exp/dirha/fbank/raw_fbank_tr05_cont.4.ark:26201579
406c0210 /scratch/ravanelm/exp/dirha/fbank/raw_fbank_tr05_cont.3.ark:51812569
404c020j /scratch/ravanelm/exp/dirha/fbank/raw_fbank_tr05_cont.3.ark:46000789
014c020z /scratch/ravanelm/exp/dirha/fbank/raw_fbank_tr05_cont.1.ark:7341479
02eo030y /scratch/ravanelm/exp/dirha/fbank/raw_fbank_tr05_cont.3.ark:416809
20ec0104 /scratch/ravanelm/exp/dirha/fbank/raw_fbank_tr05_cont.3.ark:17655619
014c020p /scratch/ravanelm/exp/dirha/fbank/raw_fbank_tr05_cont.1.ark:7081659
028o0312 /scratch/ravanelm/exp/dirha/fbank/raw_fbank_tr05_cont.2.ark:42417069
020c021d /scratch/ravanelm/exp/dirha/fbank/raw_fbank_tr05_cont.2.ark:27030369
01qc021a /scratch/ravanelm/exp/dirha/fbank/raw_fbank_tr05_cont.2.ark:4867879
01fo0301 /scratch/ravanelm/exp/dirha/fbank/raw_fbank_tr05_cont.1.ark:34794289
40ic020n /scratch/ravanelm/exp/dirha/fbank/raw_fbank_tr05_cont.4.ark:32732979
01do031e /scratch/ravanelm/exp/dirha/fbank/raw_fbank_tr05_cont.1.ark:30332609
016o030n /scratch/ravanelm/exp/dirha/fbank/raw_fbank_tr05_cont.1.ark:14022019
018o0303 /scratch/ravanelm/exp/dirha/fbank/raw_fbank_tr05_cont.1.ark:19257929
01ko030w /scratch/ravanelm/exp/dirha/fbank/raw_fbank_tr05_cont.1.ark:49343889
021o030f /scratch/ravanelm/exp/dirha/fbank/raw_fbank_tr05_cont.2.ark:29782729
40bo0316 /scratch/ravanelm/exp/dirha/fbank/raw_fbank_tr05_cont.4.ark:13742709
20hc010o /scratch/ravanelm/exp/dirha/fbank/raw_fbank_tr05_cont.3.ark:22540619
40ec020j /scratch/ravanelm/exp/dirha/fbank/raw_fbank_tr05_cont.4.ark:19831589
01wc020d /scratch/ravanelm/exp/dirha/fbank/raw_fbank_tr05_cont.2.ark:16971739
20qc0103 /scratch/ravanelm/exp/dirha/fbank/raw_fbank_tr05_cont.3.ark:33297429
021o030o /scratch/ravanelm/exp/dirha/fbank/raw_fbank_tr05_cont.2.ark:30091559
40no030j /scratch/ravanelm/exp/dirha/fbank/raw_fbank_tr05_cont.4.ark:50280369
01go0312 /scratch/ravanelm/exp/dirha/fbank/raw_fbank_tr05_cont.1.ark:39083779
01eo030z /scratch/ravanelm/exp/dirha/fbank/raw_fbank_tr05_cont.1.ark:32862509
40ho030q /scratch/ravanelm/exp/dirha/fbank/raw_fbank_tr05_cont.4.ark:31251519
20hc010m /scratch/ravanelm/exp/dirha/fbank/raw_fbank_tr05_cont.3.ark:22503359
01bo030i /scratch/ravanelm/exp/dirha/fbank/raw_fbank_tr05_cont.1.ark:26132579
40lo030j /scratch/ravanelm/exp/dirha/fbank/raw_fbank_tr05_cont.4.ark:43573939
01lo030b /scratch/ravanelm/exp/dirha/fbank/raw_fbank_tr05_cont.1.ark:52325549
406o0319 /scratch/ravanelm/exp/dirha/fbank/raw_fbank_tr05_cont.3.ark:53616209
029o030o /scratch/ravanelm/exp/dirha/fbank/raw_fbank_tr05_cont.2.ark:45077879
408o030s /scratch/ravanelm/exp/dirha/fbank/raw_fbank_tr05_cont.4.ark:4376329
20qo010q /scratch/ravanelm/exp/dirha/fbank/raw_fbank_tr05_cont.3.ark:34967269
20rc010c /scratch/ravanelm/exp/dirha/fbank/raw_fbank_tr05_cont.3.ark:35307949
01yc020i /scratch/ravanelm/exp/dirha/fbank/raw_fbank_tr05_cont.2.ark:20023269
40lo030o /scratch/ravanelm/exp/dirha/fbank/raw_fbank_tr05_cont.4.ark:43828289
01yc0207 /scratch/ravanelm/exp/dirha/fbank/raw_fbank_tr05_cont.2.ark:19667779
40no030g /scratch/ravanelm/exp/dirha/fbank/raw_fbank_tr05_cont.4.ark:50157759
40mo030t /scratch/ravanelm/exp/dirha/fbank/raw_fbank_tr05_cont.4.ark:47410519
01go031f /scratch/ravanelm/exp/dirha/fbank/raw_fbank_tr05_cont.1.ark:39603129
40eo030b /scratch/ravanelm/exp/dirha/fbank/raw_fbank_tr05_cont.4.ark:20953579
01kc0209 /scratch/ravanelm/exp/dirha/fbank/raw_fbank_tr05_cont.1.ark:46766369
204c010l /scratch/ravanelm/exp/dirha/fbank/raw_fbank_tr05_cont.3.ark:1474399
01uc0216 /scratch/ravanelm/exp/dirha/fbank/raw_fbank_tr05_cont.2.ark:14438259
018c020w /scratch/ravanelm/exp/dirha/fbank/raw_fbank_tr05_cont.1.ark:18520639
01uo0313 /scratch/ravanelm/exp/dirha/fbank/raw_fbank_tr05_cont.2.ark:16224419
018o030e /scratch/ravanelm/exp/dirha/fbank/raw_fbank_tr05_cont.1.ark:19654779
40fc0206 /scratch/ravanelm/exp/dirha/fbank/raw_fbank_tr05_cont.4.ark:22135439
40kc020z /scratch/ravanelm/exp/dirha/fbank/raw_fbank_tr05_cont.4.ark:39230329
02co030l /scratch/ravanelm/exp/dirha/fbank/raw_fbank_tr05_cont.2.ark:51153339
20oo010p /scratch/ravanelm/exp/dirha/fbank/raw_fbank_tr05_cont.3.ark:31719429
20mo010l /scratch/ravanelm/exp/dirha/fbank/raw_fbank_tr05_cont.3.ark:28230989
024c0217 /scratch/ravanelm/exp/dirha/fbank/raw_fbank_tr05_cont.2.ark:32093259
40nc0202 /scratch/ravanelm/exp/dirha/fbank/raw_fbank_tr05_cont.4.ark:48090939
40ho030c /scratch/ravanelm/exp/dirha/fbank/raw_fbank_tr05_cont.4.ark:30756419
011c0205 /scratch/ravanelm/exp/dirha/fbank/raw_fbank_tr05_cont.1.ark:115929
40jo0303 /scratch/ravanelm/exp/dirha/fbank/raw_fbank_tr05_cont.4.ark:36542039
013o030u /scratch/ravanelm/exp/dirha/fbank/raw_fbank_tr05_cont.1.ark:5858439
408o030x /scratch/ravanelm/exp/dirha/fbank/raw_fbank_tr05_cont.4.ark:4496639
20lo0105 /scratch/ravanelm/exp/dirha/fbank/raw_fbank_tr05_cont.3.ark:25979619
20qc0101 /scratch/ravanelm/exp/dirha/fbank/raw_fbank_tr05_cont.3.ark:33220489
40io030w /scratch/ravanelm/exp/dirha/fbank/raw_fbank_tr05_cont.4.ark:34496059
40go030f /scratch/ravanelm/exp/dirha/fbank/raw_fbank_tr05_cont.4.ark:27553119
024o030x /scratch/ravanelm/exp/dirha/fbank/raw_fbank_tr05_cont.2.ark:33257099
40go030h /scratch/ravanelm/exp/dirha/fbank/raw_fbank_tr05_cont.4.ark:27649859
01po0302 /scratch/ravanelm/exp/dirha/fbank/raw_fbank_tr05_cont.2.ark:1985669
40ec020u /scratch/ravanelm/exp/dirha/fbank/raw_fbank_tr05_cont.4.ark:20043039
40eo0316 /scratch/ravanelm/exp/dirha/fbank/raw_fbank_tr05_cont.4.ark:21868229
01lo030i /scratch/ravanelm/exp/dirha/fbank/raw_fbank_tr05_cont.1.ark:52657079
20do010q /scratch/ravanelm/exp/dirha/fbank/raw_fbank_tr05_cont.3.ark:17454189
407c0213 /scratch/ravanelm/exp/dirha/fbank/raw_fbank_tr05_cont.4.ark:179059
40jc020s /scratch/ravanelm/exp/dirha/fbank/raw_fbank_tr05_cont.4.ark:35851729
407c020j /scratch/ravanelm/exp/dirha/fbank/raw_fbank_tr05_cont.3.ark:54237659
01yo0318 /scratch/ravanelm/exp/dirha/fbank/raw_fbank_tr05_cont.2.ark:22398249
014o0318 /scratch/ravanelm/exp/dirha/fbank/raw_fbank_tr05_cont.1.ark:9226739
02bc020y /scratch/ravanelm/exp/dirha/fbank/raw_fbank_tr05_cont.2.ark:46933309
01to031f /scratch/ravanelm/exp/dirha/fbank/raw_fbank_tr05_cont.2.ark:13047369
405c020r /scratch/ravanelm/exp/dirha/fbank/raw_fbank_tr05_cont.3.ark:48926469
029o030i /scratch/ravanelm/exp/dirha/fbank/raw_fbank_tr05_cont.2.ark:44842939
018o0313 /scratch/ravanelm/exp/dirha/fbank/raw_fbank_tr05_cont.1.ark:20690809
40fc020h /scratch/ravanelm/exp/dirha/fbank/raw_fbank_tr05_cont.4.ark:22447969
01zc020t /scratch/ravanelm/exp/dirha/fbank/raw_fbank_tr05_cont.2.ark:23349959
40pc0201 /scratch/ravanelm/exp/dirha/fbank/raw_fbank_tr05_cont.4.ark:51403899
01wo030j /scratch/ravanelm/exp/dirha/fbank/raw_fbank_tr05_cont.2.ark:18563339
02cc0211 /scratch/ravanelm/exp/dirha/fbank/raw_fbank_tr05_cont.2.ark:50181989
40go0303 /scratch/ravanelm/exp/dirha/fbank/raw_fbank_tr05_cont.4.ark:27094039
01yo0304 /scratch/ravanelm/exp/dirha/fbank/raw_fbank_tr05_cont.2.ark:21043969
014o030c /scratch/ravanelm/exp/dirha/fbank/raw_fbank_tr05_cont.1.ark:8150859
40ho030x /scratch/ravanelm/exp/dirha/fbank/raw_fbank_tr05_cont.4.ark:31482809
01bc021b /scratch/ravanelm/exp/dirha/fbank/raw_fbank_tr05_cont.1.ark:25305449
014o030g /scratch/ravanelm/exp/dirha/fbank/raw_fbank_tr05_cont.1.ark:8270299
01qo031g /scratch/ravanelm/exp/dirha/fbank/raw_fbank_tr05_cont.2.ark:6705959
407c021f /scratch/ravanelm/exp/dirha/fbank/raw_fbank_tr05_cont.4.ark:563979
01ko0316 /scratch/ravanelm/exp/dirha/fbank/raw_fbank_tr05_cont.1.ark:49740949
01kc021e /scratch/ravanelm/exp/dirha/fbank/raw_fbank_tr05_cont.1.ark:48017369
40dc0207 /scratch/ravanelm/exp/dirha/fbank/raw_fbank_tr05_cont.4.ark:16625199
403o030p /scratch/ravanelm/exp/dirha/fbank/raw_fbank_tr05_cont.3.ark:44820839
01uc020s /scratch/ravanelm/exp/dirha/fbank/raw_fbank_tr05_cont.2.ark:13953239
01ko0314 /scratch/ravanelm/exp/dirha/fbank/raw_fbank_tr05_cont.1.ark:49660169
40eo0305 /scratch/ravanelm/exp/dirha/fbank/raw_fbank_tr05_cont.4.ark:20786559
021o0319 /scratch/ravanelm/exp/dirha/fbank/raw_fbank_tr05_cont.2.ark:30727349
20co0108 /scratch/ravanelm/exp/dirha/fbank/raw_fbank_tr05_cont.3.ark:15185559
01uo0311 /scratch/ravanelm/exp/dirha/fbank/raw_fbank_tr05_cont.2.ark:16138719
404o0305 /scratch/ravanelm/exp/dirha/fbank/raw_fbank_tr05_cont.3.ark:46940299
40nc0213 /scratch/ravanelm/exp/dirha/fbank/raw_fbank_tr05_cont.4.ark:49180049
01mo0305 /scratch/ravanelm/exp/dirha/fbank/raw_fbank_tr05_cont.1.ark:55538249
018o030g /scratch/ravanelm/exp/dirha/fbank/raw_fbank_tr05_cont.1.ark:19734719
02bc0219 /scratch/ravanelm/exp/dirha/fbank/raw_fbank_tr05_cont.2.ark:47236239
405c020p /scratch/ravanelm/exp/dirha/fbank/raw_fbank_tr05_cont.3.ark:48877689
20oc010d /scratch/ravanelm/exp/dirha/fbank/raw_fbank_tr05_cont.3.ark:30663869
029c020k /scratch/ravanelm/exp/dirha/fbank/raw_fbank_tr05_cont.2.ark:43405039
20vc0102 /scratch/ravanelm/exp/dirha/fbank/raw_fbank_tr05_cont.3.ark:38121639
02eo0301 /scratch/ravanelm/exp/dirha/fbank/raw_fbank_tr05_cont.2.ark:53847739
01tc020t /scratch/ravanelm/exp/dirha/fbank/raw_fbank_tr05_cont.2.ark:10580019
40bo0309 /scratch/ravanelm/exp/dirha/fbank/raw_fbank_tr05_cont.4.ark:12658979
20tc0101 /scratch/ravanelm/exp/dirha/fbank/raw_fbank_tr05_cont.3.ark:36718719
20mo010o /scratch/ravanelm/exp/dirha/fbank/raw_fbank_tr05_cont.3.ark:28296119
409o030w /scratch/ravanelm/exp/dirha/fbank/raw_fbank_tr05_cont.4.ark:7249449
02cc020e /scratch/ravanelm/exp/dirha/fbank/raw_fbank_tr05_cont.2.ark:49607409
01kc021a /scratch/ravanelm/exp/dirha/fbank/raw_fbank_tr05_cont.1.ark:47900769
20bo010h /scratch/ravanelm/exp/dirha/fbank/raw_fbank_tr05_cont.3.ark:13836779
018o0309 /scratch/ravanelm/exp/dirha/fbank/raw_fbank_tr05_cont.1.ark:19461149
01ro030r /scratch/ravanelm/exp/dirha/fbank/raw_fbank_tr05_cont.2.ark:8989729
20ac0104 /scratch/ravanelm/exp/dirha/fbank/raw_fbank_tr05_cont.3.ark:10798009
028c020f /scratch/ravanelm/exp/dirha/fbank/raw_fbank_tr05_cont.2.ark:40092209
40bo030i /scratch/ravanelm/exp/dirha/fbank/raw_fbank_tr05_cont.4.ark:12966489
40ac020j /scratch/ravanelm/exp/dirha/fbank/raw_fbank_tr05_cont.4.ark:8411689
40ko030f /scratch/ravanelm/exp/dirha/fbank/raw_fbank_tr05_cont.4.ark:40096289
40pc020s /scratch/ravanelm/exp/dirha/fbank/raw_fbank_tr05_cont.4.ark:51996949
013c021b /scratch/ravanelm/exp/dirha/fbank/raw_fbank_tr05_cont.1.ark:4854579
208o0101 /scratch/ravanelm/exp/dirha/fbank/raw_fbank_tr05_cont.3.ark:8351579
20po0107 /scratch/ravanelm/exp/dirha/fbank/raw_fbank_tr05_cont.3.ark:32617249
405o030z /scratch/ravanelm/exp/dirha/fbank/raw_fbank_tr05_cont.3.ark:50438279
027c020f /scratch/ravanelm/exp/dirha/fbank/raw_fbank_tr05_cont.2.ark:37018969
20io010o /scratch/ravanelm/exp/dirha/fbank/raw_fbank_tr05_cont.3.ark:24868469
01jc0215 /scratch/ravanelm/exp/dirha/fbank/raw_fbank_tr05_cont.1.ark:44220969
205c010l /scratch/ravanelm/exp/dirha/fbank/raw_fbank_tr05_cont.3.ark:2988809
028c021f /scratch/ravanelm/exp/dirha/fbank/raw_fbank_tr05_cont.2.ark:41071729
01rc020x /scratch/ravanelm/exp/dirha/fbank/raw_fbank_tr05_cont.2.ark:7675189
20ac010o /scratch/ravanelm/exp/dirha/fbank/raw_fbank_tr05_cont.3.ark:11339489
01rc020r /scratch/ravanelm/exp/dirha/fbank/raw_fbank_tr05_cont.2.ark:7505849
20gc010l /scratch/ravanelm/exp/dirha/fbank/raw_fbank_tr05_cont.3.ark:21221079
209c010e /scratch/ravanelm/exp/dirha/fbank/raw_fbank_tr05_cont.3.ark:9611339
40ec021d /scratch/ravanelm/exp/dirha/fbank/raw_fbank_tr05_cont.4.ark:20493249
026c021f /scratch/ravanelm/exp/dirha/fbank/raw_fbank_tr05_cont.2.ark:35094449
01wo0316 /scratch/ravanelm/exp/dirha/fbank/raw_fbank_tr05_cont.2.ark:19276799
20fc0102 /scratch/ravanelm/exp/dirha/fbank/raw_fbank_tr05_cont.3.ark:19295299
40mc0216 /scratch/ravanelm/exp/dirha/fbank/raw_fbank_tr05_cont.4.ark:46069389
40no0302 /scratch/ravanelm/exp/dirha/fbank/raw_fbank_tr05_cont.4.ark:49598539
024c021c /scratch/ravanelm/exp/dirha/fbank/raw_fbank_tr05_cont.2.ark:32232409
405c0204 /scratch/ravanelm/exp/dirha/fbank/raw_fbank_tr05_cont.3.ark:48320619
018c0203 /scratch/ravanelm/exp/dirha/fbank/raw_fbank_tr05_cont.1.ark:17690289
40jo030j /scratch/ravanelm/exp/dirha/fbank/raw_fbank_tr05_cont.4.ark:37118759
404o030t /scratch/ravanelm/exp/dirha/fbank/raw_fbank_tr05_cont.3.ark:47678619
40lo030p /scratch/ravanelm/exp/dirha/fbank/raw_fbank_tr05_cont.4.ark:43868279
409o0314 /scratch/ravanelm/exp/dirha/fbank/raw_fbank_tr05_cont.4.ark:7446089
20vc010g /scratch/ravanelm/exp/dirha/fbank/raw_fbank_tr05_cont.3.ark:38527659
01ro0308 /scratch/ravanelm/exp/dirha/fbank/raw_fbank_tr05_cont.2.ark:8345439
013c021d /scratch/ravanelm/exp/dirha/fbank/raw_fbank_tr05_cont.1.ark:4881479
40io030y /scratch/ravanelm/exp/dirha/fbank/raw_fbank_tr05_cont.4.ark:34556279
40bo030v /scratch/ravanelm/exp/dirha/fbank/raw_fbank_tr05_cont.4.ark:13442879
01io030f /scratch/ravanelm/exp/dirha/fbank/raw_fbank_tr05_cont.1.ark:41723659
207c010d /scratch/ravanelm/exp/dirha/fbank/raw_fbank_tr05_cont.3.ark:6272989
028o031d /scratch/ravanelm/exp/dirha/fbank/raw_fbank_tr05_cont.2.ark:42838239
20do0104 /scratch/ravanelm/exp/dirha/fbank/raw_fbank_tr05_cont.3.ark:16683929
40ko0302 /scratch/ravanelm/exp/dirha/fbank/raw_fbank_tr05_cont.4.ark:39719979
014o030y /scratch/ravanelm/exp/dirha/fbank/raw_fbank_tr05_cont.1.ark:8934119
40ec0206 /scratch/ravanelm/exp/dirha/fbank/raw_fbank_tr05_cont.4.ark:19536079
029o0304 /scratch/ravanelm/exp/dirha/fbank/raw_fbank_tr05_cont.2.ark:44386919
40hc0202 /scratch/ravanelm/exp/dirha/fbank/raw_fbank_tr05_cont.4.ark:29155509
40fo030f /scratch/ravanelm/exp/dirha/fbank/raw_fbank_tr05_cont.4.ark:23908389
026c020r /scratch/ravanelm/exp/dirha/fbank/raw_fbank_tr05_cont.2.ark:34499929
406o030s /scratch/ravanelm/exp/dirha/fbank/raw_fbank_tr05_cont.3.ark:53048139
02bc021b /scratch/ravanelm/exp/dirha/fbank/raw_fbank_tr05_cont.2.ark:47303739
01uc0204 /scratch/ravanelm/exp/dirha/fbank/raw_fbank_tr05_cont.2.ark:13232279
01wo030u /scratch/ravanelm/exp/dirha/fbank/raw_fbank_tr05_cont.2.ark:18842079
013o0319 /scratch/ravanelm/exp/dirha/fbank/raw_fbank_tr05_cont.1.ark:6339009
015c0211 /scratch/ravanelm/exp/dirha/fbank/raw_fbank_tr05_cont.1.ark:10407879
20ao010h /scratch/ravanelm/exp/dirha/fbank/raw_fbank_tr05_cont.3.ark:12065199
01zc020d /scratch/ravanelm/exp/dirha/fbank/raw_fbank_tr05_cont.2.ark:22947999
01bc020j /scratch/ravanelm/exp/dirha/fbank/raw_fbank_tr05_cont.1.ark:24433229
02ec020v /scratch/ravanelm/exp/dirha/fbank/raw_fbank_tr05_cont.2.ark:53180339
01zo0303 /scratch/ravanelm/exp/dirha/fbank/raw_fbank_tr05_cont.2.ark:24185309
02bc020b /scratch/ravanelm/exp/dirha/fbank/raw_fbank_tr05_cont.2.ark:46285099
20go0107 /scratch/ravanelm/exp/dirha/fbank/raw_fbank_tr05_cont.3.ark:21468789
206c010l /scratch/ravanelm/exp/dirha/fbank/raw_fbank_tr05_cont.3.ark:4730369
20no010d /scratch/ravanelm/exp/dirha/fbank/raw_fbank_tr05_cont.3.ark:29713939
40eo0318 /scratch/ravanelm/exp/dirha/fbank/raw_fbank_tr05_cont.4.ark:21925129
026c021g /scratch/ravanelm/exp/dirha/fbank/raw_fbank_tr05_cont.2.ark:35132279
011c0204 /scratch/ravanelm/exp/dirha/fbank/raw_fbank_tr05_cont.1.ark:97619
209o010n /scratch/ravanelm/exp/dirha/fbank/raw_fbank_tr05_cont.3.ark:10621349
401c0208 /scratch/ravanelm/exp/dirha/fbank/raw_fbank_tr05_cont.3.ark:39801429
401c0206 /scratch/ravanelm/exp/dirha/fbank/raw_fbank_tr05_cont.3.ark:39734209
01wc0211 /scratch/ravanelm/exp/dirha/fbank/raw_fbank_tr05_cont.2.ark:17657459
01wo030y /scratch/ravanelm/exp/dirha/fbank/raw_fbank_tr05_cont.2.ark:18955239
205c010k /scratch/ravanelm/exp/dirha/fbank/raw_fbank_tr05_cont.3.ark:2959819
011o0312 /scratch/ravanelm/exp/dirha/fbank/raw_fbank_tr05_cont.1.ark:2862019
013o0312 /scratch/ravanelm/exp/dirha/fbank/raw_fbank_tr05_cont.1.ark:6103119
20po010d /scratch/ravanelm/exp/dirha/fbank/raw_fbank_tr05_cont.3.ark:32783989
40mo030w /scratch/ravanelm/exp/dirha/fbank/raw_fbank_tr05_cont.4.ark:47494049
01zo0302 /scratch/ravanelm/exp/dirha/fbank/raw_fbank_tr05_cont.2.ark:24145479
01ro0316 /scratch/ravanelm/exp/dirha/fbank/raw_fbank_tr05_cont.2.ark:9418099
40co031g /scratch/ravanelm/exp/dirha/fbank/raw_fbank_tr05_cont.4.ark:16417309
401c020p /scratch/ravanelm/exp/dirha/fbank/raw_fbank_tr05_cont.3.ark:40304499
407c021a /scratch/ravanelm/exp/dirha/fbank/raw_fbank_tr05_cont.4.ark:393029
40mc0208 /scratch/ravanelm/exp/dirha/fbank/raw_fbank_tr05_cont.4.ark:45202729
016o030v /scratch/ravanelm/exp/dirha/fbank/raw_fbank_tr05_cont.1.ark:14188979
20nc0103 /scratch/ravanelm/exp/dirha/fbank/raw_fbank_tr05_cont.3.ark:28501769
40bo0305 /scratch/ravanelm/exp/dirha/fbank/raw_fbank_tr05_cont.4.ark:12510419
207o010f /scratch/ravanelm/exp/dirha/fbank/raw_fbank_tr05_cont.3.ark:7124989
20fo0103 /scratch/ravanelm/exp/dirha/fbank/raw_fbank_tr05_cont.3.ark:19994829
01dc020s /scratch/ravanelm/exp/dirha/fbank/raw_fbank_tr05_cont.1.ark:28114759
40mc020n /scratch/ravanelm/exp/dirha/fbank/raw_fbank_tr05_cont.4.ark:45592059
20mo010e /scratch/ravanelm/exp/dirha/fbank/raw_fbank_tr05_cont.3.ark:28064299
02bc020s /scratch/ravanelm/exp/dirha/fbank/raw_fbank_tr05_cont.2.ark:46751849
01gc020c /scratch/ravanelm/exp/dirha/fbank/raw_fbank_tr05_cont.1.ark:36705659
01go030w /scratch/ravanelm/exp/dirha/fbank/raw_fbank_tr05_cont.1.ark:38868519
013o030e /scratch/ravanelm/exp/dirha/fbank/raw_fbank_tr05_cont.1.ark:5332639
40jc0215 /scratch/ravanelm/exp/dirha/fbank/raw_fbank_tr05_cont.4.ark:36209359
02ec020y /scratch/ravanelm/exp/dirha/fbank/raw_fbank_tr05_cont.2.ark:53281589
20vc0105 /scratch/ravanelm/exp/dirha/fbank/raw_fbank_tr05_cont.3.ark:38191809
01fo0317 /scratch/ravanelm/exp/dirha/fbank/raw_fbank_tr05_cont.1.ark:36149429
01mc020k /scratch/ravanelm/exp/dirha/fbank/raw_fbank_tr05_cont.1.ark:54548409
01go0310 /scratch/ravanelm/exp/dirha/fbank/raw_fbank_tr05_cont.1.ark:39020999
015o030x /scratch/ravanelm/exp/dirha/fbank/raw_fbank_tr05_cont.1.ark:11819979
20ac010h /scratch/ravanelm/exp/dirha/fbank/raw_fbank_tr05_cont.3.ark:11181759
011c0215 /scratch/ravanelm/exp/dirha/fbank/raw_fbank_tr05_cont.1.ark:1130249
02cc021f /scratch/ravanelm/exp/dirha/fbank/raw_fbank_tr05_cont.2.ark:50513149
401c020q /scratch/ravanelm/exp/dirha/fbank/raw_fbank_tr05_cont.3.ark:40319489
20co010j /scratch/ravanelm/exp/dirha/fbank/raw_fbank_tr05_cont.3.ark:15526369
01lc020u /scratch/ravanelm/exp/dirha/fbank/raw_fbank_tr05_cont.1.ark:51198949
01fc0210 /scratch/ravanelm/exp/dirha/fbank/raw_fbank_tr05_cont.1.ark:34336459
020o0305 /scratch/ravanelm/exp/dirha/fbank/raw_fbank_tr05_cont.2.ark:27144229
40cc020m /scratch/ravanelm/exp/dirha/fbank/raw_fbank_tr05_cont.4.ark:14488589
40jc020l /scratch/ravanelm/exp/dirha/fbank/raw_fbank_tr05_cont.4.ark:35655799
017c020l /scratch/ravanelm/exp/dirha/fbank/raw_fbank_tr05_cont.1.ark:15292929
01fo030p /scratch/ravanelm/exp/dirha/fbank/raw_fbank_tr05_cont.1.ark:35633529
02bc0207 /scratch/ravanelm/exp/dirha/fbank/raw_fbank_tr05_cont.2.ark:46180459
01tc0212 /scratch/ravanelm/exp/dirha/fbank/raw_fbank_tr05_cont.2.ark:10915809
016c020z /scratch/ravanelm/exp/dirha/fbank/raw_fbank_tr05_cont.1.ark:13100749
01ec020m /scratch/ravanelm/exp/dirha/fbank/raw_fbank_tr05_cont.1.ark:30994019
20go010s /scratch/ravanelm/exp/dirha/fbank/raw_fbank_tr05_cont.3.ark:22061579
404o031d /scratch/ravanelm/exp/dirha/fbank/raw_fbank_tr05_cont.3.ark:48216419
015o030k /scratch/ravanelm/exp/dirha/fbank/raw_fbank_tr05_cont.1.ark:11403509
20nc010e /scratch/ravanelm/exp/dirha/fbank/raw_fbank_tr05_cont.3.ark:28844339
40ic020g /scratch/ravanelm/exp/dirha/fbank/raw_fbank_tr05_cont.4.ark:32517649
01uc0209 /scratch/ravanelm/exp/dirha/fbank/raw_fbank_tr05_cont.2.ark:13391509
016o030d /scratch/ravanelm/exp/dirha/fbank/raw_fbank_tr05_cont.1.ark:13748949
01bo030p /scratch/ravanelm/exp/dirha/fbank/raw_fbank_tr05_cont.1.ark:26427229
40jo030b /scratch/ravanelm/exp/dirha/fbank/raw_fbank_tr05_cont.4.ark:36869519
01go0308 /scratch/ravanelm/exp/dirha/fbank/raw_fbank_tr05_cont.1.ark:38071359
021o030i /scratch/ravanelm/exp/dirha/fbank/raw_fbank_tr05_cont.2.ark:29892059
20do0109 /scratch/ravanelm/exp/dirha/fbank/raw_fbank_tr05_cont.3.ark:16812879
20rc0103 /scratch/ravanelm/exp/dirha/fbank/raw_fbank_tr05_cont.3.ark:35069119
01uc020h /scratch/ravanelm/exp/dirha/fbank/raw_fbank_tr05_cont.2.ark:13642749
40cc0215 /scratch/ravanelm/exp/dirha/fbank/raw_fbank_tr05_cont.4.ark:14894879
20oc010e /scratch/ravanelm/exp/dirha/fbank/raw_fbank_tr05_cont.3.ark:30674379
20io010q /scratch/ravanelm/exp/dirha/fbank/raw_fbank_tr05_cont.3.ark:24902049
011c020i /scratch/ravanelm/exp/dirha/fbank/raw_fbank_tr05_cont.1.ark:452199
403o030v /scratch/ravanelm/exp/dirha/fbank/raw_fbank_tr05_cont.3.ark:45036539
029o030u /scratch/ravanelm/exp/dirha/fbank/raw_fbank_tr05_cont.2.ark:45265979
013c020a /scratch/ravanelm/exp/dirha/fbank/raw_fbank_tr05_cont.1.ark:3826429
40go0311 /scratch/ravanelm/exp/dirha/fbank/raw_fbank_tr05_cont.4.ark:28581019
404o0317 /scratch/ravanelm/exp/dirha/fbank/raw_fbank_tr05_cont.3.ark:48078959
40jo031d /scratch/ravanelm/exp/dirha/fbank/raw_fbank_tr05_cont.4.ark:38171099
024c020r /scratch/ravanelm/exp/dirha/fbank/raw_fbank_tr05_cont.2.ark:31658979
40gc020h /scratch/ravanelm/exp/dirha/fbank/raw_fbank_tr05_cont.4.ark:25744489
01io030j /scratch/ravanelm/exp/dirha/fbank/raw_fbank_tr05_cont.1.ark:41855699
40gc020e /scratch/ravanelm/exp/dirha/fbank/raw_fbank_tr05_cont.4.ark:25657039
40go0313 /scratch/ravanelm/exp/dirha/fbank/raw_fbank_tr05_cont.4.ark:28679839
40ho0312 /scratch/ravanelm/exp/dirha/fbank/raw_fbank_tr05_cont.4.ark:31634039
20io0102 /scratch/ravanelm/exp/dirha/fbank/raw_fbank_tr05_cont.3.ark:24082529
01fc020k /scratch/ravanelm/exp/dirha/fbank/raw_fbank_tr05_cont.1.ark:33930459
207o010h /scratch/ravanelm/exp/dirha/fbank/raw_fbank_tr05_cont.3.ark:7176409
027o030h /scratch/ravanelm/exp/dirha/fbank/raw_fbank_tr05_cont.2.ark:38679619
011o030b /scratch/ravanelm/exp/dirha/fbank/raw_fbank_tr05_cont.1.ark:1831169
01wc020h /scratch/ravanelm/exp/dirha/fbank/raw_fbank_tr05_cont.2.ark:17106459
01rc020b /scratch/ravanelm/exp/dirha/fbank/raw_fbank_tr05_cont.2.ark:7013449
029o030a /scratch/ravanelm/exp/dirha/fbank/raw_fbank_tr05_cont.2.ark:44595499
208c010n /scratch/ravanelm/exp/dirha/fbank/raw_fbank_tr05_cont.3.ark:8264449
401o0314 /scratch/ravanelm/exp/dirha/fbank/raw_fbank_tr05_cont.3.ark:42468729
019c020z /scratch/ravanelm/exp/dirha/fbank/raw_fbank_tr05_cont.1.ark:21874489
403c0213 /scratch/ravanelm/exp/dirha/fbank/raw_fbank_tr05_cont.3.ark:43723089
013c021e /scratch/ravanelm/exp/dirha/fbank/raw_fbank_tr05_cont.1.ark:4915389
40ko030d /scratch/ravanelm/exp/dirha/fbank/raw_fbank_tr05_cont.4.ark:40048709
01dc0209 /scratch/ravanelm/exp/dirha/fbank/raw_fbank_tr05_cont.1.ark:27598389
011c020c /scratch/ravanelm/exp/dirha/fbank/raw_fbank_tr05_cont.1.ark:292259
014c0214 /scratch/ravanelm/exp/dirha/fbank/raw_fbank_tr05_cont.1.ark:7447109
40fo0310 /scratch/ravanelm/exp/dirha/fbank/raw_fbank_tr05_cont.4.ark:24581859
016o030k /scratch/ravanelm/exp/dirha/fbank/raw_fbank_tr05_cont.1.ark:13945809
01qo0316 /scratch/ravanelm/exp/dirha/fbank/raw_fbank_tr05_cont.2.ark:6387819
40do030o /scratch/ravanelm/exp/dirha/fbank/raw_fbank_tr05_cont.4.ark:18668389
204o010c /scratch/ravanelm/exp/dirha/fbank/raw_fbank_tr05_cont.3.ark:1889279
01yo031b /scratch/ravanelm/exp/dirha/fbank/raw_fbank_tr05_cont.2.ark:22500779
406c020e /scratch/ravanelm/exp/dirha/fbank/raw_fbank_tr05_cont.3.ark:51323739
20ao0107 /scratch/ravanelm/exp/dirha/fbank/raw_fbank_tr05_cont.3.ark:11618659
40ic0204 /scratch/ravanelm/exp/dirha/fbank/raw_fbank_tr05_cont.4.ark:32122689
20rc010l /scratch/ravanelm/exp/dirha/fbank/raw_fbank_tr05_cont.3.ark:35597979
20co010o /scratch/ravanelm/exp/dirha/fbank/raw_fbank_tr05_cont.3.ark:15681239
40ec020z /scratch/ravanelm/exp/dirha/fbank/raw_fbank_tr05_cont.4.ark:20170429
01bc020t /scratch/ravanelm/exp/dirha/fbank/raw_fbank_tr05_cont.1.ark:24771899
205c0103 /scratch/ravanelm/exp/dirha/fbank/raw_fbank_tr05_cont.3.ark:2490589
01ro030z /scratch/ravanelm/exp/dirha/fbank/raw_fbank_tr05_cont.2.ark:9222369
01lc020m /scratch/ravanelm/exp/dirha/fbank/raw_fbank_tr05_cont.1.ark:50989389
01zc020m /scratch/ravanelm/exp/dirha/fbank/raw_fbank_tr05_cont.2.ark:23226509
40no030h /scratch/ravanelm/exp/dirha/fbank/raw_fbank_tr05_cont.4.ark:50186589
024o0303 /scratch/ravanelm/exp/dirha/fbank/raw_fbank_tr05_cont.2.ark:32371239
01qo0311 /scratch/ravanelm/exp/dirha/fbank/raw_fbank_tr05_cont.2.ark:6273349
013o0315 /scratch/ravanelm/exp/dirha/fbank/raw_fbank_tr05_cont.1.ark:6210769
40ao0301 /scratch/ravanelm/exp/dirha/fbank/raw_fbank_tr05_cont.4.ark:9346089
016o0302 /scratch/ravanelm/exp/dirha/fbank/raw_fbank_tr05_cont.1.ark:13427409
028c0203 /scratch/ravanelm/exp/dirha/fbank/raw_fbank_tr05_cont.2.ark:39830449
206o010k /scratch/ravanelm/exp/dirha/fbank/raw_fbank_tr05_cont.3.ark:5543639
20gc010c /scratch/ravanelm/exp/dirha/fbank/raw_fbank_tr05_cont.3.ark:20997049
02eo030c /scratch/ravanelm/exp/dirha/fbank/raw_fbank_tr05_cont.2.ark:54235909
01bc0212 /scratch/ravanelm/exp/dirha/fbank/raw_fbank_tr05_cont.1.ark:24962459
021c020s /scratch/ravanelm/exp/dirha/fbank/raw_fbank_tr05_cont.2.ark:28837949
40jo0319 /scratch/ravanelm/exp/dirha/fbank/raw_fbank_tr05_cont.4.ark:38004499
016c0219 /scratch/ravanelm/exp/dirha/fbank/raw_fbank_tr05_cont.1.ark:13283989
029o030t /scratch/ravanelm/exp/dirha/fbank/raw_fbank_tr05_cont.2.ark:45252349
208o010a /scratch/ravanelm/exp/dirha/fbank/raw_fbank_tr05_cont.3.ark:8687769
205o010l /scratch/ravanelm/exp/dirha/fbank/raw_fbank_tr05_cont.3.ark:3946279
01yc021e /scratch/ravanelm/exp/dirha/fbank/raw_fbank_tr05_cont.2.ark:20881709
01ec0204 /scratch/ravanelm/exp/dirha/fbank/raw_fbank_tr05_cont.1.ark:30503039
01pc0204 /scratch/ravanelm/exp/dirha/fbank/raw_fbank_tr05_cont.2.ark:497009
011c020a /scratch/ravanelm/exp/dirha/fbank/raw_fbank_tr05_cont.1.ark:224079
20ao010k /scratch/ravanelm/exp/dirha/fbank/raw_fbank_tr05_cont.3.ark:12196089
40dc020v /scratch/ravanelm/exp/dirha/fbank/raw_fbank_tr05_cont.4.ark:17361119
02bc020e /scratch/ravanelm/exp/dirha/fbank/raw_fbank_tr05_cont.2.ark:46392869
40nc021g /scratch/ravanelm/exp/dirha/fbank/raw_fbank_tr05_cont.4.ark:49556639
01ic020u /scratch/ravanelm/exp/dirha/fbank/raw_fbank_tr05_cont.1.ark:40552419
40hc020v /scratch/ravanelm/exp/dirha/fbank/raw_fbank_tr05_cont.4.ark:29868859
40lc0218 /scratch/ravanelm/exp/dirha/fbank/raw_fbank_tr05_cont.4.ark:42665639
40ic020b /scratch/ravanelm/exp/dirha/fbank/raw_fbank_tr05_cont.4.ark:32353939
01mo030i /scratch/ravanelm/exp/dirha/fbank/raw_fbank_tr05_cont.1.ark:55907679
01lo0303 /scratch/ravanelm/exp/dirha/fbank/raw_fbank_tr05_cont.1.ark:51979869
20gc010n /scratch/ravanelm/exp/dirha/fbank/raw_fbank_tr05_cont.3.ark:21290979
01pc020v /scratch/ravanelm/exp/dirha/fbank/raw_fbank_tr05_cont.2.ark:1271299
409c0202 /scratch/ravanelm/exp/dirha/fbank/raw_fbank_tr05_cont.4.ark:4903429
20tc010o /scratch/ravanelm/exp/dirha/fbank/raw_fbank_tr05_cont.3.ark:37360769
401c020l /scratch/ravanelm/exp/dirha/fbank/raw_fbank_tr05_cont.3.ark:40202779
403o0309 /scratch/ravanelm/exp/dirha/fbank/raw_fbank_tr05_cont.3.ark:44360399
405c020d /scratch/ravanelm/exp/dirha/fbank/raw_fbank_tr05_cont.3.ark:48566409
208c0109 /scratch/ravanelm/exp/dirha/fbank/raw_fbank_tr05_cont.3.ark:7880429
01ec020l /scratch/ravanelm/exp/dirha/fbank/raw_fbank_tr05_cont.1.ark:30951349
406o030n /scratch/ravanelm/exp/dirha/fbank/raw_fbank_tr05_cont.3.ark:52871869
407o030c /scratch/ravanelm/exp/dirha/fbank/raw_fbank_tr05_cont.4.ark:1060909
01pc021e /scratch/ravanelm/exp/dirha/fbank/raw_fbank_tr05_cont.2.ark:1856189
205c010c /scratch/ravanelm/exp/dirha/fbank/raw_fbank_tr05_cont.3.ark:2755819
20to010c /scratch/ravanelm/exp/dirha/fbank/raw_fbank_tr05_cont.3.ark:37674069
207o0107 /scratch/ravanelm/exp/dirha/fbank/raw_fbank_tr05_cont.3.ark:6856189
209o010f /scratch/ravanelm/exp/dirha/fbank/raw_fbank_tr05_cont.3.ark:10371989
20mc010p /scratch/ravanelm/exp/dirha/fbank/raw_fbank_tr05_cont.3.ark:27642279
401o030k /scratch/ravanelm/exp/dirha/fbank/raw_fbank_tr05_cont.3.ark:41795319
20tc0102 /scratch/ravanelm/exp/dirha/fbank/raw_fbank_tr05_cont.3.ark:36757549
409o030i /scratch/ravanelm/exp/dirha/fbank/raw_fbank_tr05_cont.4.ark:6796269
208c010j /scratch/ravanelm/exp/dirha/fbank/raw_fbank_tr05_cont.3.ark:8134249
01lc0202 /scratch/ravanelm/exp/dirha/fbank/raw_fbank_tr05_cont.1.ark:50275669
01mc020h /scratch/ravanelm/exp/dirha/fbank/raw_fbank_tr05_cont.1.ark:54467359
40ko0308 /scratch/ravanelm/exp/dirha/fbank/raw_fbank_tr05_cont.4.ark:39872439
40ao030o /scratch/ravanelm/exp/dirha/fbank/raw_fbank_tr05_cont.4.ark:10015059
020c020u /scratch/ravanelm/exp/dirha/fbank/raw_fbank_tr05_cont.2.ark:26693199
40ec0215 /scratch/ravanelm/exp/dirha/fbank/raw_fbank_tr05_cont.4.ark:20305249
20lc010l /scratch/ravanelm/exp/dirha/fbank/raw_fbank_tr05_cont.3.ark:25612119
01mc020d /scratch/ravanelm/exp/dirha/fbank/raw_fbank_tr05_cont.1.ark:54347679
20go010l /scratch/ravanelm/exp/dirha/fbank/raw_fbank_tr05_cont.3.ark:21902169
20no010o /scratch/ravanelm/exp/dirha/fbank/raw_fbank_tr05_cont.3.ark:30172909
014c0218 /scratch/ravanelm/exp/dirha/fbank/raw_fbank_tr05_cont.1.ark:7517829
40ko030y /scratch/ravanelm/exp/dirha/fbank/raw_fbank_tr05_cont.4.ark:40777019
01bo030o /scratch/ravanelm/exp/dirha/fbank/raw_fbank_tr05_cont.1.ark:26389479
404o0308 /scratch/ravanelm/exp/dirha/fbank/raw_fbank_tr05_cont.3.ark:47023389
01zo0310 /scratch/ravanelm/exp/dirha/fbank/raw_fbank_tr05_cont.2.ark:25551579
011c0208 /scratch/ravanelm/exp/dirha/fbank/raw_fbank_tr05_cont.1.ark:167659
01uo030m /scratch/ravanelm/exp/dirha/fbank/raw_fbank_tr05_cont.2.ark:15487669
40ho030r /scratch/ravanelm/exp/dirha/fbank/raw_fbank_tr05_cont.4.ark:31263709
01wo030h /scratch/ravanelm/exp/dirha/fbank/raw_fbank_tr05_cont.2.ark:18498959
405c020o /scratch/ravanelm/exp/dirha/fbank/raw_fbank_tr05_cont.3.ark:48844819
20lc010b /scratch/ravanelm/exp/dirha/fbank/raw_fbank_tr05_cont.3.ark:25281739
40ko030p /scratch/ravanelm/exp/dirha/fbank/raw_fbank_tr05_cont.4.ark:40473389
02co0302 /scratch/ravanelm/exp/dirha/fbank/raw_fbank_tr05_cont.2.ark:50593649
40co0318 /scratch/ravanelm/exp/dirha/fbank/raw_fbank_tr05_cont.4.ark:16227709
01ko030i /scratch/ravanelm/exp/dirha/fbank/raw_fbank_tr05_cont.1.ark:48817789
20co0109 /scratch/ravanelm/exp/dirha/fbank/raw_fbank_tr05_cont.3.ark:15231349
016c0209 /scratch/ravanelm/exp/dirha/fbank/raw_fbank_tr05_cont.1.ark:12519999
407c020a /scratch/ravanelm/exp/dirha/fbank/raw_fbank_tr05_cont.3.ark:53969389
01go030j /scratch/ravanelm/exp/dirha/fbank/raw_fbank_tr05_cont.1.ark:38440769
024o031c /scratch/ravanelm/exp/dirha/fbank/raw_fbank_tr05_cont.2.ark:33718029
01uc020f /scratch/ravanelm/exp/dirha/fbank/raw_fbank_tr05_cont.2.ark:13570369
40do030k /scratch/ravanelm/exp/dirha/fbank/raw_fbank_tr05_cont.4.ark:18529069
01jc021b /scratch/ravanelm/exp/dirha/fbank/raw_fbank_tr05_cont.1.ark:44406509
01ic020x /scratch/ravanelm/exp/dirha/fbank/raw_fbank_tr05_cont.1.ark:40635749
40fc020f /scratch/ravanelm/exp/dirha/fbank/raw_fbank_tr05_cont.4.ark:22385829
40ac020u /scratch/ravanelm/exp/dirha/fbank/raw_fbank_tr05_cont.4.ark:8760059
01wc0214 /scratch/ravanelm/exp/dirha/fbank/raw_fbank_tr05_cont.2.ark:17718349
015o0319 /scratch/ravanelm/exp/dirha/fbank/raw_fbank_tr05_cont.1.ark:12244579
018o030r /scratch/ravanelm/exp/dirha/fbank/raw_fbank_tr05_cont.1.ark:20170649
40fo030c /scratch/ravanelm/exp/dirha/fbank/raw_fbank_tr05_cont.4.ark:23820899
403c021g /scratch/ravanelm/exp/dirha/fbank/raw_fbank_tr05_cont.3.ark:44023369
01go030u /scratch/ravanelm/exp/dirha/fbank/raw_fbank_tr05_cont.1.ark:38827899
013o0305 /scratch/ravanelm/exp/dirha/fbank/raw_fbank_tr05_cont.1.ark:5087369
020o0315 /scratch/ravanelm/exp/dirha/fbank/raw_fbank_tr05_cont.2.ark:27793829
40mc020h /scratch/ravanelm/exp/dirha/fbank/raw_fbank_tr05_cont.4.ark:45405719
40mo030p /scratch/ravanelm/exp/dirha/fbank/raw_fbank_tr05_cont.4.ark:47249759
011c0219 /scratch/ravanelm/exp/dirha/fbank/raw_fbank_tr05_cont.1.ark:1249169
01mc020y /scratch/ravanelm/exp/dirha/fbank/raw_fbank_tr05_cont.1.ark:54907629
028c020w /scratch/ravanelm/exp/dirha/fbank/raw_fbank_tr05_cont.2.ark:40535439
20ic010f /scratch/ravanelm/exp/dirha/fbank/raw_fbank_tr05_cont.3.ark:23780199
01mo031a /scratch/ravanelm/exp/dirha/fbank/raw_fbank_tr05_cont.2.ark:262129
01po030o /scratch/ravanelm/exp/dirha/fbank/raw_fbank_tr05_cont.2.ark:2705659
01fo030j /scratch/ravanelm/exp/dirha/fbank/raw_fbank_tr05_cont.1.ark:35441189
40gc021e /scratch/ravanelm/exp/dirha/fbank/raw_fbank_tr05_cont.4.ark:26917279
021o030a /scratch/ravanelm/exp/dirha/fbank/raw_fbank_tr05_cont.2.ark:29638379
01fo030x /scratch/ravanelm/exp/dirha/fbank/raw_fbank_tr05_cont.1.ark:35848729
20ec010i /scratch/ravanelm/exp/dirha/fbank/raw_fbank_tr05_cont.3.ark:18060999
40mc020k /scratch/ravanelm/exp/dirha/fbank/raw_fbank_tr05_cont.4.ark:45512889
408o030q /scratch/ravanelm/exp/dirha/fbank/raw_fbank_tr05_cont.4.ark:4325189
407o0307 /scratch/ravanelm/exp/dirha/fbank/raw_fbank_tr05_cont.4.ark:871519
01qc0212 /scratch/ravanelm/exp/dirha/fbank/raw_fbank_tr05_cont.2.ark:4657679
40ac020i /scratch/ravanelm/exp/dirha/fbank/raw_fbank_tr05_cont.4.ark:8393859
026o030o /scratch/ravanelm/exp/dirha/fbank/raw_fbank_tr05_cont.2.ark:35847719
40lo0316 /scratch/ravanelm/exp/dirha/fbank/raw_fbank_tr05_cont.4.ark:44644149
029o030j /scratch/ravanelm/exp/dirha/fbank/raw_fbank_tr05_cont.2.ark:44877529
209o010a /scratch/ravanelm/exp/dirha/fbank/raw_fbank_tr05_cont.3.ark:10223439
021c0213 /scratch/ravanelm/exp/dirha/fbank/raw_fbank_tr05_cont.2.ark:29101639
40hc020l /scratch/ravanelm/exp/dirha/fbank/raw_fbank_tr05_cont.4.ark:29641719
01ic0217 /scratch/ravanelm/exp/dirha/fbank/raw_fbank_tr05_cont.1.ark:40871609
404c020o /scratch/ravanelm/exp/dirha/fbank/raw_fbank_tr05_cont.3.ark:46155219
40jo030a /scratch/ravanelm/exp/dirha/fbank/raw_fbank_tr05_cont.4.ark:36821929
406o0314 /scratch/ravanelm/exp/dirha/fbank/raw_fbank_tr05_cont.3.ark:53452179
40gc0202 /scratch/ravanelm/exp/dirha/fbank/raw_fbank_tr05_cont.4.ark:25219319
40cc0213 /scratch/ravanelm/exp/dirha/fbank/raw_fbank_tr05_cont.4.ark:14851259
408c0208 /scratch/ravanelm/exp/dirha/fbank/raw_fbank_tr05_cont.4.ark:2572649
403o0311 /scratch/ravanelm/exp/dirha/fbank/raw_fbank_tr05_cont.3.ark:45211159
204o010j /scratch/ravanelm/exp/dirha/fbank/raw_fbank_tr05_cont.3.ark:2139009
01rc0209 /scratch/ravanelm/exp/dirha/fbank/raw_fbank_tr05_cont.2.ark:6952749
01zo0311 /scratch/ravanelm/exp/dirha/fbank/raw_fbank_tr05_cont.2.ark:25610609
40kc0218 /scratch/ravanelm/exp/dirha/fbank/raw_fbank_tr05_cont.4.ark:39440599
20mo010c /scratch/ravanelm/exp/dirha/fbank/raw_fbank_tr05_cont.3.ark:28004799
020c020e /scratch/ravanelm/exp/dirha/fbank/raw_fbank_tr05_cont.2.ark:26372639
018o030v /scratch/ravanelm/exp/dirha/fbank/raw_fbank_tr05_cont.1.ark:20333329
014c0207 /scratch/ravanelm/exp/dirha/fbank/raw_fbank_tr05_cont.1.ark:6687639
01ro030s /scratch/ravanelm/exp/dirha/fbank/raw_fbank_tr05_cont.2.ark:9015359
01to0307 /scratch/ravanelm/exp/dirha/fbank/raw_fbank_tr05_cont.2.ark:11477809
409o030b /scratch/ravanelm/exp/dirha/fbank/raw_fbank_tr05_cont.4.ark:6591339
02bc020z /scratch/ravanelm/exp/dirha/fbank/raw_fbank_tr05_cont.2.ark:46956019
40ko030e /scratch/ravanelm/exp/dirha/fbank/raw_fbank_tr05_cont.4.ark:40075299
02bo030n /scratch/ravanelm/exp/dirha/fbank/raw_fbank_tr05_cont.2.ark:48200829
20fo010l /scratch/ravanelm/exp/dirha/fbank/raw_fbank_tr05_cont.3.ark:20597289
014o030h /scratch/ravanelm/exp/dirha/fbank/raw_fbank_tr05_cont.1.ark:8298889
40do030q /scratch/ravanelm/exp/dirha/fbank/raw_fbank_tr05_cont.4.ark:18719409
018o030c /scratch/ravanelm/exp/dirha/fbank/raw_fbank_tr05_cont.1.ark:19547279
026o0301 /scratch/ravanelm/exp/dirha/fbank/raw_fbank_tr05_cont.2.ark:35157109
204o0108 /scratch/ravanelm/exp/dirha/fbank/raw_fbank_tr05_cont.3.ark:1774679
20tc010l /scratch/ravanelm/exp/dirha/fbank/raw_fbank_tr05_cont.3.ark:37260679
406c020k /scratch/ravanelm/exp/dirha/fbank/raw_fbank_tr05_cont.3.ark:51466359
019c020c /scratch/ravanelm/exp/dirha/fbank/raw_fbank_tr05_cont.1.ark:21373279
40cc020u /scratch/ravanelm/exp/dirha/fbank/raw_fbank_tr05_cont.4.ark:14637029
01to0317 /scratch/ravanelm/exp/dirha/fbank/raw_fbank_tr05_cont.2.ark:12766729
40ac020y /scratch/ravanelm/exp/dirha/fbank/raw_fbank_tr05_cont.4.ark:8880579
01qc0210 /scratch/ravanelm/exp/dirha/fbank/raw_fbank_tr05_cont.2.ark:4591499
40po030d /scratch/ravanelm/exp/dirha/fbank/raw_fbank_tr05_cont.4.ark:52971469
20ic010j /scratch/ravanelm/exp/dirha/fbank/raw_fbank_tr05_cont.3.ark:23850319
40co030r /scratch/ravanelm/exp/dirha/fbank/raw_fbank_tr05_cont.4.ark:15863999
01to0314 /scratch/ravanelm/exp/dirha/fbank/raw_fbank_tr05_cont.2.ark:12630159
01jc0216 /scratch/ravanelm/exp/dirha/fbank/raw_fbank_tr05_cont.1.ark:44263999
20ic010h /scratch/ravanelm/exp/dirha/fbank/raw_fbank_tr05_cont.3.ark:23818259
020o0306 /scratch/ravanelm/exp/dirha/fbank/raw_fbank_tr05_cont.2.ark:27180019
40ho0313 /scratch/ravanelm/exp/dirha/fbank/raw_fbank_tr05_cont.4.ark:31677269
407o0312 /scratch/ravanelm/exp/dirha/fbank/raw_fbank_tr05_cont.4.ark:2099129
40co031b /scratch/ravanelm/exp/dirha/fbank/raw_fbank_tr05_cont.4.ark:16282959
01uo030s /scratch/ravanelm/exp/dirha/fbank/raw_fbank_tr05_cont.2.ark:15727369
20ro010e /scratch/ravanelm/exp/dirha/fbank/raw_fbank_tr05_cont.3.ark:36185179
401c0216 /scratch/ravanelm/exp/dirha/fbank/raw_fbank_tr05_cont.3.ark:40796409
404o030r /scratch/ravanelm/exp/dirha/fbank/raw_fbank_tr05_cont.3.ark:47618319
017o030c /scratch/ravanelm/exp/dirha/fbank/raw_fbank_tr05_cont.1.ark:16421419
01rc020n /scratch/ravanelm/exp/dirha/fbank/raw_fbank_tr05_cont.2.ark:7366209
021c020n /scratch/ravanelm/exp/dirha/fbank/raw_fbank_tr05_cont.2.ark:28682399
01yo0308 /scratch/ravanelm/exp/dirha/fbank/raw_fbank_tr05_cont.2.ark:21154249
01gc020u /scratch/ravanelm/exp/dirha/fbank/raw_fbank_tr05_cont.1.ark:37210119
40bo030m /scratch/ravanelm/exp/dirha/fbank/raw_fbank_tr05_cont.4.ark:13097569
40go0305 /scratch/ravanelm/exp/dirha/fbank/raw_fbank_tr05_cont.4.ark:27206779
40ko0316 /scratch/ravanelm/exp/dirha/fbank/raw_fbank_tr05_cont.4.ark:41072539
01go0316 /scratch/ravanelm/exp/dirha/fbank/raw_fbank_tr05_cont.1.ark:39238779
01qo030t /scratch/ravanelm/exp/dirha/fbank/raw_fbank_tr05_cont.2.ark:6028509
01ic020v /scratch/ravanelm/exp/dirha/fbank/raw_fbank_tr05_cont.1.ark:40584409
01io0304 /scratch/ravanelm/exp/dirha/fbank/raw_fbank_tr05_cont.1.ark:41250889
01wc020r /scratch/ravanelm/exp/dirha/fbank/raw_fbank_tr05_cont.2.ark:17413399
024o030t /scratch/ravanelm/exp/dirha/fbank/raw_fbank_tr05_cont.2.ark:33138459
01ro030o /scratch/ravanelm/exp/dirha/fbank/raw_fbank_tr05_cont.2.ark:8893159
024o0313 /scratch/ravanelm/exp/dirha/fbank/raw_fbank_tr05_cont.2.ark:33489879
40go0301 /scratch/ravanelm/exp/dirha/fbank/raw_fbank_tr05_cont.4.ark:26992099
40fc020o /scratch/ravanelm/exp/dirha/fbank/raw_fbank_tr05_cont.4.ark:22650859
20go010p /scratch/ravanelm/exp/dirha/fbank/raw_fbank_tr05_cont.3.ark:21983329
02co030c /scratch/ravanelm/exp/dirha/fbank/raw_fbank_tr05_cont.2.ark:50867029
015c0208 /scratch/ravanelm/exp/dirha/fbank/raw_fbank_tr05_cont.1.ark:9664969
01ro0312 /scratch/ravanelm/exp/dirha/fbank/raw_fbank_tr05_cont.2.ark:9327939
029o031a /scratch/ravanelm/exp/dirha/fbank/raw_fbank_tr05_cont.2.ark:45853419
01ec020q /scratch/ravanelm/exp/dirha/fbank/raw_fbank_tr05_cont.1.ark:31089179
01tc0205 /scratch/ravanelm/exp/dirha/fbank/raw_fbank_tr05_cont.2.ark:9754179
01kc020g /scratch/ravanelm/exp/dirha/fbank/raw_fbank_tr05_cont.1.ark:47012979
021o0314 /scratch/ravanelm/exp/dirha/fbank/raw_fbank_tr05_cont.2.ark:30560879
40cc0218 /scratch/ravanelm/exp/dirha/fbank/raw_fbank_tr05_cont.4.ark:14954809
019c0217 /scratch/ravanelm/exp/dirha/fbank/raw_fbank_tr05_cont.1.ark:22147769
01qc020b /scratch/ravanelm/exp/dirha/fbank/raw_fbank_tr05_cont.2.ark:3990549
40ac0213 /scratch/ravanelm/exp/dirha/fbank/raw_fbank_tr05_cont.4.ark:9006249
01to0306 /scratch/ravanelm/exp/dirha/fbank/raw_fbank_tr05_cont.2.ark:11438899
028o030x /scratch/ravanelm/exp/dirha/fbank/raw_fbank_tr05_cont.2.ark:42273959
01lc020t /scratch/ravanelm/exp/dirha/fbank/raw_fbank_tr05_cont.1.ark:51156799
01zc0218 /scratch/ravanelm/exp/dirha/fbank/raw_fbank_tr05_cont.2.ark:23867609
013o0308 /scratch/ravanelm/exp/dirha/fbank/raw_fbank_tr05_cont.1.ark:5166299
405o0319 /scratch/ravanelm/exp/dirha/fbank/raw_fbank_tr05_cont.3.ark:50750659
01ic0218 /scratch/ravanelm/exp/dirha/fbank/raw_fbank_tr05_cont.1.ark:40890759
40pc0212 /scratch/ravanelm/exp/dirha/fbank/raw_fbank_tr05_cont.4.ark:52275529
40mo030f /scratch/ravanelm/exp/dirha/fbank/raw_fbank_tr05_cont.4.ark:46897579
01yo030v /scratch/ravanelm/exp/dirha/fbank/raw_fbank_tr05_cont.2.ark:21952299
026c020t /scratch/ravanelm/exp/dirha/fbank/raw_fbank_tr05_cont.2.ark:34538429
01gc020w /scratch/ravanelm/exp/dirha/fbank/raw_fbank_tr05_cont.1.ark:37256859
40mc020r /scratch/ravanelm/exp/dirha/fbank/raw_fbank_tr05_cont.4.ark:45693019
403o030r /scratch/ravanelm/exp/dirha/fbank/raw_fbank_tr05_cont.3.ark:44884059
01uo030o /scratch/ravanelm/exp/dirha/fbank/raw_fbank_tr05_cont.2.ark:15567969
209c010i /scratch/ravanelm/exp/dirha/fbank/raw_fbank_tr05_cont.3.ark:9683859
01jo030j /scratch/ravanelm/exp/dirha/fbank/raw_fbank_tr05_cont.1.ark:45296589
013c021a /scratch/ravanelm/exp/dirha/fbank/raw_fbank_tr05_cont.1.ark:4840989
40jo0314 /scratch/ravanelm/exp/dirha/fbank/raw_fbank_tr05_cont.4.ark:37846349
01lc0219 /scratch/ravanelm/exp/dirha/fbank/raw_fbank_tr05_cont.1.ark:51657159
011c020y /scratch/ravanelm/exp/dirha/fbank/raw_fbank_tr05_cont.1.ark:935999
01rc020m /scratch/ravanelm/exp/dirha/fbank/raw_fbank_tr05_cont.2.ark:7339659
01pc020k /scratch/ravanelm/exp/dirha/fbank/raw_fbank_tr05_cont.2.ark:963209
20nc010g /scratch/ravanelm/exp/dirha/fbank/raw_fbank_tr05_cont.3.ark:28924239
40ec020p /scratch/ravanelm/exp/dirha/fbank/raw_fbank_tr05_cont.4.ark:19948369
403c020c /scratch/ravanelm/exp/dirha/fbank/raw_fbank_tr05_cont.3.ark:43082959
20vc0104 /scratch/ravanelm/exp/dirha/fbank/raw_fbank_tr05_cont.3.ark:38164179
40co030l /scratch/ravanelm/exp/dirha/fbank/raw_fbank_tr05_cont.4.ark:15680699
40co0308 /scratch/ravanelm/exp/dirha/fbank/raw_fbank_tr05_cont.4.ark:15311749
028o0319 /scratch/ravanelm/exp/dirha/fbank/raw_fbank_tr05_cont.2.ark:42675879
401o0304 /scratch/ravanelm/exp/dirha/fbank/raw_fbank_tr05_cont.3.ark:41182279
01tc0217 /scratch/ravanelm/exp/dirha/fbank/raw_fbank_tr05_cont.2.ark:11059839
403c020e /scratch/ravanelm/exp/dirha/fbank/raw_fbank_tr05_cont.3.ark:43127939
40dc0216 /scratch/ravanelm/exp/dirha/fbank/raw_fbank_tr05_cont.4.ark:17695369
028c0210 /scratch/ravanelm/exp/dirha/fbank/raw_fbank_tr05_cont.2.ark:40638239
016o030c /scratch/ravanelm/exp/dirha/fbank/raw_fbank_tr05_cont.1.ark:13711719
208o010g /scratch/ravanelm/exp/dirha/fbank/raw_fbank_tr05_cont.3.ark:8860509
40cc020h /scratch/ravanelm/exp/dirha/fbank/raw_fbank_tr05_cont.4.ark:14368359
01fo0318 /scratch/ravanelm/exp/dirha/fbank/raw_fbank_tr05_cont.1.ark:36223419
014o031c /scratch/ravanelm/exp/dirha/fbank/raw_fbank_tr05_cont.1.ark:9374219
01lo030n /scratch/ravanelm/exp/dirha/fbank/raw_fbank_tr05_cont.1.ark:52893509
011c020e /scratch/ravanelm/exp/dirha/fbank/raw_fbank_tr05_cont.1.ark:351919
408o0303 /scratch/ravanelm/exp/dirha/fbank/raw_fbank_tr05_cont.4.ark:3625979
20lo010e /scratch/ravanelm/exp/dirha/fbank/raw_fbank_tr05_cont.3.ark:26438209
01io030s /scratch/ravanelm/exp/dirha/fbank/raw_fbank_tr05_cont.1.ark:42201569
40lo030s /scratch/ravanelm/exp/dirha/fbank/raw_fbank_tr05_cont.4.ark:44014649
407c0210 /scratch/ravanelm/exp/dirha/fbank/raw_fbank_tr05_cont.4.ark:82609
20lo010l /scratch/ravanelm/exp/dirha/fbank/raw_fbank_tr05_cont.3.ark:26772659
40fc0215 /scratch/ravanelm/exp/dirha/fbank/raw_fbank_tr05_cont.4.ark:23172369
01jo030r /scratch/ravanelm/exp/dirha/fbank/raw_fbank_tr05_cont.1.ark:45554989
40do030i /scratch/ravanelm/exp/dirha/fbank/raw_fbank_tr05_cont.4.ark:18451089
016c021c /scratch/ravanelm/exp/dirha/fbank/raw_fbank_tr05_cont.1.ark:13358959
01lc020i /scratch/ravanelm/exp/dirha/fbank/raw_fbank_tr05_cont.1.ark:50862509
01uo0314 /scratch/ravanelm/exp/dirha/fbank/raw_fbank_tr05_cont.2.ark:16279889
011c020k /scratch/ravanelm/exp/dirha/fbank/raw_fbank_tr05_cont.1.ark:492819
02eo030l /scratch/ravanelm/exp/dirha/fbank/raw_fbank_tr05_cont.2.ark:54576419
02eo030o /scratch/ravanelm/exp/dirha/fbank/raw_fbank_tr05_cont.3.ark:82229
40mo030x /scratch/ravanelm/exp/dirha/fbank/raw_fbank_tr05_cont.4.ark:47538199
017c020s /scratch/ravanelm/exp/dirha/fbank/raw_fbank_tr05_cont.1.ark:15435859
020c0215 /scratch/ravanelm/exp/dirha/fbank/raw_fbank_tr05_cont.2.ark:26897009
01tc0213 /scratch/ravanelm/exp/dirha/fbank/raw_fbank_tr05_cont.2.ark:10945439
01do0303 /scratch/ravanelm/exp/dirha/fbank/raw_fbank_tr05_cont.1.ark:28861459
40jc020c /scratch/ravanelm/exp/dirha/fbank/raw_fbank_tr05_cont.4.ark:35389009
01jc020c /scratch/ravanelm/exp/dirha/fbank/raw_fbank_tr05_cont.1.ark:43361899
20oc0109 /scratch/ravanelm/exp/dirha/fbank/raw_fbank_tr05_cont.3.ark:30561349
01lo030r /scratch/ravanelm/exp/dirha/fbank/raw_fbank_tr05_cont.1.ark:52997349
029o0310 /scratch/ravanelm/exp/dirha/fbank/raw_fbank_tr05_cont.2.ark:45495719
40nc0205 /scratch/ravanelm/exp/dirha/fbank/raw_fbank_tr05_cont.4.ark:48164949
20oc0103 /scratch/ravanelm/exp/dirha/fbank/raw_fbank_tr05_cont.3.ark:30375249
206o010f /scratch/ravanelm/exp/dirha/fbank/raw_fbank_tr05_cont.3.ark:5338129
01po030u /scratch/ravanelm/exp/dirha/fbank/raw_fbank_tr05_cont.2.ark:2962999
027c021g /scratch/ravanelm/exp/dirha/fbank/raw_fbank_tr05_cont.2.ark:38009039
20fc010i /scratch/ravanelm/exp/dirha/fbank/raw_fbank_tr05_cont.3.ark:19724739
40dc020b /scratch/ravanelm/exp/dirha/fbank/raw_fbank_tr05_cont.4.ark:16728839
20ho0107 /scratch/ravanelm/exp/dirha/fbank/raw_fbank_tr05_cont.3.ark:22820249
409c021e /scratch/ravanelm/exp/dirha/fbank/raw_fbank_tr05_cont.4.ark:6249149
01po0304 /scratch/ravanelm/exp/dirha/fbank/raw_fbank_tr05_cont.2.ark:2045849
40ic0203 /scratch/ravanelm/exp/dirha/fbank/raw_fbank_tr05_cont.4.ark:32095659
01bc0205 /scratch/ravanelm/exp/dirha/fbank/raw_fbank_tr05_cont.1.ark:23900489
017c020v /scratch/ravanelm/exp/dirha/fbank/raw_fbank_tr05_cont.1.ark:15509149
01uo030z /scratch/ravanelm/exp/dirha/fbank/raw_fbank_tr05_cont.2.ark:16042379
40ao0315 /scratch/ravanelm/exp/dirha/fbank/raw_fbank_tr05_cont.4.ark:10607249
027o0309 /scratch/ravanelm/exp/dirha/fbank/raw_fbank_tr05_cont.2.ark:38342339
40lc020o /scratch/ravanelm/exp/dirha/fbank/raw_fbank_tr05_cont.4.ark:42028319
40ho031c /scratch/ravanelm/exp/dirha/fbank/raw_fbank_tr05_cont.4.ark:31985139
40hc0213 /scratch/ravanelm/exp/dirha/fbank/raw_fbank_tr05_cont.4.ark:30089659
02ec020c /scratch/ravanelm/exp/dirha/fbank/raw_fbank_tr05_cont.2.ark:52605529
20gc010i /scratch/ravanelm/exp/dirha/fbank/raw_fbank_tr05_cont.3.ark:21145949
029o030m /scratch/ravanelm/exp/dirha/fbank/raw_fbank_tr05_cont.2.ark:44983779
20oo010e /scratch/ravanelm/exp/dirha/fbank/raw_fbank_tr05_cont.3.ark:31320939
40fo0313 /scratch/ravanelm/exp/dirha/fbank/raw_fbank_tr05_cont.4.ark:24675669
204c0101 /scratch/ravanelm/exp/dirha/fbank/raw_fbank_tr05_cont.3.ark:1067879
019o0304 /scratch/ravanelm/exp/dirha/fbank/raw_fbank_tr05_cont.1.ark:22482829
01uo0310 /scratch/ravanelm/exp/dirha/fbank/raw_fbank_tr05_cont.2.ark:16081249
401c020m /scratch/ravanelm/exp/dirha/fbank/raw_fbank_tr05_cont.3.ark:40232969
403c0202 /scratch/ravanelm/exp/dirha/fbank/raw_fbank_tr05_cont.3.ark:42916859
205o010c /scratch/ravanelm/exp/dirha/fbank/raw_fbank_tr05_cont.3.ark:3526009
20qc010e /scratch/ravanelm/exp/dirha/fbank/raw_fbank_tr05_cont.3.ark:33689039
20hc0106 /scratch/ravanelm/exp/dirha/fbank/raw_fbank_tr05_cont.3.ark:22188399
401o0303 /scratch/ravanelm/exp/dirha/fbank/raw_fbank_tr05_cont.3.ark:41150129
406c020w /scratch/ravanelm/exp/dirha/fbank/raw_fbank_tr05_cont.3.ark:51698969
01uc0215 /scratch/ravanelm/exp/dirha/fbank/raw_fbank_tr05_cont.2.ark:14411429
017o030f /scratch/ravanelm/exp/dirha/fbank/raw_fbank_tr05_cont.1.ark:16495389
407o031a /scratch/ravanelm/exp/dirha/fbank/raw_fbank_tr05_cont.4.ark:2375889
01tc020j /scratch/ravanelm/exp/dirha/fbank/raw_fbank_tr05_cont.2.ark:10234319
20vc0103 /scratch/ravanelm/exp/dirha/fbank/raw_fbank_tr05_cont.3.ark:38141269
01uc020p /scratch/ravanelm/exp/dirha/fbank/raw_fbank_tr05_cont.2.ark:13894349
40co030o /scratch/ravanelm/exp/dirha/fbank/raw_fbank_tr05_cont.4.ark:15762029
01tc020p /scratch/ravanelm/exp/dirha/fbank/raw_fbank_tr05_cont.2.ark:10439739
018c0204 /scratch/ravanelm/exp/dirha/fbank/raw_fbank_tr05_cont.1.ark:17731479
020c0216 /scratch/ravanelm/exp/dirha/fbank/raw_fbank_tr05_cont.2.ark:26908639
