40hc020z /scratch/ravanelm/exp/dirha/fbank/raw_fbank_tr05_cont.4.ark:29989859
02ec0204 /scratch/ravanelm/exp/dirha/fbank/raw_fbank_tr05_cont.2.ark:52344369
40kc020w /scratch/ravanelm/exp/dirha/fbank/raw_fbank_tr05_cont.4.ark:39137239
40ko030y /scratch/ravanelm/exp/dirha/fbank/raw_fbank_tr05_cont.4.ark:40777019
40mo0303 /scratch/ravanelm/exp/dirha/fbank/raw_fbank_tr05_cont.4.ark:46470659
01fo031c /scratch/ravanelm/exp/dirha/fbank/raw_fbank_tr05_cont.1.ark:36343739
40jo0317 /scratch/ravanelm/exp/dirha/fbank/raw_fbank_tr05_cont.4.ark:37951799
020o030t /scratch/ravanelm/exp/dirha/fbank/raw_fbank_tr05_cont.2.ark:27557129
40bo0308 /scratch/ravanelm/exp/dirha/fbank/raw_fbank_tr05_cont.4.ark:12609029
40cc0219 /scratch/ravanelm/exp/dirha/fbank/raw_fbank_tr05_cont.4.ark:14968079
40mo030e /scratch/ravanelm/exp/dirha/fbank/raw_fbank_tr05_cont.4.ark:46870589
01mc020j /scratch/ravanelm/exp/dirha/fbank/raw_fbank_tr05_cont.1.ark:54516299
01ec020r /scratch/ravanelm/exp/dirha/fbank/raw_fbank_tr05_cont.1.ark:31128689
40ao030y /scratch/ravanelm/exp/dirha/fbank/raw_fbank_tr05_cont.4.ark:10356439
40fo030q /scratch/ravanelm/exp/dirha/fbank/raw_fbank_tr05_cont.4.ark:24274199
40do0302 /scratch/ravanelm/exp/dirha/fbank/raw_fbank_tr05_cont.4.ark:18022969
406c020c /scratch/ravanelm/exp/dirha/fbank/raw_fbank_tr05_cont.3.ark:51258119
20rc0108 /scratch/ravanelm/exp/dirha/fbank/raw_fbank_tr05_cont.3.ark:35223669
01wc0216 /scratch/ravanelm/exp/dirha/fbank/raw_fbank_tr05_cont.2.ark:17764569
40jc020d /scratch/ravanelm/exp/dirha/fbank/raw_fbank_tr05_cont.4.ark:35427559
20go010f /scratch/ravanelm/exp/dirha/fbank/raw_fbank_tr05_cont.3.ark:21720949
20eo010g /scratch/ravanelm/exp/dirha/fbank/raw_fbank_tr05_cont.3.ark:18864139
401c0210 /scratch/ravanelm/exp/dirha/fbank/raw_fbank_tr05_cont.3.ark:40606109
01fo030k /scratch/ravanelm/exp/dirha/fbank/raw_fbank_tr05_cont.1.ark:35465019
01go030m /scratch/ravanelm/exp/dirha/fbank/raw_fbank_tr05_cont.1.ark:38544659
408c020f /scratch/ravanelm/exp/dirha/fbank/raw_fbank_tr05_cont.4.ark:2744139
40io030b /scratch/ravanelm/exp/dirha/fbank/raw_fbank_tr05_cont.4.ark:33832149
20hc0108 /scratch/ravanelm/exp/dirha/fbank/raw_fbank_tr05_cont.3.ark:22234139
20qo010a /scratch/ravanelm/exp/dirha/fbank/raw_fbank_tr05_cont.3.ark:34395909
20ro0102 /scratch/ravanelm/exp/dirha/fbank/raw_fbank_tr05_cont.3.ark:35691859
01wc0202 /scratch/ravanelm/exp/dirha/fbank/raw_fbank_tr05_cont.2.ark:16668409
01qc020g /scratch/ravanelm/exp/dirha/fbank/raw_fbank_tr05_cont.2.ark:4157419
40ec020r /scratch/ravanelm/exp/dirha/fbank/raw_fbank_tr05_cont.4.ark:19973549
01bc020q /scratch/ravanelm/exp/dirha/fbank/raw_fbank_tr05_cont.1.ark:24642809
40ec0218 /scratch/ravanelm/exp/dirha/fbank/raw_fbank_tr05_cont.4.ark:20380579
01do030m /scratch/ravanelm/exp/dirha/fbank/raw_fbank_tr05_cont.1.ark:29457999
014c020c /scratch/ravanelm/exp/dirha/fbank/raw_fbank_tr05_cont.1.ark:6803509
205o010l /scratch/ravanelm/exp/dirha/fbank/raw_fbank_tr05_cont.3.ark:3946279
01rc0208 /scratch/ravanelm/exp/dirha/fbank/raw_fbank_tr05_cont.2.ark:6932519
01po030m /scratch/ravanelm/exp/dirha/fbank/raw_fbank_tr05_cont.2.ark:2636879
40mc0213 /scratch/ravanelm/exp/dirha/fbank/raw_fbank_tr05_cont.4.ark:45985339
019c0207 /scratch/ravanelm/exp/dirha/fbank/raw_fbank_tr05_cont.1.ark:21240529
016c020c /scratch/ravanelm/exp/dirha/fbank/raw_fbank_tr05_cont.1.ark:12583009
40jc020n /scratch/ravanelm/exp/dirha/fbank/raw_fbank_tr05_cont.4.ark:35698299
01jc021c /scratch/ravanelm/exp/dirha/fbank/raw_fbank_tr05_cont.1.ark:44430899
01eo030i /scratch/ravanelm/exp/dirha/fbank/raw_fbank_tr05_cont.1.ark:32317359
401o030j /scratch/ravanelm/exp/dirha/fbank/raw_fbank_tr05_cont.3.ark:41735929
40io030c /scratch/ravanelm/exp/dirha/fbank/raw_fbank_tr05_cont.4.ark:33865019
01ro030f /scratch/ravanelm/exp/dirha/fbank/raw_fbank_tr05_cont.2.ark:8547409
013c020n /scratch/ravanelm/exp/dirha/fbank/raw_fbank_tr05_cont.1.ark:4239979
017c020u /scratch/ravanelm/exp/dirha/fbank/raw_fbank_tr05_cont.1.ark:15487159
207c0104 /scratch/ravanelm/exp/dirha/fbank/raw_fbank_tr05_cont.3.ark:6022159
40gc020v /scratch/ravanelm/exp/dirha/fbank/raw_fbank_tr05_cont.4.ark:26168669
028o0306 /scratch/ravanelm/exp/dirha/fbank/raw_fbank_tr05_cont.2.ark:41279029
01bo030l /scratch/ravanelm/exp/dirha/fbank/raw_fbank_tr05_cont.1.ark:26312669
20po010f /scratch/ravanelm/exp/dirha/fbank/raw_fbank_tr05_cont.3.ark:32820129
01eo0308 /scratch/ravanelm/exp/dirha/fbank/raw_fbank_tr05_cont.1.ark:32054779
205c010l /scratch/ravanelm/exp/dirha/fbank/raw_fbank_tr05_cont.3.ark:2988809
02bc020b /scratch/ravanelm/exp/dirha/fbank/raw_fbank_tr05_cont.2.ark:46285099
40hc020l /scratch/ravanelm/exp/dirha/fbank/raw_fbank_tr05_cont.4.ark:29641719
20ro010c /scratch/ravanelm/exp/dirha/fbank/raw_fbank_tr05_cont.3.ark:36083759
01wc0210 /scratch/ravanelm/exp/dirha/fbank/raw_fbank_tr05_cont.2.ark:17628269
20to0106 /scratch/ravanelm/exp/dirha/fbank/raw_fbank_tr05_cont.3.ark:37526369
407c020t /scratch/ravanelm/exp/dirha/fbank/raw_fbank_tr05_cont.3.ark:54525799
20io0109 /scratch/ravanelm/exp/dirha/fbank/raw_fbank_tr05_cont.3.ark:24332579
40ko0309 /scratch/ravanelm/exp/dirha/fbank/raw_fbank_tr05_cont.4.ark:39897749
02bo030n /scratch/ravanelm/exp/dirha/fbank/raw_fbank_tr05_cont.2.ark:48200829
40do0301 /scratch/ravanelm/exp/dirha/fbank/raw_fbank_tr05_cont.4.ark:17985779
01fc021b /scratch/ravanelm/exp/dirha/fbank/raw_fbank_tr05_cont.1.ark:34632109
405c020u /scratch/ravanelm/exp/dirha/fbank/raw_fbank_tr05_cont.3.ark:48971959
20ao010q /scratch/ravanelm/exp/dirha/fbank/raw_fbank_tr05_cont.3.ark:12441069
01mc020b /scratch/ravanelm/exp/dirha/fbank/raw_fbank_tr05_cont.1.ark:54303419
20bc010k /scratch/ravanelm/exp/dirha/fbank/raw_fbank_tr05_cont.3.ark:12978549
01to030x /scratch/ravanelm/exp/dirha/fbank/raw_fbank_tr05_cont.2.ark:12428709
403o030q /scratch/ravanelm/exp/dirha/fbank/raw_fbank_tr05_cont.3.ark:44855069
02co030f /scratch/ravanelm/exp/dirha/fbank/raw_fbank_tr05_cont.2.ark:50956119
404c0210 /scratch/ravanelm/exp/dirha/fbank/raw_fbank_tr05_cont.3.ark:46422099
209o010h /scratch/ravanelm/exp/dirha/fbank/raw_fbank_tr05_cont.3.ark:10422449
40jc0218 /scratch/ravanelm/exp/dirha/fbank/raw_fbank_tr05_cont.4.ark:36286889
01fo030o /scratch/ravanelm/exp/dirha/fbank/raw_fbank_tr05_cont.1.ark:35584459
40kc0219 /scratch/ravanelm/exp/dirha/fbank/raw_fbank_tr05_cont.4.ark:39469549
405o0318 /scratch/ravanelm/exp/dirha/fbank/raw_fbank_tr05_cont.3.ark:50722429
019c020z /scratch/ravanelm/exp/dirha/fbank/raw_fbank_tr05_cont.1.ark:21874489
019c020y /scratch/ravanelm/exp/dirha/fbank/raw_fbank_tr05_cont.1.ark:21861539
01qo0314 /scratch/ravanelm/exp/dirha/fbank/raw_fbank_tr05_cont.2.ark:6351999
017c020m /scratch/ravanelm/exp/dirha/fbank/raw_fbank_tr05_cont.1.ark:15323559
20do010e /scratch/ravanelm/exp/dirha/fbank/raw_fbank_tr05_cont.3.ark:17004149
40kc0204 /scratch/ravanelm/exp/dirha/fbank/raw_fbank_tr05_cont.4.ark:38343279
401o030e /scratch/ravanelm/exp/dirha/fbank/raw_fbank_tr05_cont.3.ark:41525859
024o0315 /scratch/ravanelm/exp/dirha/fbank/raw_fbank_tr05_cont.2.ark:33529939
20oo010b /scratch/ravanelm/exp/dirha/fbank/raw_fbank_tr05_cont.3.ark:31217969
026o030y /scratch/ravanelm/exp/dirha/fbank/raw_fbank_tr05_cont.2.ark:36162219
01dc021d /scratch/ravanelm/exp/dirha/fbank/raw_fbank_tr05_cont.1.ark:28717029
01to030w /scratch/ravanelm/exp/dirha/fbank/raw_fbank_tr05_cont.2.ark:12413679
02eo0313 /scratch/ravanelm/exp/dirha/fbank/raw_fbank_tr05_cont.3.ark:569809
013o0318 /scratch/ravanelm/exp/dirha/fbank/raw_fbank_tr05_cont.1.ark:6303219
20qc0109 /scratch/ravanelm/exp/dirha/fbank/raw_fbank_tr05_cont.3.ark:33529049
40hc020n /scratch/ravanelm/exp/dirha/fbank/raw_fbank_tr05_cont.4.ark:29681259
01gc0213 /scratch/ravanelm/exp/dirha/fbank/raw_fbank_tr05_cont.1.ark:37463749
20ic0105 /scratch/ravanelm/exp/dirha/fbank/raw_fbank_tr05_cont.3.ark:23498059
408c020d /scratch/ravanelm/exp/dirha/fbank/raw_fbank_tr05_cont.4.ark:2679119
20io0104 /scratch/ravanelm/exp/dirha/fbank/raw_fbank_tr05_cont.3.ark:24151149
40pc0213 /scratch/ravanelm/exp/dirha/fbank/raw_fbank_tr05_cont.4.ark:52301319
40eo030k /scratch/ravanelm/exp/dirha/fbank/raw_fbank_tr05_cont.4.ark:21251969
027c020v /scratch/ravanelm/exp/dirha/fbank/raw_fbank_tr05_cont.2.ark:37389209
01qo030l /scratch/ravanelm/exp/dirha/fbank/raw_fbank_tr05_cont.2.ark:5756629
01mc020e /scratch/ravanelm/exp/dirha/fbank/raw_fbank_tr05_cont.1.ark:54370549
40nc020v /scratch/ravanelm/exp/dirha/fbank/raw_fbank_tr05_cont.4.ark:48947929
40ko030p /scratch/ravanelm/exp/dirha/fbank/raw_fbank_tr05_cont.4.ark:40473389
405o030z /scratch/ravanelm/exp/dirha/fbank/raw_fbank_tr05_cont.3.ark:50438279
40gc020f /scratch/ravanelm/exp/dirha/fbank/raw_fbank_tr05_cont.4.ark:25669949
20go0108 /scratch/ravanelm/exp/dirha/fbank/raw_fbank_tr05_cont.3.ark:21489859
01jc0212 /scratch/ravanelm/exp/dirha/fbank/raw_fbank_tr05_cont.1.ark:44115359
014c021c /scratch/ravanelm/exp/dirha/fbank/raw_fbank_tr05_cont.1.ark:7615029
01zc020q /scratch/ravanelm/exp/dirha/fbank/raw_fbank_tr05_cont.2.ark:23311269
01gc020c /scratch/ravanelm/exp/dirha/fbank/raw_fbank_tr05_cont.1.ark:36705659
401o030b /scratch/ravanelm/exp/dirha/fbank/raw_fbank_tr05_cont.3.ark:41425609
20ec0105 /scratch/ravanelm/exp/dirha/fbank/raw_fbank_tr05_cont.3.ark:17679169
40bc020k /scratch/ravanelm/exp/dirha/fbank/raw_fbank_tr05_cont.4.ark:11435709
017o0301 /scratch/ravanelm/exp/dirha/fbank/raw_fbank_tr05_cont.1.ark:16047809
205o0109 /scratch/ravanelm/exp/dirha/fbank/raw_fbank_tr05_cont.3.ark:3423919
20do010f /scratch/ravanelm/exp/dirha/fbank/raw_fbank_tr05_cont.3.ark:17030499
01qc0205 /scratch/ravanelm/exp/dirha/fbank/raw_fbank_tr05_cont.2.ark:3764609
028o0303 /scratch/ravanelm/exp/dirha/fbank/raw_fbank_tr05_cont.2.ark:41153019
02co030j /scratch/ravanelm/exp/dirha/fbank/raw_fbank_tr05_cont.2.ark:51070479
20ac010b /scratch/ravanelm/exp/dirha/fbank/raw_fbank_tr05_cont.3.ark:11018219
409c0207 /scratch/ravanelm/exp/dirha/fbank/raw_fbank_tr05_cont.4.ark:5042099
01tc020w /scratch/ravanelm/exp/dirha/fbank/raw_fbank_tr05_cont.2.ark:10716709
01ro030p /scratch/ravanelm/exp/dirha/fbank/raw_fbank_tr05_cont.2.ark:8925749
018c020p /scratch/ravanelm/exp/dirha/fbank/raw_fbank_tr05_cont.1.ark:18312909
01jc0203 /scratch/ravanelm/exp/dirha/fbank/raw_fbank_tr05_cont.1.ark:43093389
40fo030a /scratch/ravanelm/exp/dirha/fbank/raw_fbank_tr05_cont.4.ark:23775879
20nc0101 /scratch/ravanelm/exp/dirha/fbank/raw_fbank_tr05_cont.3.ark:28460349
016o031b /scratch/ravanelm/exp/dirha/fbank/raw_fbank_tr05_cont.1.ark:14632219
408o030k /scratch/ravanelm/exp/dirha/fbank/raw_fbank_tr05_cont.4.ark:4155729
406o0316 /scratch/ravanelm/exp/dirha/fbank/raw_fbank_tr05_cont.3.ark:53518559
01zo030s /scratch/ravanelm/exp/dirha/fbank/raw_fbank_tr05_cont.2.ark:25171619
40mo030p /scratch/ravanelm/exp/dirha/fbank/raw_fbank_tr05_cont.4.ark:47249759
40fc0210 /scratch/ravanelm/exp/dirha/fbank/raw_fbank_tr05_cont.4.ark:23018939
015c020h /scratch/ravanelm/exp/dirha/fbank/raw_fbank_tr05_cont.1.ark:9908039
40io0316 /scratch/ravanelm/exp/dirha/fbank/raw_fbank_tr05_cont.4.ark:34905279
013o030o /scratch/ravanelm/exp/dirha/fbank/raw_fbank_tr05_cont.1.ark:5680699
017c021a /scratch/ravanelm/exp/dirha/fbank/raw_fbank_tr05_cont.1.ark:15881079
011o030x /scratch/ravanelm/exp/dirha/fbank/raw_fbank_tr05_cont.1.ark:2648949
20ao010h /scratch/ravanelm/exp/dirha/fbank/raw_fbank_tr05_cont.3.ark:12065199
02bo0306 /scratch/ravanelm/exp/dirha/fbank/raw_fbank_tr05_cont.2.ark:47611919
207o010g /scratch/ravanelm/exp/dirha/fbank/raw_fbank_tr05_cont.3.ark:7143579
403o030d /scratch/ravanelm/exp/dirha/fbank/raw_fbank_tr05_cont.3.ark:44506079
029c020i /scratch/ravanelm/exp/dirha/fbank/raw_fbank_tr05_cont.2.ark:43329019
028o031a /scratch/ravanelm/exp/dirha/fbank/raw_fbank_tr05_cont.2.ark:42712109
01go030f /scratch/ravanelm/exp/dirha/fbank/raw_fbank_tr05_cont.1.ark:38307169
01lc021a /scratch/ravanelm/exp/dirha/fbank/raw_fbank_tr05_cont.1.ark:51693309
01ko030a /scratch/ravanelm/exp/dirha/fbank/raw_fbank_tr05_cont.1.ark:48461029
01mo0301 /scratch/ravanelm/exp/dirha/fbank/raw_fbank_tr05_cont.1.ark:55392569
01bo0317 /scratch/ravanelm/exp/dirha/fbank/raw_fbank_tr05_cont.1.ark:27104779
01yc020u /scratch/ravanelm/exp/dirha/fbank/raw_fbank_tr05_cont.2.ark:20332149
02ec0219 /scratch/ravanelm/exp/dirha/fbank/raw_fbank_tr05_cont.2.ark:53639119
40fc020b /scratch/ravanelm/exp/dirha/fbank/raw_fbank_tr05_cont.4.ark:22280389
021c0218 /scratch/ravanelm/exp/dirha/fbank/raw_fbank_tr05_cont.2.ark:29223149
20ao010f /scratch/ravanelm/exp/dirha/fbank/raw_fbank_tr05_cont.3.ark:11989139
01gc0214 /scratch/ravanelm/exp/dirha/fbank/raw_fbank_tr05_cont.1.ark:37481019
019c020p /scratch/ravanelm/exp/dirha/fbank/raw_fbank_tr05_cont.1.ark:21645149
20bc0103 /scratch/ravanelm/exp/dirha/fbank/raw_fbank_tr05_cont.3.ark:12549639
40mo0304 /scratch/ravanelm/exp/dirha/fbank/raw_fbank_tr05_cont.4.ark:46500689
40ao0319 /scratch/ravanelm/exp/dirha/fbank/raw_fbank_tr05_cont.4.ark:10734129
20lc010k /scratch/ravanelm/exp/dirha/fbank/raw_fbank_tr05_cont.3.ark:25579369
029o030t /scratch/ravanelm/exp/dirha/fbank/raw_fbank_tr05_cont.2.ark:45252349
013c020c /scratch/ravanelm/exp/dirha/fbank/raw_fbank_tr05_cont.1.ark:3884729
407c020x /scratch/ravanelm/exp/dirha/fbank/raw_fbank_tr05_cont.4.ark:10759
405o030w /scratch/ravanelm/exp/dirha/fbank/raw_fbank_tr05_cont.3.ark:50378469
01uc020y /scratch/ravanelm/exp/dirha/fbank/raw_fbank_tr05_cont.2.ark:14142059
01pc0207 /scratch/ravanelm/exp/dirha/fbank/raw_fbank_tr05_cont.2.ark:585459
015o0307 /scratch/ravanelm/exp/dirha/fbank/raw_fbank_tr05_cont.1.ark:10964879
20eo010k /scratch/ravanelm/exp/dirha/fbank/raw_fbank_tr05_cont.3.ark:19000499
021o0313 /scratch/ravanelm/exp/dirha/fbank/raw_fbank_tr05_cont.2.ark:30525969
011o030t /scratch/ravanelm/exp/dirha/fbank/raw_fbank_tr05_cont.1.ark:2472989
407c021b /scratch/ravanelm/exp/dirha/fbank/raw_fbank_tr05_cont.4.ark:430459
40eo030a /scratch/ravanelm/exp/dirha/fbank/raw_fbank_tr05_cont.4.ark:20913709
403o0309 /scratch/ravanelm/exp/dirha/fbank/raw_fbank_tr05_cont.3.ark:44360399
206c010i /scratch/ravanelm/exp/dirha/fbank/raw_fbank_tr05_cont.3.ark:4631079
019o0301 /scratch/ravanelm/exp/dirha/fbank/raw_fbank_tr05_cont.1.ark:22391619
40go0318 /scratch/ravanelm/exp/dirha/fbank/raw_fbank_tr05_cont.4.ark:28899669
01bo0319 /scratch/ravanelm/exp/dirha/fbank/raw_fbank_tr05_cont.1.ark:27184199
208o010r /scratch/ravanelm/exp/dirha/fbank/raw_fbank_tr05_cont.3.ark:9264919
40ac020r /scratch/ravanelm/exp/dirha/fbank/raw_fbank_tr05_cont.4.ark:8650009
20ec0102 /scratch/ravanelm/exp/dirha/fbank/raw_fbank_tr05_cont.3.ark:17590919
40bc0216 /scratch/ravanelm/exp/dirha/fbank/raw_fbank_tr05_cont.4.ark:12020889
40ac0212 /scratch/ravanelm/exp/dirha/fbank/raw_fbank_tr05_cont.4.ark:8981139
40bc020b /scratch/ravanelm/exp/dirha/fbank/raw_fbank_tr05_cont.4.ark:11197199
01lo030e /scratch/ravanelm/exp/dirha/fbank/raw_fbank_tr05_cont.1.ark:52507239
01go030j /scratch/ravanelm/exp/dirha/fbank/raw_fbank_tr05_cont.1.ark:38440769
024o030u /scratch/ravanelm/exp/dirha/fbank/raw_fbank_tr05_cont.2.ark:33178569
20cc010n /scratch/ravanelm/exp/dirha/fbank/raw_fbank_tr05_cont.3.ark:14865209
028c020l /scratch/ravanelm/exp/dirha/fbank/raw_fbank_tr05_cont.2.ark:40221709
20bo010d /scratch/ravanelm/exp/dirha/fbank/raw_fbank_tr05_cont.3.ark:13649379
019c0201 /scratch/ravanelm/exp/dirha/fbank/raw_fbank_tr05_cont.1.ark:21070909
407c0202 /scratch/ravanelm/exp/dirha/fbank/raw_fbank_tr05_cont.3.ark:53764029
20oc0106 /scratch/ravanelm/exp/dirha/fbank/raw_fbank_tr05_cont.3.ark:30467819
02cc020w /scratch/ravanelm/exp/dirha/fbank/raw_fbank_tr05_cont.2.ark:50020559
027c020i /scratch/ravanelm/exp/dirha/fbank/raw_fbank_tr05_cont.2.ark:37093899
01ko030o /scratch/ravanelm/exp/dirha/fbank/raw_fbank_tr05_cont.1.ark:49057369
01gc0216 /scratch/ravanelm/exp/dirha/fbank/raw_fbank_tr05_cont.1.ark:37534839
01fo0304 /scratch/ravanelm/exp/dirha/fbank/raw_fbank_tr05_cont.1.ark:34914539
01fo030x /scratch/ravanelm/exp/dirha/fbank/raw_fbank_tr05_cont.1.ark:35848729
407o030p /scratch/ravanelm/exp/dirha/fbank/raw_fbank_tr05_cont.4.ark:1597219
20ro010k /scratch/ravanelm/exp/dirha/fbank/raw_fbank_tr05_cont.3.ark:36420239
017o0302 /scratch/ravanelm/exp/dirha/fbank/raw_fbank_tr05_cont.1.ark:16087759
016c020p /scratch/ravanelm/exp/dirha/fbank/raw_fbank_tr05_cont.1.ark:12905319
40lo0313 /scratch/ravanelm/exp/dirha/fbank/raw_fbank_tr05_cont.4.ark:44542179
20fo0109 /scratch/ravanelm/exp/dirha/fbank/raw_fbank_tr05_cont.3.ark:20238529
026c021g /scratch/ravanelm/exp/dirha/fbank/raw_fbank_tr05_cont.2.ark:35132279
018o030x /scratch/ravanelm/exp/dirha/fbank/raw_fbank_tr05_cont.1.ark:20427269
020c020t /scratch/ravanelm/exp/dirha/fbank/raw_fbank_tr05_cont.2.ark:26669489
40kc021a /scratch/ravanelm/exp/dirha/fbank/raw_fbank_tr05_cont.4.ark:39500419
01yo030a /scratch/ravanelm/exp/dirha/fbank/raw_fbank_tr05_cont.2.ark:21229149
40bo0304 /scratch/ravanelm/exp/dirha/fbank/raw_fbank_tr05_cont.4.ark:12456629
403c020c /scratch/ravanelm/exp/dirha/fbank/raw_fbank_tr05_cont.3.ark:43082959
01qc0209 /scratch/ravanelm/exp/dirha/fbank/raw_fbank_tr05_cont.2.ark:3946209
207c010a /scratch/ravanelm/exp/dirha/fbank/raw_fbank_tr05_cont.3.ark:6167219
011o0316 /scratch/ravanelm/exp/dirha/fbank/raw_fbank_tr05_cont.1.ark:3088659
404c020p /scratch/ravanelm/exp/dirha/fbank/raw_fbank_tr05_cont.3.ark:46189409
20bc0104 /scratch/ravanelm/exp/dirha/fbank/raw_fbank_tr05_cont.3.ark:12560789
20dc010a /scratch/ravanelm/exp/dirha/fbank/raw_fbank_tr05_cont.3.ark:15996559
02eo0315 /scratch/ravanelm/exp/dirha/fbank/raw_fbank_tr05_cont.3.ark:640349
40bo030e /scratch/ravanelm/exp/dirha/fbank/raw_fbank_tr05_cont.4.ark:12819609
407o0302 /scratch/ravanelm/exp/dirha/fbank/raw_fbank_tr05_cont.4.ark:674049
01bo030i /scratch/ravanelm/exp/dirha/fbank/raw_fbank_tr05_cont.1.ark:26132579
01ic020s /scratch/ravanelm/exp/dirha/fbank/raw_fbank_tr05_cont.1.ark:40498719
01uo0313 /scratch/ravanelm/exp/dirha/fbank/raw_fbank_tr05_cont.2.ark:16224419
40io030v /scratch/ravanelm/exp/dirha/fbank/raw_fbank_tr05_cont.4.ark:34472109
01go030c /scratch/ravanelm/exp/dirha/fbank/raw_fbank_tr05_cont.1.ark:38194519
01jc0217 /scratch/ravanelm/exp/dirha/fbank/raw_fbank_tr05_cont.1.ark:44291149
027c0208 /scratch/ravanelm/exp/dirha/fbank/raw_fbank_tr05_cont.2.ark:36840719
20po010a /scratch/ravanelm/exp/dirha/fbank/raw_fbank_tr05_cont.3.ark:32704619
403o030b /scratch/ravanelm/exp/dirha/fbank/raw_fbank_tr05_cont.3.ark:44417859
011o030n /scratch/ravanelm/exp/dirha/fbank/raw_fbank_tr05_cont.1.ark:2304329
01wo031b /scratch/ravanelm/exp/dirha/fbank/raw_fbank_tr05_cont.2.ark:19399269
020o030q /scratch/ravanelm/exp/dirha/fbank/raw_fbank_tr05_cont.2.ark:27497709
20qc0103 /scratch/ravanelm/exp/dirha/fbank/raw_fbank_tr05_cont.3.ark:33297429
406c021a /scratch/ravanelm/exp/dirha/fbank/raw_fbank_tr05_cont.3.ark:52095589
40hc0204 /scratch/ravanelm/exp/dirha/fbank/raw_fbank_tr05_cont.4.ark:29204889
406c0203 /scratch/ravanelm/exp/dirha/fbank/raw_fbank_tr05_cont.3.ark:51018009
011o030r /scratch/ravanelm/exp/dirha/fbank/raw_fbank_tr05_cont.1.ark:2412649
019c020d /scratch/ravanelm/exp/dirha/fbank/raw_fbank_tr05_cont.1.ark:21394309
01lo030h /scratch/ravanelm/exp/dirha/fbank/raw_fbank_tr05_cont.1.ark:52625289
01ko031c /scratch/ravanelm/exp/dirha/fbank/raw_fbank_tr05_cont.1.ark:49992129
404o030i /scratch/ravanelm/exp/dirha/fbank/raw_fbank_tr05_cont.3.ark:47332169
208o010a /scratch/ravanelm/exp/dirha/fbank/raw_fbank_tr05_cont.3.ark:8687769
40nc0205 /scratch/ravanelm/exp/dirha/fbank/raw_fbank_tr05_cont.4.ark:48164949
204c010k /scratch/ravanelm/exp/dirha/fbank/raw_fbank_tr05_cont.3.ark:1459729
40lc021f /scratch/ravanelm/exp/dirha/fbank/raw_fbank_tr05_cont.4.ark:42875889
40co030p /scratch/ravanelm/exp/dirha/fbank/raw_fbank_tr05_cont.4.ark:15798059
015c0214 /scratch/ravanelm/exp/dirha/fbank/raw_fbank_tr05_cont.1.ark:10473529
014c020l /scratch/ravanelm/exp/dirha/fbank/raw_fbank_tr05_cont.1.ark:6995219
407o030i /scratch/ravanelm/exp/dirha/fbank/raw_fbank_tr05_cont.4.ark:1290049
01yc0211 /scratch/ravanelm/exp/dirha/fbank/raw_fbank_tr05_cont.2.ark:20524519
40mc0216 /scratch/ravanelm/exp/dirha/fbank/raw_fbank_tr05_cont.4.ark:46069389
404c0211 /scratch/ravanelm/exp/dirha/fbank/raw_fbank_tr05_cont.3.ark:46448369
01uc020s /scratch/ravanelm/exp/dirha/fbank/raw_fbank_tr05_cont.2.ark:13953239
018c0210 /scratch/ravanelm/exp/dirha/fbank/raw_fbank_tr05_cont.1.ark:18641999
01io0314 /scratch/ravanelm/exp/dirha/fbank/raw_fbank_tr05_cont.1.ark:42637489
01dc0209 /scratch/ravanelm/exp/dirha/fbank/raw_fbank_tr05_cont.1.ark:27598389
013o031c /scratch/ravanelm/exp/dirha/fbank/raw_fbank_tr05_cont.1.ark:6416299
01bc020i /scratch/ravanelm/exp/dirha/fbank/raw_fbank_tr05_cont.1.ark:24399199
204o0101 /scratch/ravanelm/exp/dirha/fbank/raw_fbank_tr05_cont.3.ark:1603829
20lo010p /scratch/ravanelm/exp/dirha/fbank/raw_fbank_tr05_cont.3.ark:26928459
01tc020k /scratch/ravanelm/exp/dirha/fbank/raw_fbank_tr05_cont.2.ark:10267869
40bc020n /scratch/ravanelm/exp/dirha/fbank/raw_fbank_tr05_cont.4.ark:11478759
018c021b /scratch/ravanelm/exp/dirha/fbank/raw_fbank_tr05_cont.1.ark:18974049
02bc0209 /scratch/ravanelm/exp/dirha/fbank/raw_fbank_tr05_cont.2.ark:46231399
01uc0211 /scratch/ravanelm/exp/dirha/fbank/raw_fbank_tr05_cont.2.ark:14260909
01to031b /scratch/ravanelm/exp/dirha/fbank/raw_fbank_tr05_cont.2.ark:12889569
40dc020s /scratch/ravanelm/exp/dirha/fbank/raw_fbank_tr05_cont.4.ark:17274789
011c0211 /scratch/ravanelm/exp/dirha/fbank/raw_fbank_tr05_cont.1.ark:1001329
20no010r /scratch/ravanelm/exp/dirha/fbank/raw_fbank_tr05_cont.3.ark:30304599
40ko030n /scratch/ravanelm/exp/dirha/fbank/raw_fbank_tr05_cont.4.ark:40392969
024c0204 /scratch/ravanelm/exp/dirha/fbank/raw_fbank_tr05_cont.2.ark:30978849
40ho030n /scratch/ravanelm/exp/dirha/fbank/raw_fbank_tr05_cont.4.ark:31145549
013o031e /scratch/ravanelm/exp/dirha/fbank/raw_fbank_tr05_cont.1.ark:6470639
20co010i /scratch/ravanelm/exp/dirha/fbank/raw_fbank_tr05_cont.3.ark:15501859
01fc0210 /scratch/ravanelm/exp/dirha/fbank/raw_fbank_tr05_cont.1.ark:34336459
40fc020t /scratch/ravanelm/exp/dirha/fbank/raw_fbank_tr05_cont.4.ark:22791209
024o0318 /scratch/ravanelm/exp/dirha/fbank/raw_fbank_tr05_cont.2.ark:33586669
026c021d /scratch/ravanelm/exp/dirha/fbank/raw_fbank_tr05_cont.2.ark:35025749
20no010p /scratch/ravanelm/exp/dirha/fbank/raw_fbank_tr05_cont.3.ark:30219499
027c020h /scratch/ravanelm/exp/dirha/fbank/raw_fbank_tr05_cont.2.ark:37079029
01io0308 /scratch/ravanelm/exp/dirha/fbank/raw_fbank_tr05_cont.1.ark:41417889
029c021a /scratch/ravanelm/exp/dirha/fbank/raw_fbank_tr05_cont.2.ark:44106579
40fo030m /scratch/ravanelm/exp/dirha/fbank/raw_fbank_tr05_cont.4.ark:24143279
01lo030r /scratch/ravanelm/exp/dirha/fbank/raw_fbank_tr05_cont.1.ark:52997349
40jo031b /scratch/ravanelm/exp/dirha/fbank/raw_fbank_tr05_cont.4.ark:38107159
01rc0207 /scratch/ravanelm/exp/dirha/fbank/raw_fbank_tr05_cont.2.ark:6909809
40hc020f /scratch/ravanelm/exp/dirha/fbank/raw_fbank_tr05_cont.4.ark:29500059
40kc0211 /scratch/ravanelm/exp/dirha/fbank/raw_fbank_tr05_cont.4.ark:39264189
40hc0217 /scratch/ravanelm/exp/dirha/fbank/raw_fbank_tr05_cont.4.ark:30208419
40ac021c /scratch/ravanelm/exp/dirha/fbank/raw_fbank_tr05_cont.4.ark:9252199
017o030v /scratch/ravanelm/exp/dirha/fbank/raw_fbank_tr05_cont.1.ark:17015149
20bo010e /scratch/ravanelm/exp/dirha/fbank/raw_fbank_tr05_cont.3.ark:13702369
020o0313 /scratch/ravanelm/exp/dirha/fbank/raw_fbank_tr05_cont.2.ark:27744249
028c021f /scratch/ravanelm/exp/dirha/fbank/raw_fbank_tr05_cont.2.ark:41071729
019o0316 /scratch/ravanelm/exp/dirha/fbank/raw_fbank_tr05_cont.1.ark:23672889
40ac0218 /scratch/ravanelm/exp/dirha/fbank/raw_fbank_tr05_cont.4.ark:9115079
40jo030x /scratch/ravanelm/exp/dirha/fbank/raw_fbank_tr05_cont.4.ark:37630219
016c0206 /scratch/ravanelm/exp/dirha/fbank/raw_fbank_tr05_cont.1.ark:12428189
02co0310 /scratch/ravanelm/exp/dirha/fbank/raw_fbank_tr05_cont.2.ark:51662669
019o0305 /scratch/ravanelm/exp/dirha/fbank/raw_fbank_tr05_cont.1.ark:22501139
015c0219 /scratch/ravanelm/exp/dirha/fbank/raw_fbank_tr05_cont.1.ark:10589799
02cc0205 /scratch/ravanelm/exp/dirha/fbank/raw_fbank_tr05_cont.2.ark:49374099
024o031a /scratch/ravanelm/exp/dirha/fbank/raw_fbank_tr05_cont.2.ark:33649249
40ao030s /scratch/ravanelm/exp/dirha/fbank/raw_fbank_tr05_cont.4.ark:10167139
205c010a /scratch/ravanelm/exp/dirha/fbank/raw_fbank_tr05_cont.3.ark:2674319
016o030g /scratch/ravanelm/exp/dirha/fbank/raw_fbank_tr05_cont.1.ark:13801569
01uc021b /scratch/ravanelm/exp/dirha/fbank/raw_fbank_tr05_cont.2.ark:14579769
20tc010j /scratch/ravanelm/exp/dirha/fbank/raw_fbank_tr05_cont.3.ark:37201979
404o030v /scratch/ravanelm/exp/dirha/fbank/raw_fbank_tr05_cont.3.ark:47741519
02co030s /scratch/ravanelm/exp/dirha/fbank/raw_fbank_tr05_cont.2.ark:51398669
40lo030w /scratch/ravanelm/exp/dirha/fbank/raw_fbank_tr05_cont.4.ark:44216169
40bo0313 /scratch/ravanelm/exp/dirha/fbank/raw_fbank_tr05_cont.4.ark:13645939
029c020x /scratch/ravanelm/exp/dirha/fbank/raw_fbank_tr05_cont.2.ark:43768709
401c021d /scratch/ravanelm/exp/dirha/fbank/raw_fbank_tr05_cont.3.ark:41006899
409o0303 /scratch/ravanelm/exp/dirha/fbank/raw_fbank_tr05_cont.4.ark:6351019
01ic0213 /scratch/ravanelm/exp/dirha/fbank/raw_fbank_tr05_cont.1.ark:40787609
011c0217 /scratch/ravanelm/exp/dirha/fbank/raw_fbank_tr05_cont.1.ark:1185709
013c020g /scratch/ravanelm/exp/dirha/fbank/raw_fbank_tr05_cont.1.ark:4008769
40ic020b /scratch/ravanelm/exp/dirha/fbank/raw_fbank_tr05_cont.4.ark:32353939
20qc0102 /scratch/ravanelm/exp/dirha/fbank/raw_fbank_tr05_cont.3.ark:33264279
206c010b /scratch/ravanelm/exp/dirha/fbank/raw_fbank_tr05_cont.3.ark:4454709
01go030x /scratch/ravanelm/exp/dirha/fbank/raw_fbank_tr05_cont.1.ark:38898349
40kc020n /scratch/ravanelm/exp/dirha/fbank/raw_fbank_tr05_cont.4.ark:38902529
409c0204 /scratch/ravanelm/exp/dirha/fbank/raw_fbank_tr05_cont.4.ark:4960289
01bc020f /scratch/ravanelm/exp/dirha/fbank/raw_fbank_tr05_cont.1.ark:24273389
01ec0216 /scratch/ravanelm/exp/dirha/fbank/raw_fbank_tr05_cont.1.ark:31596019
017c0216 /scratch/ravanelm/exp/dirha/fbank/raw_fbank_tr05_cont.1.ark:15798999
027o030m /scratch/ravanelm/exp/dirha/fbank/raw_fbank_tr05_cont.2.ark:38875289
20eo010o /scratch/ravanelm/exp/dirha/fbank/raw_fbank_tr05_cont.3.ark:19161259
403o030g /scratch/ravanelm/exp/dirha/fbank/raw_fbank_tr05_cont.3.ark:44590169
40do030f /scratch/ravanelm/exp/dirha/fbank/raw_fbank_tr05_cont.4.ark:18346679
014o0302 /scratch/ravanelm/exp/dirha/fbank/raw_fbank_tr05_cont.1.ark:7802799
40ko0311 /scratch/ravanelm/exp/dirha/fbank/raw_fbank_tr05_cont.4.ark:40922829
20hc010m /scratch/ravanelm/exp/dirha/fbank/raw_fbank_tr05_cont.3.ark:22503359
016o0302 /scratch/ravanelm/exp/dirha/fbank/raw_fbank_tr05_cont.1.ark:13427409
407o030u /scratch/ravanelm/exp/dirha/fbank/raw_fbank_tr05_cont.4.ark:1796049
01fc021d /scratch/ravanelm/exp/dirha/fbank/raw_fbank_tr05_cont.1.ark:34691129
40pc021e /scratch/ravanelm/exp/dirha/fbank/raw_fbank_tr05_cont.4.ark:52542449
01uc020k /scratch/ravanelm/exp/dirha/fbank/raw_fbank_tr05_cont.2.ark:13744679
209c0102 /scratch/ravanelm/exp/dirha/fbank/raw_fbank_tr05_cont.3.ark:9309859
20gc010k /scratch/ravanelm/exp/dirha/fbank/raw_fbank_tr05_cont.3.ark:21201049
026c020a /scratch/ravanelm/exp/dirha/fbank/raw_fbank_tr05_cont.2.ark:34100979
20lc0106 /scratch/ravanelm/exp/dirha/fbank/raw_fbank_tr05_cont.3.ark:25121909
20no010c /scratch/ravanelm/exp/dirha/fbank/raw_fbank_tr05_cont.3.ark:29669109
027o030b /scratch/ravanelm/exp/dirha/fbank/raw_fbank_tr05_cont.2.ark:38425399
20vo010k /scratch/ravanelm/exp/dirha/fbank/raw_fbank_tr05_cont.3.ark:39316369
017c020t /scratch/ravanelm/exp/dirha/fbank/raw_fbank_tr05_cont.1.ark:15457169
408c0217 /scratch/ravanelm/exp/dirha/fbank/raw_fbank_tr05_cont.4.ark:3355829
01io030n /scratch/ravanelm/exp/dirha/fbank/raw_fbank_tr05_cont.1.ark:42016339
40hc020e /scratch/ravanelm/exp/dirha/fbank/raw_fbank_tr05_cont.4.ark:29478589
208o010e /scratch/ravanelm/exp/dirha/fbank/raw_fbank_tr05_cont.3.ark:8820929
40jo030a /scratch/ravanelm/exp/dirha/fbank/raw_fbank_tr05_cont.4.ark:36821929
02co0301 /scratch/ravanelm/exp/dirha/fbank/raw_fbank_tr05_cont.2.ark:50541459
01zo030b /scratch/ravanelm/exp/dirha/fbank/raw_fbank_tr05_cont.2.ark:24426829
01kc021a /scratch/ravanelm/exp/dirha/fbank/raw_fbank_tr05_cont.1.ark:47900769
01io0312 /scratch/ravanelm/exp/dirha/fbank/raw_fbank_tr05_cont.1.ark:42572389
02ec020j /scratch/ravanelm/exp/dirha/fbank/raw_fbank_tr05_cont.2.ark:52844899
028c0214 /scratch/ravanelm/exp/dirha/fbank/raw_fbank_tr05_cont.2.ark:40742759
20fo0101 /scratch/ravanelm/exp/dirha/fbank/raw_fbank_tr05_cont.3.ark:19939729
02bo030c /scratch/ravanelm/exp/dirha/fbank/raw_fbank_tr05_cont.2.ark:47850699
01fo030q /scratch/ravanelm/exp/dirha/fbank/raw_fbank_tr05_cont.1.ark:35656319
20tc010d /scratch/ravanelm/exp/dirha/fbank/raw_fbank_tr05_cont.3.ark:37020359
01to030g /scratch/ravanelm/exp/dirha/fbank/raw_fbank_tr05_cont.2.ark:11800559
20no010b /scratch/ravanelm/exp/dirha/fbank/raw_fbank_tr05_cont.3.ark:29631159
028o031c /scratch/ravanelm/exp/dirha/fbank/raw_fbank_tr05_cont.2.ark:42794929
206c0105 /scratch/ravanelm/exp/dirha/fbank/raw_fbank_tr05_cont.3.ark:4315649
021o0306 /scratch/ravanelm/exp/dirha/fbank/raw_fbank_tr05_cont.2.ark:29519059
020c0206 /scratch/ravanelm/exp/dirha/fbank/raw_fbank_tr05_cont.2.ark:26202999
40kc0212 /scratch/ravanelm/exp/dirha/fbank/raw_fbank_tr05_cont.4.ark:39284979
40kc0202 /scratch/ravanelm/exp/dirha/fbank/raw_fbank_tr05_cont.4.ark:38283859
01fo0305 /scratch/ravanelm/exp/dirha/fbank/raw_fbank_tr05_cont.1.ark:34934489
01jc0211 /scratch/ravanelm/exp/dirha/fbank/raw_fbank_tr05_cont.1.ark:44085449
409o0304 /scratch/ravanelm/exp/dirha/fbank/raw_fbank_tr05_cont.4.ark:6390249
029c0201 /scratch/ravanelm/exp/dirha/fbank/raw_fbank_tr05_cont.2.ark:42867989
01io030j /scratch/ravanelm/exp/dirha/fbank/raw_fbank_tr05_cont.1.ark:41855699
01jc020n /scratch/ravanelm/exp/dirha/fbank/raw_fbank_tr05_cont.1.ark:43658029
206c010f /scratch/ravanelm/exp/dirha/fbank/raw_fbank_tr05_cont.3.ark:4535469
01do0311 /scratch/ravanelm/exp/dirha/fbank/raw_fbank_tr05_cont.1.ark:29928739
209c0106 /scratch/ravanelm/exp/dirha/fbank/raw_fbank_tr05_cont.3.ark:9406459
01to030n /scratch/ravanelm/exp/dirha/fbank/raw_fbank_tr05_cont.2.ark:12055409
40go030e /scratch/ravanelm/exp/dirha/fbank/raw_fbank_tr05_cont.4.ark:27527729
015c020k /scratch/ravanelm/exp/dirha/fbank/raw_fbank_tr05_cont.1.ark:9999609
01uc020f /scratch/ravanelm/exp/dirha/fbank/raw_fbank_tr05_cont.2.ark:13570369
017c020r /scratch/ravanelm/exp/dirha/fbank/raw_fbank_tr05_cont.1.ark:15404229
40cc020x /scratch/ravanelm/exp/dirha/fbank/raw_fbank_tr05_cont.4.ark:14695479
207o010l /scratch/ravanelm/exp/dirha/fbank/raw_fbank_tr05_cont.3.ark:7311729
01jc020b /scratch/ravanelm/exp/dirha/fbank/raw_fbank_tr05_cont.1.ark:43328429
205o0104 /scratch/ravanelm/exp/dirha/fbank/raw_fbank_tr05_cont.3.ark:3235529
20do010k /scratch/ravanelm/exp/dirha/fbank/raw_fbank_tr05_cont.3.ark:17225769
015o031a /scratch/ravanelm/exp/dirha/fbank/raw_fbank_tr05_cont.1.ark:12282409
40nc020s /scratch/ravanelm/exp/dirha/fbank/raw_fbank_tr05_cont.4.ark:48896039
40gc020t /scratch/ravanelm/exp/dirha/fbank/raw_fbank_tr05_cont.4.ark:26115289
20ro0107 /scratch/ravanelm/exp/dirha/fbank/raw_fbank_tr05_cont.3.ark:35892729
018c0214 /scratch/ravanelm/exp/dirha/fbank/raw_fbank_tr05_cont.1.ark:18753039
40ic021f /scratch/ravanelm/exp/dirha/fbank/raw_fbank_tr05_cont.4.ark:33514699
01yo030p /scratch/ravanelm/exp/dirha/fbank/raw_fbank_tr05_cont.2.ark:21765079
017o030u /scratch/ravanelm/exp/dirha/fbank/raw_fbank_tr05_cont.1.ark:16972399
408o030l /scratch/ravanelm/exp/dirha/fbank/raw_fbank_tr05_cont.4.ark:4194079
40ao0310 /scratch/ravanelm/exp/dirha/fbank/raw_fbank_tr05_cont.4.ark:10415499
208o010c /scratch/ravanelm/exp/dirha/fbank/raw_fbank_tr05_cont.3.ark:8747189
01qc020i /scratch/ravanelm/exp/dirha/fbank/raw_fbank_tr05_cont.2.ark:4235239
405c020k /scratch/ravanelm/exp/dirha/fbank/raw_fbank_tr05_cont.3.ark:48747419
208o010l /scratch/ravanelm/exp/dirha/fbank/raw_fbank_tr05_cont.3.ark:9056579
401o030o /scratch/ravanelm/exp/dirha/fbank/raw_fbank_tr05_cont.3.ark:41945879
02ec020q /scratch/ravanelm/exp/dirha/fbank/raw_fbank_tr05_cont.2.ark:53077749
014o0301 /scratch/ravanelm/exp/dirha/fbank/raw_fbank_tr05_cont.1.ark:7780969
409c021c /scratch/ravanelm/exp/dirha/fbank/raw_fbank_tr05_cont.4.ark:6187929
204o010q /scratch/ravanelm/exp/dirha/fbank/raw_fbank_tr05_cont.3.ark:2409699
02cc020v /scratch/ravanelm/exp/dirha/fbank/raw_fbank_tr05_cont.2.ark:49991769
01po030z /scratch/ravanelm/exp/dirha/fbank/raw_fbank_tr05_cont.2.ark:3158549
021c0212 /scratch/ravanelm/exp/dirha/fbank/raw_fbank_tr05_cont.2.ark:29074489
40jc020u /scratch/ravanelm/exp/dirha/fbank/raw_fbank_tr05_cont.4.ark:35901229
01ic0203 /scratch/ravanelm/exp/dirha/fbank/raw_fbank_tr05_cont.1.ark:39740529
20rc010i /scratch/ravanelm/exp/dirha/fbank/raw_fbank_tr05_cont.3.ark:35509009
01fc0212 /scratch/ravanelm/exp/dirha/fbank/raw_fbank_tr05_cont.1.ark:34394559
019o031b /scratch/ravanelm/exp/dirha/fbank/raw_fbank_tr05_cont.1.ark:23794599
021o031a /scratch/ravanelm/exp/dirha/fbank/raw_fbank_tr05_cont.2.ark:30746699
40hc020h /scratch/ravanelm/exp/dirha/fbank/raw_fbank_tr05_cont.4.ark:29533559
403o0306 /scratch/ravanelm/exp/dirha/fbank/raw_fbank_tr05_cont.3.ark:44249149
405o0305 /scratch/ravanelm/exp/dirha/fbank/raw_fbank_tr05_cont.3.ark:49597379
407c021e /scratch/ravanelm/exp/dirha/fbank/raw_fbank_tr05_cont.4.ark:531469
404c020c /scratch/ravanelm/exp/dirha/fbank/raw_fbank_tr05_cont.3.ark:45840859
01bc0214 /scratch/ravanelm/exp/dirha/fbank/raw_fbank_tr05_cont.1.ark:25030439
020o0302 /scratch/ravanelm/exp/dirha/fbank/raw_fbank_tr05_cont.2.ark:27098329
40dc020x /scratch/ravanelm/exp/dirha/fbank/raw_fbank_tr05_cont.4.ark:17426259
01gc020g /scratch/ravanelm/exp/dirha/fbank/raw_fbank_tr05_cont.1.ark:36835379
01bc020a /scratch/ravanelm/exp/dirha/fbank/raw_fbank_tr05_cont.1.ark:24130999
02ec020w /scratch/ravanelm/exp/dirha/fbank/raw_fbank_tr05_cont.2.ark:53209849
029o030n /scratch/ravanelm/exp/dirha/fbank/raw_fbank_tr05_cont.2.ark:45020849
40gc020g /scratch/ravanelm/exp/dirha/fbank/raw_fbank_tr05_cont.4.ark:25694779
029c020z /scratch/ravanelm/exp/dirha/fbank/raw_fbank_tr05_cont.2.ark:43824329
403c021d /scratch/ravanelm/exp/dirha/fbank/raw_fbank_tr05_cont.3.ark:43978149
029o0316 /scratch/ravanelm/exp/dirha/fbank/raw_fbank_tr05_cont.2.ark:45707859
015o030b /scratch/ravanelm/exp/dirha/fbank/raw_fbank_tr05_cont.1.ark:11102119
40ac020c /scratch/ravanelm/exp/dirha/fbank/raw_fbank_tr05_cont.4.ark:8190799
207o0104 /scratch/ravanelm/exp/dirha/fbank/raw_fbank_tr05_cont.3.ark:6732259
20oc0105 /scratch/ravanelm/exp/dirha/fbank/raw_fbank_tr05_cont.3.ark:30442269
020c020h /scratch/ravanelm/exp/dirha/fbank/raw_fbank_tr05_cont.2.ark:26441729
206o0102 /scratch/ravanelm/exp/dirha/fbank/raw_fbank_tr05_cont.3.ark:4818699
40ao030o /scratch/ravanelm/exp/dirha/fbank/raw_fbank_tr05_cont.4.ark:10015059
40bc021c /scratch/ravanelm/exp/dirha/fbank/raw_fbank_tr05_cont.4.ark:12193469
40bc021e /scratch/ravanelm/exp/dirha/fbank/raw_fbank_tr05_cont.4.ark:12263449
01go0316 /scratch/ravanelm/exp/dirha/fbank/raw_fbank_tr05_cont.1.ark:39238779
40go030g /scratch/ravanelm/exp/dirha/fbank/raw_fbank_tr05_cont.4.ark:27587349
40nc020h /scratch/ravanelm/exp/dirha/fbank/raw_fbank_tr05_cont.4.ark:48524069
40ko030z /scratch/ravanelm/exp/dirha/fbank/raw_fbank_tr05_cont.4.ark:40831969
20nc010m /scratch/ravanelm/exp/dirha/fbank/raw_fbank_tr05_cont.3.ark:29137459
40jc020k /scratch/ravanelm/exp/dirha/fbank/raw_fbank_tr05_cont.4.ark:35620329
01to0302 /scratch/ravanelm/exp/dirha/fbank/raw_fbank_tr05_cont.2.ark:11346409
024c020a /scratch/ravanelm/exp/dirha/fbank/raw_fbank_tr05_cont.2.ark:31173669
409c020i /scratch/ravanelm/exp/dirha/fbank/raw_fbank_tr05_cont.4.ark:5344589
01wo0301 /scratch/ravanelm/exp/dirha/fbank/raw_fbank_tr05_cont.2.ark:18007439
021c0203 /scratch/ravanelm/exp/dirha/fbank/raw_fbank_tr05_cont.2.ark:28106279
02co030d /scratch/ravanelm/exp/dirha/fbank/raw_fbank_tr05_cont.2.ark:50894419
014o030y /scratch/ravanelm/exp/dirha/fbank/raw_fbank_tr05_cont.1.ark:8934119
408c0209 /scratch/ravanelm/exp/dirha/fbank/raw_fbank_tr05_cont.4.ark:2596079
01lc0214 /scratch/ravanelm/exp/dirha/fbank/raw_fbank_tr05_cont.1.ark:51474249
20co010f /scratch/ravanelm/exp/dirha/fbank/raw_fbank_tr05_cont.3.ark:15417049
01zc020h /scratch/ravanelm/exp/dirha/fbank/raw_fbank_tr05_cont.2.ark:23083239
40io030z /scratch/ravanelm/exp/dirha/fbank/raw_fbank_tr05_cont.4.ark:34602869
404o030m /scratch/ravanelm/exp/dirha/fbank/raw_fbank_tr05_cont.3.ark:47452649
40go0303 /scratch/ravanelm/exp/dirha/fbank/raw_fbank_tr05_cont.4.ark:27094039
01dc020u /scratch/ravanelm/exp/dirha/fbank/raw_fbank_tr05_cont.1.ark:28173499
20mo010f /scratch/ravanelm/exp/dirha/fbank/raw_fbank_tr05_cont.3.ark:28085209
40nc020m /scratch/ravanelm/exp/dirha/fbank/raw_fbank_tr05_cont.4.ark:48706739
01wc020y /scratch/ravanelm/exp/dirha/fbank/raw_fbank_tr05_cont.2.ark:17562369
021o030w /scratch/ravanelm/exp/dirha/fbank/raw_fbank_tr05_cont.2.ark:30325879
027o030u /scratch/ravanelm/exp/dirha/fbank/raw_fbank_tr05_cont.2.ark:39159809
40do031a /scratch/ravanelm/exp/dirha/fbank/raw_fbank_tr05_cont.4.ark:19303729
40bo030o /scratch/ravanelm/exp/dirha/fbank/raw_fbank_tr05_cont.4.ark:13161549
40lc020e /scratch/ravanelm/exp/dirha/fbank/raw_fbank_tr05_cont.4.ark:41727739
408c021b /scratch/ravanelm/exp/dirha/fbank/raw_fbank_tr05_cont.4.ark:3449869
20ho010i /scratch/ravanelm/exp/dirha/fbank/raw_fbank_tr05_cont.3.ark:23135379
017o0307 /scratch/ravanelm/exp/dirha/fbank/raw_fbank_tr05_cont.1.ark:16262229
01pc020r /scratch/ravanelm/exp/dirha/fbank/raw_fbank_tr05_cont.2.ark:1149659
206o010k /scratch/ravanelm/exp/dirha/fbank/raw_fbank_tr05_cont.3.ark:5543639
40bc0210 /scratch/ravanelm/exp/dirha/fbank/raw_fbank_tr05_cont.4.ark:11853389
40pc020r /scratch/ravanelm/exp/dirha/fbank/raw_fbank_tr05_cont.4.ark:51967279
01zo031d /scratch/ravanelm/exp/dirha/fbank/raw_fbank_tr05_cont.2.ark:25963929
01zo0309 /scratch/ravanelm/exp/dirha/fbank/raw_fbank_tr05_cont.2.ark:24365609
01wo0302 /scratch/ravanelm/exp/dirha/fbank/raw_fbank_tr05_cont.2.ark:18039949
027o030y /scratch/ravanelm/exp/dirha/fbank/raw_fbank_tr05_cont.2.ark:39318529
016c0202 /scratch/ravanelm/exp/dirha/fbank/raw_fbank_tr05_cont.1.ark:12338949
01zc0217 /scratch/ravanelm/exp/dirha/fbank/raw_fbank_tr05_cont.2.ark:23822899
20oc0102 /scratch/ravanelm/exp/dirha/fbank/raw_fbank_tr05_cont.3.ark:30359459
40ac020g /scratch/ravanelm/exp/dirha/fbank/raw_fbank_tr05_cont.4.ark:8317159
40jo030u /scratch/ravanelm/exp/dirha/fbank/raw_fbank_tr05_cont.4.ark:37519489
01wc020m /scratch/ravanelm/exp/dirha/fbank/raw_fbank_tr05_cont.2.ark:17268089
40jc0207 /scratch/ravanelm/exp/dirha/fbank/raw_fbank_tr05_cont.4.ark:35307299
40ec0213 /scratch/ravanelm/exp/dirha/fbank/raw_fbank_tr05_cont.4.ark:20261149
20tc010a /scratch/ravanelm/exp/dirha/fbank/raw_fbank_tr05_cont.3.ark:36949549
029o030u /scratch/ravanelm/exp/dirha/fbank/raw_fbank_tr05_cont.2.ark:45265979
20go010i /scratch/ravanelm/exp/dirha/fbank/raw_fbank_tr05_cont.3.ark:21812639
20dc0104 /scratch/ravanelm/exp/dirha/fbank/raw_fbank_tr05_cont.3.ark:15856059
019c021c /scratch/ravanelm/exp/dirha/fbank/raw_fbank_tr05_cont.1.ark:22284719
019c020a /scratch/ravanelm/exp/dirha/fbank/raw_fbank_tr05_cont.1.ark:21313979
011c0213 /scratch/ravanelm/exp/dirha/fbank/raw_fbank_tr05_cont.1.ark:1073389
40ic020w /scratch/ravanelm/exp/dirha/fbank/raw_fbank_tr05_cont.4.ark:32974169
407o030c /scratch/ravanelm/exp/dirha/fbank/raw_fbank_tr05_cont.4.ark:1060909
01bc020u /scratch/ravanelm/exp/dirha/fbank/raw_fbank_tr05_cont.1.ark:24808489
01wo0314 /scratch/ravanelm/exp/dirha/fbank/raw_fbank_tr05_cont.2.ark:19205819
20vo010o /scratch/ravanelm/exp/dirha/fbank/raw_fbank_tr05_cont.3.ark:39456409
20mo0103 /scratch/ravanelm/exp/dirha/fbank/raw_fbank_tr05_cont.3.ark:27747409
407c0217 /scratch/ravanelm/exp/dirha/fbank/raw_fbank_tr05_cont.4.ark:292139
40mo0308 /scratch/ravanelm/exp/dirha/fbank/raw_fbank_tr05_cont.4.ark:46687129
026c020r /scratch/ravanelm/exp/dirha/fbank/raw_fbank_tr05_cont.2.ark:34499929
018o030q /scratch/ravanelm/exp/dirha/fbank/raw_fbank_tr05_cont.1.ark:20138259
408c0211 /scratch/ravanelm/exp/dirha/fbank/raw_fbank_tr05_cont.4.ark:3234169
405c0202 /scratch/ravanelm/exp/dirha/fbank/raw_fbank_tr05_cont.3.ark:48269199
01lo0301 /scratch/ravanelm/exp/dirha/fbank/raw_fbank_tr05_cont.1.ark:51888129
020o030e /scratch/ravanelm/exp/dirha/fbank/raw_fbank_tr05_cont.2.ark:27302169
01fo0308 /scratch/ravanelm/exp/dirha/fbank/raw_fbank_tr05_cont.1.ark:35053819
40hc020d /scratch/ravanelm/exp/dirha/fbank/raw_fbank_tr05_cont.4.ark:29448839
016o030o /scratch/ravanelm/exp/dirha/fbank/raw_fbank_tr05_cont.1.ark:14036849
40fo0314 /scratch/ravanelm/exp/dirha/fbank/raw_fbank_tr05_cont.4.ark:24710699
019c0217 /scratch/ravanelm/exp/dirha/fbank/raw_fbank_tr05_cont.1.ark:22147769
011c0206 /scratch/ravanelm/exp/dirha/fbank/raw_fbank_tr05_cont.1.ark:131199
20bo010a /scratch/ravanelm/exp/dirha/fbank/raw_fbank_tr05_cont.3.ark:13504169
20ac0107 /scratch/ravanelm/exp/dirha/fbank/raw_fbank_tr05_cont.3.ark:10902979
018c021a /scratch/ravanelm/exp/dirha/fbank/raw_fbank_tr05_cont.1.ark:18953539
01uo030y /scratch/ravanelm/exp/dirha/fbank/raw_fbank_tr05_cont.2.ark:15991469
01rc021b /scratch/ravanelm/exp/dirha/fbank/raw_fbank_tr05_cont.2.ark:8028689
408c0205 /scratch/ravanelm/exp/dirha/fbank/raw_fbank_tr05_cont.4.ark:2486679
02ec0205 /scratch/ravanelm/exp/dirha/fbank/raw_fbank_tr05_cont.2.ark:52380839
40nc0210 /scratch/ravanelm/exp/dirha/fbank/raw_fbank_tr05_cont.4.ark:49109239
01do030w /scratch/ravanelm/exp/dirha/fbank/raw_fbank_tr05_cont.1.ark:29757349
01mo030x /scratch/ravanelm/exp/dirha/fbank/raw_fbank_tr05_cont.1.ark:56400209
01po031c /scratch/ravanelm/exp/dirha/fbank/raw_fbank_tr05_cont.2.ark:3614139
20go0105 /scratch/ravanelm/exp/dirha/fbank/raw_fbank_tr05_cont.3.ark:21424729
028c0203 /scratch/ravanelm/exp/dirha/fbank/raw_fbank_tr05_cont.2.ark:39830449
015o030x /scratch/ravanelm/exp/dirha/fbank/raw_fbank_tr05_cont.1.ark:11819979
403o030f /scratch/ravanelm/exp/dirha/fbank/raw_fbank_tr05_cont.3.ark:44569859
40eo030g /scratch/ravanelm/exp/dirha/fbank/raw_fbank_tr05_cont.4.ark:21120689
01qo031e /scratch/ravanelm/exp/dirha/fbank/raw_fbank_tr05_cont.2.ark:6619019
01lo030b /scratch/ravanelm/exp/dirha/fbank/raw_fbank_tr05_cont.1.ark:52325549
020c0205 /scratch/ravanelm/exp/dirha/fbank/raw_fbank_tr05_cont.2.ark:26173329
20to0103 /scratch/ravanelm/exp/dirha/fbank/raw_fbank_tr05_cont.3.ark:37465879
026c020u /scratch/ravanelm/exp/dirha/fbank/raw_fbank_tr05_cont.2.ark:34557539
40no030z /scratch/ravanelm/exp/dirha/fbank/raw_fbank_tr05_cont.4.ark:50786049
40ko0305 /scratch/ravanelm/exp/dirha/fbank/raw_fbank_tr05_cont.4.ark:39791789
02bc0214 /scratch/ravanelm/exp/dirha/fbank/raw_fbank_tr05_cont.2.ark:47077009
40mo030j /scratch/ravanelm/exp/dirha/fbank/raw_fbank_tr05_cont.4.ark:47035139
40eo0311 /scratch/ravanelm/exp/dirha/fbank/raw_fbank_tr05_cont.4.ark:21715919
40gc0204 /scratch/ravanelm/exp/dirha/fbank/raw_fbank_tr05_cont.4.ark:25294259
20gc010n /scratch/ravanelm/exp/dirha/fbank/raw_fbank_tr05_cont.3.ark:21290979
40ho0301 /scratch/ravanelm/exp/dirha/fbank/raw_fbank_tr05_cont.4.ark:30422689
026c020z /scratch/ravanelm/exp/dirha/fbank/raw_fbank_tr05_cont.2.ark:34671729
01io0306 /scratch/ravanelm/exp/dirha/fbank/raw_fbank_tr05_cont.1.ark:41339429
01mo0304 /scratch/ravanelm/exp/dirha/fbank/raw_fbank_tr05_cont.1.ark:55494059
011o0314 /scratch/ravanelm/exp/dirha/fbank/raw_fbank_tr05_cont.1.ark:2977759
01bo030y /scratch/ravanelm/exp/dirha/fbank/raw_fbank_tr05_cont.1.ark:26831539
40co0312 /scratch/ravanelm/exp/dirha/fbank/raw_fbank_tr05_cont.4.ark:16098409
20io010i /scratch/ravanelm/exp/dirha/fbank/raw_fbank_tr05_cont.3.ark:24682129
407o030k /scratch/ravanelm/exp/dirha/fbank/raw_fbank_tr05_cont.4.ark:1366669
028o030y /scratch/ravanelm/exp/dirha/fbank/raw_fbank_tr05_cont.2.ark:42299469
40ao030a /scratch/ravanelm/exp/dirha/fbank/raw_fbank_tr05_cont.4.ark:9577999
40lc020u /scratch/ravanelm/exp/dirha/fbank/raw_fbank_tr05_cont.4.ark:42146379
02co030o /scratch/ravanelm/exp/dirha/fbank/raw_fbank_tr05_cont.2.ark:51253349
01zo030q /scratch/ravanelm/exp/dirha/fbank/raw_fbank_tr05_cont.2.ark:25065719
01mc020v /scratch/ravanelm/exp/dirha/fbank/raw_fbank_tr05_cont.1.ark:54823619
02cc020p /scratch/ravanelm/exp/dirha/fbank/raw_fbank_tr05_cont.2.ark:49838069
40io031d /scratch/ravanelm/exp/dirha/fbank/raw_fbank_tr05_cont.4.ark:35102409
01bo0316 /scratch/ravanelm/exp/dirha/fbank/raw_fbank_tr05_cont.1.ark:27078789
40ho030m /scratch/ravanelm/exp/dirha/fbank/raw_fbank_tr05_cont.4.ark:31121119
02bo030v /scratch/ravanelm/exp/dirha/fbank/raw_fbank_tr05_cont.2.ark:48518029
015o030a /scratch/ravanelm/exp/dirha/fbank/raw_fbank_tr05_cont.1.ark:11063809
20ic0103 /scratch/ravanelm/exp/dirha/fbank/raw_fbank_tr05_cont.3.ark:23434479
013o030m /scratch/ravanelm/exp/dirha/fbank/raw_fbank_tr05_cont.1.ark:5595879
40go030k /scratch/ravanelm/exp/dirha/fbank/raw_fbank_tr05_cont.4.ark:27768269
01fo0310 /scratch/ravanelm/exp/dirha/fbank/raw_fbank_tr05_cont.1.ark:35924779
20co010k /scratch/ravanelm/exp/dirha/fbank/raw_fbank_tr05_cont.3.ark:15552799
026c021b /scratch/ravanelm/exp/dirha/fbank/raw_fbank_tr05_cont.2.ark:34974569
01jc0219 /scratch/ravanelm/exp/dirha/fbank/raw_fbank_tr05_cont.1.ark:44343169
20tc010b /scratch/ravanelm/exp/dirha/fbank/raw_fbank_tr05_cont.3.ark:36968939
01eo031a /scratch/ravanelm/exp/dirha/fbank/raw_fbank_tr05_cont.1.ark:33212679
40bo0303 /scratch/ravanelm/exp/dirha/fbank/raw_fbank_tr05_cont.4.ark:12439599
205c010m /scratch/ravanelm/exp/dirha/fbank/raw_fbank_tr05_cont.3.ark:3019639
02eo0307 /scratch/ravanelm/exp/dirha/fbank/raw_fbank_tr05_cont.2.ark:54077359
20nc0104 /scratch/ravanelm/exp/dirha/fbank/raw_fbank_tr05_cont.3.ark:28539959
01ic0205 /scratch/ravanelm/exp/dirha/fbank/raw_fbank_tr05_cont.1.ark:39809789
01fc020b /scratch/ravanelm/exp/dirha/fbank/raw_fbank_tr05_cont.1.ark:33679029
014c0201 /scratch/ravanelm/exp/dirha/fbank/raw_fbank_tr05_cont.1.ark:6526259
40mc020m /scratch/ravanelm/exp/dirha/fbank/raw_fbank_tr05_cont.4.ark:45575749
207o010k /scratch/ravanelm/exp/dirha/fbank/raw_fbank_tr05_cont.3.ark:7292259
40pc0204 /scratch/ravanelm/exp/dirha/fbank/raw_fbank_tr05_cont.4.ark:51486629
01tc021e /scratch/ravanelm/exp/dirha/fbank/raw_fbank_tr05_cont.2.ark:11235209
028o030l /scratch/ravanelm/exp/dirha/fbank/raw_fbank_tr05_cont.2.ark:41879079
01bo0304 /scratch/ravanelm/exp/dirha/fbank/raw_fbank_tr05_cont.1.ark:25546909
20dc010k /scratch/ravanelm/exp/dirha/fbank/raw_fbank_tr05_cont.3.ark:16339179
401o0305 /scratch/ravanelm/exp/dirha/fbank/raw_fbank_tr05_cont.3.ark:41232829
01lo030l /scratch/ravanelm/exp/dirha/fbank/raw_fbank_tr05_cont.1.ark:52799449
02cc0207 /scratch/ravanelm/exp/dirha/fbank/raw_fbank_tr05_cont.2.ark:49436919
40pc020m /scratch/ravanelm/exp/dirha/fbank/raw_fbank_tr05_cont.4.ark:51884089
019c020g /scratch/ravanelm/exp/dirha/fbank/raw_fbank_tr05_cont.1.ark:21463159
20ho0108 /scratch/ravanelm/exp/dirha/fbank/raw_fbank_tr05_cont.3.ark:22862119
409c020g /scratch/ravanelm/exp/dirha/fbank/raw_fbank_tr05_cont.4.ark:5292649
20tc010c /scratch/ravanelm/exp/dirha/fbank/raw_fbank_tr05_cont.3.ark:36996489
015c020y /scratch/ravanelm/exp/dirha/fbank/raw_fbank_tr05_cont.1.ark:10336189
01gc021d /scratch/ravanelm/exp/dirha/fbank/raw_fbank_tr05_cont.1.ark:37732769
01zc0216 /scratch/ravanelm/exp/dirha/fbank/raw_fbank_tr05_cont.2.ark:23795389
029o030m /scratch/ravanelm/exp/dirha/fbank/raw_fbank_tr05_cont.2.ark:44983779
20qo0109 /scratch/ravanelm/exp/dirha/fbank/raw_fbank_tr05_cont.3.ark:34352279
01jo0305 /scratch/ravanelm/exp/dirha/fbank/raw_fbank_tr05_cont.1.ark:44772009
20nc0108 /scratch/ravanelm/exp/dirha/fbank/raw_fbank_tr05_cont.3.ark:28674959
01qo0309 /scratch/ravanelm/exp/dirha/fbank/raw_fbank_tr05_cont.2.ark:5291549
01tc0217 /scratch/ravanelm/exp/dirha/fbank/raw_fbank_tr05_cont.2.ark:11059839
40go030n /scratch/ravanelm/exp/dirha/fbank/raw_fbank_tr05_cont.4.ark:27902199
01fo030v /scratch/ravanelm/exp/dirha/fbank/raw_fbank_tr05_cont.1.ark:35807109
019c0212 /scratch/ravanelm/exp/dirha/fbank/raw_fbank_tr05_cont.1.ark:21975939
20po0109 /scratch/ravanelm/exp/dirha/fbank/raw_fbank_tr05_cont.3.ark:32689709
029c0204 /scratch/ravanelm/exp/dirha/fbank/raw_fbank_tr05_cont.2.ark:42948599
40mo0313 /scratch/ravanelm/exp/dirha/fbank/raw_fbank_tr05_cont.4.ark:47742059
40ic020r /scratch/ravanelm/exp/dirha/fbank/raw_fbank_tr05_cont.4.ark:32863099
02ec020o /scratch/ravanelm/exp/dirha/fbank/raw_fbank_tr05_cont.2.ark:53013569
40bc020g /scratch/ravanelm/exp/dirha/fbank/raw_fbank_tr05_cont.4.ark:11354829
020c0213 /scratch/ravanelm/exp/dirha/fbank/raw_fbank_tr05_cont.2.ark:26860589
015c021a /scratch/ravanelm/exp/dirha/fbank/raw_fbank_tr05_cont.1.ark:10616829
40po031a /scratch/ravanelm/exp/dirha/fbank/raw_fbank_tr05_cont.4.ark:54096419
40gc021f /scratch/ravanelm/exp/dirha/fbank/raw_fbank_tr05_cont.4.ark:26944629
40fc0218 /scratch/ravanelm/exp/dirha/fbank/raw_fbank_tr05_cont.4.ark:23239499
404o030x /scratch/ravanelm/exp/dirha/fbank/raw_fbank_tr05_cont.3.ark:47785419
01lo030t /scratch/ravanelm/exp/dirha/fbank/raw_fbank_tr05_cont.1.ark:53051489
20bo010j /scratch/ravanelm/exp/dirha/fbank/raw_fbank_tr05_cont.3.ark:13906279
013c0217 /scratch/ravanelm/exp/dirha/fbank/raw_fbank_tr05_cont.1.ark:4762579
02bc020u /scratch/ravanelm/exp/dirha/fbank/raw_fbank_tr05_cont.2.ark:46812989
406c021f /scratch/ravanelm/exp/dirha/fbank/raw_fbank_tr05_cont.3.ark:52190779
40do030m /scratch/ravanelm/exp/dirha/fbank/raw_fbank_tr05_cont.4.ark:18620169
01jc0202 /scratch/ravanelm/exp/dirha/fbank/raw_fbank_tr05_cont.1.ark:43054199
020o031a /scratch/ravanelm/exp/dirha/fbank/raw_fbank_tr05_cont.2.ark:27920819
40fc021g /scratch/ravanelm/exp/dirha/fbank/raw_fbank_tr05_cont.4.ark:23448499
01wc0218 /scratch/ravanelm/exp/dirha/fbank/raw_fbank_tr05_cont.2.ark:17783319
40bo030p /scratch/ravanelm/exp/dirha/fbank/raw_fbank_tr05_cont.4.ark:13203939
020o0306 /scratch/ravanelm/exp/dirha/fbank/raw_fbank_tr05_cont.2.ark:27180019
40cc0202 /scratch/ravanelm/exp/dirha/fbank/raw_fbank_tr05_cont.4.ark:13994189
40ho030g /scratch/ravanelm/exp/dirha/fbank/raw_fbank_tr05_cont.4.ark:30891419
01ec021f /scratch/ravanelm/exp/dirha/fbank/raw_fbank_tr05_cont.1.ark:31845579
40cc020v /scratch/ravanelm/exp/dirha/fbank/raw_fbank_tr05_cont.4.ark:14657579
01mo0306 /scratch/ravanelm/exp/dirha/fbank/raw_fbank_tr05_cont.1.ark:55567919
027c020j /scratch/ravanelm/exp/dirha/fbank/raw_fbank_tr05_cont.2.ark:37107929
40ic021e /scratch/ravanelm/exp/dirha/fbank/raw_fbank_tr05_cont.4.ark:33472949
207c010f /scratch/ravanelm/exp/dirha/fbank/raw_fbank_tr05_cont.3.ark:6333689
015c0217 /scratch/ravanelm/exp/dirha/fbank/raw_fbank_tr05_cont.1.ark:10537859
01fc021a /scratch/ravanelm/exp/dirha/fbank/raw_fbank_tr05_cont.1.ark:34594199
018c020v /scratch/ravanelm/exp/dirha/fbank/raw_fbank_tr05_cont.1.ark:18478449
01gc020r /scratch/ravanelm/exp/dirha/fbank/raw_fbank_tr05_cont.1.ark:37156389
020c0217 /scratch/ravanelm/exp/dirha/fbank/raw_fbank_tr05_cont.2.ark:26923909
021o030p /scratch/ravanelm/exp/dirha/fbank/raw_fbank_tr05_cont.2.ark:30134349
015c020s /scratch/ravanelm/exp/dirha/fbank/raw_fbank_tr05_cont.1.ark:10193609
40ac021d /scratch/ravanelm/exp/dirha/fbank/raw_fbank_tr05_cont.4.ark:9278389
40ho0313 /scratch/ravanelm/exp/dirha/fbank/raw_fbank_tr05_cont.4.ark:31677269
40ko030l /scratch/ravanelm/exp/dirha/fbank/raw_fbank_tr05_cont.4.ark:40303549
20fo010k /scratch/ravanelm/exp/dirha/fbank/raw_fbank_tr05_cont.3.ark:20567739
40no0315 /scratch/ravanelm/exp/dirha/fbank/raw_fbank_tr05_cont.4.ark:51053509
20ho0102 /scratch/ravanelm/exp/dirha/fbank/raw_fbank_tr05_cont.3.ark:22634659
40gc020n /scratch/ravanelm/exp/dirha/fbank/raw_fbank_tr05_cont.4.ark:25951149
40lc020o /scratch/ravanelm/exp/dirha/fbank/raw_fbank_tr05_cont.4.ark:42028319
40go030t /scratch/ravanelm/exp/dirha/fbank/raw_fbank_tr05_cont.4.ark:28127379
20ac010m /scratch/ravanelm/exp/dirha/fbank/raw_fbank_tr05_cont.3.ark:11299269
403o0315 /scratch/ravanelm/exp/dirha/fbank/raw_fbank_tr05_cont.3.ark:45364839
40mo031c /scratch/ravanelm/exp/dirha/fbank/raw_fbank_tr05_cont.4.ark:48005769
401c020u /scratch/ravanelm/exp/dirha/fbank/raw_fbank_tr05_cont.3.ark:40415409
408o0308 /scratch/ravanelm/exp/dirha/fbank/raw_fbank_tr05_cont.4.ark:3798609
028o030c /scratch/ravanelm/exp/dirha/fbank/raw_fbank_tr05_cont.2.ark:41488289
020o0319 /scratch/ravanelm/exp/dirha/fbank/raw_fbank_tr05_cont.2.ark:27879069
40jo030r /scratch/ravanelm/exp/dirha/fbank/raw_fbank_tr05_cont.4.ark:37437199
01to030y /scratch/ravanelm/exp/dirha/fbank/raw_fbank_tr05_cont.2.ark:12444059
40do031b /scratch/ravanelm/exp/dirha/fbank/raw_fbank_tr05_cont.4.ark:19332999
01ec020x /scratch/ravanelm/exp/dirha/fbank/raw_fbank_tr05_cont.1.ark:31281989
018o0303 /scratch/ravanelm/exp/dirha/fbank/raw_fbank_tr05_cont.1.ark:19257929
02eo030k /scratch/ravanelm/exp/dirha/fbank/raw_fbank_tr05_cont.2.ark:54513389
40no030m /scratch/ravanelm/exp/dirha/fbank/raw_fbank_tr05_cont.4.ark:50389899
01mo030n /scratch/ravanelm/exp/dirha/fbank/raw_fbank_tr05_cont.1.ark:56057189
20cc0101 /scratch/ravanelm/exp/dirha/fbank/raw_fbank_tr05_cont.3.ark:14271269
40kc020p /scratch/ravanelm/exp/dirha/fbank/raw_fbank_tr05_cont.4.ark:38942589
406o0317 /scratch/ravanelm/exp/dirha/fbank/raw_fbank_tr05_cont.3.ark:53558229
40no030e /scratch/ravanelm/exp/dirha/fbank/raw_fbank_tr05_cont.4.ark:50090819
40co030q /scratch/ravanelm/exp/dirha/fbank/raw_fbank_tr05_cont.4.ark:15838409
011c020t /scratch/ravanelm/exp/dirha/fbank/raw_fbank_tr05_cont.1.ark:784409
409c0211 /scratch/ravanelm/exp/dirha/fbank/raw_fbank_tr05_cont.4.ark:5893759
020c0209 /scratch/ravanelm/exp/dirha/fbank/raw_fbank_tr05_cont.2.ark:26259689
40ao0318 /scratch/ravanelm/exp/dirha/fbank/raw_fbank_tr05_cont.4.ark:10699899
20oc0103 /scratch/ravanelm/exp/dirha/fbank/raw_fbank_tr05_cont.3.ark:30375249
406c020v /scratch/ravanelm/exp/dirha/fbank/raw_fbank_tr05_cont.3.ark:51677979
01fc020n /scratch/ravanelm/exp/dirha/fbank/raw_fbank_tr05_cont.1.ark:33980509
40ko0316 /scratch/ravanelm/exp/dirha/fbank/raw_fbank_tr05_cont.4.ark:41072539
40eo0304 /scratch/ravanelm/exp/dirha/fbank/raw_fbank_tr05_cont.4.ark:20743049
01uc0217 /scratch/ravanelm/exp/dirha/fbank/raw_fbank_tr05_cont.2.ark:14488009
01jc0201 /scratch/ravanelm/exp/dirha/fbank/raw_fbank_tr05_cont.1.ark:43016809
015o0312 /scratch/ravanelm/exp/dirha/fbank/raw_fbank_tr05_cont.1.ark:12015129
40po0302 /scratch/ravanelm/exp/dirha/fbank/raw_fbank_tr05_cont.4.ark:52599819
40lo031f /scratch/ravanelm/exp/dirha/fbank/raw_fbank_tr05_cont.4.ark:44968979
01dc0210 /scratch/ravanelm/exp/dirha/fbank/raw_fbank_tr05_cont.1.ark:28336639
404c0215 /scratch/ravanelm/exp/dirha/fbank/raw_fbank_tr05_cont.3.ark:46561049
401c020r /scratch/ravanelm/exp/dirha/fbank/raw_fbank_tr05_cont.3.ark:40346679
024o030c /scratch/ravanelm/exp/dirha/fbank/raw_fbank_tr05_cont.2.ark:32677149
407c0206 /scratch/ravanelm/exp/dirha/fbank/raw_fbank_tr05_cont.3.ark:53884629
40no030b /scratch/ravanelm/exp/dirha/fbank/raw_fbank_tr05_cont.4.ark:49995329
40bo0318 /scratch/ravanelm/exp/dirha/fbank/raw_fbank_tr05_cont.4.ark:13795249
01wo030n /scratch/ravanelm/exp/dirha/fbank/raw_fbank_tr05_cont.2.ark:18677819
40nc020l /scratch/ravanelm/exp/dirha/fbank/raw_fbank_tr05_cont.4.ark:48663469
40pc0215 /scratch/ravanelm/exp/dirha/fbank/raw_fbank_tr05_cont.4.ark:52356379
011c020q /scratch/ravanelm/exp/dirha/fbank/raw_fbank_tr05_cont.1.ark:697679
011c020g /scratch/ravanelm/exp/dirha/fbank/raw_fbank_tr05_cont.1.ark:392059
019c0208 /scratch/ravanelm/exp/dirha/fbank/raw_fbank_tr05_cont.1.ark:21263599
40ic0215 /scratch/ravanelm/exp/dirha/fbank/raw_fbank_tr05_cont.4.ark:33228679
01yc021c /scratch/ravanelm/exp/dirha/fbank/raw_fbank_tr05_cont.2.ark:20814809
40lc020a /scratch/ravanelm/exp/dirha/fbank/raw_fbank_tr05_cont.4.ark:41595539
406o0309 /scratch/ravanelm/exp/dirha/fbank/raw_fbank_tr05_cont.3.ark:52462889
