401c0218 /scratch/ravanelm/exp/dirha/fbank/raw_fbank_tr05_cont.3.ark:40847989
206o010b /scratch/ravanelm/exp/dirha/fbank/raw_fbank_tr05_cont.3.ark:5146649
029c0207 /scratch/ravanelm/exp/dirha/fbank/raw_fbank_tr05_cont.2.ark:43023889
40cc020n /scratch/ravanelm/exp/dirha/fbank/raw_fbank_tr05_cont.4.ark:14503579
20oo0108 /scratch/ravanelm/exp/dirha/fbank/raw_fbank_tr05_cont.3.ark:31088999
40go030a /scratch/ravanelm/exp/dirha/fbank/raw_fbank_tr05_cont.4.ark:27366489
20fo010l /scratch/ravanelm/exp/dirha/fbank/raw_fbank_tr05_cont.3.ark:20597289
018c020j /scratch/ravanelm/exp/dirha/fbank/raw_fbank_tr05_cont.1.ark:18159689
404c020w /scratch/ravanelm/exp/dirha/fbank/raw_fbank_tr05_cont.3.ark:46342819
407c021h /scratch/ravanelm/exp/dirha/fbank/raw_fbank_tr05_cont.4.ark:602719
20ac0103 /scratch/ravanelm/exp/dirha/fbank/raw_fbank_tr05_cont.3.ark:10756619
015o0309 /scratch/ravanelm/exp/dirha/fbank/raw_fbank_tr05_cont.1.ark:11045419
027o0312 /scratch/ravanelm/exp/dirha/fbank/raw_fbank_tr05_cont.2.ark:39474929
01zc020l /scratch/ravanelm/exp/dirha/fbank/raw_fbank_tr05_cont.2.ark:23200319
20bo010q /scratch/ravanelm/exp/dirha/fbank/raw_fbank_tr05_cont.3.ark:14168729
409o0316 /scratch/ravanelm/exp/dirha/fbank/raw_fbank_tr05_cont.4.ark:7507749
027o030q /scratch/ravanelm/exp/dirha/fbank/raw_fbank_tr05_cont.2.ark:39001529
40fc0209 /scratch/ravanelm/exp/dirha/fbank/raw_fbank_tr05_cont.4.ark:22232529
027o030m /scratch/ravanelm/exp/dirha/fbank/raw_fbank_tr05_cont.2.ark:38875289
20vo0107 /scratch/ravanelm/exp/dirha/fbank/raw_fbank_tr05_cont.3.ark:38924539
205o0106 /scratch/ravanelm/exp/dirha/fbank/raw_fbank_tr05_cont.3.ark:3313909
02cc0218 /scratch/ravanelm/exp/dirha/fbank/raw_fbank_tr05_cont.2.ark:50342659
40gc020e /scratch/ravanelm/exp/dirha/fbank/raw_fbank_tr05_cont.4.ark:25657039
01gc021c /scratch/ravanelm/exp/dirha/fbank/raw_fbank_tr05_cont.1.ark:37713499
20fc010a /scratch/ravanelm/exp/dirha/fbank/raw_fbank_tr05_cont.3.ark:19525859
20vo010h /scratch/ravanelm/exp/dirha/fbank/raw_fbank_tr05_cont.3.ark:39218439
01fc020i /scratch/ravanelm/exp/dirha/fbank/raw_fbank_tr05_cont.1.ark:33905079
40mo0305 /scratch/ravanelm/exp/dirha/fbank/raw_fbank_tr05_cont.4.ark:46554199
014o030j /scratch/ravanelm/exp/dirha/fbank/raw_fbank_tr05_cont.1.ark:8340349
01yo0306 /scratch/ravanelm/exp/dirha/fbank/raw_fbank_tr05_cont.2.ark:21108909
026c020z /scratch/ravanelm/exp/dirha/fbank/raw_fbank_tr05_cont.2.ark:34671729
40fc020s /scratch/ravanelm/exp/dirha/fbank/raw_fbank_tr05_cont.4.ark:22761019
40lo030s /scratch/ravanelm/exp/dirha/fbank/raw_fbank_tr05_cont.4.ark:44014649
40co0311 /scratch/ravanelm/exp/dirha/fbank/raw_fbank_tr05_cont.4.ark:16081299
01jo030n /scratch/ravanelm/exp/dirha/fbank/raw_fbank_tr05_cont.1.ark:45421749
024o031b /scratch/ravanelm/exp/dirha/fbank/raw_fbank_tr05_cont.2.ark:33678559
018o0304 /scratch/ravanelm/exp/dirha/fbank/raw_fbank_tr05_cont.1.ark:19299959
01lc020v /scratch/ravanelm/exp/dirha/fbank/raw_fbank_tr05_cont.1.ark:51231539
405c020f /scratch/ravanelm/exp/dirha/fbank/raw_fbank_tr05_cont.3.ark:48620909
401o0316 /scratch/ravanelm/exp/dirha/fbank/raw_fbank_tr05_cont.3.ark:42567309
20vo010o /scratch/ravanelm/exp/dirha/fbank/raw_fbank_tr05_cont.3.ark:39456409
40kc020z /scratch/ravanelm/exp/dirha/fbank/raw_fbank_tr05_cont.4.ark:39230329
018o031a /scratch/ravanelm/exp/dirha/fbank/raw_fbank_tr05_cont.1.ark:20949059
20vo0101 /scratch/ravanelm/exp/dirha/fbank/raw_fbank_tr05_cont.3.ark:38755879
40no030u /scratch/ravanelm/exp/dirha/fbank/raw_fbank_tr05_cont.4.ark:50654939
40fo031e /scratch/ravanelm/exp/dirha/fbank/raw_fbank_tr05_cont.4.ark:25051599
01io0318 /scratch/ravanelm/exp/dirha/fbank/raw_fbank_tr05_cont.1.ark:42783609
015c020u /scratch/ravanelm/exp/dirha/fbank/raw_fbank_tr05_cont.1.ark:10240669
20fo0101 /scratch/ravanelm/exp/dirha/fbank/raw_fbank_tr05_cont.3.ark:19939729
016o0314 /scratch/ravanelm/exp/dirha/fbank/raw_fbank_tr05_cont.1.ark:14474529
40io030n /scratch/ravanelm/exp/dirha/fbank/raw_fbank_tr05_cont.4.ark:34240349
01qo030o /scratch/ravanelm/exp/dirha/fbank/raw_fbank_tr05_cont.2.ark:5853319
013c020b /scratch/ravanelm/exp/dirha/fbank/raw_fbank_tr05_cont.1.ark:3861339
40jc020o /scratch/ravanelm/exp/dirha/fbank/raw_fbank_tr05_cont.4.ark:35729809
018o030u /scratch/ravanelm/exp/dirha/fbank/raw_fbank_tr05_cont.1.ark:20289099
409o030n /scratch/ravanelm/exp/dirha/fbank/raw_fbank_tr05_cont.4.ark:6973539
01qc0218 /scratch/ravanelm/exp/dirha/fbank/raw_fbank_tr05_cont.2.ark:4817899
40fo030a /scratch/ravanelm/exp/dirha/fbank/raw_fbank_tr05_cont.4.ark:23775879
20tc010i /scratch/ravanelm/exp/dirha/fbank/raw_fbank_tr05_cont.3.ark:37180989
20gc0103 /scratch/ravanelm/exp/dirha/fbank/raw_fbank_tr05_cont.3.ark:20789819
404o0310 /scratch/ravanelm/exp/dirha/fbank/raw_fbank_tr05_cont.3.ark:47854909
20to0104 /scratch/ravanelm/exp/dirha/fbank/raw_fbank_tr05_cont.3.ark:37502549
01wo0317 /scratch/ravanelm/exp/dirha/fbank/raw_fbank_tr05_cont.2.ark:19291149
01fc021e /scratch/ravanelm/exp/dirha/fbank/raw_fbank_tr05_cont.1.ark:34726519
011c020b /scratch/ravanelm/exp/dirha/fbank/raw_fbank_tr05_cont.1.ark:254949
404o030x /scratch/ravanelm/exp/dirha/fbank/raw_fbank_tr05_cont.3.ark:47785419
013o0316 /scratch/ravanelm/exp/dirha/fbank/raw_fbank_tr05_cont.1.ark:6253319
01kc0212 /scratch/ravanelm/exp/dirha/fbank/raw_fbank_tr05_cont.1.ark:47653409
01fo030d /scratch/ravanelm/exp/dirha/fbank/raw_fbank_tr05_cont.1.ark:35250569
404o030p /scratch/ravanelm/exp/dirha/fbank/raw_fbank_tr05_cont.3.ark:47539739
013c0203 /scratch/ravanelm/exp/dirha/fbank/raw_fbank_tr05_cont.1.ark:3608019
20no0104 /scratch/ravanelm/exp/dirha/fbank/raw_fbank_tr05_cont.3.ark:29358069
028c020w /scratch/ravanelm/exp/dirha/fbank/raw_fbank_tr05_cont.2.ark:40535439
20mc0101 /scratch/ravanelm/exp/dirha/fbank/raw_fbank_tr05_cont.3.ark:26993959
01dc021b /scratch/ravanelm/exp/dirha/fbank/raw_fbank_tr05_cont.1.ark:28654889
01wc020i /scratch/ravanelm/exp/dirha/fbank/raw_fbank_tr05_cont.2.ark:17138649
020o0319 /scratch/ravanelm/exp/dirha/fbank/raw_fbank_tr05_cont.2.ark:27879069
028c0201 /scratch/ravanelm/exp/dirha/fbank/raw_fbank_tr05_cont.2.ark:39789589
20ho0103 /scratch/ravanelm/exp/dirha/fbank/raw_fbank_tr05_cont.3.ark:22678449
20lo010d /scratch/ravanelm/exp/dirha/fbank/raw_fbank_tr05_cont.3.ark:26373939
01gc020p /scratch/ravanelm/exp/dirha/fbank/raw_fbank_tr05_cont.1.ark:37104369
013o030x /scratch/ravanelm/exp/dirha/fbank/raw_fbank_tr05_cont.1.ark:5945849
011o030h /scratch/ravanelm/exp/dirha/fbank/raw_fbank_tr05_cont.1.ark:2010269
01ic020o /scratch/ravanelm/exp/dirha/fbank/raw_fbank_tr05_cont.1.ark:40391279
40fo030y /scratch/ravanelm/exp/dirha/fbank/raw_fbank_tr05_cont.4.ark:24537719
02ec020i /scratch/ravanelm/exp/dirha/fbank/raw_fbank_tr05_cont.2.ark:52823909
40mc020m /scratch/ravanelm/exp/dirha/fbank/raw_fbank_tr05_cont.4.ark:45575749
40fc020i /scratch/ravanelm/exp/dirha/fbank/raw_fbank_tr05_cont.4.ark:22463999
01go0315 /scratch/ravanelm/exp/dirha/fbank/raw_fbank_tr05_cont.1.ark:39199109
40dc020g /scratch/ravanelm/exp/dirha/fbank/raw_fbank_tr05_cont.4.ark:16879349
40no0303 /scratch/ravanelm/exp/dirha/fbank/raw_fbank_tr05_cont.4.ark:49676289
40nc020b /scratch/ravanelm/exp/dirha/fbank/raw_fbank_tr05_cont.4.ark:48332209
206c010k /scratch/ravanelm/exp/dirha/fbank/raw_fbank_tr05_cont.3.ark:4712339
40mc020t /scratch/ravanelm/exp/dirha/fbank/raw_fbank_tr05_cont.4.ark:45742719
01fo030u /scratch/ravanelm/exp/dirha/fbank/raw_fbank_tr05_cont.1.ark:35769039
20to010i /scratch/ravanelm/exp/dirha/fbank/raw_fbank_tr05_cont.3.ark:37867129
40nc0216 /scratch/ravanelm/exp/dirha/fbank/raw_fbank_tr05_cont.4.ark:49270539
40fc0204 /scratch/ravanelm/exp/dirha/fbank/raw_fbank_tr05_cont.4.ark:22099899
40nc0206 /scratch/ravanelm/exp/dirha/fbank/raw_fbank_tr05_cont.4.ark:48185739
40ao0319 /scratch/ravanelm/exp/dirha/fbank/raw_fbank_tr05_cont.4.ark:10734129
029c0201 /scratch/ravanelm/exp/dirha/fbank/raw_fbank_tr05_cont.2.ark:42867989
40fc020k /scratch/ravanelm/exp/dirha/fbank/raw_fbank_tr05_cont.4.ark:22519739
405o030y /scratch/ravanelm/exp/dirha/fbank/raw_fbank_tr05_cont.3.ark:50421089
026c020q /scratch/ravanelm/exp/dirha/fbank/raw_fbank_tr05_cont.2.ark:34488499
401c020d /scratch/ravanelm/exp/dirha/fbank/raw_fbank_tr05_cont.3.ark:39990819
40ic020k /scratch/ravanelm/exp/dirha/fbank/raw_fbank_tr05_cont.4.ark:32635929
40eo030p /scratch/ravanelm/exp/dirha/fbank/raw_fbank_tr05_cont.4.ark:21390519
01dc020r /scratch/ravanelm/exp/dirha/fbank/raw_fbank_tr05_cont.1.ark:28100369
01fo030x /scratch/ravanelm/exp/dirha/fbank/raw_fbank_tr05_cont.1.ark:35848729
40cc0201 /scratch/ravanelm/exp/dirha/fbank/raw_fbank_tr05_cont.4.ark:13961519
026o031c /scratch/ravanelm/exp/dirha/fbank/raw_fbank_tr05_cont.2.ark:36594959
017o0318 /scratch/ravanelm/exp/dirha/fbank/raw_fbank_tr05_cont.1.ark:17411459
40cc021b /scratch/ravanelm/exp/dirha/fbank/raw_fbank_tr05_cont.4.ark:15021979
20qo010b /scratch/ravanelm/exp/dirha/fbank/raw_fbank_tr05_cont.3.ark:34432019
01fo0315 /scratch/ravanelm/exp/dirha/fbank/raw_fbank_tr05_cont.1.ark:36102009
40bo030l /scratch/ravanelm/exp/dirha/fbank/raw_fbank_tr05_cont.4.ark:13059699
40ao031a /scratch/ravanelm/exp/dirha/fbank/raw_fbank_tr05_cont.4.ark:10758279
40dc0216 /scratch/ravanelm/exp/dirha/fbank/raw_fbank_tr05_cont.4.ark:17695369
40mc0213 /scratch/ravanelm/exp/dirha/fbank/raw_fbank_tr05_cont.4.ark:45985339
407c0214 /scratch/ravanelm/exp/dirha/fbank/raw_fbank_tr05_cont.4.ark:195369
02bc020u /scratch/ravanelm/exp/dirha/fbank/raw_fbank_tr05_cont.2.ark:46812989
209c010d /scratch/ravanelm/exp/dirha/fbank/raw_fbank_tr05_cont.3.ark:9587629
40ho030c /scratch/ravanelm/exp/dirha/fbank/raw_fbank_tr05_cont.4.ark:30756419
406c0214 /scratch/ravanelm/exp/dirha/fbank/raw_fbank_tr05_cont.3.ark:51921449
20qc010e /scratch/ravanelm/exp/dirha/fbank/raw_fbank_tr05_cont.3.ark:33689039
01yo0308 /scratch/ravanelm/exp/dirha/fbank/raw_fbank_tr05_cont.2.ark:21154249
013c0201 /scratch/ravanelm/exp/dirha/fbank/raw_fbank_tr05_cont.1.ark:3528959
011c020d /scratch/ravanelm/exp/dirha/fbank/raw_fbank_tr05_cont.1.ark:311929
011c021d /scratch/ravanelm/exp/dirha/fbank/raw_fbank_tr05_cont.1.ark:1340409
40io0302 /scratch/ravanelm/exp/dirha/fbank/raw_fbank_tr05_cont.4.ark:33581959
027o030l /scratch/ravanelm/exp/dirha/fbank/raw_fbank_tr05_cont.2.ark:38845779
40ec020o /scratch/ravanelm/exp/dirha/fbank/raw_fbank_tr05_cont.4.ark:19927819
017c0211 /scratch/ravanelm/exp/dirha/fbank/raw_fbank_tr05_cont.1.ark:15667889
01ko031c /scratch/ravanelm/exp/dirha/fbank/raw_fbank_tr05_cont.1.ark:49992129
40bo030p /scratch/ravanelm/exp/dirha/fbank/raw_fbank_tr05_cont.4.ark:13203939
01pc020e /scratch/ravanelm/exp/dirha/fbank/raw_fbank_tr05_cont.2.ark:806949
40io030m /scratch/ravanelm/exp/dirha/fbank/raw_fbank_tr05_cont.4.ark:34206519
407c020j /scratch/ravanelm/exp/dirha/fbank/raw_fbank_tr05_cont.3.ark:54237659
40co030b /scratch/ravanelm/exp/dirha/fbank/raw_fbank_tr05_cont.4.ark:15414239
01to0316 /scratch/ravanelm/exp/dirha/fbank/raw_fbank_tr05_cont.2.ark:12711939
405c020t /scratch/ravanelm/exp/dirha/fbank/raw_fbank_tr05_cont.3.ark:48958929
011c0203 /scratch/ravanelm/exp/dirha/fbank/raw_fbank_tr05_cont.1.ark:54509
01dc0211 /scratch/ravanelm/exp/dirha/fbank/raw_fbank_tr05_cont.1.ark:28373069
207o0101 /scratch/ravanelm/exp/dirha/fbank/raw_fbank_tr05_cont.3.ark:6594169
20no010d /scratch/ravanelm/exp/dirha/fbank/raw_fbank_tr05_cont.3.ark:29713939
40ec020c /scratch/ravanelm/exp/dirha/fbank/raw_fbank_tr05_cont.4.ark:19674659
024c0209 /scratch/ravanelm/exp/dirha/fbank/raw_fbank_tr05_cont.2.ark:31147039
027c020x /scratch/ravanelm/exp/dirha/fbank/raw_fbank_tr05_cont.2.ark:37452069
40fo031a /scratch/ravanelm/exp/dirha/fbank/raw_fbank_tr05_cont.4.ark:24920919
016o030o /scratch/ravanelm/exp/dirha/fbank/raw_fbank_tr05_cont.1.ark:14036849
40ec0203 /scratch/ravanelm/exp/dirha/fbank/raw_fbank_tr05_cont.4.ark:19475789
028o0313 /scratch/ravanelm/exp/dirha/fbank/raw_fbank_tr05_cont.2.ark:42469099
01pc021e /scratch/ravanelm/exp/dirha/fbank/raw_fbank_tr05_cont.2.ark:1856189
029c020i /scratch/ravanelm/exp/dirha/fbank/raw_fbank_tr05_cont.2.ark:43329019
20dc010f /scratch/ravanelm/exp/dirha/fbank/raw_fbank_tr05_cont.3.ark:16178629
017o0307 /scratch/ravanelm/exp/dirha/fbank/raw_fbank_tr05_cont.1.ark:16262229
014o030k /scratch/ravanelm/exp/dirha/fbank/raw_fbank_tr05_cont.1.ark:8378899
024c0207 /scratch/ravanelm/exp/dirha/fbank/raw_fbank_tr05_cont.2.ark:31070779
40ko030l /scratch/ravanelm/exp/dirha/fbank/raw_fbank_tr05_cont.4.ark:40303549
01wo0308 /scratch/ravanelm/exp/dirha/fbank/raw_fbank_tr05_cont.2.ark:18164849
01eo0303 /scratch/ravanelm/exp/dirha/fbank/raw_fbank_tr05_cont.1.ark:31941789
20oc010a /scratch/ravanelm/exp/dirha/fbank/raw_fbank_tr05_cont.3.ark:30598979
014c020j /scratch/ravanelm/exp/dirha/fbank/raw_fbank_tr05_cont.1.ark:6967159
406o0309 /scratch/ravanelm/exp/dirha/fbank/raw_fbank_tr05_cont.3.ark:52462889
20mc010p /scratch/ravanelm/exp/dirha/fbank/raw_fbank_tr05_cont.3.ark:27642279
020c020k /scratch/ravanelm/exp/dirha/fbank/raw_fbank_tr05_cont.2.ark:26497819
40pc021e /scratch/ravanelm/exp/dirha/fbank/raw_fbank_tr05_cont.4.ark:52542449
404c0204 /scratch/ravanelm/exp/dirha/fbank/raw_fbank_tr05_cont.3.ark:45648739
01mc020c /scratch/ravanelm/exp/dirha/fbank/raw_fbank_tr05_cont.1.ark:54321089
02eo030g /scratch/ravanelm/exp/dirha/fbank/raw_fbank_tr05_cont.2.ark:54392469
01jc020j /scratch/ravanelm/exp/dirha/fbank/raw_fbank_tr05_cont.1.ark:43580989
20ao010l /scratch/ravanelm/exp/dirha/fbank/raw_fbank_tr05_cont.3.ark:12240439
013o030o /scratch/ravanelm/exp/dirha/fbank/raw_fbank_tr05_cont.1.ark:5680699
406o030o /scratch/ravanelm/exp/dirha/fbank/raw_fbank_tr05_cont.3.ark:52916819
014o0318 /scratch/ravanelm/exp/dirha/fbank/raw_fbank_tr05_cont.1.ark:9226739
01kc0210 /scratch/ravanelm/exp/dirha/fbank/raw_fbank_tr05_cont.1.ark:47605109
40ic020m /scratch/ravanelm/exp/dirha/fbank/raw_fbank_tr05_cont.4.ark:32712269
40do0315 /scratch/ravanelm/exp/dirha/fbank/raw_fbank_tr05_cont.4.ark:19180179
401c020q /scratch/ravanelm/exp/dirha/fbank/raw_fbank_tr05_cont.3.ark:40319489
018o030k /scratch/ravanelm/exp/dirha/fbank/raw_fbank_tr05_cont.1.ark:19909919
01uo0309 /scratch/ravanelm/exp/dirha/fbank/raw_fbank_tr05_cont.2.ark:15036359
40mc021a /scratch/ravanelm/exp/dirha/fbank/raw_fbank_tr05_cont.4.ark:46200989
024o0312 /scratch/ravanelm/exp/dirha/fbank/raw_fbank_tr05_cont.2.ark:33466529
011c0204 /scratch/ravanelm/exp/dirha/fbank/raw_fbank_tr05_cont.1.ark:97619
01ic0202 /scratch/ravanelm/exp/dirha/fbank/raw_fbank_tr05_cont.1.ark:39707299
20vc0109 /scratch/ravanelm/exp/dirha/fbank/raw_fbank_tr05_cont.3.ark:38332089
409o0301 /scratch/ravanelm/exp/dirha/fbank/raw_fbank_tr05_cont.4.ark:6305079
011c0210 /scratch/ravanelm/exp/dirha/fbank/raw_fbank_tr05_cont.1.ark:985339
01pc020g /scratch/ravanelm/exp/dirha/fbank/raw_fbank_tr05_cont.2.ark:871649
01zo030f /scratch/ravanelm/exp/dirha/fbank/raw_fbank_tr05_cont.2.ark:24585829
20hc010n /scratch/ravanelm/exp/dirha/fbank/raw_fbank_tr05_cont.3.ark:22510589
01rc0213 /scratch/ravanelm/exp/dirha/fbank/raw_fbank_tr05_cont.2.ark:7877169
01wo030a /scratch/ravanelm/exp/dirha/fbank/raw_fbank_tr05_cont.2.ark:18260349
40lo030d /scratch/ravanelm/exp/dirha/fbank/raw_fbank_tr05_cont.4.ark:43334399
020c020u /scratch/ravanelm/exp/dirha/fbank/raw_fbank_tr05_cont.2.ark:26693199
013o031c /scratch/ravanelm/exp/dirha/fbank/raw_fbank_tr05_cont.1.ark:6416299
40gc0217 /scratch/ravanelm/exp/dirha/fbank/raw_fbank_tr05_cont.4.ark:26693029
40jo031d /scratch/ravanelm/exp/dirha/fbank/raw_fbank_tr05_cont.4.ark:38171099
406o030p /scratch/ravanelm/exp/dirha/fbank/raw_fbank_tr05_cont.3.ark:52936009
01to0302 /scratch/ravanelm/exp/dirha/fbank/raw_fbank_tr05_cont.2.ark:11346409
20go010s /scratch/ravanelm/exp/dirha/fbank/raw_fbank_tr05_cont.3.ark:22061579
017o030q /scratch/ravanelm/exp/dirha/fbank/raw_fbank_tr05_cont.1.ark:16859999
40kc020b /scratch/ravanelm/exp/dirha/fbank/raw_fbank_tr05_cont.4.ark:38547289
019c020j /scratch/ravanelm/exp/dirha/fbank/raw_fbank_tr05_cont.1.ark:21525089
019o030a /scratch/ravanelm/exp/dirha/fbank/raw_fbank_tr05_cont.1.ark:22700649
404c020q /scratch/ravanelm/exp/dirha/fbank/raw_fbank_tr05_cont.3.ark:46229679
40lo0307 /scratch/ravanelm/exp/dirha/fbank/raw_fbank_tr05_cont.4.ark:43117379
021o030p /scratch/ravanelm/exp/dirha/fbank/raw_fbank_tr05_cont.2.ark:30134349
207o010o /scratch/ravanelm/exp/dirha/fbank/raw_fbank_tr05_cont.3.ark:7423899
026c0212 /scratch/ravanelm/exp/dirha/fbank/raw_fbank_tr05_cont.2.ark:34761739
40cc021c /scratch/ravanelm/exp/dirha/fbank/raw_fbank_tr05_cont.4.ark:15044129
40ho0317 /scratch/ravanelm/exp/dirha/fbank/raw_fbank_tr05_cont.4.ark:31786629
40cc0214 /scratch/ravanelm/exp/dirha/fbank/raw_fbank_tr05_cont.4.ark:14881209
409c020j /scratch/ravanelm/exp/dirha/fbank/raw_fbank_tr05_cont.4.ark:5379939
01gc020n /scratch/ravanelm/exp/dirha/fbank/raw_fbank_tr05_cont.1.ark:37036069
029o030k /scratch/ravanelm/exp/dirha/fbank/raw_fbank_tr05_cont.2.ark:44909519
027c020w /scratch/ravanelm/exp/dirha/fbank/raw_fbank_tr05_cont.2.ark:37409959
40fc021f /scratch/ravanelm/exp/dirha/fbank/raw_fbank_tr05_cont.4.ark:23425669
406o0313 /scratch/ravanelm/exp/dirha/fbank/raw_fbank_tr05_cont.3.ark:53421189
20bo010r /scratch/ravanelm/exp/dirha/fbank/raw_fbank_tr05_cont.3.ark:14226359
018c0218 /scratch/ravanelm/exp/dirha/fbank/raw_fbank_tr05_cont.1.ark:18867679
207o010u /scratch/ravanelm/exp/dirha/fbank/raw_fbank_tr05_cont.3.ark:7584399
40bo0313 /scratch/ravanelm/exp/dirha/fbank/raw_fbank_tr05_cont.4.ark:13645939
021c020u /scratch/ravanelm/exp/dirha/fbank/raw_fbank_tr05_cont.2.ark:28903009
403o030e /scratch/ravanelm/exp/dirha/fbank/raw_fbank_tr05_cont.3.ark:44536549
407o030i /scratch/ravanelm/exp/dirha/fbank/raw_fbank_tr05_cont.4.ark:1290049
01mc0209 /scratch/ravanelm/exp/dirha/fbank/raw_fbank_tr05_cont.1.ark:54264159
01to0311 /scratch/ravanelm/exp/dirha/fbank/raw_fbank_tr05_cont.2.ark:12532989
20eo010k /scratch/ravanelm/exp/dirha/fbank/raw_fbank_tr05_cont.3.ark:19000499
20qo0104 /scratch/ravanelm/exp/dirha/fbank/raw_fbank_tr05_cont.3.ark:34170209
017c0208 /scratch/ravanelm/exp/dirha/fbank/raw_fbank_tr05_cont.1.ark:14975099
20ic0106 /scratch/ravanelm/exp/dirha/fbank/raw_fbank_tr05_cont.3.ark:23530489
40bc0219 /scratch/ravanelm/exp/dirha/fbank/raw_fbank_tr05_cont.4.ark:12090779
01lo0313 /scratch/ravanelm/exp/dirha/fbank/raw_fbank_tr05_cont.1.ark:53557429
40bc0213 /scratch/ravanelm/exp/dirha/fbank/raw_fbank_tr05_cont.4.ark:11937399
403o030g /scratch/ravanelm/exp/dirha/fbank/raw_fbank_tr05_cont.3.ark:44590169
01lo030r /scratch/ravanelm/exp/dirha/fbank/raw_fbank_tr05_cont.1.ark:52997349
011o030f /scratch/ravanelm/exp/dirha/fbank/raw_fbank_tr05_cont.1.ark:1957809
20io0107 /scratch/ravanelm/exp/dirha/fbank/raw_fbank_tr05_cont.3.ark:24256039
20fo0109 /scratch/ravanelm/exp/dirha/fbank/raw_fbank_tr05_cont.3.ark:20238529
405c021a /scratch/ravanelm/exp/dirha/fbank/raw_fbank_tr05_cont.3.ark:49328479
404o0311 /scratch/ravanelm/exp/dirha/fbank/raw_fbank_tr05_cont.3.ark:47903259
01dc0201 /scratch/ravanelm/exp/dirha/fbank/raw_fbank_tr05_cont.1.ark:27430309
018c020y /scratch/ravanelm/exp/dirha/fbank/raw_fbank_tr05_cont.1.ark:18573659
01uo031c /scratch/ravanelm/exp/dirha/fbank/raw_fbank_tr05_cont.2.ark:16537649
20oc010b /scratch/ravanelm/exp/dirha/fbank/raw_fbank_tr05_cont.3.ark:30620369
024o030g /scratch/ravanelm/exp/dirha/fbank/raw_fbank_tr05_cont.2.ark:32799549
011c020f /scratch/ravanelm/exp/dirha/fbank/raw_fbank_tr05_cont.1.ark:372629
013c021c /scratch/ravanelm/exp/dirha/fbank/raw_fbank_tr05_cont.1.ark:4871169
024o0310 /scratch/ravanelm/exp/dirha/fbank/raw_fbank_tr05_cont.2.ark:33375029
01gc021e /scratch/ravanelm/exp/dirha/fbank/raw_fbank_tr05_cont.1.ark:37763919
208o010l /scratch/ravanelm/exp/dirha/fbank/raw_fbank_tr05_cont.3.ark:9056579
013o030q /scratch/ravanelm/exp/dirha/fbank/raw_fbank_tr05_cont.1.ark:5749839
206o0104 /scratch/ravanelm/exp/dirha/fbank/raw_fbank_tr05_cont.3.ark:4880439
40ao0309 /scratch/ravanelm/exp/dirha/fbank/raw_fbank_tr05_cont.4.ark:9551649
408o030h /scratch/ravanelm/exp/dirha/fbank/raw_fbank_tr05_cont.4.ark:4035199
407c021c /scratch/ravanelm/exp/dirha/fbank/raw_fbank_tr05_cont.4.ark:468889
40dc0206 /scratch/ravanelm/exp/dirha/fbank/raw_fbank_tr05_cont.4.ark:16597649
40jc020b /scratch/ravanelm/exp/dirha/fbank/raw_fbank_tr05_cont.4.ark:35372979
40ic021e /scratch/ravanelm/exp/dirha/fbank/raw_fbank_tr05_cont.4.ark:33472949
40hc0201 /scratch/ravanelm/exp/dirha/fbank/raw_fbank_tr05_cont.4.ark:29147639
204o010c /scratch/ravanelm/exp/dirha/fbank/raw_fbank_tr05_cont.3.ark:1889279
209o0106 /scratch/ravanelm/exp/dirha/fbank/raw_fbank_tr05_cont.3.ark:10103559
018c020c /scratch/ravanelm/exp/dirha/fbank/raw_fbank_tr05_cont.1.ark:17923919
029o0303 /scratch/ravanelm/exp/dirha/fbank/raw_fbank_tr05_cont.2.ark:44351969
40ko031c /scratch/ravanelm/exp/dirha/fbank/raw_fbank_tr05_cont.4.ark:41258679
013o0308 /scratch/ravanelm/exp/dirha/fbank/raw_fbank_tr05_cont.1.ark:5166299
405c0204 /scratch/ravanelm/exp/dirha/fbank/raw_fbank_tr05_cont.3.ark:48320619
028o030q /scratch/ravanelm/exp/dirha/fbank/raw_fbank_tr05_cont.2.ark:42029749
01wo0303 /scratch/ravanelm/exp/dirha/fbank/raw_fbank_tr05_cont.2.ark:18058379
40ec021f /scratch/ravanelm/exp/dirha/fbank/raw_fbank_tr05_cont.4.ark:20544269
20tc010g /scratch/ravanelm/exp/dirha/fbank/raw_fbank_tr05_cont.3.ark:37107569
40ic0215 /scratch/ravanelm/exp/dirha/fbank/raw_fbank_tr05_cont.4.ark:33228679
028c0204 /scratch/ravanelm/exp/dirha/fbank/raw_fbank_tr05_cont.2.ark:39856359
403c0218 /scratch/ravanelm/exp/dirha/fbank/raw_fbank_tr05_cont.3.ark:43848399
029c0219 /scratch/ravanelm/exp/dirha/fbank/raw_fbank_tr05_cont.2.ark:44085109
01to030m /scratch/ravanelm/exp/dirha/fbank/raw_fbank_tr05_cont.2.ark:12020939
20io0105 /scratch/ravanelm/exp/dirha/fbank/raw_fbank_tr05_cont.3.ark:24173739
020o030e /scratch/ravanelm/exp/dirha/fbank/raw_fbank_tr05_cont.2.ark:27302169
40jc020n /scratch/ravanelm/exp/dirha/fbank/raw_fbank_tr05_cont.4.ark:35698299
013o030m /scratch/ravanelm/exp/dirha/fbank/raw_fbank_tr05_cont.1.ark:5595879
40lc020j /scratch/ravanelm/exp/dirha/fbank/raw_fbank_tr05_cont.4.ark:41870609
20ac010g /scratch/ravanelm/exp/dirha/fbank/raw_fbank_tr05_cont.3.ark:11176289
40jc0202 /scratch/ravanelm/exp/dirha/fbank/raw_fbank_tr05_cont.4.ark:35175029
027c0216 /scratch/ravanelm/exp/dirha/fbank/raw_fbank_tr05_cont.2.ark:37734019
01dc021c /scratch/ravanelm/exp/dirha/fbank/raw_fbank_tr05_cont.1.ark:28692399
404o030w /scratch/ravanelm/exp/dirha/fbank/raw_fbank_tr05_cont.3.ark:47769429
01kc020i /scratch/ravanelm/exp/dirha/fbank/raw_fbank_tr05_cont.1.ark:47034809
018o030l /scratch/ravanelm/exp/dirha/fbank/raw_fbank_tr05_cont.1.ark:19948349
205o010n /scratch/ravanelm/exp/dirha/fbank/raw_fbank_tr05_cont.3.ark:4004179
20ic010l /scratch/ravanelm/exp/dirha/fbank/raw_fbank_tr05_cont.3.ark:23915979
403c0205 /scratch/ravanelm/exp/dirha/fbank/raw_fbank_tr05_cont.3.ark:42986669
401c020t /scratch/ravanelm/exp/dirha/fbank/raw_fbank_tr05_cont.3.ark:40392699
01gc0205 /scratch/ravanelm/exp/dirha/fbank/raw_fbank_tr05_cont.1.ark:36507729
027c021g /scratch/ravanelm/exp/dirha/fbank/raw_fbank_tr05_cont.2.ark:38009039
40do031c /scratch/ravanelm/exp/dirha/fbank/raw_fbank_tr05_cont.4.ark:19375669
01do030z /scratch/ravanelm/exp/dirha/fbank/raw_fbank_tr05_cont.1.ark:29856359
20ao0107 /scratch/ravanelm/exp/dirha/fbank/raw_fbank_tr05_cont.3.ark:11618659
01go030v /scratch/ravanelm/exp/dirha/fbank/raw_fbank_tr05_cont.1.ark:38851049
40bc0205 /scratch/ravanelm/exp/dirha/fbank/raw_fbank_tr05_cont.4.ark:11007179
01fc020k /scratch/ravanelm/exp/dirha/fbank/raw_fbank_tr05_cont.1.ark:33930459
20oc010e /scratch/ravanelm/exp/dirha/fbank/raw_fbank_tr05_cont.3.ark:30674379
20bo0103 /scratch/ravanelm/exp/dirha/fbank/raw_fbank_tr05_cont.3.ark:13185319
01tc020m /scratch/ravanelm/exp/dirha/fbank/raw_fbank_tr05_cont.2.ark:10346649
01do0317 /scratch/ravanelm/exp/dirha/fbank/raw_fbank_tr05_cont.1.ark:30141159
014o030b /scratch/ravanelm/exp/dirha/fbank/raw_fbank_tr05_cont.1.ark:8132749
026o0314 /scratch/ravanelm/exp/dirha/fbank/raw_fbank_tr05_cont.2.ark:36356639
40ho030o /scratch/ravanelm/exp/dirha/fbank/raw_fbank_tr05_cont.4.ark:31177059
01po030f /scratch/ravanelm/exp/dirha/fbank/raw_fbank_tr05_cont.2.ark:2428139
40ho030z /scratch/ravanelm/exp/dirha/fbank/raw_fbank_tr05_cont.4.ark:31554629
20mc0102 /scratch/ravanelm/exp/dirha/fbank/raw_fbank_tr05_cont.3.ark:27024789
40po031b /scratch/ravanelm/exp/dirha/fbank/raw_fbank_tr05_cont.4.ark:54119969
403o0311 /scratch/ravanelm/exp/dirha/fbank/raw_fbank_tr05_cont.3.ark:45211159
01go0301 /scratch/ravanelm/exp/dirha/fbank/raw_fbank_tr05_cont.1.ark:37800109
024c020m /scratch/ravanelm/exp/dirha/fbank/raw_fbank_tr05_cont.2.ark:31547469
20lo0108 /scratch/ravanelm/exp/dirha/fbank/raw_fbank_tr05_cont.3.ark:26107469
20io010n /scratch/ravanelm/exp/dirha/fbank/raw_fbank_tr05_cont.3.ark:24840039
011c0206 /scratch/ravanelm/exp/dirha/fbank/raw_fbank_tr05_cont.1.ark:131199
409c0202 /scratch/ravanelm/exp/dirha/fbank/raw_fbank_tr05_cont.4.ark:4903429
015c020z /scratch/ravanelm/exp/dirha/fbank/raw_fbank_tr05_cont.1.ark:10348659
026c020o /scratch/ravanelm/exp/dirha/fbank/raw_fbank_tr05_cont.2.ark:34431599
40dc020s /scratch/ravanelm/exp/dirha/fbank/raw_fbank_tr05_cont.4.ark:17274789
207o0108 /scratch/ravanelm/exp/dirha/fbank/raw_fbank_tr05_cont.3.ark:6874379
01rc0206 /scratch/ravanelm/exp/dirha/fbank/raw_fbank_tr05_cont.2.ark:6885499
408c0216 /scratch/ravanelm/exp/dirha/fbank/raw_fbank_tr05_cont.4.ark:3329639
01ic020k /scratch/ravanelm/exp/dirha/fbank/raw_fbank_tr05_cont.1.ark:40282759
01fc0203 /scratch/ravanelm/exp/dirha/fbank/raw_fbank_tr05_cont.1.ark:33451469
20fo010p /scratch/ravanelm/exp/dirha/fbank/raw_fbank_tr05_cont.3.ark:20702209
01io030h /scratch/ravanelm/exp/dirha/fbank/raw_fbank_tr05_cont.1.ark:41783679
40lo0319 /scratch/ravanelm/exp/dirha/fbank/raw_fbank_tr05_cont.4.ark:44725199
015o030o /scratch/ravanelm/exp/dirha/fbank/raw_fbank_tr05_cont.1.ark:11579309
017o030l /scratch/ravanelm/exp/dirha/fbank/raw_fbank_tr05_cont.1.ark:16699249
20cc010c /scratch/ravanelm/exp/dirha/fbank/raw_fbank_tr05_cont.3.ark:14621759
40fo030f /scratch/ravanelm/exp/dirha/fbank/raw_fbank_tr05_cont.4.ark:23908389
01rc020p /scratch/ravanelm/exp/dirha/fbank/raw_fbank_tr05_cont.2.ark:7427709
018c020k /scratch/ravanelm/exp/dirha/fbank/raw_fbank_tr05_cont.1.ark:18199319
40nc020d /scratch/ravanelm/exp/dirha/fbank/raw_fbank_tr05_cont.4.ark:48386949
018c020z /scratch/ravanelm/exp/dirha/fbank/raw_fbank_tr05_cont.1.ark:18599849
40lo030i /scratch/ravanelm/exp/dirha/fbank/raw_fbank_tr05_cont.4.ark:43540429
017o0302 /scratch/ravanelm/exp/dirha/fbank/raw_fbank_tr05_cont.1.ark:16087759
205c0103 /scratch/ravanelm/exp/dirha/fbank/raw_fbank_tr05_cont.3.ark:2490589
40ko030s /scratch/ravanelm/exp/dirha/fbank/raw_fbank_tr05_cont.4.ark:40580479
020o0312 /scratch/ravanelm/exp/dirha/fbank/raw_fbank_tr05_cont.2.ark:27716699
02ec0210 /scratch/ravanelm/exp/dirha/fbank/raw_fbank_tr05_cont.2.ark:53331849
01po030w /scratch/ravanelm/exp/dirha/fbank/raw_fbank_tr05_cont.2.ark:3033379
01qc021b /scratch/ravanelm/exp/dirha/fbank/raw_fbank_tr05_cont.2.ark:4898749
024c0205 /scratch/ravanelm/exp/dirha/fbank/raw_fbank_tr05_cont.2.ark:31003159
01uc021d /scratch/ravanelm/exp/dirha/fbank/raw_fbank_tr05_cont.2.ark:14651109
01io0311 /scratch/ravanelm/exp/dirha/fbank/raw_fbank_tr05_cont.1.ark:42539599
024o0301 /scratch/ravanelm/exp/dirha/fbank/raw_fbank_tr05_cont.2.ark:32298459
01go030i /scratch/ravanelm/exp/dirha/fbank/raw_fbank_tr05_cont.1.ark:38399179
40po0314 /scratch/ravanelm/exp/dirha/fbank/raw_fbank_tr05_cont.4.ark:53933999
015o030e /scratch/ravanelm/exp/dirha/fbank/raw_fbank_tr05_cont.1.ark:11200849
01yc020i /scratch/ravanelm/exp/dirha/fbank/raw_fbank_tr05_cont.2.ark:20023269
20dc010p /scratch/ravanelm/exp/dirha/fbank/raw_fbank_tr05_cont.3.ark:16508449
016c020x /scratch/ravanelm/exp/dirha/fbank/raw_fbank_tr05_cont.1.ark:13051049
01uc0205 /scratch/ravanelm/exp/dirha/fbank/raw_fbank_tr05_cont.2.ark:13267989
01kc020p /scratch/ravanelm/exp/dirha/fbank/raw_fbank_tr05_cont.1.ark:47226699
02co030e /scratch/ravanelm/exp/dirha/fbank/raw_fbank_tr05_cont.2.ark:50929209
01rc0214 /scratch/ravanelm/exp/dirha/fbank/raw_fbank_tr05_cont.2.ark:7891359
407c0210 /scratch/ravanelm/exp/dirha/fbank/raw_fbank_tr05_cont.4.ark:82609
020o030r /scratch/ravanelm/exp/dirha/fbank/raw_fbank_tr05_cont.2.ark:27525859
011c020c /scratch/ravanelm/exp/dirha/fbank/raw_fbank_tr05_cont.1.ark:292259
02bc0205 /scratch/ravanelm/exp/dirha/fbank/raw_fbank_tr05_cont.2.ark:46150079
408c0212 /scratch/ravanelm/exp/dirha/fbank/raw_fbank_tr05_cont.4.ark:3245759
01ro030n /scratch/ravanelm/exp/dirha/fbank/raw_fbank_tr05_cont.2.ark:8867369
404o030j /scratch/ravanelm/exp/dirha/fbank/raw_fbank_tr05_cont.3.ark:47369159
20fo010i /scratch/ravanelm/exp/dirha/fbank/raw_fbank_tr05_cont.3.ark:20502639
20rc010a /scratch/ravanelm/exp/dirha/fbank/raw_fbank_tr05_cont.3.ark:35251889
026o030c /scratch/ravanelm/exp/dirha/fbank/raw_fbank_tr05_cont.2.ark:35437119
40cc020s /scratch/ravanelm/exp/dirha/fbank/raw_fbank_tr05_cont.4.ark:14600929
024o030v /scratch/ravanelm/exp/dirha/fbank/raw_fbank_tr05_cont.2.ark:33211359
20gc010n /scratch/ravanelm/exp/dirha/fbank/raw_fbank_tr05_cont.3.ark:21290979
40ic0206 /scratch/ravanelm/exp/dirha/fbank/raw_fbank_tr05_cont.4.ark:32182629
406c020f /scratch/ravanelm/exp/dirha/fbank/raw_fbank_tr05_cont.3.ark:51348889
01mc020z /scratch/ravanelm/exp/dirha/fbank/raw_fbank_tr05_cont.1.ark:54942259
206o010c /scratch/ravanelm/exp/dirha/fbank/raw_fbank_tr05_cont.3.ark:5198599
40ko031b /scratch/ravanelm/exp/dirha/fbank/raw_fbank_tr05_cont.4.ark:41231809
01wc020b /scratch/ravanelm/exp/dirha/fbank/raw_fbank_tr05_cont.2.ark:16919079
013o0318 /scratch/ravanelm/exp/dirha/fbank/raw_fbank_tr05_cont.1.ark:6303219
02co030h /scratch/ravanelm/exp/dirha/fbank/raw_fbank_tr05_cont.2.ark:51020899
406o0310 /scratch/ravanelm/exp/dirha/fbank/raw_fbank_tr05_cont.3.ark:53295659
01mo031c /scratch/ravanelm/exp/dirha/fbank/raw_fbank_tr05_cont.2.ark:331949
01jc020b /scratch/ravanelm/exp/dirha/fbank/raw_fbank_tr05_cont.1.ark:43328429
01zo031c /scratch/ravanelm/exp/dirha/fbank/raw_fbank_tr05_cont.2.ark:25927939
20rc010b /scratch/ravanelm/exp/dirha/fbank/raw_fbank_tr05_cont.3.ark:35273999
016c0201 /scratch/ravanelm/exp/dirha/fbank/raw_fbank_tr05_cont.1.ark:12305679
01uc020q /scratch/ravanelm/exp/dirha/fbank/raw_fbank_tr05_cont.2.ark:13908059
02ec0216 /scratch/ravanelm/exp/dirha/fbank/raw_fbank_tr05_cont.2.ark:53540709
015c0216 /scratch/ravanelm/exp/dirha/fbank/raw_fbank_tr05_cont.1.ark:10508189
20fc010k /scratch/ravanelm/exp/dirha/fbank/raw_fbank_tr05_cont.3.ark:19765839
011c020q /scratch/ravanelm/exp/dirha/fbank/raw_fbank_tr05_cont.1.ark:697679
20dc010k /scratch/ravanelm/exp/dirha/fbank/raw_fbank_tr05_cont.3.ark:16339179
40lo030w /scratch/ravanelm/exp/dirha/fbank/raw_fbank_tr05_cont.4.ark:44216169
016c0219 /scratch/ravanelm/exp/dirha/fbank/raw_fbank_tr05_cont.1.ark:13283989
02bc020i /scratch/ravanelm/exp/dirha/fbank/raw_fbank_tr05_cont.2.ark:46522829
40fc021a /scratch/ravanelm/exp/dirha/fbank/raw_fbank_tr05_cont.4.ark:23295199
405c020g /scratch/ravanelm/exp/dirha/fbank/raw_fbank_tr05_cont.3.ark:48639099
20lc0105 /scratch/ravanelm/exp/dirha/fbank/raw_fbank_tr05_cont.3.ark:25101719
01uc020a /scratch/ravanelm/exp/dirha/fbank/raw_fbank_tr05_cont.2.ark:13439779
01uo0317 /scratch/ravanelm/exp/dirha/fbank/raw_fbank_tr05_cont.2.ark:16373379
20go0103 /scratch/ravanelm/exp/dirha/fbank/raw_fbank_tr05_cont.3.ark:21387469
01do030y /scratch/ravanelm/exp/dirha/fbank/raw_fbank_tr05_cont.1.ark:29814609
40gc020v /scratch/ravanelm/exp/dirha/fbank/raw_fbank_tr05_cont.4.ark:26168669
01pc0206 /scratch/ravanelm/exp/dirha/fbank/raw_fbank_tr05_cont.2.ark:553789
011c021c /scratch/ravanelm/exp/dirha/fbank/raw_fbank_tr05_cont.1.ark:1323779
20bo010j /scratch/ravanelm/exp/dirha/fbank/raw_fbank_tr05_cont.3.ark:13906279
01pc021g /scratch/ravanelm/exp/dirha/fbank/raw_fbank_tr05_cont.2.ark:1917049
013o030h /scratch/ravanelm/exp/dirha/fbank/raw_fbank_tr05_cont.1.ark:5440369
015c0201 /scratch/ravanelm/exp/dirha/fbank/raw_fbank_tr05_cont.1.ark:9457479
01ko030j /scratch/ravanelm/exp/dirha/fbank/raw_fbank_tr05_cont.1.ark:48834219
20gc0108 /scratch/ravanelm/exp/dirha/fbank/raw_fbank_tr05_cont.3.ark:20899169
208c010h /scratch/ravanelm/exp/dirha/fbank/raw_fbank_tr05_cont.3.ark:8083389
409c020z /scratch/ravanelm/exp/dirha/fbank/raw_fbank_tr05_cont.4.ark:5831059
01gc0208 /scratch/ravanelm/exp/dirha/fbank/raw_fbank_tr05_cont.1.ark:36601059
40bc0211 /scratch/ravanelm/exp/dirha/fbank/raw_fbank_tr05_cont.4.ark:11874739
40lo0310 /scratch/ravanelm/exp/dirha/fbank/raw_fbank_tr05_cont.4.ark:44438969
405o031e /scratch/ravanelm/exp/dirha/fbank/raw_fbank_tr05_cont.3.ark:50899769
20co010a /scratch/ravanelm/exp/dirha/fbank/raw_fbank_tr05_cont.3.ark:15279539
013o0302 /scratch/ravanelm/exp/dirha/fbank/raw_fbank_tr05_cont.1.ark:5016679
015o0311 /scratch/ravanelm/exp/dirha/fbank/raw_fbank_tr05_cont.1.ark:11980499
01bc020r /scratch/ravanelm/exp/dirha/fbank/raw_fbank_tr05_cont.1.ark:24698999
40pc020i /scratch/ravanelm/exp/dirha/fbank/raw_fbank_tr05_cont.4.ark:51783329
01io0304 /scratch/ravanelm/exp/dirha/fbank/raw_fbank_tr05_cont.1.ark:41250889
01ec020k /scratch/ravanelm/exp/dirha/fbank/raw_fbank_tr05_cont.1.ark:30926079
017o030z /scratch/ravanelm/exp/dirha/fbank/raw_fbank_tr05_cont.1.ark:17124509
02bo031b /scratch/ravanelm/exp/dirha/fbank/raw_fbank_tr05_cont.2.ark:49088189
20go0102 /scratch/ravanelm/exp/dirha/fbank/raw_fbank_tr05_cont.3.ark:21338319
01zc0210 /scratch/ravanelm/exp/dirha/fbank/raw_fbank_tr05_cont.2.ark:23604609
20gc010k /scratch/ravanelm/exp/dirha/fbank/raw_fbank_tr05_cont.3.ark:21201049
40io030j /scratch/ravanelm/exp/dirha/fbank/raw_fbank_tr05_cont.4.ark:34120189
014o0301 /scratch/ravanelm/exp/dirha/fbank/raw_fbank_tr05_cont.1.ark:7780969
01fo030k /scratch/ravanelm/exp/dirha/fbank/raw_fbank_tr05_cont.1.ark:35465019
01zo031b /scratch/ravanelm/exp/dirha/fbank/raw_fbank_tr05_cont.2.ark:25896149
01fo030z /scratch/ravanelm/exp/dirha/fbank/raw_fbank_tr05_cont.1.ark:35893829
01yc020y /scratch/ravanelm/exp/dirha/fbank/raw_fbank_tr05_cont.2.ark:20461309
40bo0303 /scratch/ravanelm/exp/dirha/fbank/raw_fbank_tr05_cont.4.ark:12439599
01uc020y /scratch/ravanelm/exp/dirha/fbank/raw_fbank_tr05_cont.2.ark:14142059
01fo030e /scratch/ravanelm/exp/dirha/fbank/raw_fbank_tr05_cont.1.ark:35285639
40pc0213 /scratch/ravanelm/exp/dirha/fbank/raw_fbank_tr05_cont.4.ark:52301319
405c020h /scratch/ravanelm/exp/dirha/fbank/raw_fbank_tr05_cont.3.ark:48663569
01to030s /scratch/ravanelm/exp/dirha/fbank/raw_fbank_tr05_cont.2.ark:12255199
01dc0202 /scratch/ravanelm/exp/dirha/fbank/raw_fbank_tr05_cont.1.ark:27460139
01rc021a /scratch/ravanelm/exp/dirha/fbank/raw_fbank_tr05_cont.2.ark:8002379
028c0219 /scratch/ravanelm/exp/dirha/fbank/raw_fbank_tr05_cont.2.ark:40885669
40kc020s /scratch/ravanelm/exp/dirha/fbank/raw_fbank_tr05_cont.4.ark:39054079
01wc0219 /scratch/ravanelm/exp/dirha/fbank/raw_fbank_tr05_cont.2.ark:17822669
20oc010m /scratch/ravanelm/exp/dirha/fbank/raw_fbank_tr05_cont.3.ark:30841179
01rc020h /scratch/ravanelm/exp/dirha/fbank/raw_fbank_tr05_cont.2.ark:7205749
40pc020o /scratch/ravanelm/exp/dirha/fbank/raw_fbank_tr05_cont.4.ark:51918829
20fo010h /scratch/ravanelm/exp/dirha/fbank/raw_fbank_tr05_cont.3.ark:20469489
02ec020e /scratch/ravanelm/exp/dirha/fbank/raw_fbank_tr05_cont.2.ark:52678029
01dc020x /scratch/ravanelm/exp/dirha/fbank/raw_fbank_tr05_cont.1.ark:28272309
020o0310 /scratch/ravanelm/exp/dirha/fbank/raw_fbank_tr05_cont.2.ark:27674399
013o0311 /scratch/ravanelm/exp/dirha/fbank/raw_fbank_tr05_cont.1.ark:6067409
20co010m /scratch/ravanelm/exp/dirha/fbank/raw_fbank_tr05_cont.3.ark:15606619
019c020r /scratch/ravanelm/exp/dirha/fbank/raw_fbank_tr05_cont.1.ark:21695889
01po030y /scratch/ravanelm/exp/dirha/fbank/raw_fbank_tr05_cont.2.ark:3133479
401c020w /scratch/ravanelm/exp/dirha/fbank/raw_fbank_tr05_cont.3.ark:40508549
209c010o /scratch/ravanelm/exp/dirha/fbank/raw_fbank_tr05_cont.3.ark:9843399
205c010m /scratch/ravanelm/exp/dirha/fbank/raw_fbank_tr05_cont.3.ark:3019639
40go030n /scratch/ravanelm/exp/dirha/fbank/raw_fbank_tr05_cont.4.ark:27902199
01bc020x /scratch/ravanelm/exp/dirha/fbank/raw_fbank_tr05_cont.1.ark:24858699
018c0215 /scratch/ravanelm/exp/dirha/fbank/raw_fbank_tr05_cont.1.ark:18785909
408c020e /scratch/ravanelm/exp/dirha/fbank/raw_fbank_tr05_cont.4.ark:2713869
02cc020n /scratch/ravanelm/exp/dirha/fbank/raw_fbank_tr05_cont.2.ark:49779889
01bo030j /scratch/ravanelm/exp/dirha/fbank/raw_fbank_tr05_cont.1.ark:26182289
20ho0109 /scratch/ravanelm/exp/dirha/fbank/raw_fbank_tr05_cont.3.ark:22892469
407o031a /scratch/ravanelm/exp/dirha/fbank/raw_fbank_tr05_cont.4.ark:2375889
01qc020e /scratch/ravanelm/exp/dirha/fbank/raw_fbank_tr05_cont.2.ark:4096759
20to0101 /scratch/ravanelm/exp/dirha/fbank/raw_fbank_tr05_cont.3.ark:37425099
01jc0207 /scratch/ravanelm/exp/dirha/fbank/raw_fbank_tr05_cont.1.ark:43206269
021o030j /scratch/ravanelm/exp/dirha/fbank/raw_fbank_tr05_cont.2.ark:29911489
016o0311 /scratch/ravanelm/exp/dirha/fbank/raw_fbank_tr05_cont.1.ark:14375279
408o030g /scratch/ravanelm/exp/dirha/fbank/raw_fbank_tr05_cont.4.ark:4009369
20oo010e /scratch/ravanelm/exp/dirha/fbank/raw_fbank_tr05_cont.3.ark:31320939
40fc020n /scratch/ravanelm/exp/dirha/fbank/raw_fbank_tr05_cont.4.ark:22621669
407c0215 /scratch/ravanelm/exp/dirha/fbank/raw_fbank_tr05_cont.4.ark:211119
40ko0316 /scratch/ravanelm/exp/dirha/fbank/raw_fbank_tr05_cont.4.ark:41072539
40po0303 /scratch/ravanelm/exp/dirha/fbank/raw_fbank_tr05_cont.4.ark:52643649
01po0301 /scratch/ravanelm/exp/dirha/fbank/raw_fbank_tr05_cont.2.ark:1944199
406o030s /scratch/ravanelm/exp/dirha/fbank/raw_fbank_tr05_cont.3.ark:53048139
401c0212 /scratch/ravanelm/exp/dirha/fbank/raw_fbank_tr05_cont.3.ark:40666329
01bo0306 /scratch/ravanelm/exp/dirha/fbank/raw_fbank_tr05_cont.1.ark:25639649
01ro031c /scratch/ravanelm/exp/dirha/fbank/raw_fbank_tr05_cont.2.ark:9572759
01lo030z /scratch/ravanelm/exp/dirha/fbank/raw_fbank_tr05_cont.1.ark:53350909
20po0102 /scratch/ravanelm/exp/dirha/fbank/raw_fbank_tr05_cont.3.ark:32468539
01gc0213 /scratch/ravanelm/exp/dirha/fbank/raw_fbank_tr05_cont.1.ark:37463749
01po0312 /scratch/ravanelm/exp/dirha/fbank/raw_fbank_tr05_cont.2.ark:3278799
015c020d /scratch/ravanelm/exp/dirha/fbank/raw_fbank_tr05_cont.1.ark:9792319
027o030u /scratch/ravanelm/exp/dirha/fbank/raw_fbank_tr05_cont.2.ark:39159809
40go030v /scratch/ravanelm/exp/dirha/fbank/raw_fbank_tr05_cont.4.ark:28255319
01tc021g /scratch/ravanelm/exp/dirha/fbank/raw_fbank_tr05_cont.2.ark:11294989
01tc0204 /scratch/ravanelm/exp/dirha/fbank/raw_fbank_tr05_cont.2.ark:9733949
40do0318 /scratch/ravanelm/exp/dirha/fbank/raw_fbank_tr05_cont.4.ark:19254229
01eo030f /scratch/ravanelm/exp/dirha/fbank/raw_fbank_tr05_cont.1.ark:32241189
027c021f /scratch/ravanelm/exp/dirha/fbank/raw_fbank_tr05_cont.2.ark:37994769
20vc0101 /scratch/ravanelm/exp/dirha/fbank/raw_fbank_tr05_cont.3.ark:38108729
028c0212 /scratch/ravanelm/exp/dirha/fbank/raw_fbank_tr05_cont.2.ark:40683099
40nc0214 /scratch/ravanelm/exp/dirha/fbank/raw_fbank_tr05_cont.4.ark:49218079
408c021a /scratch/ravanelm/exp/dirha/fbank/raw_fbank_tr05_cont.4.ark:3422839
011o030v /scratch/ravanelm/exp/dirha/fbank/raw_fbank_tr05_cont.1.ark:2557289
020o0318 /scratch/ravanelm/exp/dirha/fbank/raw_fbank_tr05_cont.2.ark:27851999
20ao010d /scratch/ravanelm/exp/dirha/fbank/raw_fbank_tr05_cont.3.ark:11902279
01mc0204 /scratch/ravanelm/exp/dirha/fbank/raw_fbank_tr05_cont.1.ark:54163599
409o0319 /scratch/ravanelm/exp/dirha/fbank/raw_fbank_tr05_cont.4.ark:7601639
019c020g /scratch/ravanelm/exp/dirha/fbank/raw_fbank_tr05_cont.1.ark:21463159
407c021b /scratch/ravanelm/exp/dirha/fbank/raw_fbank_tr05_cont.4.ark:430459
40go030k /scratch/ravanelm/exp/dirha/fbank/raw_fbank_tr05_cont.4.ark:27768269
017o030i /scratch/ravanelm/exp/dirha/fbank/raw_fbank_tr05_cont.1.ark:16612519
014c020y /scratch/ravanelm/exp/dirha/fbank/raw_fbank_tr05_cont.1.ark:7314809
01yc0205 /scratch/ravanelm/exp/dirha/fbank/raw_fbank_tr05_cont.2.ark:19627599
01mc0216 /scratch/ravanelm/exp/dirha/fbank/raw_fbank_tr05_cont.1.ark:55132989
01bo030q /scratch/ravanelm/exp/dirha/fbank/raw_fbank_tr05_cont.1.ark:26496659
01mc020j /scratch/ravanelm/exp/dirha/fbank/raw_fbank_tr05_cont.1.ark:54516299
40lo030j /scratch/ravanelm/exp/dirha/fbank/raw_fbank_tr05_cont.4.ark:43573939
028c020v /scratch/ravanelm/exp/dirha/fbank/raw_fbank_tr05_cont.2.ark:40519169
404c0211 /scratch/ravanelm/exp/dirha/fbank/raw_fbank_tr05_cont.3.ark:46448369
40mo031b /scratch/ravanelm/exp/dirha/fbank/raw_fbank_tr05_cont.4.ark:47960619
024c0206 /scratch/ravanelm/exp/dirha/fbank/raw_fbank_tr05_cont.2.ark:31042789
20ic0104 /scratch/ravanelm/exp/dirha/fbank/raw_fbank_tr05_cont.3.ark:23461709
024o030w /scratch/ravanelm/exp/dirha/fbank/raw_fbank_tr05_cont.2.ark:33227749
01ro0317 /scratch/ravanelm/exp/dirha/fbank/raw_fbank_tr05_cont.2.ark:9445569
40po030e /scratch/ravanelm/exp/dirha/fbank/raw_fbank_tr05_cont.4.ark:53023419
40jo0314 /scratch/ravanelm/exp/dirha/fbank/raw_fbank_tr05_cont.4.ark:37846349
20io0109 /scratch/ravanelm/exp/dirha/fbank/raw_fbank_tr05_cont.3.ark:24332579
013c0217 /scratch/ravanelm/exp/dirha/fbank/raw_fbank_tr05_cont.1.ark:4762579
40ho0318 /scratch/ravanelm/exp/dirha/fbank/raw_fbank_tr05_cont.4.ark:31818619
01zc020k /scratch/ravanelm/exp/dirha/fbank/raw_fbank_tr05_cont.2.ark:23151369
02eo030f /scratch/ravanelm/exp/dirha/fbank/raw_fbank_tr05_cont.2.ark:54353879
20hc0107 /scratch/ravanelm/exp/dirha/fbank/raw_fbank_tr05_cont.3.ark:22211389
20ro010a /scratch/ravanelm/exp/dirha/fbank/raw_fbank_tr05_cont.3.ark:36001139
20mc010k /scratch/ravanelm/exp/dirha/fbank/raw_fbank_tr05_cont.3.ark:27480449
40gc0211 /scratch/ravanelm/exp/dirha/fbank/raw_fbank_tr05_cont.4.ark:26409169
02bc0214 /scratch/ravanelm/exp/dirha/fbank/raw_fbank_tr05_cont.2.ark:47077009
014o030y /scratch/ravanelm/exp/dirha/fbank/raw_fbank_tr05_cont.1.ark:8934119
208c010n /scratch/ravanelm/exp/dirha/fbank/raw_fbank_tr05_cont.3.ark:8264449
027o030f /scratch/ravanelm/exp/dirha/fbank/raw_fbank_tr05_cont.2.ark:38587199
01mo031a /scratch/ravanelm/exp/dirha/fbank/raw_fbank_tr05_cont.2.ark:262129
014c021f /scratch/ravanelm/exp/dirha/fbank/raw_fbank_tr05_cont.1.ark:7697039
20fo0105 /scratch/ravanelm/exp/dirha/fbank/raw_fbank_tr05_cont.3.ark:20094889
01tc020z /scratch/ravanelm/exp/dirha/fbank/raw_fbank_tr05_cont.2.ark:10822839
01wo0302 /scratch/ravanelm/exp/dirha/fbank/raw_fbank_tr05_cont.2.ark:18039949
40ec020b /scratch/ravanelm/exp/dirha/fbank/raw_fbank_tr05_cont.4.ark:19645789
021o0318 /scratch/ravanelm/exp/dirha/fbank/raw_fbank_tr05_cont.2.ark:30694559
014c0215 /scratch/ravanelm/exp/dirha/fbank/raw_fbank_tr05_cont.1.ark:7457019
01gc021b /scratch/ravanelm/exp/dirha/fbank/raw_fbank_tr05_cont.1.ark:37691149
017o031d /scratch/ravanelm/exp/dirha/fbank/raw_fbank_tr05_cont.1.ark:17574369
206c010e /scratch/ravanelm/exp/dirha/fbank/raw_fbank_tr05_cont.3.ark:4514639
20fc010j /scratch/ravanelm/exp/dirha/fbank/raw_fbank_tr05_cont.3.ark:19741809
40ec021d /scratch/ravanelm/exp/dirha/fbank/raw_fbank_tr05_cont.4.ark:20493249
407o0317 /scratch/ravanelm/exp/dirha/fbank/raw_fbank_tr05_cont.4.ark:2272199
20bc010e /scratch/ravanelm/exp/dirha/fbank/raw_fbank_tr05_cont.3.ark:12795009
013o030f /scratch/ravanelm/exp/dirha/fbank/raw_fbank_tr05_cont.1.ark:5379389
01mo030o /scratch/ravanelm/exp/dirha/fbank/raw_fbank_tr05_cont.1.ark:56073579
01zc020d /scratch/ravanelm/exp/dirha/fbank/raw_fbank_tr05_cont.2.ark:22947999
02bc020v /scratch/ravanelm/exp/dirha/fbank/raw_fbank_tr05_cont.2.ark:46832819
01pc0211 /scratch/ravanelm/exp/dirha/fbank/raw_fbank_tr05_cont.2.ark:1429999
02ec0204 /scratch/ravanelm/exp/dirha/fbank/raw_fbank_tr05_cont.2.ark:52344369
405c021e /scratch/ravanelm/exp/dirha/fbank/raw_fbank_tr05_cont.3.ark:49442559
02co030z /scratch/ravanelm/exp/dirha/fbank/raw_fbank_tr05_cont.2.ark:51632879
40jc0210 /scratch/ravanelm/exp/dirha/fbank/raw_fbank_tr05_cont.4.ark:36059969
01po030j /scratch/ravanelm/exp/dirha/fbank/raw_fbank_tr05_cont.2.ark:2531029
40bo030t /scratch/ravanelm/exp/dirha/fbank/raw_fbank_tr05_cont.4.ark:13354659
405o030k /scratch/ravanelm/exp/dirha/fbank/raw_fbank_tr05_cont.3.ark:50035109
407o0303 /scratch/ravanelm/exp/dirha/fbank/raw_fbank_tr05_cont.4.ark:727159
013o030a /scratch/ravanelm/exp/dirha/fbank/raw_fbank_tr05_cont.1.ark:5226119
40lc020e /scratch/ravanelm/exp/dirha/fbank/raw_fbank_tr05_cont.4.ark:41727739
01do0316 /scratch/ravanelm/exp/dirha/fbank/raw_fbank_tr05_cont.1.ark:30099969
40po0306 /scratch/ravanelm/exp/dirha/fbank/raw_fbank_tr05_cont.4.ark:52728059
01mc0218 /scratch/ravanelm/exp/dirha/fbank/raw_fbank_tr05_cont.1.ark:55163169
20fo010a /scratch/ravanelm/exp/dirha/fbank/raw_fbank_tr05_cont.3.ark:20293439
206c010m /scratch/ravanelm/exp/dirha/fbank/raw_fbank_tr05_cont.3.ark:4757679
40co031b /scratch/ravanelm/exp/dirha/fbank/raw_fbank_tr05_cont.4.ark:16282959
40io030t /scratch/ravanelm/exp/dirha/fbank/raw_fbank_tr05_cont.4.ark:34403169
027o030w /scratch/ravanelm/exp/dirha/fbank/raw_fbank_tr05_cont.2.ark:39237749
018c020s /scratch/ravanelm/exp/dirha/fbank/raw_fbank_tr05_cont.1.ark:18407239
01tc0206 /scratch/ravanelm/exp/dirha/fbank/raw_fbank_tr05_cont.2.ark:9785769
20ao0105 /scratch/ravanelm/exp/dirha/fbank/raw_fbank_tr05_cont.3.ark:11538919
01jc020u /scratch/ravanelm/exp/dirha/fbank/raw_fbank_tr05_cont.1.ark:43849919
020o030o /scratch/ravanelm/exp/dirha/fbank/raw_fbank_tr05_cont.2.ark:27443809
40kc020x /scratch/ravanelm/exp/dirha/fbank/raw_fbank_tr05_cont.4.ark:39156909
014o030p /scratch/ravanelm/exp/dirha/fbank/raw_fbank_tr05_cont.1.ark:8596209
01uc020v /scratch/ravanelm/exp/dirha/fbank/raw_fbank_tr05_cont.2.ark:14044449
208o010h /scratch/ravanelm/exp/dirha/fbank/raw_fbank_tr05_cont.3.ark:8886539
40jo0302 /scratch/ravanelm/exp/dirha/fbank/raw_fbank_tr05_cont.4.ark:36519409
409c020r /scratch/ravanelm/exp/dirha/fbank/raw_fbank_tr05_cont.4.ark:5590619
40gc021b /scratch/ravanelm/exp/dirha/fbank/raw_fbank_tr05_cont.4.ark:26801589
01ec020b /scratch/ravanelm/exp/dirha/fbank/raw_fbank_tr05_cont.1.ark:30699889
40eo0318 /scratch/ravanelm/exp/dirha/fbank/raw_fbank_tr05_cont.4.ark:21925129
01rc021b /scratch/ravanelm/exp/dirha/fbank/raw_fbank_tr05_cont.2.ark:8028689
40co030q /scratch/ravanelm/exp/dirha/fbank/raw_fbank_tr05_cont.4.ark:15838409
40bo0310 /scratch/ravanelm/exp/dirha/fbank/raw_fbank_tr05_cont.4.ark:13580719
027c020d /scratch/ravanelm/exp/dirha/fbank/raw_fbank_tr05_cont.2.ark:36974869
01ro030a /scratch/ravanelm/exp/dirha/fbank/raw_fbank_tr05_cont.2.ark:8368819
207o010d /scratch/ravanelm/exp/dirha/fbank/raw_fbank_tr05_cont.3.ark:7082289
20bo0108 /scratch/ravanelm/exp/dirha/fbank/raw_fbank_tr05_cont.3.ark:13413709
01to030n /scratch/ravanelm/exp/dirha/fbank/raw_fbank_tr05_cont.2.ark:12055409
40jo030l /scratch/ravanelm/exp/dirha/fbank/raw_fbank_tr05_cont.4.ark:37202899
406c0212 /scratch/ravanelm/exp/dirha/fbank/raw_fbank_tr05_cont.3.ark:51856629
404c0209 /scratch/ravanelm/exp/dirha/fbank/raw_fbank_tr05_cont.3.ark:45762169
20nc010h /scratch/ravanelm/exp/dirha/fbank/raw_fbank_tr05_cont.3.ark:28954509
40kc020d /scratch/ravanelm/exp/dirha/fbank/raw_fbank_tr05_cont.4.ark:38592589
401o030b /scratch/ravanelm/exp/dirha/fbank/raw_fbank_tr05_cont.3.ark:41425609
01uc021e /scratch/ravanelm/exp/dirha/fbank/raw_fbank_tr05_cont.2.ark:14683499
029c020w /scratch/ravanelm/exp/dirha/fbank/raw_fbank_tr05_cont.2.ark:43750199
40do031d /scratch/ravanelm/exp/dirha/fbank/raw_fbank_tr05_cont.4.ark:19393659
01po0303 /scratch/ravanelm/exp/dirha/fbank/raw_fbank_tr05_cont.2.ark:2030299
40do030f /scratch/ravanelm/exp/dirha/fbank/raw_fbank_tr05_cont.4.ark:18346679
205o010f /scratch/ravanelm/exp/dirha/fbank/raw_fbank_tr05_cont.3.ark:3673459
40no030f /scratch/ravanelm/exp/dirha/fbank/raw_fbank_tr05_cont.4.ark:50128329
40eo030c /scratch/ravanelm/exp/dirha/fbank/raw_fbank_tr05_cont.4.ark:20993569
40hc020c /scratch/ravanelm/exp/dirha/fbank/raw_fbank_tr05_cont.4.ark:29436889
015o030g /scratch/ravanelm/exp/dirha/fbank/raw_fbank_tr05_cont.1.ark:11267269
401o030m /scratch/ravanelm/exp/dirha/fbank/raw_fbank_tr05_cont.3.ark:41879819
40jo030v /scratch/ravanelm/exp/dirha/fbank/raw_fbank_tr05_cont.4.ark:37565039
017o030p /scratch/ravanelm/exp/dirha/fbank/raw_fbank_tr05_cont.1.ark:16819329
01zc0212 /scratch/ravanelm/exp/dirha/fbank/raw_fbank_tr05_cont.2.ark:23658389
01bo0307 /scratch/ravanelm/exp/dirha/fbank/raw_fbank_tr05_cont.1.ark:25695119
016o030e /scratch/ravanelm/exp/dirha/fbank/raw_fbank_tr05_cont.1.ark:13776979
20oc0109 /scratch/ravanelm/exp/dirha/fbank/raw_fbank_tr05_cont.3.ark:30561349
01jc0215 /scratch/ravanelm/exp/dirha/fbank/raw_fbank_tr05_cont.1.ark:44220969
01jc0201 /scratch/ravanelm/exp/dirha/fbank/raw_fbank_tr05_cont.1.ark:43016809
209c0102 /scratch/ravanelm/exp/dirha/fbank/raw_fbank_tr05_cont.3.ark:9309859
01ec0217 /scratch/ravanelm/exp/dirha/fbank/raw_fbank_tr05_cont.1.ark:31635289
40ac0214 /scratch/ravanelm/exp/dirha/fbank/raw_fbank_tr05_cont.4.ark:9032999
20ic010e /scratch/ravanelm/exp/dirha/fbank/raw_fbank_tr05_cont.3.ark:23748969
01uc0212 /scratch/ravanelm/exp/dirha/fbank/raw_fbank_tr05_cont.2.ark:14305059
01qc0207 /scratch/ravanelm/exp/dirha/fbank/raw_fbank_tr05_cont.2.ark:3855749
01gc020j /scratch/ravanelm/exp/dirha/fbank/raw_fbank_tr05_cont.1.ark:36924629
01fc020u /scratch/ravanelm/exp/dirha/fbank/raw_fbank_tr05_cont.1.ark:34167199
20mc010d /scratch/ravanelm/exp/dirha/fbank/raw_fbank_tr05_cont.3.ark:27306879
40hc020a /scratch/ravanelm/exp/dirha/fbank/raw_fbank_tr05_cont.4.ark:29384109
02ec021c /scratch/ravanelm/exp/dirha/fbank/raw_fbank_tr05_cont.2.ark:53740369
20bo0109 /scratch/ravanelm/exp/dirha/fbank/raw_fbank_tr05_cont.3.ark:13465419
019c0209 /scratch/ravanelm/exp/dirha/fbank/raw_fbank_tr05_cont.1.ark:21285229
026c0215 /scratch/ravanelm/exp/dirha/fbank/raw_fbank_tr05_cont.2.ark:34820029
01wc020o /scratch/ravanelm/exp/dirha/fbank/raw_fbank_tr05_cont.2.ark:17330909
01qc020l /scratch/ravanelm/exp/dirha/fbank/raw_fbank_tr05_cont.2.ark:4315339
40mo030l /scratch/ravanelm/exp/dirha/fbank/raw_fbank_tr05_cont.4.ark:47099399
40jo030p /scratch/ravanelm/exp/dirha/fbank/raw_fbank_tr05_cont.4.ark:37372299
024c020b /scratch/ravanelm/exp/dirha/fbank/raw_fbank_tr05_cont.2.ark:31191059
207o010s /scratch/ravanelm/exp/dirha/fbank/raw_fbank_tr05_cont.3.ark:7521379
01lo030o /scratch/ravanelm/exp/dirha/fbank/raw_fbank_tr05_cont.1.ark:52914299
01kc021d /scratch/ravanelm/exp/dirha/fbank/raw_fbank_tr05_cont.1.ark:47980939
01wc0204 /scratch/ravanelm/exp/dirha/fbank/raw_fbank_tr05_cont.2.ark:16711749
20eo010q /scratch/ravanelm/exp/dirha/fbank/raw_fbank_tr05_cont.3.ark:19225479
403c020r /scratch/ravanelm/exp/dirha/fbank/raw_fbank_tr05_cont.3.ark:43452329
20ec010n /scratch/ravanelm/exp/dirha/fbank/raw_fbank_tr05_cont.3.ark:18189789
024c021c /scratch/ravanelm/exp/dirha/fbank/raw_fbank_tr05_cont.2.ark:32232409
01fc020v /scratch/ravanelm/exp/dirha/fbank/raw_fbank_tr05_cont.1.ark:34192429
019o031a /scratch/ravanelm/exp/dirha/fbank/raw_fbank_tr05_cont.1.ark:23781889
205o010q /scratch/ravanelm/exp/dirha/fbank/raw_fbank_tr05_cont.3.ark:4121309
40lo0311 /scratch/ravanelm/exp/dirha/fbank/raw_fbank_tr05_cont.4.ark:44497799
027c0215 /scratch/ravanelm/exp/dirha/fbank/raw_fbank_tr05_cont.2.ark:37694949
011o0316 /scratch/ravanelm/exp/dirha/fbank/raw_fbank_tr05_cont.1.ark:3088659
40hc020f /scratch/ravanelm/exp/dirha/fbank/raw_fbank_tr05_cont.4.ark:29500059
018c0203 /scratch/ravanelm/exp/dirha/fbank/raw_fbank_tr05_cont.1.ark:17690289
206c0103 /scratch/ravanelm/exp/dirha/fbank/raw_fbank_tr05_cont.3.ark:4271669
408c0209 /scratch/ravanelm/exp/dirha/fbank/raw_fbank_tr05_cont.4.ark:2596079
01ec020h /scratch/ravanelm/exp/dirha/fbank/raw_fbank_tr05_cont.1.ark:30850429
40do0309 /scratch/ravanelm/exp/dirha/fbank/raw_fbank_tr05_cont.4.ark:18168739
026c0205 /scratch/ravanelm/exp/dirha/fbank/raw_fbank_tr05_cont.2.ark:34009829
01go030u /scratch/ravanelm/exp/dirha/fbank/raw_fbank_tr05_cont.1.ark:38827899
40nc0207 /scratch/ravanelm/exp/dirha/fbank/raw_fbank_tr05_cont.4.ark:48210689
01dc020f /scratch/ravanelm/exp/dirha/fbank/raw_fbank_tr05_cont.1.ark:27777009
01bc020o /scratch/ravanelm/exp/dirha/fbank/raw_fbank_tr05_cont.1.ark:24567309
40kc020c /scratch/ravanelm/exp/dirha/fbank/raw_fbank_tr05_cont.4.ark:38573679
01wc0208 /scratch/ravanelm/exp/dirha/fbank/raw_fbank_tr05_cont.2.ark:16827549
407c020h /scratch/ravanelm/exp/dirha/fbank/raw_fbank_tr05_cont.3.ark:54165479
01qc0216 /scratch/ravanelm/exp/dirha/fbank/raw_fbank_tr05_cont.2.ark:4768479
20eo010m /scratch/ravanelm/exp/dirha/fbank/raw_fbank_tr05_cont.3.ark:19079039
40ic020a /scratch/ravanelm/exp/dirha/fbank/raw_fbank_tr05_cont.4.ark:32316909
40fc020b /scratch/ravanelm/exp/dirha/fbank/raw_fbank_tr05_cont.4.ark:22280389
208o0101 /scratch/ravanelm/exp/dirha/fbank/raw_fbank_tr05_cont.3.ark:8351579
20ao010p /scratch/ravanelm/exp/dirha/fbank/raw_fbank_tr05_cont.3.ark:12394879
406o030j /scratch/ravanelm/exp/dirha/fbank/raw_fbank_tr05_cont.3.ark:52705109
01mo0319 /scratch/ravanelm/exp/dirha/fbank/raw_fbank_tr05_cont.2.ark:234739
20oo0104 /scratch/ravanelm/exp/dirha/fbank/raw_fbank_tr05_cont.3.ark:31001759
20do010m /scratch/ravanelm/exp/dirha/fbank/raw_fbank_tr05_cont.3.ark:17311349
40lc020y /scratch/ravanelm/exp/dirha/fbank/raw_fbank_tr05_cont.4.ark:42302659
40ho0301 /scratch/ravanelm/exp/dirha/fbank/raw_fbank_tr05_cont.4.ark:30422689
40nc020v /scratch/ravanelm/exp/dirha/fbank/raw_fbank_tr05_cont.4.ark:48947929
409c0201 /scratch/ravanelm/exp/dirha/fbank/raw_fbank_tr05_cont.4.ark:4868519
01lo031f /scratch/ravanelm/exp/dirha/fbank/raw_fbank_tr05_cont.1.ark:54070989
40dc0214 /scratch/ravanelm/exp/dirha/fbank/raw_fbank_tr05_cont.4.ark:17654229
40bc020n /scratch/ravanelm/exp/dirha/fbank/raw_fbank_tr05_cont.4.ark:11478759
01uc020s /scratch/ravanelm/exp/dirha/fbank/raw_fbank_tr05_cont.2.ark:13953239
40kc020y /scratch/ravanelm/exp/dirha/fbank/raw_fbank_tr05_cont.4.ark:39199179
40io0304 /scratch/ravanelm/exp/dirha/fbank/raw_fbank_tr05_cont.4.ark:33622099
01ic0201 /scratch/ravanelm/exp/dirha/fbank/raw_fbank_tr05_cont.1.ark:39677869
01ko0308 /scratch/ravanelm/exp/dirha/fbank/raw_fbank_tr05_cont.1.ark:48381209
40ko0313 /scratch/ravanelm/exp/dirha/fbank/raw_fbank_tr05_cont.4.ark:40997129
40lo0318 /scratch/ravanelm/exp/dirha/fbank/raw_fbank_tr05_cont.4.ark:44700169
019o030n /scratch/ravanelm/exp/dirha/fbank/raw_fbank_tr05_cont.1.ark:23129239
406o030z /scratch/ravanelm/exp/dirha/fbank/raw_fbank_tr05_cont.3.ark:53262269
021c020k /scratch/ravanelm/exp/dirha/fbank/raw_fbank_tr05_cont.2.ark:28584549
026o030k /scratch/ravanelm/exp/dirha/fbank/raw_fbank_tr05_cont.2.ark:35727639
01do0301 /scratch/ravanelm/exp/dirha/fbank/raw_fbank_tr05_cont.1.ark:28781239
016o031d /scratch/ravanelm/exp/dirha/fbank/raw_fbank_tr05_cont.1.ark:14699359
20ro010m /scratch/ravanelm/exp/dirha/fbank/raw_fbank_tr05_cont.3.ark:36504059
02bc021c /scratch/ravanelm/exp/dirha/fbank/raw_fbank_tr05_cont.2.ark:47341169
209o010i /scratch/ravanelm/exp/dirha/fbank/raw_fbank_tr05_cont.3.ark:10463119
20eo0109 /scratch/ravanelm/exp/dirha/fbank/raw_fbank_tr05_cont.3.ark:18601049
01mo030p /scratch/ravanelm/exp/dirha/fbank/raw_fbank_tr05_cont.1.ark:56112369
40ho030p /scratch/ravanelm/exp/dirha/fbank/raw_fbank_tr05_cont.4.ark:31198769
20ro010k /scratch/ravanelm/exp/dirha/fbank/raw_fbank_tr05_cont.3.ark:36420239
40io030v /scratch/ravanelm/exp/dirha/fbank/raw_fbank_tr05_cont.4.ark:34472109
015c0219 /scratch/ravanelm/exp/dirha/fbank/raw_fbank_tr05_cont.1.ark:10589799
01ko031g /scratch/ravanelm/exp/dirha/fbank/raw_fbank_tr05_cont.1.ark:50201289
20vc0102 /scratch/ravanelm/exp/dirha/fbank/raw_fbank_tr05_cont.3.ark:38121639
40ko030h /scratch/ravanelm/exp/dirha/fbank/raw_fbank_tr05_cont.4.ark:40158709
40ic020h /scratch/ravanelm/exp/dirha/fbank/raw_fbank_tr05_cont.4.ark:32548479
013o030y /scratch/ravanelm/exp/dirha/fbank/raw_fbank_tr05_cont.1.ark:5971279
