406c0207 /scratch/ravanelm/exp/dirha/fbank/raw_fbank_tr05_cont.3.ark:51124729
01wo0304 /scratch/ravanelm/exp/dirha/fbank/raw_fbank_tr05_cont.2.ark:18073769
20oo0103 /scratch/ravanelm/exp/dirha/fbank/raw_fbank_tr05_cont.3.ark:30969009
011o0318 /scratch/ravanelm/exp/dirha/fbank/raw_fbank_tr05_cont.1.ark:3164799
20qo010l /scratch/ravanelm/exp/dirha/fbank/raw_fbank_tr05_cont.3.ark:34781999
01jc020l /scratch/ravanelm/exp/dirha/fbank/raw_fbank_tr05_cont.1.ark:43614889
40ko0316 /scratch/ravanelm/exp/dirha/fbank/raw_fbank_tr05_cont.4.ark:41072539
01rc020a /scratch/ravanelm/exp/dirha/fbank/raw_fbank_tr05_cont.2.ark:6990179
01io030m /scratch/ravanelm/exp/dirha/fbank/raw_fbank_tr05_cont.1.ark:41980469
02cc0202 /scratch/ravanelm/exp/dirha/fbank/raw_fbank_tr05_cont.2.ark:49266009
024c0217 /scratch/ravanelm/exp/dirha/fbank/raw_fbank_tr05_cont.2.ark:32093259
01zo0314 /scratch/ravanelm/exp/dirha/fbank/raw_fbank_tr05_cont.2.ark:25696979
20to010a /scratch/ravanelm/exp/dirha/fbank/raw_fbank_tr05_cont.3.ark:37602649
407c020w /scratch/ravanelm/exp/dirha/fbank/raw_fbank_tr05_cont.4.ark:9
40bc020m /scratch/ravanelm/exp/dirha/fbank/raw_fbank_tr05_cont.4.ark:11464209
01jo0306 /scratch/ravanelm/exp/dirha/fbank/raw_fbank_tr05_cont.1.ark:44812239
01wc020h /scratch/ravanelm/exp/dirha/fbank/raw_fbank_tr05_cont.2.ark:17106459
027c020u /scratch/ravanelm/exp/dirha/fbank/raw_fbank_tr05_cont.2.ark:37369739
014c0208 /scratch/ravanelm/exp/dirha/fbank/raw_fbank_tr05_cont.1.ark:6716669
40lc020a /scratch/ravanelm/exp/dirha/fbank/raw_fbank_tr05_cont.4.ark:41595539
20po0105 /scratch/ravanelm/exp/dirha/fbank/raw_fbank_tr05_cont.3.ark:32558549
011c020r /scratch/ravanelm/exp/dirha/fbank/raw_fbank_tr05_cont.1.ark:740029
20po0104 /scratch/ravanelm/exp/dirha/fbank/raw_fbank_tr05_cont.3.ark:32540359
02bo0319 /scratch/ravanelm/exp/dirha/fbank/raw_fbank_tr05_cont.2.ark:49026089
01ic020n /scratch/ravanelm/exp/dirha/fbank/raw_fbank_tr05_cont.1.ark:40367289
016o030b /scratch/ravanelm/exp/dirha/fbank/raw_fbank_tr05_cont.1.ark:13675009
011c020x /scratch/ravanelm/exp/dirha/fbank/raw_fbank_tr05_cont.1.ark:894289
02cc020s /scratch/ravanelm/exp/dirha/fbank/raw_fbank_tr05_cont.2.ark:49916759
20go010a /scratch/ravanelm/exp/dirha/fbank/raw_fbank_tr05_cont.3.ark:21568879
40eo0313 /scratch/ravanelm/exp/dirha/fbank/raw_fbank_tr05_cont.4.ark:21799819
208c010e /scratch/ravanelm/exp/dirha/fbank/raw_fbank_tr05_cont.3.ark:7998979
01tc021a /scratch/ravanelm/exp/dirha/fbank/raw_fbank_tr05_cont.2.ark:11136649
40ao0318 /scratch/ravanelm/exp/dirha/fbank/raw_fbank_tr05_cont.4.ark:10699899
01to030i /scratch/ravanelm/exp/dirha/fbank/raw_fbank_tr05_cont.2.ark:11894699
01yo030a /scratch/ravanelm/exp/dirha/fbank/raw_fbank_tr05_cont.2.ark:21229149
20ec010d /scratch/ravanelm/exp/dirha/fbank/raw_fbank_tr05_cont.3.ark:17904689
20bc0104 /scratch/ravanelm/exp/dirha/fbank/raw_fbank_tr05_cont.3.ark:12560789
401o030f /scratch/ravanelm/exp/dirha/fbank/raw_fbank_tr05_cont.3.ark:41543169
40eo0314 /scratch/ravanelm/exp/dirha/fbank/raw_fbank_tr05_cont.4.ark:21817929
01bo031b /scratch/ravanelm/exp/dirha/fbank/raw_fbank_tr05_cont.1.ark:27289659
016c020i /scratch/ravanelm/exp/dirha/fbank/raw_fbank_tr05_cont.1.ark:12752629
40ec020y /scratch/ravanelm/exp/dirha/fbank/raw_fbank_tr05_cont.4.ark:20151599
029o0311 /scratch/ravanelm/exp/dirha/fbank/raw_fbank_tr05_cont.2.ark:45537029
40kc021g /scratch/ravanelm/exp/dirha/fbank/raw_fbank_tr05_cont.4.ark:39670639
01fo031a /scratch/ravanelm/exp/dirha/fbank/raw_fbank_tr05_cont.1.ark:36283679
018c020g /scratch/ravanelm/exp/dirha/fbank/raw_fbank_tr05_cont.1.ark:18066039
40jo0313 /scratch/ravanelm/exp/dirha/fbank/raw_fbank_tr05_cont.4.ark:37804239
20ic010n /scratch/ravanelm/exp/dirha/fbank/raw_fbank_tr05_cont.3.ark:23972279
406c0202 /scratch/ravanelm/exp/dirha/fbank/raw_fbank_tr05_cont.3.ark:50987659
02eo031a /scratch/ravanelm/exp/dirha/fbank/raw_fbank_tr05_cont.3.ark:817469
029c020x /scratch/ravanelm/exp/dirha/fbank/raw_fbank_tr05_cont.2.ark:43768709
20ic0108 /scratch/ravanelm/exp/dirha/fbank/raw_fbank_tr05_cont.3.ark:23585109
40hc020a /scratch/ravanelm/exp/dirha/fbank/raw_fbank_tr05_cont.4.ark:29384109
20bc010b /scratch/ravanelm/exp/dirha/fbank/raw_fbank_tr05_cont.3.ark:12701879
40hc020d /scratch/ravanelm/exp/dirha/fbank/raw_fbank_tr05_cont.4.ark:29448839
01fo030l /scratch/ravanelm/exp/dirha/fbank/raw_fbank_tr05_cont.1.ark:35499409
20bo0106 /scratch/ravanelm/exp/dirha/fbank/raw_fbank_tr05_cont.3.ark:13301729
011o030g /scratch/ravanelm/exp/dirha/fbank/raw_fbank_tr05_cont.1.ark:1987759
401c0215 /scratch/ravanelm/exp/dirha/fbank/raw_fbank_tr05_cont.3.ark:40757499
406c020k /scratch/ravanelm/exp/dirha/fbank/raw_fbank_tr05_cont.3.ark:51466359
40ec020x /scratch/ravanelm/exp/dirha/fbank/raw_fbank_tr05_cont.4.ark:20134649
02bc020n /scratch/ravanelm/exp/dirha/fbank/raw_fbank_tr05_cont.2.ark:46654219
206o0108 /scratch/ravanelm/exp/dirha/fbank/raw_fbank_tr05_cont.3.ark:5026959
40ic0209 /scratch/ravanelm/exp/dirha/fbank/raw_fbank_tr05_cont.4.ark:32292039
40io030d /scratch/ravanelm/exp/dirha/fbank/raw_fbank_tr05_cont.4.ark:33898529
027o030p /scratch/ravanelm/exp/dirha/fbank/raw_fbank_tr05_cont.2.ark:38977099
40gc020z /scratch/ravanelm/exp/dirha/fbank/raw_fbank_tr05_cont.4.ark:26317949
409c021g /scratch/ravanelm/exp/dirha/fbank/raw_fbank_tr05_cont.4.ark:6282889
205c010d /scratch/ravanelm/exp/dirha/fbank/raw_fbank_tr05_cont.3.ark:2803369
014c0211 /scratch/ravanelm/exp/dirha/fbank/raw_fbank_tr05_cont.1.ark:7395059
018o0316 /scratch/ravanelm/exp/dirha/fbank/raw_fbank_tr05_cont.1.ark:20816339
024c020q /scratch/ravanelm/exp/dirha/fbank/raw_fbank_tr05_cont.2.ark:31631509
01qc0201 /scratch/ravanelm/exp/dirha/fbank/raw_fbank_tr05_cont.2.ark:3642569
40no030w /scratch/ravanelm/exp/dirha/fbank/raw_fbank_tr05_cont.4.ark:50701639
01eo030o /scratch/ravanelm/exp/dirha/fbank/raw_fbank_tr05_cont.1.ark:32511979
40io0315 /scratch/ravanelm/exp/dirha/fbank/raw_fbank_tr05_cont.4.ark:34863089
208c0106 /scratch/ravanelm/exp/dirha/fbank/raw_fbank_tr05_cont.3.ark:7766099
017c021c /scratch/ravanelm/exp/dirha/fbank/raw_fbank_tr05_cont.1.ark:15932659
021c020f /scratch/ravanelm/exp/dirha/fbank/raw_fbank_tr05_cont.2.ark:28437599
01yo030z /scratch/ravanelm/exp/dirha/fbank/raw_fbank_tr05_cont.2.ark:22111019
01to030j /scratch/ravanelm/exp/dirha/fbank/raw_fbank_tr05_cont.2.ark:11950129
40ao031f /scratch/ravanelm/exp/dirha/fbank/raw_fbank_tr05_cont.4.ark:10878309
026o030i /scratch/ravanelm/exp/dirha/fbank/raw_fbank_tr05_cont.2.ark:35657739
020o0309 /scratch/ravanelm/exp/dirha/fbank/raw_fbank_tr05_cont.2.ark:27251149
20go010i /scratch/ravanelm/exp/dirha/fbank/raw_fbank_tr05_cont.3.ark:21812639
02bc020z /scratch/ravanelm/exp/dirha/fbank/raw_fbank_tr05_cont.2.ark:46956019
40ho0309 /scratch/ravanelm/exp/dirha/fbank/raw_fbank_tr05_cont.4.ark:30671089
20cc0108 /scratch/ravanelm/exp/dirha/fbank/raw_fbank_tr05_cont.3.ark:14488679
011c020o /scratch/ravanelm/exp/dirha/fbank/raw_fbank_tr05_cont.1.ark:627179
40kc020f /scratch/ravanelm/exp/dirha/fbank/raw_fbank_tr05_cont.4.ark:38669009
01eo0301 /scratch/ravanelm/exp/dirha/fbank/raw_fbank_tr05_cont.1.ark:31875969
020o031a /scratch/ravanelm/exp/dirha/fbank/raw_fbank_tr05_cont.2.ark:27920819
01pc0207 /scratch/ravanelm/exp/dirha/fbank/raw_fbank_tr05_cont.2.ark:585459
01bo030q /scratch/ravanelm/exp/dirha/fbank/raw_fbank_tr05_cont.1.ark:26496659
01wc0219 /scratch/ravanelm/exp/dirha/fbank/raw_fbank_tr05_cont.2.ark:17822669
024o0303 /scratch/ravanelm/exp/dirha/fbank/raw_fbank_tr05_cont.2.ark:32371239
405c020y /scratch/ravanelm/exp/dirha/fbank/raw_fbank_tr05_cont.3.ark:49037879
40lo0302 /scratch/ravanelm/exp/dirha/fbank/raw_fbank_tr05_cont.4.ark:42956229
409o030h /scratch/ravanelm/exp/dirha/fbank/raw_fbank_tr05_cont.4.ark:6745079
01fc021a /scratch/ravanelm/exp/dirha/fbank/raw_fbank_tr05_cont.1.ark:34594199
20oc010i /scratch/ravanelm/exp/dirha/fbank/raw_fbank_tr05_cont.3.ark:30750339
204o0106 /scratch/ravanelm/exp/dirha/fbank/raw_fbank_tr05_cont.3.ark:1741339
01tc021e /scratch/ravanelm/exp/dirha/fbank/raw_fbank_tr05_cont.2.ark:11235209
404o030s /scratch/ravanelm/exp/dirha/fbank/raw_fbank_tr05_cont.3.ark:47642429
01lc021e /scratch/ravanelm/exp/dirha/fbank/raw_fbank_tr05_cont.1.ark:51845669
20ho010g /scratch/ravanelm/exp/dirha/fbank/raw_fbank_tr05_cont.3.ark:23074999
406c021b /scratch/ravanelm/exp/dirha/fbank/raw_fbank_tr05_cont.3.ark:52115979
20lo0107 /scratch/ravanelm/exp/dirha/fbank/raw_fbank_tr05_cont.3.ark:26064879
02bo030m /scratch/ravanelm/exp/dirha/fbank/raw_fbank_tr05_cont.2.ark:48162799
40ic020x /scratch/ravanelm/exp/dirha/fbank/raw_fbank_tr05_cont.4.ark:32994919
20co010d /scratch/ravanelm/exp/dirha/fbank/raw_fbank_tr05_cont.3.ark:15375069
405o030g /scratch/ravanelm/exp/dirha/fbank/raw_fbank_tr05_cont.3.ark:49903029
40ho030x /scratch/ravanelm/exp/dirha/fbank/raw_fbank_tr05_cont.4.ark:31482809
01mo030f /scratch/ravanelm/exp/dirha/fbank/raw_fbank_tr05_cont.1.ark:55864069
20mo010j /scratch/ravanelm/exp/dirha/fbank/raw_fbank_tr05_cont.3.ark:28181169
01kc020q /scratch/ravanelm/exp/dirha/fbank/raw_fbank_tr05_cont.1.ark:47279249
01tc020x /scratch/ravanelm/exp/dirha/fbank/raw_fbank_tr05_cont.2.ark:10747379
018o030s /scratch/ravanelm/exp/dirha/fbank/raw_fbank_tr05_cont.1.ark:20208039
403c0203 /scratch/ravanelm/exp/dirha/fbank/raw_fbank_tr05_cont.3.ark:42959249
013o0305 /scratch/ravanelm/exp/dirha/fbank/raw_fbank_tr05_cont.1.ark:5087369
01tc0216 /scratch/ravanelm/exp/dirha/fbank/raw_fbank_tr05_cont.2.ark:11039489
20co010l /scratch/ravanelm/exp/dirha/fbank/raw_fbank_tr05_cont.3.ark:15588989
207o010m /scratch/ravanelm/exp/dirha/fbank/raw_fbank_tr05_cont.3.ark:7354159
40eo0304 /scratch/ravanelm/exp/dirha/fbank/raw_fbank_tr05_cont.4.ark:20743049
40kc0206 /scratch/ravanelm/exp/dirha/fbank/raw_fbank_tr05_cont.4.ark:38387459
01zc0204 /scratch/ravanelm/exp/dirha/fbank/raw_fbank_tr05_cont.2.ark:22707889
409o0310 /scratch/ravanelm/exp/dirha/fbank/raw_fbank_tr05_cont.4.ark:7347849
20fc010m /scratch/ravanelm/exp/dirha/fbank/raw_fbank_tr05_cont.3.ark:19830539
40ac021d /scratch/ravanelm/exp/dirha/fbank/raw_fbank_tr05_cont.4.ark:9278389
40fc021e /scratch/ravanelm/exp/dirha/fbank/raw_fbank_tr05_cont.4.ark:23400279
405c020k /scratch/ravanelm/exp/dirha/fbank/raw_fbank_tr05_cont.3.ark:48747419
403o0306 /scratch/ravanelm/exp/dirha/fbank/raw_fbank_tr05_cont.3.ark:44249149
20ho0102 /scratch/ravanelm/exp/dirha/fbank/raw_fbank_tr05_cont.3.ark:22634659
406c0208 /scratch/ravanelm/exp/dirha/fbank/raw_fbank_tr05_cont.3.ark:51153839
205c010i /scratch/ravanelm/exp/dirha/fbank/raw_fbank_tr05_cont.3.ark:2925999
01wo030f /scratch/ravanelm/exp/dirha/fbank/raw_fbank_tr05_cont.2.ark:18416579
01mc020k /scratch/ravanelm/exp/dirha/fbank/raw_fbank_tr05_cont.1.ark:54548409
01gc020r /scratch/ravanelm/exp/dirha/fbank/raw_fbank_tr05_cont.1.ark:37156389
024c0202 /scratch/ravanelm/exp/dirha/fbank/raw_fbank_tr05_cont.2.ark:30939309
01eo030c /scratch/ravanelm/exp/dirha/fbank/raw_fbank_tr05_cont.1.ark:32157579
404c020i /scratch/ravanelm/exp/dirha/fbank/raw_fbank_tr05_cont.3.ark:45975879
40ao030t /scratch/ravanelm/exp/dirha/fbank/raw_fbank_tr05_cont.4.ark:10194849
401o0316 /scratch/ravanelm/exp/dirha/fbank/raw_fbank_tr05_cont.3.ark:42567309
40pc020w /scratch/ravanelm/exp/dirha/fbank/raw_fbank_tr05_cont.4.ark:52120869
20qo0108 /scratch/ravanelm/exp/dirha/fbank/raw_fbank_tr05_cont.3.ark:34324489
206c0101 /scratch/ravanelm/exp/dirha/fbank/raw_fbank_tr05_cont.3.ark:4235449
20to0105 /scratch/ravanelm/exp/dirha/fbank/raw_fbank_tr05_cont.3.ark:37516979
20qc010o /scratch/ravanelm/exp/dirha/fbank/raw_fbank_tr05_cont.3.ark:33951499
02cc0218 /scratch/ravanelm/exp/dirha/fbank/raw_fbank_tr05_cont.2.ark:50342659
406c021a /scratch/ravanelm/exp/dirha/fbank/raw_fbank_tr05_cont.3.ark:52095589
01pc020f /scratch/ravanelm/exp/dirha/fbank/raw_fbank_tr05_cont.2.ark:850459
406c0209 /scratch/ravanelm/exp/dirha/fbank/raw_fbank_tr05_cont.3.ark:51192789
027c0206 /scratch/ravanelm/exp/dirha/fbank/raw_fbank_tr05_cont.2.ark:36796139
40mo030z /scratch/ravanelm/exp/dirha/fbank/raw_fbank_tr05_cont.4.ark:47596099
40no0306 /scratch/ravanelm/exp/dirha/fbank/raw_fbank_tr05_cont.4.ark:49792899
403o030v /scratch/ravanelm/exp/dirha/fbank/raw_fbank_tr05_cont.3.ark:45036539
40jo031b /scratch/ravanelm/exp/dirha/fbank/raw_fbank_tr05_cont.4.ark:38107159
408c020g /scratch/ravanelm/exp/dirha/fbank/raw_fbank_tr05_cont.4.ark:2769929
40eo0318 /scratch/ravanelm/exp/dirha/fbank/raw_fbank_tr05_cont.4.ark:21925129
026o030e /scratch/ravanelm/exp/dirha/fbank/raw_fbank_tr05_cont.2.ark:35523539
013o0318 /scratch/ravanelm/exp/dirha/fbank/raw_fbank_tr05_cont.1.ark:6303219
40bc0203 /scratch/ravanelm/exp/dirha/fbank/raw_fbank_tr05_cont.4.ark:10980159
01tc020q /scratch/ravanelm/exp/dirha/fbank/raw_fbank_tr05_cont.2.ark:10486889
01uo030k /scratch/ravanelm/exp/dirha/fbank/raw_fbank_tr05_cont.2.ark:15434289
40hc020u /scratch/ravanelm/exp/dirha/fbank/raw_fbank_tr05_cont.4.ark:29857229
017o030j /scratch/ravanelm/exp/dirha/fbank/raw_fbank_tr05_cont.1.ark:16653629
01bo030w /scratch/ravanelm/exp/dirha/fbank/raw_fbank_tr05_cont.1.ark:26731679
40ac0203 /scratch/ravanelm/exp/dirha/fbank/raw_fbank_tr05_cont.4.ark:7880689
206c010d /scratch/ravanelm/exp/dirha/fbank/raw_fbank_tr05_cont.3.ark:4502849
01io030b /scratch/ravanelm/exp/dirha/fbank/raw_fbank_tr05_cont.1.ark:41563019
018o0309 /scratch/ravanelm/exp/dirha/fbank/raw_fbank_tr05_cont.1.ark:19461149
40ic020b /scratch/ravanelm/exp/dirha/fbank/raw_fbank_tr05_cont.4.ark:32353939
40jo030t /scratch/ravanelm/exp/dirha/fbank/raw_fbank_tr05_cont.4.ark:37500179
026o030p /scratch/ravanelm/exp/dirha/fbank/raw_fbank_tr05_cont.2.ark:35867829
405c021f /scratch/ravanelm/exp/dirha/fbank/raw_fbank_tr05_cont.3.ark:49474469
405o030r /scratch/ravanelm/exp/dirha/fbank/raw_fbank_tr05_cont.3.ark:50210639
01ic0208 /scratch/ravanelm/exp/dirha/fbank/raw_fbank_tr05_cont.1.ark:39897879
40lc020t /scratch/ravanelm/exp/dirha/fbank/raw_fbank_tr05_cont.4.ark:42114389
40ec020r /scratch/ravanelm/exp/dirha/fbank/raw_fbank_tr05_cont.4.ark:19973549
028c020y /scratch/ravanelm/exp/dirha/fbank/raw_fbank_tr05_cont.2.ark:40577259
40lc0214 /scratch/ravanelm/exp/dirha/fbank/raw_fbank_tr05_cont.4.ark:42514279
40gc020o /scratch/ravanelm/exp/dirha/fbank/raw_fbank_tr05_cont.4.ark:25988459
01ec020d /scratch/ravanelm/exp/dirha/fbank/raw_fbank_tr05_cont.1.ark:30757269
406o030l /scratch/ravanelm/exp/dirha/fbank/raw_fbank_tr05_cont.3.ark:52797769
205o010n /scratch/ravanelm/exp/dirha/fbank/raw_fbank_tr05_cont.3.ark:4004179
20do010g /scratch/ravanelm/exp/dirha/fbank/raw_fbank_tr05_cont.3.ark:17068849
02cc020f /scratch/ravanelm/exp/dirha/fbank/raw_fbank_tr05_cont.2.ark:49623319
014c020z /scratch/ravanelm/exp/dirha/fbank/raw_fbank_tr05_cont.1.ark:7341479
011c0219 /scratch/ravanelm/exp/dirha/fbank/raw_fbank_tr05_cont.1.ark:1249169
40co030o /scratch/ravanelm/exp/dirha/fbank/raw_fbank_tr05_cont.4.ark:15762029
408o0315 /scratch/ravanelm/exp/dirha/fbank/raw_fbank_tr05_cont.4.ark:4668439
407c0204 /scratch/ravanelm/exp/dirha/fbank/raw_fbank_tr05_cont.3.ark:53836329
01zo0306 /scratch/ravanelm/exp/dirha/fbank/raw_fbank_tr05_cont.2.ark:24284919
015c020s /scratch/ravanelm/exp/dirha/fbank/raw_fbank_tr05_cont.1.ark:10193609
407c0214 /scratch/ravanelm/exp/dirha/fbank/raw_fbank_tr05_cont.4.ark:195369
028o030z /scratch/ravanelm/exp/dirha/fbank/raw_fbank_tr05_cont.2.ark:42317899
409c021d /scratch/ravanelm/exp/dirha/fbank/raw_fbank_tr05_cont.4.ark:6204919
40jo030k /scratch/ravanelm/exp/dirha/fbank/raw_fbank_tr05_cont.4.ark:37162149
206o010l /scratch/ravanelm/exp/dirha/fbank/raw_fbank_tr05_cont.3.ark:5613509
011c020w /scratch/ravanelm/exp/dirha/fbank/raw_fbank_tr05_cont.1.ark:853019
406c020y /scratch/ravanelm/exp/dirha/fbank/raw_fbank_tr05_cont.3.ark:51756389
01tc0218 /scratch/ravanelm/exp/dirha/fbank/raw_fbank_tr05_cont.2.ark:11084389
20oc010o /scratch/ravanelm/exp/dirha/fbank/raw_fbank_tr05_cont.3.ark:30881639
407c020k /scratch/ravanelm/exp/dirha/fbank/raw_fbank_tr05_cont.3.ark:54272289
01bo030i /scratch/ravanelm/exp/dirha/fbank/raw_fbank_tr05_cont.1.ark:26132579
40mo030s /scratch/ravanelm/exp/dirha/fbank/raw_fbank_tr05_cont.4.ark:47375009
40dc021e /scratch/ravanelm/exp/dirha/fbank/raw_fbank_tr05_cont.4.ark:17891329
405o030i /scratch/ravanelm/exp/dirha/fbank/raw_fbank_tr05_cont.3.ark:49977449
40mc020q /scratch/ravanelm/exp/dirha/fbank/raw_fbank_tr05_cont.4.ark:45666749
029o0303 /scratch/ravanelm/exp/dirha/fbank/raw_fbank_tr05_cont.2.ark:44351969
01dc020u /scratch/ravanelm/exp/dirha/fbank/raw_fbank_tr05_cont.1.ark:28173499
40ic0203 /scratch/ravanelm/exp/dirha/fbank/raw_fbank_tr05_cont.4.ark:32095659
20dc010o /scratch/ravanelm/exp/dirha/fbank/raw_fbank_tr05_cont.3.ark:16480259
01yc020t /scratch/ravanelm/exp/dirha/fbank/raw_fbank_tr05_cont.2.ark:20317879
406o030d /scratch/ravanelm/exp/dirha/fbank/raw_fbank_tr05_cont.3.ark:52543929
026c020n /scratch/ravanelm/exp/dirha/fbank/raw_fbank_tr05_cont.2.ark:34419689
40gc0215 /scratch/ravanelm/exp/dirha/fbank/raw_fbank_tr05_cont.4.ark:26601249
207o010c /scratch/ravanelm/exp/dirha/fbank/raw_fbank_tr05_cont.3.ark:7042499
018o030z /scratch/ravanelm/exp/dirha/fbank/raw_fbank_tr05_cont.1.ark:20493729
01lo0319 /scratch/ravanelm/exp/dirha/fbank/raw_fbank_tr05_cont.1.ark:53822529
02ec020e /scratch/ravanelm/exp/dirha/fbank/raw_fbank_tr05_cont.2.ark:52678029
208c0101 /scratch/ravanelm/exp/dirha/fbank/raw_fbank_tr05_cont.3.ark:7623149
40kc0214 /scratch/ravanelm/exp/dirha/fbank/raw_fbank_tr05_cont.4.ark:39356039
40ac021a /scratch/ravanelm/exp/dirha/fbank/raw_fbank_tr05_cont.4.ark:9185939
20oc0106 /scratch/ravanelm/exp/dirha/fbank/raw_fbank_tr05_cont.3.ark:30467819
01zo0313 /scratch/ravanelm/exp/dirha/fbank/raw_fbank_tr05_cont.2.ark:25652909
01kc020u /scratch/ravanelm/exp/dirha/fbank/raw_fbank_tr05_cont.1.ark:47377769
01jc020z /scratch/ravanelm/exp/dirha/fbank/raw_fbank_tr05_cont.1.ark:43990149
01yc020c /scratch/ravanelm/exp/dirha/fbank/raw_fbank_tr05_cont.2.ark:19833449
016o031e /scratch/ravanelm/exp/dirha/fbank/raw_fbank_tr05_cont.1.ark:14716069
014c0207 /scratch/ravanelm/exp/dirha/fbank/raw_fbank_tr05_cont.1.ark:6687639
01ko030n /scratch/ravanelm/exp/dirha/fbank/raw_fbank_tr05_cont.1.ark:49011619
01mo0310 /scratch/ravanelm/exp/dirha/fbank/raw_fbank_tr05_cont.1.ark:56493139
40cc0207 /scratch/ravanelm/exp/dirha/fbank/raw_fbank_tr05_cont.4.ark:14123699
018c020k /scratch/ravanelm/exp/dirha/fbank/raw_fbank_tr05_cont.1.ark:18199319
01ro0318 /scratch/ravanelm/exp/dirha/fbank/raw_fbank_tr05_cont.2.ark:9473719
20do0101 /scratch/ravanelm/exp/dirha/fbank/raw_fbank_tr05_cont.3.ark:16526879
01jo030q /scratch/ravanelm/exp/dirha/fbank/raw_fbank_tr05_cont.1.ark:45501479
01zc020z /scratch/ravanelm/exp/dirha/fbank/raw_fbank_tr05_cont.2.ark:23570419
01ec021a /scratch/ravanelm/exp/dirha/fbank/raw_fbank_tr05_cont.1.ark:31722899
40go0307 /scratch/ravanelm/exp/dirha/fbank/raw_fbank_tr05_cont.4.ark:27253799
207c010e /scratch/ravanelm/exp/dirha/fbank/raw_fbank_tr05_cont.3.ark:6293579
026c020x /scratch/ravanelm/exp/dirha/fbank/raw_fbank_tr05_cont.2.ark:34642389
20no010p /scratch/ravanelm/exp/dirha/fbank/raw_fbank_tr05_cont.3.ark:30219499
40co030n /scratch/ravanelm/exp/dirha/fbank/raw_fbank_tr05_cont.4.ark:15740239
40gc020l /scratch/ravanelm/exp/dirha/fbank/raw_fbank_tr05_cont.4.ark:25881009
40mo0306 /scratch/ravanelm/exp/dirha/fbank/raw_fbank_tr05_cont.4.ark:46602629
205c0103 /scratch/ravanelm/exp/dirha/fbank/raw_fbank_tr05_cont.3.ark:2490589
02ec0208 /scratch/ravanelm/exp/dirha/fbank/raw_fbank_tr05_cont.2.ark:52479369
20ec010a /scratch/ravanelm/exp/dirha/fbank/raw_fbank_tr05_cont.3.ark:17816999
01tc0211 /scratch/ravanelm/exp/dirha/fbank/raw_fbank_tr05_cont.2.ark:10878099
01pc020c /scratch/ravanelm/exp/dirha/fbank/raw_fbank_tr05_cont.2.ark:731809
017o030z /scratch/ravanelm/exp/dirha/fbank/raw_fbank_tr05_cont.1.ark:17124509
409c020r /scratch/ravanelm/exp/dirha/fbank/raw_fbank_tr05_cont.4.ark:5590619
20go0109 /scratch/ravanelm/exp/dirha/fbank/raw_fbank_tr05_cont.3.ark:21522689
20lc0104 /scratch/ravanelm/exp/dirha/fbank/raw_fbank_tr05_cont.3.ark:25053369
01kc020n /scratch/ravanelm/exp/dirha/fbank/raw_fbank_tr05_cont.1.ark:47179159
40lc020z /scratch/ravanelm/exp/dirha/fbank/raw_fbank_tr05_cont.4.ark:42347529
20lo0106 /scratch/ravanelm/exp/dirha/fbank/raw_fbank_tr05_cont.3.ark:26022449
40bc020k /scratch/ravanelm/exp/dirha/fbank/raw_fbank_tr05_cont.4.ark:11435709
01dc020m /scratch/ravanelm/exp/dirha/fbank/raw_fbank_tr05_cont.1.ark:27986019
01lc020c /scratch/ravanelm/exp/dirha/fbank/raw_fbank_tr05_cont.1.ark:50661169
028o0304 /scratch/ravanelm/exp/dirha/fbank/raw_fbank_tr05_cont.2.ark:41192849
408o031a /scratch/ravanelm/exp/dirha/fbank/raw_fbank_tr05_cont.4.ark:4823669
20fc010l /scratch/ravanelm/exp/dirha/fbank/raw_fbank_tr05_cont.3.ark:19794029
408c0218 /scratch/ravanelm/exp/dirha/fbank/raw_fbank_tr05_cont.4.ark:3378259
01to030b /scratch/ravanelm/exp/dirha/fbank/raw_fbank_tr05_cont.2.ark:11657089
40mo031b /scratch/ravanelm/exp/dirha/fbank/raw_fbank_tr05_cont.4.ark:47960619
20rc010i /scratch/ravanelm/exp/dirha/fbank/raw_fbank_tr05_cont.3.ark:35509009
019c0210 /scratch/ravanelm/exp/dirha/fbank/raw_fbank_tr05_cont.1.ark:21904079
01fc020x /scratch/ravanelm/exp/dirha/fbank/raw_fbank_tr05_cont.1.ark:34250089
40jc020n /scratch/ravanelm/exp/dirha/fbank/raw_fbank_tr05_cont.4.ark:35698299
40mo030t /scratch/ravanelm/exp/dirha/fbank/raw_fbank_tr05_cont.4.ark:47410519
01jo0317 /scratch/ravanelm/exp/dirha/fbank/raw_fbank_tr05_cont.1.ark:46241509
40kc020g /scratch/ravanelm/exp/dirha/fbank/raw_fbank_tr05_cont.4.ark:38703479
407c0217 /scratch/ravanelm/exp/dirha/fbank/raw_fbank_tr05_cont.4.ark:292139
405o0309 /scratch/ravanelm/exp/dirha/fbank/raw_fbank_tr05_cont.3.ark:49643699
01zo030f /scratch/ravanelm/exp/dirha/fbank/raw_fbank_tr05_cont.2.ark:24585829
01zo0316 /scratch/ravanelm/exp/dirha/fbank/raw_fbank_tr05_cont.2.ark:25751799
40dc0202 /scratch/ravanelm/exp/dirha/fbank/raw_fbank_tr05_cont.4.ark:16485529
20oc0101 /scratch/ravanelm/exp/dirha/fbank/raw_fbank_tr05_cont.3.ark:30335349
40lc0209 /scratch/ravanelm/exp/dirha/fbank/raw_fbank_tr05_cont.4.ark:41571589
029o030d /scratch/ravanelm/exp/dirha/fbank/raw_fbank_tr05_cont.2.ark:44667509
401o030b /scratch/ravanelm/exp/dirha/fbank/raw_fbank_tr05_cont.3.ark:41425609
027c020q /scratch/ravanelm/exp/dirha/fbank/raw_fbank_tr05_cont.2.ark:37255419
01gc020y /scratch/ravanelm/exp/dirha/fbank/raw_fbank_tr05_cont.1.ark:37317919
016c020y /scratch/ravanelm/exp/dirha/fbank/raw_fbank_tr05_cont.1.ark:13072639
40bo030m /scratch/ravanelm/exp/dirha/fbank/raw_fbank_tr05_cont.4.ark:13097569
204o0109 /scratch/ravanelm/exp/dirha/fbank/raw_fbank_tr05_cont.3.ark:1785669
20vo010g /scratch/ravanelm/exp/dirha/fbank/raw_fbank_tr05_cont.3.ark:39178889
20fo0101 /scratch/ravanelm/exp/dirha/fbank/raw_fbank_tr05_cont.3.ark:19939729
20ic010j /scratch/ravanelm/exp/dirha/fbank/raw_fbank_tr05_cont.3.ark:23850319
029c021e /scratch/ravanelm/exp/dirha/fbank/raw_fbank_tr05_cont.2.ark:44185819
406o030m /scratch/ravanelm/exp/dirha/fbank/raw_fbank_tr05_cont.3.ark:52837719
028c021a /scratch/ravanelm/exp/dirha/fbank/raw_fbank_tr05_cont.2.ark:40922019
20ec0109 /scratch/ravanelm/exp/dirha/fbank/raw_fbank_tr05_cont.3.ark:17800329
40bo0308 /scratch/ravanelm/exp/dirha/fbank/raw_fbank_tr05_cont.4.ark:12609029
01ko0304 /scratch/ravanelm/exp/dirha/fbank/raw_fbank_tr05_cont.1.ark:48227569
404c020c /scratch/ravanelm/exp/dirha/fbank/raw_fbank_tr05_cont.3.ark:45840859
01ic0214 /scratch/ravanelm/exp/dirha/fbank/raw_fbank_tr05_cont.1.ark:40806039
020c0205 /scratch/ravanelm/exp/dirha/fbank/raw_fbank_tr05_cont.2.ark:26173329
40bc020f /scratch/ravanelm/exp/dirha/fbank/raw_fbank_tr05_cont.4.ark:11335039
02co030z /scratch/ravanelm/exp/dirha/fbank/raw_fbank_tr05_cont.2.ark:51632879
40pc0201 /scratch/ravanelm/exp/dirha/fbank/raw_fbank_tr05_cont.4.ark:51403899
403c020c /scratch/ravanelm/exp/dirha/fbank/raw_fbank_tr05_cont.3.ark:43082959
40mc020y /scratch/ravanelm/exp/dirha/fbank/raw_fbank_tr05_cont.4.ark:45880389
01do030z /scratch/ravanelm/exp/dirha/fbank/raw_fbank_tr05_cont.1.ark:29856359
01gc020a /scratch/ravanelm/exp/dirha/fbank/raw_fbank_tr05_cont.1.ark:36643999
40bo0304 /scratch/ravanelm/exp/dirha/fbank/raw_fbank_tr05_cont.4.ark:12456629
40pc020b /scratch/ravanelm/exp/dirha/fbank/raw_fbank_tr05_cont.4.ark:51635599
024o030i /scratch/ravanelm/exp/dirha/fbank/raw_fbank_tr05_cont.2.ark:32879649
20mc010d /scratch/ravanelm/exp/dirha/fbank/raw_fbank_tr05_cont.3.ark:27306879
40co0301 /scratch/ravanelm/exp/dirha/fbank/raw_fbank_tr05_cont.4.ark:15130939
40dc020f /scratch/ravanelm/exp/dirha/fbank/raw_fbank_tr05_cont.4.ark:16846559
01qo030n /scratch/ravanelm/exp/dirha/fbank/raw_fbank_tr05_cont.2.ark:5829249
40jc0211 /scratch/ravanelm/exp/dirha/fbank/raw_fbank_tr05_cont.4.ark:36097479
20eo010o /scratch/ravanelm/exp/dirha/fbank/raw_fbank_tr05_cont.3.ark:19161259
40ko030p /scratch/ravanelm/exp/dirha/fbank/raw_fbank_tr05_cont.4.ark:40473389
018c020n /scratch/ravanelm/exp/dirha/fbank/raw_fbank_tr05_cont.1.ark:18261929
40kc020q /scratch/ravanelm/exp/dirha/fbank/raw_fbank_tr05_cont.4.ark:38979979
20fc0102 /scratch/ravanelm/exp/dirha/fbank/raw_fbank_tr05_cont.3.ark:19295299
024c020j /scratch/ravanelm/exp/dirha/fbank/raw_fbank_tr05_cont.2.ark:31465179
027c0218 /scratch/ravanelm/exp/dirha/fbank/raw_fbank_tr05_cont.2.ark:37812759
01mc0209 /scratch/ravanelm/exp/dirha/fbank/raw_fbank_tr05_cont.1.ark:54264159
019c0214 /scratch/ravanelm/exp/dirha/fbank/raw_fbank_tr05_cont.1.ark:22036639
20no0104 /scratch/ravanelm/exp/dirha/fbank/raw_fbank_tr05_cont.3.ark:29358069
024o030b /scratch/ravanelm/exp/dirha/fbank/raw_fbank_tr05_cont.2.ark:32634079
02bo031b /scratch/ravanelm/exp/dirha/fbank/raw_fbank_tr05_cont.2.ark:49088189
01jo030u /scratch/ravanelm/exp/dirha/fbank/raw_fbank_tr05_cont.1.ark:45649119
407o0317 /scratch/ravanelm/exp/dirha/fbank/raw_fbank_tr05_cont.4.ark:2272199
01po030r /scratch/ravanelm/exp/dirha/fbank/raw_fbank_tr05_cont.2.ark:2843269
20vo0109 /scratch/ravanelm/exp/dirha/fbank/raw_fbank_tr05_cont.3.ark:38954679
01fo0307 /scratch/ravanelm/exp/dirha/fbank/raw_fbank_tr05_cont.1.ark:35001789
407o0302 /scratch/ravanelm/exp/dirha/fbank/raw_fbank_tr05_cont.4.ark:674049
20cc010d /scratch/ravanelm/exp/dirha/fbank/raw_fbank_tr05_cont.3.ark:14638509
024o030r /scratch/ravanelm/exp/dirha/fbank/raw_fbank_tr05_cont.2.ark:33111159
40no031c /scratch/ravanelm/exp/dirha/fbank/raw_fbank_tr05_cont.4.ark:51332319
40pc020k /scratch/ravanelm/exp/dirha/fbank/raw_fbank_tr05_cont.4.ark:51827709
01yo030h /scratch/ravanelm/exp/dirha/fbank/raw_fbank_tr05_cont.2.ark:21452319
01gc020f /scratch/ravanelm/exp/dirha/fbank/raw_fbank_tr05_cont.1.ark:36800869
40ko0318 /scratch/ravanelm/exp/dirha/fbank/raw_fbank_tr05_cont.4.ark:41120999
01ec020m /scratch/ravanelm/exp/dirha/fbank/raw_fbank_tr05_cont.1.ark:30994019
40go030k /scratch/ravanelm/exp/dirha/fbank/raw_fbank_tr05_cont.4.ark:27768269
021o030v /scratch/ravanelm/exp/dirha/fbank/raw_fbank_tr05_cont.2.ark:30287089
020c020n /scratch/ravanelm/exp/dirha/fbank/raw_fbank_tr05_cont.2.ark:26572709
40ic020c /scratch/ravanelm/exp/dirha/fbank/raw_fbank_tr05_cont.4.ark:32375849
024c020b /scratch/ravanelm/exp/dirha/fbank/raw_fbank_tr05_cont.2.ark:31191059
021c020n /scratch/ravanelm/exp/dirha/fbank/raw_fbank_tr05_cont.2.ark:28682399
40ec020k /scratch/ravanelm/exp/dirha/fbank/raw_fbank_tr05_cont.4.ark:19842979
01mo030s /scratch/ravanelm/exp/dirha/fbank/raw_fbank_tr05_cont.1.ark:56219099
028o030h /scratch/ravanelm/exp/dirha/fbank/raw_fbank_tr05_cont.2.ark:41724079
015c020l /scratch/ravanelm/exp/dirha/fbank/raw_fbank_tr05_cont.1.ark:10030999
40lc020l /scratch/ravanelm/exp/dirha/fbank/raw_fbank_tr05_cont.4.ark:41950149
021c020z /scratch/ravanelm/exp/dirha/fbank/raw_fbank_tr05_cont.2.ark:28995479
40go0315 /scratch/ravanelm/exp/dirha/fbank/raw_fbank_tr05_cont.4.ark:28771419
20pc010g /scratch/ravanelm/exp/dirha/fbank/raw_fbank_tr05_cont.3.ark:32175169
01uc021c /scratch/ravanelm/exp/dirha/fbank/raw_fbank_tr05_cont.2.ark:14614519
20ao0108 /scratch/ravanelm/exp/dirha/fbank/raw_fbank_tr05_cont.3.ark:11688209
20lc0105 /scratch/ravanelm/exp/dirha/fbank/raw_fbank_tr05_cont.3.ark:25101719
01uo0312 /scratch/ravanelm/exp/dirha/fbank/raw_fbank_tr05_cont.2.ark:16184429
40mo031a /scratch/ravanelm/exp/dirha/fbank/raw_fbank_tr05_cont.4.ark:47911789
20bo010l /scratch/ravanelm/exp/dirha/fbank/raw_fbank_tr05_cont.3.ark:13973139
017o030l /scratch/ravanelm/exp/dirha/fbank/raw_fbank_tr05_cont.1.ark:16699249
01mc0218 /scratch/ravanelm/exp/dirha/fbank/raw_fbank_tr05_cont.1.ark:55163169
20vo010f /scratch/ravanelm/exp/dirha/fbank/raw_fbank_tr05_cont.3.ark:39168379
019c020i /scratch/ravanelm/exp/dirha/fbank/raw_fbank_tr05_cont.1.ark:21513219
40go030u /scratch/ravanelm/exp/dirha/fbank/raw_fbank_tr05_cont.4.ark:28194969
026c020s /scratch/ravanelm/exp/dirha/fbank/raw_fbank_tr05_cont.2.ark:34528879
40go0301 /scratch/ravanelm/exp/dirha/fbank/raw_fbank_tr05_cont.4.ark:26992099
020o030z /scratch/ravanelm/exp/dirha/fbank/raw_fbank_tr05_cont.2.ark:27655929
408c021c /scratch/ravanelm/exp/dirha/fbank/raw_fbank_tr05_cont.4.ark:3465499
20co010g /scratch/ravanelm/exp/dirha/fbank/raw_fbank_tr05_cont.3.ark:15434839
01zc021f /scratch/ravanelm/exp/dirha/fbank/raw_fbank_tr05_cont.2.ark:24064739
01to030v /scratch/ravanelm/exp/dirha/fbank/raw_fbank_tr05_cont.2.ark:12374569
40co030v /scratch/ravanelm/exp/dirha/fbank/raw_fbank_tr05_cont.4.ark:15939399
20fo010m /scratch/ravanelm/exp/dirha/fbank/raw_fbank_tr05_cont.3.ark:20632039
405o0317 /scratch/ravanelm/exp/dirha/fbank/raw_fbank_tr05_cont.3.ark:50688519
017o0315 /scratch/ravanelm/exp/dirha/fbank/raw_fbank_tr05_cont.1.ark:17314529
20io0107 /scratch/ravanelm/exp/dirha/fbank/raw_fbank_tr05_cont.3.ark:24256039
01qc020a /scratch/ravanelm/exp/dirha/fbank/raw_fbank_tr05_cont.2.ark:3962839
016c020w /scratch/ravanelm/exp/dirha/fbank/raw_fbank_tr05_cont.1.ark:13030539
01bo0309 /scratch/ravanelm/exp/dirha/fbank/raw_fbank_tr05_cont.1.ark:25790499
01zc0216 /scratch/ravanelm/exp/dirha/fbank/raw_fbank_tr05_cont.2.ark:23795389
40eo0305 /scratch/ravanelm/exp/dirha/fbank/raw_fbank_tr05_cont.4.ark:20786559
205o0109 /scratch/ravanelm/exp/dirha/fbank/raw_fbank_tr05_cont.3.ark:3423919
20pc0103 /scratch/ravanelm/exp/dirha/fbank/raw_fbank_tr05_cont.3.ark:31845819
40ho030h /scratch/ravanelm/exp/dirha/fbank/raw_fbank_tr05_cont.4.ark:30939449
20do010r /scratch/ravanelm/exp/dirha/fbank/raw_fbank_tr05_cont.3.ark:17505259
20pc0102 /scratch/ravanelm/exp/dirha/fbank/raw_fbank_tr05_cont.3.ark:31819709
013c020w /scratch/ravanelm/exp/dirha/fbank/raw_fbank_tr05_cont.1.ark:4513649
01bo030f /scratch/ravanelm/exp/dirha/fbank/raw_fbank_tr05_cont.1.ark:26027849
40fc020l /scratch/ravanelm/exp/dirha/fbank/raw_fbank_tr05_cont.4.ark:22547489
01yc020u /scratch/ravanelm/exp/dirha/fbank/raw_fbank_tr05_cont.2.ark:20332149
408o030e /scratch/ravanelm/exp/dirha/fbank/raw_fbank_tr05_cont.4.ark:3945869
207o010o /scratch/ravanelm/exp/dirha/fbank/raw_fbank_tr05_cont.3.ark:7423899
01lo030q /scratch/ravanelm/exp/dirha/fbank/raw_fbank_tr05_cont.1.ark:52963879
024o0312 /scratch/ravanelm/exp/dirha/fbank/raw_fbank_tr05_cont.2.ark:33466529
404o0302 /scratch/ravanelm/exp/dirha/fbank/raw_fbank_tr05_cont.3.ark:46841729
409c0201 /scratch/ravanelm/exp/dirha/fbank/raw_fbank_tr05_cont.4.ark:4868519
01wc020n /scratch/ravanelm/exp/dirha/fbank/raw_fbank_tr05_cont.2.ark:17287839
409c020g /scratch/ravanelm/exp/dirha/fbank/raw_fbank_tr05_cont.4.ark:5292649
20ec0102 /scratch/ravanelm/exp/dirha/fbank/raw_fbank_tr05_cont.3.ark:17590919
40ac020r /scratch/ravanelm/exp/dirha/fbank/raw_fbank_tr05_cont.4.ark:8650009
018o0318 /scratch/ravanelm/exp/dirha/fbank/raw_fbank_tr05_cont.1.ark:20887239
024o031f /scratch/ravanelm/exp/dirha/fbank/raw_fbank_tr05_cont.2.ark:33807999
40dc021c /scratch/ravanelm/exp/dirha/fbank/raw_fbank_tr05_cont.4.ark:17844029
020c020b /scratch/ravanelm/exp/dirha/fbank/raw_fbank_tr05_cont.2.ark:26313989
01mc0207 /scratch/ravanelm/exp/dirha/fbank/raw_fbank_tr05_cont.1.ark:54226419
01ic020l /scratch/ravanelm/exp/dirha/fbank/raw_fbank_tr05_cont.1.ark:40317749
20cc010m /scratch/ravanelm/exp/dirha/fbank/raw_fbank_tr05_cont.3.ark:14842539
40ic021e /scratch/ravanelm/exp/dirha/fbank/raw_fbank_tr05_cont.4.ark:33472949
021c0216 /scratch/ravanelm/exp/dirha/fbank/raw_fbank_tr05_cont.2.ark:29160249
408c020p /scratch/ravanelm/exp/dirha/fbank/raw_fbank_tr05_cont.4.ark:2984879
01go030v /scratch/ravanelm/exp/dirha/fbank/raw_fbank_tr05_cont.1.ark:38851049
020c021d /scratch/ravanelm/exp/dirha/fbank/raw_fbank_tr05_cont.2.ark:27030369
017o0310 /scratch/ravanelm/exp/dirha/fbank/raw_fbank_tr05_cont.1.ark:17162219
406c020j /scratch/ravanelm/exp/dirha/fbank/raw_fbank_tr05_cont.3.ark:51444169
01gc020o /scratch/ravanelm/exp/dirha/fbank/raw_fbank_tr05_cont.1.ark:37076899
20go010o /scratch/ravanelm/exp/dirha/fbank/raw_fbank_tr05_cont.3.ark:21972339
20mo010s /scratch/ravanelm/exp/dirha/fbank/raw_fbank_tr05_cont.3.ark:28412159
20fo010l /scratch/ravanelm/exp/dirha/fbank/raw_fbank_tr05_cont.3.ark:20597289
01dc020a /scratch/ravanelm/exp/dirha/fbank/raw_fbank_tr05_cont.1.ark:27618539
020o0308 /scratch/ravanelm/exp/dirha/fbank/raw_fbank_tr05_cont.2.ark:27235119
40nc0202 /scratch/ravanelm/exp/dirha/fbank/raw_fbank_tr05_cont.4.ark:48090939
20ao010k /scratch/ravanelm/exp/dirha/fbank/raw_fbank_tr05_cont.3.ark:12196089
019o031a /scratch/ravanelm/exp/dirha/fbank/raw_fbank_tr05_cont.1.ark:23781889
01to030a /scratch/ravanelm/exp/dirha/fbank/raw_fbank_tr05_cont.2.ark:11624739
208c010g /scratch/ravanelm/exp/dirha/fbank/raw_fbank_tr05_cont.3.ark:8046479
01kc020o /scratch/ravanelm/exp/dirha/fbank/raw_fbank_tr05_cont.1.ark:47188869
029o0316 /scratch/ravanelm/exp/dirha/fbank/raw_fbank_tr05_cont.2.ark:45707859
40io0319 /scratch/ravanelm/exp/dirha/fbank/raw_fbank_tr05_cont.4.ark:34973649
01go0310 /scratch/ravanelm/exp/dirha/fbank/raw_fbank_tr05_cont.1.ark:39020999
40bc020u /scratch/ravanelm/exp/dirha/fbank/raw_fbank_tr05_cont.4.ark:11687369
01lc0203 /scratch/ravanelm/exp/dirha/fbank/raw_fbank_tr05_cont.1.ark:50298699
40lc020m /scratch/ravanelm/exp/dirha/fbank/raw_fbank_tr05_cont.4.ark:41978899
024o030x /scratch/ravanelm/exp/dirha/fbank/raw_fbank_tr05_cont.2.ark:33257099
20lo010d /scratch/ravanelm/exp/dirha/fbank/raw_fbank_tr05_cont.3.ark:26373939
406c020d /scratch/ravanelm/exp/dirha/fbank/raw_fbank_tr05_cont.3.ark:51297549
01bo030x /scratch/ravanelm/exp/dirha/fbank/raw_fbank_tr05_cont.1.ark:26778149
40ho030u /scratch/ravanelm/exp/dirha/fbank/raw_fbank_tr05_cont.4.ark:31358439
020o030o /scratch/ravanelm/exp/dirha/fbank/raw_fbank_tr05_cont.2.ark:27443809
20bo010n /scratch/ravanelm/exp/dirha/fbank/raw_fbank_tr05_cont.3.ark:14028159
011c020c /scratch/ravanelm/exp/dirha/fbank/raw_fbank_tr05_cont.1.ark:292259
20io010d /scratch/ravanelm/exp/dirha/fbank/raw_fbank_tr05_cont.3.ark:24461899
01bo0302 /scratch/ravanelm/exp/dirha/fbank/raw_fbank_tr05_cont.1.ark:25471569
01zo0309 /scratch/ravanelm/exp/dirha/fbank/raw_fbank_tr05_cont.2.ark:24365609
01zc020l /scratch/ravanelm/exp/dirha/fbank/raw_fbank_tr05_cont.2.ark:23200319
029c0208 /scratch/ravanelm/exp/dirha/fbank/raw_fbank_tr05_cont.2.ark:43046399
021o0318 /scratch/ravanelm/exp/dirha/fbank/raw_fbank_tr05_cont.2.ark:30694559
40ac0212 /scratch/ravanelm/exp/dirha/fbank/raw_fbank_tr05_cont.4.ark:8981139
40ao0301 /scratch/ravanelm/exp/dirha/fbank/raw_fbank_tr05_cont.4.ark:9346089
027c021g /scratch/ravanelm/exp/dirha/fbank/raw_fbank_tr05_cont.2.ark:38009039
20mo0109 /scratch/ravanelm/exp/dirha/fbank/raw_fbank_tr05_cont.3.ark:27922229
40ho030f /scratch/ravanelm/exp/dirha/fbank/raw_fbank_tr05_cont.4.ark:30847909
01gc0219 /scratch/ravanelm/exp/dirha/fbank/raw_fbank_tr05_cont.1.ark:37622609
40nc0208 /scratch/ravanelm/exp/dirha/fbank/raw_fbank_tr05_cont.4.ark:48240719
01rc020d /scratch/ravanelm/exp/dirha/fbank/raw_fbank_tr05_cont.2.ark:7071469
40ao0314 /scratch/ravanelm/exp/dirha/fbank/raw_fbank_tr05_cont.4.ark:10562939
01rc020s /scratch/ravanelm/exp/dirha/fbank/raw_fbank_tr05_cont.2.ark:7537759
20tc010i /scratch/ravanelm/exp/dirha/fbank/raw_fbank_tr05_cont.3.ark:37180989
01wo0314 /scratch/ravanelm/exp/dirha/fbank/raw_fbank_tr05_cont.2.ark:19205819
205o010b /scratch/ravanelm/exp/dirha/fbank/raw_fbank_tr05_cont.3.ark:3498059
01mo030v /scratch/ravanelm/exp/dirha/fbank/raw_fbank_tr05_cont.1.ark:56329789
01pc020p /scratch/ravanelm/exp/dirha/fbank/raw_fbank_tr05_cont.2.ark:1082679
408o0301 /scratch/ravanelm/exp/dirha/fbank/raw_fbank_tr05_cont.4.ark:3573839
01uo0306 /scratch/ravanelm/exp/dirha/fbank/raw_fbank_tr05_cont.2.ark:14962669
01uo0313 /scratch/ravanelm/exp/dirha/fbank/raw_fbank_tr05_cont.2.ark:16224419
40eo030r /scratch/ravanelm/exp/dirha/fbank/raw_fbank_tr05_cont.4.ark:21432979
01to0308 /scratch/ravanelm/exp/dirha/fbank/raw_fbank_tr05_cont.2.ark:11518559
01wo0317 /scratch/ravanelm/exp/dirha/fbank/raw_fbank_tr05_cont.2.ark:19291149
018c020e /scratch/ravanelm/exp/dirha/fbank/raw_fbank_tr05_cont.1.ark:17990499
409c021b /scratch/ravanelm/exp/dirha/fbank/raw_fbank_tr05_cont.4.ark:6171179
204c010a /scratch/ravanelm/exp/dirha/fbank/raw_fbank_tr05_cont.3.ark:1236549
20do0106 /scratch/ravanelm/exp/dirha/fbank/raw_fbank_tr05_cont.3.ark:16752869
20no010d /scratch/ravanelm/exp/dirha/fbank/raw_fbank_tr05_cont.3.ark:29713939
01pc020l /scratch/ravanelm/exp/dirha/fbank/raw_fbank_tr05_cont.2.ark:981519
40co030z /scratch/ravanelm/exp/dirha/fbank/raw_fbank_tr05_cont.4.ark:16007679
01wc020a /scratch/ravanelm/exp/dirha/fbank/raw_fbank_tr05_cont.2.ark:16883569
026o030b /scratch/ravanelm/exp/dirha/fbank/raw_fbank_tr05_cont.2.ark:35417769
01ko0302 /scratch/ravanelm/exp/dirha/fbank/raw_fbank_tr05_cont.1.ark:48128349
015o0303 /scratch/ravanelm/exp/dirha/fbank/raw_fbank_tr05_cont.1.ark:10849239
405o030w /scratch/ravanelm/exp/dirha/fbank/raw_fbank_tr05_cont.3.ark:50378469
02bc0212 /scratch/ravanelm/exp/dirha/fbank/raw_fbank_tr05_cont.2.ark:47031389
016o0318 /scratch/ravanelm/exp/dirha/fbank/raw_fbank_tr05_cont.1.ark:14546409
020c020i /scratch/ravanelm/exp/dirha/fbank/raw_fbank_tr05_cont.2.ark:26458759
40ho030p /scratch/ravanelm/exp/dirha/fbank/raw_fbank_tr05_cont.4.ark:31198769
01ic020e /scratch/ravanelm/exp/dirha/fbank/raw_fbank_tr05_cont.1.ark:40094139
028o030s /scratch/ravanelm/exp/dirha/fbank/raw_fbank_tr05_cont.2.ark:42099649
01ec0209 /scratch/ravanelm/exp/dirha/fbank/raw_fbank_tr05_cont.1.ark:30654509
01qo031f /scratch/ravanelm/exp/dirha/fbank/raw_fbank_tr05_cont.2.ark:6675089
40bo030a /scratch/ravanelm/exp/dirha/fbank/raw_fbank_tr05_cont.4.ark:12688369
01dc020q /scratch/ravanelm/exp/dirha/fbank/raw_fbank_tr05_cont.1.ark:28090099
40bo0316 /scratch/ravanelm/exp/dirha/fbank/raw_fbank_tr05_cont.4.ark:13742709
20qo010k /scratch/ravanelm/exp/dirha/fbank/raw_fbank_tr05_cont.3.ark:34755409
021o030z /scratch/ravanelm/exp/dirha/fbank/raw_fbank_tr05_cont.2.ark:30421009
405o031f /scratch/ravanelm/exp/dirha/fbank/raw_fbank_tr05_cont.3.ark:50941719
017o030p /scratch/ravanelm/exp/dirha/fbank/raw_fbank_tr05_cont.1.ark:16819329
40io030q /scratch/ravanelm/exp/dirha/fbank/raw_fbank_tr05_cont.4.ark:34322359
40ec020l /scratch/ravanelm/exp/dirha/fbank/raw_fbank_tr05_cont.4.ark:19869449
404o030u /scratch/ravanelm/exp/dirha/fbank/raw_fbank_tr05_cont.3.ark:47721289
20cc010c /scratch/ravanelm/exp/dirha/fbank/raw_fbank_tr05_cont.3.ark:14621759
01tc020v /scratch/ravanelm/exp/dirha/fbank/raw_fbank_tr05_cont.2.ark:10676759
20vc0103 /scratch/ravanelm/exp/dirha/fbank/raw_fbank_tr05_cont.3.ark:38141269
40ho030o /scratch/ravanelm/exp/dirha/fbank/raw_fbank_tr05_cont.4.ark:31177059
01lo0313 /scratch/ravanelm/exp/dirha/fbank/raw_fbank_tr05_cont.1.ark:53557429
027o0310 /scratch/ravanelm/exp/dirha/fbank/raw_fbank_tr05_cont.2.ark:39403909
01ro030c /scratch/ravanelm/exp/dirha/fbank/raw_fbank_tr05_cont.2.ark:8437719
40ic021a /scratch/ravanelm/exp/dirha/fbank/raw_fbank_tr05_cont.4.ark:33370149
027c0217 /scratch/ravanelm/exp/dirha/fbank/raw_fbank_tr05_cont.2.ark:37776089
015o0306 /scratch/ravanelm/exp/dirha/fbank/raw_fbank_tr05_cont.1.ark:10952009
20vo0106 /scratch/ravanelm/exp/dirha/fbank/raw_fbank_tr05_cont.3.ark:38894269
019o0301 /scratch/ravanelm/exp/dirha/fbank/raw_fbank_tr05_cont.1.ark:22391619
20ho010n /scratch/ravanelm/exp/dirha/fbank/raw_fbank_tr05_cont.3.ark:23297209
02bc021a /scratch/ravanelm/exp/dirha/fbank/raw_fbank_tr05_cont.2.ark:47269909
01ro030m /scratch/ravanelm/exp/dirha/fbank/raw_fbank_tr05_cont.2.ark:8842499
40lc0208 /scratch/ravanelm/exp/dirha/fbank/raw_fbank_tr05_cont.4.ark:41553959
40lc0203 /scratch/ravanelm/exp/dirha/fbank/raw_fbank_tr05_cont.4.ark:41383729
02cc020i /scratch/ravanelm/exp/dirha/fbank/raw_fbank_tr05_cont.2.ark:49691449
027c0207 /scratch/ravanelm/exp/dirha/fbank/raw_fbank_tr05_cont.2.ark:36817289
029o030c /scratch/ravanelm/exp/dirha/fbank/raw_fbank_tr05_cont.2.ark:44633919
40lo0307 /scratch/ravanelm/exp/dirha/fbank/raw_fbank_tr05_cont.4.ark:43117379
40hc020v /scratch/ravanelm/exp/dirha/fbank/raw_fbank_tr05_cont.4.ark:29868859
20bo0103 /scratch/ravanelm/exp/dirha/fbank/raw_fbank_tr05_cont.3.ark:13185319
01zc020s /scratch/ravanelm/exp/dirha/fbank/raw_fbank_tr05_cont.2.ark:23338249
015o030v /scratch/ravanelm/exp/dirha/fbank/raw_fbank_tr05_cont.1.ark:11782199
016c0218 /scratch/ravanelm/exp/dirha/fbank/raw_fbank_tr05_cont.1.ark:13250199
01tc021d /scratch/ravanelm/exp/dirha/fbank/raw_fbank_tr05_cont.2.ark:11213099
01io030e /scratch/ravanelm/exp/dirha/fbank/raw_fbank_tr05_cont.1.ark:41693229
20mc010i /scratch/ravanelm/exp/dirha/fbank/raw_fbank_tr05_cont.3.ark:27434549
401c0217 /scratch/ravanelm/exp/dirha/fbank/raw_fbank_tr05_cont.3.ark:40822119
026c021g /scratch/ravanelm/exp/dirha/fbank/raw_fbank_tr05_cont.2.ark:35132279
01ec020v /scratch/ravanelm/exp/dirha/fbank/raw_fbank_tr05_cont.1.ark:31218329
01zo030g /scratch/ravanelm/exp/dirha/fbank/raw_fbank_tr05_cont.2.ark:24620259
40mo0307 /scratch/ravanelm/exp/dirha/fbank/raw_fbank_tr05_cont.4.ark:46637139
405o0305 /scratch/ravanelm/exp/dirha/fbank/raw_fbank_tr05_cont.3.ark:49597379
01uc020y /scratch/ravanelm/exp/dirha/fbank/raw_fbank_tr05_cont.2.ark:14142059
01uc021d /scratch/ravanelm/exp/dirha/fbank/raw_fbank_tr05_cont.2.ark:14651109
01lo0307 /scratch/ravanelm/exp/dirha/fbank/raw_fbank_tr05_cont.1.ark:52121269
40dc020m /scratch/ravanelm/exp/dirha/fbank/raw_fbank_tr05_cont.4.ark:17063089
01jo031a /scratch/ravanelm/exp/dirha/fbank/raw_fbank_tr05_cont.1.ark:46375679
20co010b /scratch/ravanelm/exp/dirha/fbank/raw_fbank_tr05_cont.3.ark:15316929
024c021c /scratch/ravanelm/exp/dirha/fbank/raw_fbank_tr05_cont.2.ark:32232409
029o0314 /scratch/ravanelm/exp/dirha/fbank/raw_fbank_tr05_cont.2.ark:45643039
40bc0218 /scratch/ravanelm/exp/dirha/fbank/raw_fbank_tr05_cont.4.ark:12070829
20oc0104 /scratch/ravanelm/exp/dirha/fbank/raw_fbank_tr05_cont.3.ark:30414079
40dc0203 /scratch/ravanelm/exp/dirha/fbank/raw_fbank_tr05_cont.4.ark:16522359
016c021c /scratch/ravanelm/exp/dirha/fbank/raw_fbank_tr05_cont.1.ark:13358959
40ec0202 /scratch/ravanelm/exp/dirha/fbank/raw_fbank_tr05_cont.4.ark:19467919
409c021f /scratch/ravanelm/exp/dirha/fbank/raw_fbank_tr05_cont.4.ark:6260579
01ic0217 /scratch/ravanelm/exp/dirha/fbank/raw_fbank_tr05_cont.1.ark:40871609
01mc020q /scratch/ravanelm/exp/dirha/fbank/raw_fbank_tr05_cont.1.ark:54698309
40po030v /scratch/ravanelm/exp/dirha/fbank/raw_fbank_tr05_cont.4.ark:53626209
40mo0313 /scratch/ravanelm/exp/dirha/fbank/raw_fbank_tr05_cont.4.ark:47742059
02bo030y /scratch/ravanelm/exp/dirha/fbank/raw_fbank_tr05_cont.2.ark:48599519
018o0305 /scratch/ravanelm/exp/dirha/fbank/raw_fbank_tr05_cont.1.ark:19358389
40jo030q /scratch/ravanelm/exp/dirha/fbank/raw_fbank_tr05_cont.4.ark:37404689
01lo0317 /scratch/ravanelm/exp/dirha/fbank/raw_fbank_tr05_cont.1.ark:53717829
018c020u /scratch/ravanelm/exp/dirha/fbank/raw_fbank_tr05_cont.1.ark:18451379
209c010q /scratch/ravanelm/exp/dirha/fbank/raw_fbank_tr05_cont.3.ark:9884339
40no0309 /scratch/ravanelm/exp/dirha/fbank/raw_fbank_tr05_cont.4.ark:49928949
01rc0219 /scratch/ravanelm/exp/dirha/fbank/raw_fbank_tr05_cont.2.ark:7982589
014o030l /scratch/ravanelm/exp/dirha/fbank/raw_fbank_tr05_cont.1.ark:8424089
207o010q /scratch/ravanelm/exp/dirha/fbank/raw_fbank_tr05_cont.3.ark:7480439
01lc020f /scratch/ravanelm/exp/dirha/fbank/raw_fbank_tr05_cont.1.ark:50753179
40mc0211 /scratch/ravanelm/exp/dirha/fbank/raw_fbank_tr05_cont.4.ark:45942719
02ec020m /scratch/ravanelm/exp/dirha/fbank/raw_fbank_tr05_cont.2.ark:52939469
01do030f /scratch/ravanelm/exp/dirha/fbank/raw_fbank_tr05_cont.1.ark:29290899
20mc010f /scratch/ravanelm/exp/dirha/fbank/raw_fbank_tr05_cont.3.ark:27363819
408c020u /scratch/ravanelm/exp/dirha/fbank/raw_fbank_tr05_cont.4.ark:3083669
020c021f /scratch/ravanelm/exp/dirha/fbank/raw_fbank_tr05_cont.2.ark:27060789
013c0210 /scratch/ravanelm/exp/dirha/fbank/raw_fbank_tr05_cont.1.ark:4582689
01kc020e /scratch/ravanelm/exp/dirha/fbank/raw_fbank_tr05_cont.1.ark:46917959
01po031b /scratch/ravanelm/exp/dirha/fbank/raw_fbank_tr05_cont.2.ark:3586029
20go010d /scratch/ravanelm/exp/dirha/fbank/raw_fbank_tr05_cont.3.ark:21641529
02co030g /scratch/ravanelm/exp/dirha/fbank/raw_fbank_tr05_cont.2.ark:50977069
40jo030m /scratch/ravanelm/exp/dirha/fbank/raw_fbank_tr05_cont.4.ark:37266049
20qo010n /scratch/ravanelm/exp/dirha/fbank/raw_fbank_tr05_cont.3.ark:34860539
40cc021e /scratch/ravanelm/exp/dirha/fbank/raw_fbank_tr05_cont.4.ark:15106709
011c0215 /scratch/ravanelm/exp/dirha/fbank/raw_fbank_tr05_cont.1.ark:1130249
01pc020x /scratch/ravanelm/exp/dirha/fbank/raw_fbank_tr05_cont.2.ark:1312319
407c020y /scratch/ravanelm/exp/dirha/fbank/raw_fbank_tr05_cont.4.ark:37709
02bo0312 /scratch/ravanelm/exp/dirha/fbank/raw_fbank_tr05_cont.2.ark:48753039
01ko0316 /scratch/ravanelm/exp/dirha/fbank/raw_fbank_tr05_cont.1.ark:49740949
013c020d /scratch/ravanelm/exp/dirha/fbank/raw_fbank_tr05_cont.1.ark:3915079
01yc0205 /scratch/ravanelm/exp/dirha/fbank/raw_fbank_tr05_cont.2.ark:19627599
018c0210 /scratch/ravanelm/exp/dirha/fbank/raw_fbank_tr05_cont.1.ark:18641999
01io0312 /scratch/ravanelm/exp/dirha/fbank/raw_fbank_tr05_cont.1.ark:42572389
405c020x /scratch/ravanelm/exp/dirha/fbank/raw_fbank_tr05_cont.3.ark:49021369
409c020a /scratch/ravanelm/exp/dirha/fbank/raw_fbank_tr05_cont.4.ark:5120069
40ko030l /scratch/ravanelm/exp/dirha/fbank/raw_fbank_tr05_cont.4.ark:40303549
01lo0304 /scratch/ravanelm/exp/dirha/fbank/raw_fbank_tr05_cont.1.ark:52010859
40jc020c /scratch/ravanelm/exp/dirha/fbank/raw_fbank_tr05_cont.4.ark:35389009
01ko030o /scratch/ravanelm/exp/dirha/fbank/raw_fbank_tr05_cont.1.ark:49057369
20ac010m /scratch/ravanelm/exp/dirha/fbank/raw_fbank_tr05_cont.3.ark:11299269
020c0207 /scratch/ravanelm/exp/dirha/fbank/raw_fbank_tr05_cont.2.ark:26219149
028c0214 /scratch/ravanelm/exp/dirha/fbank/raw_fbank_tr05_cont.2.ark:40742759
405c0215 /scratch/ravanelm/exp/dirha/fbank/raw_fbank_tr05_cont.3.ark:49206249
02eo030y /scratch/ravanelm/exp/dirha/fbank/raw_fbank_tr05_cont.3.ark:416809
40kc021b /scratch/ravanelm/exp/dirha/fbank/raw_fbank_tr05_cont.4.ark:39513209
40lo0319 /scratch/ravanelm/exp/dirha/fbank/raw_fbank_tr05_cont.4.ark:44725199
207c010d /scratch/ravanelm/exp/dirha/fbank/raw_fbank_tr05_cont.3.ark:6272989
01qo0302 /scratch/ravanelm/exp/dirha/fbank/raw_fbank_tr05_cont.2.ark:5078259
401c020e /scratch/ravanelm/exp/dirha/fbank/raw_fbank_tr05_cont.3.ark:40009169
404c0217 /scratch/ravanelm/exp/dirha/fbank/raw_fbank_tr05_cont.3.ark:46588109
01qc0211 /scratch/ravanelm/exp/dirha/fbank/raw_fbank_tr05_cont.2.ark:4617369
013o030d /scratch/ravanelm/exp/dirha/fbank/raw_fbank_tr05_cont.1.ark:5303769
20ec010b /scratch/ravanelm/exp/dirha/fbank/raw_fbank_tr05_cont.3.ark:17825829
026c020d /scratch/ravanelm/exp/dirha/fbank/raw_fbank_tr05_cont.2.ark:34166309
01zo030m /scratch/ravanelm/exp/dirha/fbank/raw_fbank_tr05_cont.2.ark:24893159
01to030f /scratch/ravanelm/exp/dirha/fbank/raw_fbank_tr05_cont.2.ark:11770289
024c020h /scratch/ravanelm/exp/dirha/fbank/raw_fbank_tr05_cont.2.ark:31398479
018c021e /scratch/ravanelm/exp/dirha/fbank/raw_fbank_tr05_cont.1.ark:19083699
01to030x /scratch/ravanelm/exp/dirha/fbank/raw_fbank_tr05_cont.2.ark:12428709
01qo0304 /scratch/ravanelm/exp/dirha/fbank/raw_fbank_tr05_cont.2.ark:5145719
20eo0102 /scratch/ravanelm/exp/dirha/fbank/raw_fbank_tr05_cont.3.ark:18311959
406c021f /scratch/ravanelm/exp/dirha/fbank/raw_fbank_tr05_cont.3.ark:52190779
208c0109 /scratch/ravanelm/exp/dirha/fbank/raw_fbank_tr05_cont.3.ark:7880429
024o0311 /scratch/ravanelm/exp/dirha/fbank/raw_fbank_tr05_cont.2.ark:33412579
011c0205 /scratch/ravanelm/exp/dirha/fbank/raw_fbank_tr05_cont.1.ark:115929
018o0317 /scratch/ravanelm/exp/dirha/fbank/raw_fbank_tr05_cont.1.ark:20839609
20qc010n /scratch/ravanelm/exp/dirha/fbank/raw_fbank_tr05_cont.3.ark:33931629
20io0104 /scratch/ravanelm/exp/dirha/fbank/raw_fbank_tr05_cont.3.ark:24151149
01go030a /scratch/ravanelm/exp/dirha/fbank/raw_fbank_tr05_cont.1.ark:38130539
02cc0203 /scratch/ravanelm/exp/dirha/fbank/raw_fbank_tr05_cont.2.ark:49306639
01fo0311 /scratch/ravanelm/exp/dirha/fbank/raw_fbank_tr05_cont.1.ark:35962489
404c0219 /scratch/ravanelm/exp/dirha/fbank/raw_fbank_tr05_cont.3.ark:46639089
011c0214 /scratch/ravanelm/exp/dirha/fbank/raw_fbank_tr05_cont.1.ark:1092899
024c0208 /scratch/ravanelm/exp/dirha/fbank/raw_fbank_tr05_cont.2.ark:31101889
02eo0302 /scratch/ravanelm/exp/dirha/fbank/raw_fbank_tr05_cont.2.ark:53874129
20ro0104 /scratch/ravanelm/exp/dirha/fbank/raw_fbank_tr05_cont.3.ark:35783519
20ic010m /scratch/ravanelm/exp/dirha/fbank/raw_fbank_tr05_cont.3.ark:23949049
20qo0106 /scratch/ravanelm/exp/dirha/fbank/raw_fbank_tr05_cont.3.ark:34252509
01to031f /scratch/ravanelm/exp/dirha/fbank/raw_fbank_tr05_cont.2.ark:13047369
20qo010h /scratch/ravanelm/exp/dirha/fbank/raw_fbank_tr05_cont.3.ark:34661559
01do030h /scratch/ravanelm/exp/dirha/fbank/raw_fbank_tr05_cont.1.ark:29331479
20io010i /scratch/ravanelm/exp/dirha/fbank/raw_fbank_tr05_cont.3.ark:24682129
40bo0315 /scratch/ravanelm/exp/dirha/fbank/raw_fbank_tr05_cont.4.ark:13718519
20go0107 /scratch/ravanelm/exp/dirha/fbank/raw_fbank_tr05_cont.3.ark:21468789
01to0313 /scratch/ravanelm/exp/dirha/fbank/raw_fbank_tr05_cont.2.ark:12596449
01fo030b /scratch/ravanelm/exp/dirha/fbank/raw_fbank_tr05_cont.1.ark:35195029
01dc020p /scratch/ravanelm/exp/dirha/fbank/raw_fbank_tr05_cont.1.ark:28066549
20qc010l /scratch/ravanelm/exp/dirha/fbank/raw_fbank_tr05_cont.3.ark:33852769
01jc0209 /scratch/ravanelm/exp/dirha/fbank/raw_fbank_tr05_cont.1.ark:43268849
20lo010m /scratch/ravanelm/exp/dirha/fbank/raw_fbank_tr05_cont.3.ark:26839969
01yc0208 /scratch/ravanelm/exp/dirha/fbank/raw_fbank_tr05_cont.2.ark:19708929
01rc020g /scratch/ravanelm/exp/dirha/fbank/raw_fbank_tr05_cont.2.ark:7163599
01lc020h /scratch/ravanelm/exp/dirha/fbank/raw_fbank_tr05_cont.1.ark:50819279
014o031a /scratch/ravanelm/exp/dirha/fbank/raw_fbank_tr05_cont.1.ark:9290519
01zo031f /scratch/ravanelm/exp/dirha/fbank/raw_fbank_tr05_cont.2.ark:26069829
40hc020r /scratch/ravanelm/exp/dirha/fbank/raw_fbank_tr05_cont.4.ark:29816939
01lc0201 /scratch/ravanelm/exp/dirha/fbank/raw_fbank_tr05_cont.1.ark:50248399
01fc0212 /scratch/ravanelm/exp/dirha/fbank/raw_fbank_tr05_cont.1.ark:34394559
01pc0202 /scratch/ravanelm/exp/dirha/fbank/raw_fbank_tr05_cont.2.ark:448949
204o010n /scratch/ravanelm/exp/dirha/fbank/raw_fbank_tr05_cont.3.ark:2290809
01uo030p /scratch/ravanelm/exp/dirha/fbank/raw_fbank_tr05_cont.2.ark:15613839
01uo0317 /scratch/ravanelm/exp/dirha/fbank/raw_fbank_tr05_cont.2.ark:16373379
01jo0308 /scratch/ravanelm/exp/dirha/fbank/raw_fbank_tr05_cont.1.ark:44867259
40io0310 /scratch/ravanelm/exp/dirha/fbank/raw_fbank_tr05_cont.4.ark:34638219
40bc0204 /scratch/ravanelm/exp/dirha/fbank/raw_fbank_tr05_cont.4.ark:10991269
029o030l /scratch/ravanelm/exp/dirha/fbank/raw_fbank_tr05_cont.2.ark:44930589
40lc020o /scratch/ravanelm/exp/dirha/fbank/raw_fbank_tr05_cont.4.ark:42028319
20ro0105 /scratch/ravanelm/exp/dirha/fbank/raw_fbank_tr05_cont.3.ark:35828429
40bc020e /scratch/ravanelm/exp/dirha/fbank/raw_fbank_tr05_cont.4.ark:11295329
40mo0301 /scratch/ravanelm/exp/dirha/fbank/raw_fbank_tr05_cont.4.ark:46388679
01uo0309 /scratch/ravanelm/exp/dirha/fbank/raw_fbank_tr05_cont.2.ark:15036359
02co030x /scratch/ravanelm/exp/dirha/fbank/raw_fbank_tr05_cont.2.ark:51547099
01rc0203 /scratch/ravanelm/exp/dirha/fbank/raw_fbank_tr05_cont.2.ark:6815529
20io010j /scratch/ravanelm/exp/dirha/fbank/raw_fbank_tr05_cont.3.ark:24723839
01zc020r /scratch/ravanelm/exp/dirha/fbank/raw_fbank_tr05_cont.2.ark:23327379
408c020t /scratch/ravanelm/exp/dirha/fbank/raw_fbank_tr05_cont.4.ark:3065879
016o0306 /scratch/ravanelm/exp/dirha/fbank/raw_fbank_tr05_cont.1.ark:13577409
40ao0316 /scratch/ravanelm/exp/dirha/fbank/raw_fbank_tr05_cont.4.ark:10631719
406c0219 /scratch/ravanelm/exp/dirha/fbank/raw_fbank_tr05_cont.3.ark:52062479
40hc020s /scratch/ravanelm/exp/dirha/fbank/raw_fbank_tr05_cont.4.ark:29829449
01pc020d /scratch/ravanelm/exp/dirha/fbank/raw_fbank_tr05_cont.2.ark:770999
409o0308 /scratch/ravanelm/exp/dirha/fbank/raw_fbank_tr05_cont.4.ark:6523489
017o030e /scratch/ravanelm/exp/dirha/fbank/raw_fbank_tr05_cont.1.ark:16478159
027o030f /scratch/ravanelm/exp/dirha/fbank/raw_fbank_tr05_cont.2.ark:38587199
021o030g /scratch/ravanelm/exp/dirha/fbank/raw_fbank_tr05_cont.2.ark:29815199
409o0311 /scratch/ravanelm/exp/dirha/fbank/raw_fbank_tr05_cont.4.ark:7367039
405o030p /scratch/ravanelm/exp/dirha/fbank/raw_fbank_tr05_cont.3.ark:50159579
026o030d /scratch/ravanelm/exp/dirha/fbank/raw_fbank_tr05_cont.2.ark:35498589
01eo0318 /scratch/ravanelm/exp/dirha/fbank/raw_fbank_tr05_cont.1.ark:33131939
026c0218 /scratch/ravanelm/exp/dirha/fbank/raw_fbank_tr05_cont.2.ark:34884839
01ro0313 /scratch/ravanelm/exp/dirha/fbank/raw_fbank_tr05_cont.2.ark:9362489
01io030y /scratch/ravanelm/exp/dirha/fbank/raw_fbank_tr05_cont.1.ark:42437109
017o0302 /scratch/ravanelm/exp/dirha/fbank/raw_fbank_tr05_cont.1.ark:16087759
01ro030d /scratch/ravanelm/exp/dirha/fbank/raw_fbank_tr05_cont.2.ark:8474469
01uo031d /scratch/ravanelm/exp/dirha/fbank/raw_fbank_tr05_cont.2.ark:16560239
02bo030g /scratch/ravanelm/exp/dirha/fbank/raw_fbank_tr05_cont.2.ark:47984699
01wc020d /scratch/ravanelm/exp/dirha/fbank/raw_fbank_tr05_cont.2.ark:16971739
406o030g /scratch/ravanelm/exp/dirha/fbank/raw_fbank_tr05_cont.3.ark:52636419
20po0109 /scratch/ravanelm/exp/dirha/fbank/raw_fbank_tr05_cont.3.ark:32689709
021c020y /scratch/ravanelm/exp/dirha/fbank/raw_fbank_tr05_cont.2.ark:28981489
20co0104 /scratch/ravanelm/exp/dirha/fbank/raw_fbank_tr05_cont.3.ark:15035919
20co010j /scratch/ravanelm/exp/dirha/fbank/raw_fbank_tr05_cont.3.ark:15526369
01mc0211 /scratch/ravanelm/exp/dirha/fbank/raw_fbank_tr05_cont.1.ark:54996839
01tc0219 /scratch/ravanelm/exp/dirha/fbank/raw_fbank_tr05_cont.2.ark:11099859
020o0313 /scratch/ravanelm/exp/dirha/fbank/raw_fbank_tr05_cont.2.ark:27744249
40kc020a /scratch/ravanelm/exp/dirha/fbank/raw_fbank_tr05_cont.4.ark:38524859
40no0303 /scratch/ravanelm/exp/dirha/fbank/raw_fbank_tr05_cont.4.ark:49676289
20fc010c /scratch/ravanelm/exp/dirha/fbank/raw_fbank_tr05_cont.3.ark:19568959
01pc0209 /scratch/ravanelm/exp/dirha/fbank/raw_fbank_tr05_cont.2.ark:631079
401c0214 /scratch/ravanelm/exp/dirha/fbank/raw_fbank_tr05_cont.3.ark:40732589
01jc020x /scratch/ravanelm/exp/dirha/fbank/raw_fbank_tr05_cont.1.ark:43944089
40bo030q /scratch/ravanelm/exp/dirha/fbank/raw_fbank_tr05_cont.4.ark:13243689
02ec021d /scratch/ravanelm/exp/dirha/fbank/raw_fbank_tr05_cont.2.ark:53758679
01fc020l /scratch/ravanelm/exp/dirha/fbank/raw_fbank_tr05_cont.1.ark:33939409
20mo010k /scratch/ravanelm/exp/dirha/fbank/raw_fbank_tr05_cont.3.ark:28208239
40no031a /scratch/ravanelm/exp/dirha/fbank/raw_fbank_tr05_cont.4.ark:51267659
206o010j /scratch/ravanelm/exp/dirha/fbank/raw_fbank_tr05_cont.3.ark:5510409
018o030i /scratch/ravanelm/exp/dirha/fbank/raw_fbank_tr05_cont.1.ark:19815379
40pc020i /scratch/ravanelm/exp/dirha/fbank/raw_fbank_tr05_cont.4.ark:51783329
404o030y /scratch/ravanelm/exp/dirha/fbank/raw_fbank_tr05_cont.3.ark:47822329
