01qc020e /scratch/ravanelm/exp/dirha/fbank/raw_fbank_tr05_cont.2.ark:4096759
40nc0214 /scratch/ravanelm/exp/dirha/fbank/raw_fbank_tr05_cont.4.ark:49218079
40dc020h /scratch/ravanelm/exp/dirha/fbank/raw_fbank_tr05_cont.4.ark:16918899
401o030k /scratch/ravanelm/exp/dirha/fbank/raw_fbank_tr05_cont.3.ark:41795319
20co010c /scratch/ravanelm/exp/dirha/fbank/raw_fbank_tr05_cont.3.ark:15351279
20fc010h /scratch/ravanelm/exp/dirha/fbank/raw_fbank_tr05_cont.3.ark:19698469
20fo010m /scratch/ravanelm/exp/dirha/fbank/raw_fbank_tr05_cont.3.ark:20632039
20ho010l /scratch/ravanelm/exp/dirha/fbank/raw_fbank_tr05_cont.3.ark:23226109
403o030t /scratch/ravanelm/exp/dirha/fbank/raw_fbank_tr05_cont.3.ark:44976759
40ko0315 /scratch/ravanelm/exp/dirha/fbank/raw_fbank_tr05_cont.4.ark:41042469
01yc0211 /scratch/ravanelm/exp/dirha/fbank/raw_fbank_tr05_cont.2.ark:20524519
01ro030c /scratch/ravanelm/exp/dirha/fbank/raw_fbank_tr05_cont.2.ark:8437719
40eo030y /scratch/ravanelm/exp/dirha/fbank/raw_fbank_tr05_cont.4.ark:21612229
01pc021g /scratch/ravanelm/exp/dirha/fbank/raw_fbank_tr05_cont.2.ark:1917049
408c020m /scratch/ravanelm/exp/dirha/fbank/raw_fbank_tr05_cont.4.ark:2907709
405o0304 /scratch/ravanelm/exp/dirha/fbank/raw_fbank_tr05_cont.3.ark:49559469
01kc020o /scratch/ravanelm/exp/dirha/fbank/raw_fbank_tr05_cont.1.ark:47188869
01fc0219 /scratch/ravanelm/exp/dirha/fbank/raw_fbank_tr05_cont.1.ark:34559849
01qo030f /scratch/ravanelm/exp/dirha/fbank/raw_fbank_tr05_cont.2.ark:5523529
014c020y /scratch/ravanelm/exp/dirha/fbank/raw_fbank_tr05_cont.1.ark:7314809
40mo030b /scratch/ravanelm/exp/dirha/fbank/raw_fbank_tr05_cont.4.ark:46770219
204o0102 /scratch/ravanelm/exp/dirha/fbank/raw_fbank_tr05_cont.3.ark:1619379
029o0304 /scratch/ravanelm/exp/dirha/fbank/raw_fbank_tr05_cont.2.ark:44386919
40lc020d /scratch/ravanelm/exp/dirha/fbank/raw_fbank_tr05_cont.4.ark:41686669
01lo030h /scratch/ravanelm/exp/dirha/fbank/raw_fbank_tr05_cont.1.ark:52625289
02co030f /scratch/ravanelm/exp/dirha/fbank/raw_fbank_tr05_cont.2.ark:50956119
40dc021g /scratch/ravanelm/exp/dirha/fbank/raw_fbank_tr05_cont.4.ark:17959709
40fo030l /scratch/ravanelm/exp/dirha/fbank/raw_fbank_tr05_cont.4.ark:24126929
01mo0317 /scratch/ravanelm/exp/dirha/fbank/raw_fbank_tr05_cont.2.ark:177839
20co010i /scratch/ravanelm/exp/dirha/fbank/raw_fbank_tr05_cont.3.ark:15501859
40ko0318 /scratch/ravanelm/exp/dirha/fbank/raw_fbank_tr05_cont.4.ark:41120999
404c020b /scratch/ravanelm/exp/dirha/fbank/raw_fbank_tr05_cont.3.ark:45824349
209c010g /scratch/ravanelm/exp/dirha/fbank/raw_fbank_tr05_cont.3.ark:9651719
20ro0104 /scratch/ravanelm/exp/dirha/fbank/raw_fbank_tr05_cont.3.ark:35783519
029o0312 /scratch/ravanelm/exp/dirha/fbank/raw_fbank_tr05_cont.2.ark:45567059
024o0310 /scratch/ravanelm/exp/dirha/fbank/raw_fbank_tr05_cont.2.ark:33375029
40ic021f /scratch/ravanelm/exp/dirha/fbank/raw_fbank_tr05_cont.4.ark:33514699
015c0204 /scratch/ravanelm/exp/dirha/fbank/raw_fbank_tr05_cont.1.ark:9551849
403c020b /scratch/ravanelm/exp/dirha/fbank/raw_fbank_tr05_cont.3.ark:43061049
20rc010k /scratch/ravanelm/exp/dirha/fbank/raw_fbank_tr05_cont.3.ark:35555869
404o030i /scratch/ravanelm/exp/dirha/fbank/raw_fbank_tr05_cont.3.ark:47332169
20hc010h /scratch/ravanelm/exp/dirha/fbank/raw_fbank_tr05_cont.3.ark:22418569
207c0107 /scratch/ravanelm/exp/dirha/fbank/raw_fbank_tr05_cont.3.ark:6087209
40ac020q /scratch/ravanelm/exp/dirha/fbank/raw_fbank_tr05_cont.4.ark:8606019
01ko0305 /scratch/ravanelm/exp/dirha/fbank/raw_fbank_tr05_cont.1.ark:48280119
015c020p /scratch/ravanelm/exp/dirha/fbank/raw_fbank_tr05_cont.1.ark:10143399
027c020c /scratch/ravanelm/exp/dirha/fbank/raw_fbank_tr05_cont.2.ark:36954799
407c020t /scratch/ravanelm/exp/dirha/fbank/raw_fbank_tr05_cont.3.ark:54525799
20go010d /scratch/ravanelm/exp/dirha/fbank/raw_fbank_tr05_cont.3.ark:21641529
20bc0103 /scratch/ravanelm/exp/dirha/fbank/raw_fbank_tr05_cont.3.ark:12549639
20ro010m /scratch/ravanelm/exp/dirha/fbank/raw_fbank_tr05_cont.3.ark:36504059
407c0201 /scratch/ravanelm/exp/dirha/fbank/raw_fbank_tr05_cont.3.ark:53736359
20ic0107 /scratch/ravanelm/exp/dirha/fbank/raw_fbank_tr05_cont.3.ark:23559159
40ec020t /scratch/ravanelm/exp/dirha/fbank/raw_fbank_tr05_cont.4.ark:20020089
029o030a /scratch/ravanelm/exp/dirha/fbank/raw_fbank_tr05_cont.2.ark:44595499
028c020h /scratch/ravanelm/exp/dirha/fbank/raw_fbank_tr05_cont.2.ark:40133749
026c0201 /scratch/ravanelm/exp/dirha/fbank/raw_fbank_tr05_cont.2.ark:33851109
01ic021e /scratch/ravanelm/exp/dirha/fbank/raw_fbank_tr05_cont.1.ark:41038339
02bo030c /scratch/ravanelm/exp/dirha/fbank/raw_fbank_tr05_cont.2.ark:47850699
207c0106 /scratch/ravanelm/exp/dirha/fbank/raw_fbank_tr05_cont.3.ark:6066379
20cc0101 /scratch/ravanelm/exp/dirha/fbank/raw_fbank_tr05_cont.3.ark:14271269
407c020x /scratch/ravanelm/exp/dirha/fbank/raw_fbank_tr05_cont.4.ark:10759
01mc0219 /scratch/ravanelm/exp/dirha/fbank/raw_fbank_tr05_cont.1.ark:55172639
409o0309 /scratch/ravanelm/exp/dirha/fbank/raw_fbank_tr05_cont.4.ark:6535799
019c0210 /scratch/ravanelm/exp/dirha/fbank/raw_fbank_tr05_cont.1.ark:21904079
01lo031e /scratch/ravanelm/exp/dirha/fbank/raw_fbank_tr05_cont.1.ark:54020599
206o010r /scratch/ravanelm/exp/dirha/fbank/raw_fbank_tr05_cont.3.ark:5882089
01ec0213 /scratch/ravanelm/exp/dirha/fbank/raw_fbank_tr05_cont.1.ark:31471529
40do030r /scratch/ravanelm/exp/dirha/fbank/raw_fbank_tr05_cont.4.ark:18764239
01go030j /scratch/ravanelm/exp/dirha/fbank/raw_fbank_tr05_cont.1.ark:38440769
40jc020z /scratch/ravanelm/exp/dirha/fbank/raw_fbank_tr05_cont.4.ark:36044579
015c021d /scratch/ravanelm/exp/dirha/fbank/raw_fbank_tr05_cont.1.ark:10668959
01mo0308 /scratch/ravanelm/exp/dirha/fbank/raw_fbank_tr05_cont.1.ark:55615299
40ac020u /scratch/ravanelm/exp/dirha/fbank/raw_fbank_tr05_cont.4.ark:8760059
20lc010f /scratch/ravanelm/exp/dirha/fbank/raw_fbank_tr05_cont.3.ark:25424579
01dc0213 /scratch/ravanelm/exp/dirha/fbank/raw_fbank_tr05_cont.1.ark:28403369
01io030q /scratch/ravanelm/exp/dirha/fbank/raw_fbank_tr05_cont.1.ark:42110669
02bc0209 /scratch/ravanelm/exp/dirha/fbank/raw_fbank_tr05_cont.2.ark:46231399
20mo0108 /scratch/ravanelm/exp/dirha/fbank/raw_fbank_tr05_cont.3.ark:27882359
40no0317 /scratch/ravanelm/exp/dirha/fbank/raw_fbank_tr05_cont.4.ark:51108289
40ho030y /scratch/ravanelm/exp/dirha/fbank/raw_fbank_tr05_cont.4.ark:31517839
40io0304 /scratch/ravanelm/exp/dirha/fbank/raw_fbank_tr05_cont.4.ark:33622099
40ho0305 /scratch/ravanelm/exp/dirha/fbank/raw_fbank_tr05_cont.4.ark:30543609
20mc010e /scratch/ravanelm/exp/dirha/fbank/raw_fbank_tr05_cont.3.ark:27341949
01ic0209 /scratch/ravanelm/exp/dirha/fbank/raw_fbank_tr05_cont.1.ark:39939589
02bo030p /scratch/ravanelm/exp/dirha/fbank/raw_fbank_tr05_cont.2.ark:48295209
20oo010r /scratch/ravanelm/exp/dirha/fbank/raw_fbank_tr05_cont.3.ark:31780529
401c021c /scratch/ravanelm/exp/dirha/fbank/raw_fbank_tr05_cont.3.ark:40970429
028o030q /scratch/ravanelm/exp/dirha/fbank/raw_fbank_tr05_cont.2.ark:42029749
018o0305 /scratch/ravanelm/exp/dirha/fbank/raw_fbank_tr05_cont.1.ark:19358389
40ho0315 /scratch/ravanelm/exp/dirha/fbank/raw_fbank_tr05_cont.4.ark:31740849
01pc020l /scratch/ravanelm/exp/dirha/fbank/raw_fbank_tr05_cont.2.ark:981519
01kc020d /scratch/ravanelm/exp/dirha/fbank/raw_fbank_tr05_cont.1.ark:46897049
404o030v /scratch/ravanelm/exp/dirha/fbank/raw_fbank_tr05_cont.3.ark:47741519
405c020i /scratch/ravanelm/exp/dirha/fbank/raw_fbank_tr05_cont.3.ark:48694919
01fo030e /scratch/ravanelm/exp/dirha/fbank/raw_fbank_tr05_cont.1.ark:35285639
01wc020e /scratch/ravanelm/exp/dirha/fbank/raw_fbank_tr05_cont.2.ark:16996169
01rc0214 /scratch/ravanelm/exp/dirha/fbank/raw_fbank_tr05_cont.2.ark:7891359
40ic020e /scratch/ravanelm/exp/dirha/fbank/raw_fbank_tr05_cont.4.ark:32434349
01jc020y /scratch/ravanelm/exp/dirha/fbank/raw_fbank_tr05_cont.1.ark:43969079
026o030x /scratch/ravanelm/exp/dirha/fbank/raw_fbank_tr05_cont.2.ark:36127789
40bo0317 /scratch/ravanelm/exp/dirha/fbank/raw_fbank_tr05_cont.4.ark:13770819
01qc020o /scratch/ravanelm/exp/dirha/fbank/raw_fbank_tr05_cont.2.ark:4365749
01lc020j /scratch/ravanelm/exp/dirha/fbank/raw_fbank_tr05_cont.1.ark:50892299
205c010m /scratch/ravanelm/exp/dirha/fbank/raw_fbank_tr05_cont.3.ark:3019639
01to030q /scratch/ravanelm/exp/dirha/fbank/raw_fbank_tr05_cont.2.ark:12165259
40ic0212 /scratch/ravanelm/exp/dirha/fbank/raw_fbank_tr05_cont.4.ark:33153989
011c020n /scratch/ravanelm/exp/dirha/fbank/raw_fbank_tr05_cont.1.ark:602269
20pc010a /scratch/ravanelm/exp/dirha/fbank/raw_fbank_tr05_cont.3.ark:32014029
40ec021e /scratch/ravanelm/exp/dirha/fbank/raw_fbank_tr05_cont.4.ark:20514679
40lo030w /scratch/ravanelm/exp/dirha/fbank/raw_fbank_tr05_cont.4.ark:44216169
02co0305 /scratch/ravanelm/exp/dirha/fbank/raw_fbank_tr05_cont.2.ark:50659099
029o0314 /scratch/ravanelm/exp/dirha/fbank/raw_fbank_tr05_cont.2.ark:45643039
01tc020g /scratch/ravanelm/exp/dirha/fbank/raw_fbank_tr05_cont.2.ark:10128149
01kc020a /scratch/ravanelm/exp/dirha/fbank/raw_fbank_tr05_cont.1.ark:46787719
01go030p /scratch/ravanelm/exp/dirha/fbank/raw_fbank_tr05_cont.1.ark:38641229
02bo030s /scratch/ravanelm/exp/dirha/fbank/raw_fbank_tr05_cont.2.ark:48406139
01to031g /scratch/ravanelm/exp/dirha/fbank/raw_fbank_tr05_cont.2.ark:13108959
20cc010f /scratch/ravanelm/exp/dirha/fbank/raw_fbank_tr05_cont.3.ark:14683129
205c010f /scratch/ravanelm/exp/dirha/fbank/raw_fbank_tr05_cont.3.ark:2845349
016o030d /scratch/ravanelm/exp/dirha/fbank/raw_fbank_tr05_cont.1.ark:13748949
028c020z /scratch/ravanelm/exp/dirha/fbank/raw_fbank_tr05_cont.2.ark:40609049
01ic020j /scratch/ravanelm/exp/dirha/fbank/raw_fbank_tr05_cont.1.ark:40257649
20rc0108 /scratch/ravanelm/exp/dirha/fbank/raw_fbank_tr05_cont.3.ark:35223669
01lc020r /scratch/ravanelm/exp/dirha/fbank/raw_fbank_tr05_cont.1.ark:51101899
40bo030p /scratch/ravanelm/exp/dirha/fbank/raw_fbank_tr05_cont.4.ark:13203939
01gc021e /scratch/ravanelm/exp/dirha/fbank/raw_fbank_tr05_cont.1.ark:37763919
01eo0306 /scratch/ravanelm/exp/dirha/fbank/raw_fbank_tr05_cont.1.ark:32011279
01qc0213 /scratch/ravanelm/exp/dirha/fbank/raw_fbank_tr05_cont.2.ark:4684309
017c020e /scratch/ravanelm/exp/dirha/fbank/raw_fbank_tr05_cont.1.ark:15120359
205c0104 /scratch/ravanelm/exp/dirha/fbank/raw_fbank_tr05_cont.3.ark:2512619
01po030c /scratch/ravanelm/exp/dirha/fbank/raw_fbank_tr05_cont.2.ark:2309289
021c020q /scratch/ravanelm/exp/dirha/fbank/raw_fbank_tr05_cont.2.ark:28767169
01jo0309 /scratch/ravanelm/exp/dirha/fbank/raw_fbank_tr05_cont.1.ark:44879129
01yc020f /scratch/ravanelm/exp/dirha/fbank/raw_fbank_tr05_cont.2.ark:19933099
40do0302 /scratch/ravanelm/exp/dirha/fbank/raw_fbank_tr05_cont.4.ark:18022969
011c020i /scratch/ravanelm/exp/dirha/fbank/raw_fbank_tr05_cont.1.ark:452199
20cc0102 /scratch/ravanelm/exp/dirha/fbank/raw_fbank_tr05_cont.3.ark:14320419
408o030a /scratch/ravanelm/exp/dirha/fbank/raw_fbank_tr05_cont.4.ark:3870149
40ho030i /scratch/ravanelm/exp/dirha/fbank/raw_fbank_tr05_cont.4.ark:30984039
208c0104 /scratch/ravanelm/exp/dirha/fbank/raw_fbank_tr05_cont.3.ark:7703559
204c010o /scratch/ravanelm/exp/dirha/fbank/raw_fbank_tr05_cont.3.ark:1547049
01eo030y /scratch/ravanelm/exp/dirha/fbank/raw_fbank_tr05_cont.1.ark:32829319
40io030s /scratch/ravanelm/exp/dirha/fbank/raw_fbank_tr05_cont.4.ark:34377139
40eo0313 /scratch/ravanelm/exp/dirha/fbank/raw_fbank_tr05_cont.4.ark:21799819
01zo030d /scratch/ravanelm/exp/dirha/fbank/raw_fbank_tr05_cont.2.ark:24506849
01dc020l /scratch/ravanelm/exp/dirha/fbank/raw_fbank_tr05_cont.1.ark:27956909
40cc0205 /scratch/ravanelm/exp/dirha/fbank/raw_fbank_tr05_cont.4.ark:14056079
40bc020y /scratch/ravanelm/exp/dirha/fbank/raw_fbank_tr05_cont.4.ark:11799329
20ro0106 /scratch/ravanelm/exp/dirha/fbank/raw_fbank_tr05_cont.3.ark:35839979
02bc020b /scratch/ravanelm/exp/dirha/fbank/raw_fbank_tr05_cont.2.ark:46285099
20gc0109 /scratch/ravanelm/exp/dirha/fbank/raw_fbank_tr05_cont.3.ark:20929039
20oc010i /scratch/ravanelm/exp/dirha/fbank/raw_fbank_tr05_cont.3.ark:30750339
01dc020j /scratch/ravanelm/exp/dirha/fbank/raw_fbank_tr05_cont.1.ark:27910049
01yc020k /scratch/ravanelm/exp/dirha/fbank/raw_fbank_tr05_cont.2.ark:20066449
01pc020q /scratch/ravanelm/exp/dirha/fbank/raw_fbank_tr05_cont.2.ark:1107789
01yc020s /scratch/ravanelm/exp/dirha/fbank/raw_fbank_tr05_cont.2.ark:20304489
401c0216 /scratch/ravanelm/exp/dirha/fbank/raw_fbank_tr05_cont.3.ark:40796409
01ic020o /scratch/ravanelm/exp/dirha/fbank/raw_fbank_tr05_cont.1.ark:40391279
013o030y /scratch/ravanelm/exp/dirha/fbank/raw_fbank_tr05_cont.1.ark:5971279
20vo010o /scratch/ravanelm/exp/dirha/fbank/raw_fbank_tr05_cont.3.ark:39456409
01yo0311 /scratch/ravanelm/exp/dirha/fbank/raw_fbank_tr05_cont.2.ark:22196839
20mc0107 /scratch/ravanelm/exp/dirha/fbank/raw_fbank_tr05_cont.3.ark:27149419
019c021b /scratch/ravanelm/exp/dirha/fbank/raw_fbank_tr05_cont.1.ark:22264489
20co0107 /scratch/ravanelm/exp/dirha/fbank/raw_fbank_tr05_cont.3.ark:15155529
013c0211 /scratch/ravanelm/exp/dirha/fbank/raw_fbank_tr05_cont.1.ark:4605959
020c0212 /scratch/ravanelm/exp/dirha/fbank/raw_fbank_tr05_cont.2.ark:26836199
406o030r /scratch/ravanelm/exp/dirha/fbank/raw_fbank_tr05_cont.3.ark:53009549
02bc020p /scratch/ravanelm/exp/dirha/fbank/raw_fbank_tr05_cont.2.ark:46701479
01go030q /scratch/ravanelm/exp/dirha/fbank/raw_fbank_tr05_cont.1.ark:38672979
01bc020y /scratch/ravanelm/exp/dirha/fbank/raw_fbank_tr05_cont.1.ark:24873609
01zc021c /scratch/ravanelm/exp/dirha/fbank/raw_fbank_tr05_cont.2.ark:23975689
40ic020t /scratch/ravanelm/exp/dirha/fbank/raw_fbank_tr05_cont.4.ark:32899399
20to0106 /scratch/ravanelm/exp/dirha/fbank/raw_fbank_tr05_cont.3.ark:37526369
01io0310 /scratch/ravanelm/exp/dirha/fbank/raw_fbank_tr05_cont.1.ark:42518129
02co031a /scratch/ravanelm/exp/dirha/fbank/raw_fbank_tr05_cont.2.ark:52002329
017c021f /scratch/ravanelm/exp/dirha/fbank/raw_fbank_tr05_cont.1.ark:15985229
01jo030i /scratch/ravanelm/exp/dirha/fbank/raw_fbank_tr05_cont.1.ark:45238879
204c010j /scratch/ravanelm/exp/dirha/fbank/raw_fbank_tr05_cont.3.ark:1432659
40po030v /scratch/ravanelm/exp/dirha/fbank/raw_fbank_tr05_cont.4.ark:53626209
40mo030p /scratch/ravanelm/exp/dirha/fbank/raw_fbank_tr05_cont.4.ark:47249759
020o030q /scratch/ravanelm/exp/dirha/fbank/raw_fbank_tr05_cont.2.ark:27497709
01io0309 /scratch/ravanelm/exp/dirha/fbank/raw_fbank_tr05_cont.1.ark:41469159
208o010m /scratch/ravanelm/exp/dirha/fbank/raw_fbank_tr05_cont.3.ark:9071169
409c0208 /scratch/ravanelm/exp/dirha/fbank/raw_fbank_tr05_cont.4.ark:5059329
02bo030a /scratch/ravanelm/exp/dirha/fbank/raw_fbank_tr05_cont.2.ark:47789239
40po031a /scratch/ravanelm/exp/dirha/fbank/raw_fbank_tr05_cont.4.ark:54096419
01to030f /scratch/ravanelm/exp/dirha/fbank/raw_fbank_tr05_cont.2.ark:11770289
01to030o /scratch/ravanelm/exp/dirha/fbank/raw_fbank_tr05_cont.2.ark:12099719
40ao030m /scratch/ravanelm/exp/dirha/fbank/raw_fbank_tr05_cont.4.ark:9943799
40ho030a /scratch/ravanelm/exp/dirha/fbank/raw_fbank_tr05_cont.4.ark:30699039
40fo0314 /scratch/ravanelm/exp/dirha/fbank/raw_fbank_tr05_cont.4.ark:24710699
014c0211 /scratch/ravanelm/exp/dirha/fbank/raw_fbank_tr05_cont.1.ark:7395059
019o030h /scratch/ravanelm/exp/dirha/fbank/raw_fbank_tr05_cont.1.ark:22941059
02bo031e /scratch/ravanelm/exp/dirha/fbank/raw_fbank_tr05_cont.2.ark:49162719
01fc0203 /scratch/ravanelm/exp/dirha/fbank/raw_fbank_tr05_cont.1.ark:33451469
20mo010m /scratch/ravanelm/exp/dirha/fbank/raw_fbank_tr05_cont.3.ark:28262379
20fc010j /scratch/ravanelm/exp/dirha/fbank/raw_fbank_tr05_cont.3.ark:19741809
40ac0209 /scratch/ravanelm/exp/dirha/fbank/raw_fbank_tr05_cont.4.ark:8073789
015c0213 /scratch/ravanelm/exp/dirha/fbank/raw_fbank_tr05_cont.1.ark:10456659
02eo030x /scratch/ravanelm/exp/dirha/fbank/raw_fbank_tr05_cont.3.ark:376059
40bc0211 /scratch/ravanelm/exp/dirha/fbank/raw_fbank_tr05_cont.4.ark:11874739
02bc020r /scratch/ravanelm/exp/dirha/fbank/raw_fbank_tr05_cont.2.ark:46737739
015c0210 /scratch/ravanelm/exp/dirha/fbank/raw_fbank_tr05_cont.1.ark:10381049
20fc0103 /scratch/ravanelm/exp/dirha/fbank/raw_fbank_tr05_cont.3.ark:19319329
024o031d /scratch/ravanelm/exp/dirha/fbank/raw_fbank_tr05_cont.2.ark:33749499
018o0315 /scratch/ravanelm/exp/dirha/fbank/raw_fbank_tr05_cont.1.ark:20787989
406o0316 /scratch/ravanelm/exp/dirha/fbank/raw_fbank_tr05_cont.3.ark:53518559
011c020k /scratch/ravanelm/exp/dirha/fbank/raw_fbank_tr05_cont.1.ark:492819
01zc021e /scratch/ravanelm/exp/dirha/fbank/raw_fbank_tr05_cont.2.ark:24046549
404c0202 /scratch/ravanelm/exp/dirha/fbank/raw_fbank_tr05_cont.3.ark:45595679
01tc021f /scratch/ravanelm/exp/dirha/fbank/raw_fbank_tr05_cont.2.ark:11266279
406o0319 /scratch/ravanelm/exp/dirha/fbank/raw_fbank_tr05_cont.3.ark:53616209
024o031e /scratch/ravanelm/exp/dirha/fbank/raw_fbank_tr05_cont.2.ark:33764929
40fo030y /scratch/ravanelm/exp/dirha/fbank/raw_fbank_tr05_cont.4.ark:24537719
01to030e /scratch/ravanelm/exp/dirha/fbank/raw_fbank_tr05_cont.2.ark:11726819
011o0313 /scratch/ravanelm/exp/dirha/fbank/raw_fbank_tr05_cont.1.ark:2923089
20ro010i /scratch/ravanelm/exp/dirha/fbank/raw_fbank_tr05_cont.3.ark:36327619
018c0219 /scratch/ravanelm/exp/dirha/fbank/raw_fbank_tr05_cont.1.ark:18904629
01uo030x /scratch/ravanelm/exp/dirha/fbank/raw_fbank_tr05_cont.2.ark:15947719
021c020z /scratch/ravanelm/exp/dirha/fbank/raw_fbank_tr05_cont.2.ark:28995479
01uo030j /scratch/ravanelm/exp/dirha/fbank/raw_fbank_tr05_cont.2.ark:15387379
40bo030j /scratch/ravanelm/exp/dirha/fbank/raw_fbank_tr05_cont.4.ark:13000039
204o0105 /scratch/ravanelm/exp/dirha/fbank/raw_fbank_tr05_cont.3.ark:1709789
40mo0318 /scratch/ravanelm/exp/dirha/fbank/raw_fbank_tr05_cont.4.ark:47859169
01qo0309 /scratch/ravanelm/exp/dirha/fbank/raw_fbank_tr05_cont.2.ark:5291549
01ro030t /scratch/ravanelm/exp/dirha/fbank/raw_fbank_tr05_cont.2.ark:9033829
40hc020q /scratch/ravanelm/exp/dirha/fbank/raw_fbank_tr05_cont.4.ark:29784389
01ro0310 /scratch/ravanelm/exp/dirha/fbank/raw_fbank_tr05_cont.2.ark:9254559
02bc0207 /scratch/ravanelm/exp/dirha/fbank/raw_fbank_tr05_cont.2.ark:46180459
018c020i /scratch/ravanelm/exp/dirha/fbank/raw_fbank_tr05_cont.1.ark:18116779
01jc020i /scratch/ravanelm/exp/dirha/fbank/raw_fbank_tr05_cont.1.ark:43535039
021c0218 /scratch/ravanelm/exp/dirha/fbank/raw_fbank_tr05_cont.2.ark:29223149
20vc010g /scratch/ravanelm/exp/dirha/fbank/raw_fbank_tr05_cont.3.ark:38527659
02bo0319 /scratch/ravanelm/exp/dirha/fbank/raw_fbank_tr05_cont.2.ark:49026089
01ro030j /scratch/ravanelm/exp/dirha/fbank/raw_fbank_tr05_cont.2.ark:8691049
024c020d /scratch/ravanelm/exp/dirha/fbank/raw_fbank_tr05_cont.2.ark:31272279
027c020a /scratch/ravanelm/exp/dirha/fbank/raw_fbank_tr05_cont.2.ark:36893019
01rc020n /scratch/ravanelm/exp/dirha/fbank/raw_fbank_tr05_cont.2.ark:7366209
20go010r /scratch/ravanelm/exp/dirha/fbank/raw_fbank_tr05_cont.3.ark:22022189
40co030y /scratch/ravanelm/exp/dirha/fbank/raw_fbank_tr05_cont.4.ark:15985489
40go030j /scratch/ravanelm/exp/dirha/fbank/raw_fbank_tr05_cont.4.ark:27714599
01go030b /scratch/ravanelm/exp/dirha/fbank/raw_fbank_tr05_cont.1.ark:38165609
20tc010j /scratch/ravanelm/exp/dirha/fbank/raw_fbank_tr05_cont.3.ark:37201979
40ac020a /scratch/ravanelm/exp/dirha/fbank/raw_fbank_tr05_cont.4.ark:8108259
01ic0201 /scratch/ravanelm/exp/dirha/fbank/raw_fbank_tr05_cont.1.ark:39677869
021c020p /scratch/ravanelm/exp/dirha/fbank/raw_fbank_tr05_cont.2.ark:28756019
02bo0318 /scratch/ravanelm/exp/dirha/fbank/raw_fbank_tr05_cont.2.ark:48984539
017c020h /scratch/ravanelm/exp/dirha/fbank/raw_fbank_tr05_cont.1.ark:15197609
40jo0305 /scratch/ravanelm/exp/dirha/fbank/raw_fbank_tr05_cont.4.ark:36608659
205o010n /scratch/ravanelm/exp/dirha/fbank/raw_fbank_tr05_cont.3.ark:4004179
40hc020s /scratch/ravanelm/exp/dirha/fbank/raw_fbank_tr05_cont.4.ark:29829449
021c0208 /scratch/ravanelm/exp/dirha/fbank/raw_fbank_tr05_cont.2.ark:28248029
40hc0203 /scratch/ravanelm/exp/dirha/fbank/raw_fbank_tr05_cont.4.ark:29184979
209c010e /scratch/ravanelm/exp/dirha/fbank/raw_fbank_tr05_cont.3.ark:9611339
205o010q /scratch/ravanelm/exp/dirha/fbank/raw_fbank_tr05_cont.3.ark:4121309
40fc021b /scratch/ravanelm/exp/dirha/fbank/raw_fbank_tr05_cont.4.ark:23333549
20oc010c /scratch/ravanelm/exp/dirha/fbank/raw_fbank_tr05_cont.3.ark:30654399
01yo030j /scratch/ravanelm/exp/dirha/fbank/raw_fbank_tr05_cont.2.ark:21523619
028o0310 /scratch/ravanelm/exp/dirha/fbank/raw_fbank_tr05_cont.2.ark:42341929
01wc0207 /scratch/ravanelm/exp/dirha/fbank/raw_fbank_tr05_cont.2.ark:16788519
20qc010i /scratch/ravanelm/exp/dirha/fbank/raw_fbank_tr05_cont.3.ark:33782359
40cc020j /scratch/ravanelm/exp/dirha/fbank/raw_fbank_tr05_cont.4.ark:14432779
401o031b /scratch/ravanelm/exp/dirha/fbank/raw_fbank_tr05_cont.3.ark:42776099
01jc0210 /scratch/ravanelm/exp/dirha/fbank/raw_fbank_tr05_cont.1.ark:44038139
40cc020w /scratch/ravanelm/exp/dirha/fbank/raw_fbank_tr05_cont.4.ark:14678769
20ao010l /scratch/ravanelm/exp/dirha/fbank/raw_fbank_tr05_cont.3.ark:12240439
20ao010d /scratch/ravanelm/exp/dirha/fbank/raw_fbank_tr05_cont.3.ark:11902279
01dc020u /scratch/ravanelm/exp/dirha/fbank/raw_fbank_tr05_cont.1.ark:28173499
015o0313 /scratch/ravanelm/exp/dirha/fbank/raw_fbank_tr05_cont.1.ark:12055399
206o010q /scratch/ravanelm/exp/dirha/fbank/raw_fbank_tr05_cont.3.ark:5858299
01gc020y /scratch/ravanelm/exp/dirha/fbank/raw_fbank_tr05_cont.1.ark:37317919
01fo030g /scratch/ravanelm/exp/dirha/fbank/raw_fbank_tr05_cont.1.ark:35321139
20oc010a /scratch/ravanelm/exp/dirha/fbank/raw_fbank_tr05_cont.3.ark:30598979
40mo0310 /scratch/ravanelm/exp/dirha/fbank/raw_fbank_tr05_cont.4.ark:47635889
40go0303 /scratch/ravanelm/exp/dirha/fbank/raw_fbank_tr05_cont.4.ark:27094039
40go0313 /scratch/ravanelm/exp/dirha/fbank/raw_fbank_tr05_cont.4.ark:28679839
01dc0204 /scratch/ravanelm/exp/dirha/fbank/raw_fbank_tr05_cont.1.ark:27515439
40mo030t /scratch/ravanelm/exp/dirha/fbank/raw_fbank_tr05_cont.4.ark:47410519
401c0207 /scratch/ravanelm/exp/dirha/fbank/raw_fbank_tr05_cont.3.ark:39766359
027c021d /scratch/ravanelm/exp/dirha/fbank/raw_fbank_tr05_cont.2.ark:37963149
20rc010n /scratch/ravanelm/exp/dirha/fbank/raw_fbank_tr05_cont.3.ark:35637239
403c020w /scratch/ravanelm/exp/dirha/fbank/raw_fbank_tr05_cont.3.ark:43535799
02eo0315 /scratch/ravanelm/exp/dirha/fbank/raw_fbank_tr05_cont.3.ark:640349
01io030y /scratch/ravanelm/exp/dirha/fbank/raw_fbank_tr05_cont.1.ark:42437109
40eo030o /scratch/ravanelm/exp/dirha/fbank/raw_fbank_tr05_cont.4.ark:21351209
20bo010d /scratch/ravanelm/exp/dirha/fbank/raw_fbank_tr05_cont.3.ark:13649379
01jo030l /scratch/ravanelm/exp/dirha/fbank/raw_fbank_tr05_cont.1.ark:45361689
017c020t /scratch/ravanelm/exp/dirha/fbank/raw_fbank_tr05_cont.1.ark:15457169
017c0208 /scratch/ravanelm/exp/dirha/fbank/raw_fbank_tr05_cont.1.ark:14975099
209o010c /scratch/ravanelm/exp/dirha/fbank/raw_fbank_tr05_cont.3.ark:10276299
40kc020t /scratch/ravanelm/exp/dirha/fbank/raw_fbank_tr05_cont.4.ark:39067429
014o031d /scratch/ravanelm/exp/dirha/fbank/raw_fbank_tr05_cont.1.ark:9418449
024c020b /scratch/ravanelm/exp/dirha/fbank/raw_fbank_tr05_cont.2.ark:31191059
20no010h /scratch/ravanelm/exp/dirha/fbank/raw_fbank_tr05_cont.3.ark:29906619
20ho0105 /scratch/ravanelm/exp/dirha/fbank/raw_fbank_tr05_cont.3.ark:22732829
028c020u /scratch/ravanelm/exp/dirha/fbank/raw_fbank_tr05_cont.2.ark:40494859
406o0308 /scratch/ravanelm/exp/dirha/fbank/raw_fbank_tr05_cont.3.ark:52452819
01jc020f /scratch/ravanelm/exp/dirha/fbank/raw_fbank_tr05_cont.1.ark:43439989
40bo030n /scratch/ravanelm/exp/dirha/fbank/raw_fbank_tr05_cont.4.ark:13136239
20po010j /scratch/ravanelm/exp/dirha/fbank/raw_fbank_tr05_cont.3.ark:32963849
027c020q /scratch/ravanelm/exp/dirha/fbank/raw_fbank_tr05_cont.2.ark:37255419
01kc021a /scratch/ravanelm/exp/dirha/fbank/raw_fbank_tr05_cont.1.ark:47900769
407o030j /scratch/ravanelm/exp/dirha/fbank/raw_fbank_tr05_cont.4.ark:1317639
02ec020c /scratch/ravanelm/exp/dirha/fbank/raw_fbank_tr05_cont.2.ark:52605529
20eo010j /scratch/ravanelm/exp/dirha/fbank/raw_fbank_tr05_cont.3.ark:18963989
01pc020f /scratch/ravanelm/exp/dirha/fbank/raw_fbank_tr05_cont.2.ark:850459
20qo010k /scratch/ravanelm/exp/dirha/fbank/raw_fbank_tr05_cont.3.ark:34755409
40lo0302 /scratch/ravanelm/exp/dirha/fbank/raw_fbank_tr05_cont.4.ark:42956229
014c020x /scratch/ravanelm/exp/dirha/fbank/raw_fbank_tr05_cont.1.ark:7278979
01do030k /scratch/ravanelm/exp/dirha/fbank/raw_fbank_tr05_cont.1.ark:29440049
40ac0201 /scratch/ravanelm/exp/dirha/fbank/raw_fbank_tr05_cont.4.ark:7773709
405o030y /scratch/ravanelm/exp/dirha/fbank/raw_fbank_tr05_cont.3.ark:50421089
01bc0218 /scratch/ravanelm/exp/dirha/fbank/raw_fbank_tr05_cont.1.ark:25205519
02eo030b /scratch/ravanelm/exp/dirha/fbank/raw_fbank_tr05_cont.2.ark:54205959
027c0216 /scratch/ravanelm/exp/dirha/fbank/raw_fbank_tr05_cont.2.ark:37734019
20ec0109 /scratch/ravanelm/exp/dirha/fbank/raw_fbank_tr05_cont.3.ark:17800329
20hc010e /scratch/ravanelm/exp/dirha/fbank/raw_fbank_tr05_cont.3.ark:22349279
01fo030j /scratch/ravanelm/exp/dirha/fbank/raw_fbank_tr05_cont.1.ark:35441189
017o030a /scratch/ravanelm/exp/dirha/fbank/raw_fbank_tr05_cont.1.ark:16353199
01mo030m /scratch/ravanelm/exp/dirha/fbank/raw_fbank_tr05_cont.1.ark:56024479
40gc0209 /scratch/ravanelm/exp/dirha/fbank/raw_fbank_tr05_cont.4.ark:25461609
40hc020f /scratch/ravanelm/exp/dirha/fbank/raw_fbank_tr05_cont.4.ark:29500059
404o030g /scratch/ravanelm/exp/dirha/fbank/raw_fbank_tr05_cont.3.ark:47257149
029o030o /scratch/ravanelm/exp/dirha/fbank/raw_fbank_tr05_cont.2.ark:45077879
013o030z /scratch/ravanelm/exp/dirha/fbank/raw_fbank_tr05_cont.1.ark:6017549
40go0316 /scratch/ravanelm/exp/dirha/fbank/raw_fbank_tr05_cont.4.ark:28812849
40mo0304 /scratch/ravanelm/exp/dirha/fbank/raw_fbank_tr05_cont.4.ark:46500689
40io030j /scratch/ravanelm/exp/dirha/fbank/raw_fbank_tr05_cont.4.ark:34120189
01go030c /scratch/ravanelm/exp/dirha/fbank/raw_fbank_tr05_cont.1.ark:38194519
40nc020i /scratch/ravanelm/exp/dirha/fbank/raw_fbank_tr05_cont.4.ark:48544739
01zo030h /scratch/ravanelm/exp/dirha/fbank/raw_fbank_tr05_cont.2.ark:24653889
024c020w /scratch/ravanelm/exp/dirha/fbank/raw_fbank_tr05_cont.2.ark:31790449
405c0204 /scratch/ravanelm/exp/dirha/fbank/raw_fbank_tr05_cont.3.ark:48320619
01fo030z /scratch/ravanelm/exp/dirha/fbank/raw_fbank_tr05_cont.1.ark:35893829
40nc020d /scratch/ravanelm/exp/dirha/fbank/raw_fbank_tr05_cont.4.ark:48386949
20ec010c /scratch/ravanelm/exp/dirha/fbank/raw_fbank_tr05_cont.3.ark:17861379
020o030f /scratch/ravanelm/exp/dirha/fbank/raw_fbank_tr05_cont.2.ark:27317199
01uo030i /scratch/ravanelm/exp/dirha/fbank/raw_fbank_tr05_cont.2.ark:15365749
40bc0204 /scratch/ravanelm/exp/dirha/fbank/raw_fbank_tr05_cont.4.ark:10991269
01jo030q /scratch/ravanelm/exp/dirha/fbank/raw_fbank_tr05_cont.1.ark:45501479
204o0101 /scratch/ravanelm/exp/dirha/fbank/raw_fbank_tr05_cont.3.ark:1603829
207c0103 /scratch/ravanelm/exp/dirha/fbank/raw_fbank_tr05_cont.3.ark:6016129
20io0109 /scratch/ravanelm/exp/dirha/fbank/raw_fbank_tr05_cont.3.ark:24332579
01lc020i /scratch/ravanelm/exp/dirha/fbank/raw_fbank_tr05_cont.1.ark:50862509
021c020w /scratch/ravanelm/exp/dirha/fbank/raw_fbank_tr05_cont.2.ark:28949989
01ec020u /scratch/ravanelm/exp/dirha/fbank/raw_fbank_tr05_cont.1.ark:31202299
01fc021d /scratch/ravanelm/exp/dirha/fbank/raw_fbank_tr05_cont.1.ark:34691129
01wo030d /scratch/ravanelm/exp/dirha/fbank/raw_fbank_tr05_cont.2.ark:18345879
01jc020p /scratch/ravanelm/exp/dirha/fbank/raw_fbank_tr05_cont.1.ark:43728529
01qo030u /scratch/ravanelm/exp/dirha/fbank/raw_fbank_tr05_cont.2.ark:6040019
409o030l /scratch/ravanelm/exp/dirha/fbank/raw_fbank_tr05_cont.4.ark:6902919
02cc020a /scratch/ravanelm/exp/dirha/fbank/raw_fbank_tr05_cont.2.ark:49522289
01zo030l /scratch/ravanelm/exp/dirha/fbank/raw_fbank_tr05_cont.2.ark:24833049
01do031e /scratch/ravanelm/exp/dirha/fbank/raw_fbank_tr05_cont.1.ark:30332609
40ec0217 /scratch/ravanelm/exp/dirha/fbank/raw_fbank_tr05_cont.4.ark:20352029
029c020g /scratch/ravanelm/exp/dirha/fbank/raw_fbank_tr05_cont.2.ark:43274399
403o0308 /scratch/ravanelm/exp/dirha/fbank/raw_fbank_tr05_cont.3.ark:44309569
024o0313 /scratch/ravanelm/exp/dirha/fbank/raw_fbank_tr05_cont.2.ark:33489879
403c020j /scratch/ravanelm/exp/dirha/fbank/raw_fbank_tr05_cont.3.ark:43268489
408c0218 /scratch/ravanelm/exp/dirha/fbank/raw_fbank_tr05_cont.4.ark:3378259
011c020b /scratch/ravanelm/exp/dirha/fbank/raw_fbank_tr05_cont.1.ark:254949
01do0310 /scratch/ravanelm/exp/dirha/fbank/raw_fbank_tr05_cont.1.ark:29899229
20eo010b /scratch/ravanelm/exp/dirha/fbank/raw_fbank_tr05_cont.3.ark:18664549
01bc0202 /scratch/ravanelm/exp/dirha/fbank/raw_fbank_tr05_cont.1.ark:23825309
01tc021c /scratch/ravanelm/exp/dirha/fbank/raw_fbank_tr05_cont.2.ark:11187589
02ec020n /scratch/ravanelm/exp/dirha/fbank/raw_fbank_tr05_cont.2.ark:52966859
019c0217 /scratch/ravanelm/exp/dirha/fbank/raw_fbank_tr05_cont.1.ark:22147769
408o030m /scratch/ravanelm/exp/dirha/fbank/raw_fbank_tr05_cont.4.ark:4227429
40ao031f /scratch/ravanelm/exp/dirha/fbank/raw_fbank_tr05_cont.4.ark:10878309
40eo030b /scratch/ravanelm/exp/dirha/fbank/raw_fbank_tr05_cont.4.ark:20953579
20rc010f /scratch/ravanelm/exp/dirha/fbank/raw_fbank_tr05_cont.3.ark:35417959
02cc020t /scratch/ravanelm/exp/dirha/fbank/raw_fbank_tr05_cont.2.ark:49955269
01zc020o /scratch/ravanelm/exp/dirha/fbank/raw_fbank_tr05_cont.2.ark:23273249
021c020b /scratch/ravanelm/exp/dirha/fbank/raw_fbank_tr05_cont.2.ark:28327759
017o030w /scratch/ravanelm/exp/dirha/fbank/raw_fbank_tr05_cont.1.ark:17032019
405c020p /scratch/ravanelm/exp/dirha/fbank/raw_fbank_tr05_cont.3.ark:48877689
01ko030a /scratch/ravanelm/exp/dirha/fbank/raw_fbank_tr05_cont.1.ark:48461029
01uc020f /scratch/ravanelm/exp/dirha/fbank/raw_fbank_tr05_cont.2.ark:13570369
20pc010k /scratch/ravanelm/exp/dirha/fbank/raw_fbank_tr05_cont.3.ark:32277369
019o030x /scratch/ravanelm/exp/dirha/fbank/raw_fbank_tr05_cont.1.ark:23416179
01mo0313 /scratch/ravanelm/exp/dirha/fbank/raw_fbank_tr05_cont.2.ark:32679
01fc0214 /scratch/ravanelm/exp/dirha/fbank/raw_fbank_tr05_cont.1.ark:34452019
408o0310 /scratch/ravanelm/exp/dirha/fbank/raw_fbank_tr05_cont.4.ark:4550409
015o030b /scratch/ravanelm/exp/dirha/fbank/raw_fbank_tr05_cont.1.ark:11102119
208o010f /scratch/ravanelm/exp/dirha/fbank/raw_fbank_tr05_cont.3.ark:8839199
204c0106 /scratch/ravanelm/exp/dirha/fbank/raw_fbank_tr05_cont.3.ark:1161869
20rc010e /scratch/ravanelm/exp/dirha/fbank/raw_fbank_tr05_cont.3.ark:35368569
401o0319 /scratch/ravanelm/exp/dirha/fbank/raw_fbank_tr05_cont.3.ark:42664679
029o0302 /scratch/ravanelm/exp/dirha/fbank/raw_fbank_tr05_cont.2.ark:44317459
20ac010g /scratch/ravanelm/exp/dirha/fbank/raw_fbank_tr05_cont.3.ark:11176289
011c0201 /scratch/ravanelm/exp/dirha/fbank/raw_fbank_tr05_cont.1.ark:9
40ko0319 /scratch/ravanelm/exp/dirha/fbank/raw_fbank_tr05_cont.4.ark:41140589
40bc0213 /scratch/ravanelm/exp/dirha/fbank/raw_fbank_tr05_cont.4.ark:11937399
40jo0319 /scratch/ravanelm/exp/dirha/fbank/raw_fbank_tr05_cont.4.ark:38004499
015o0319 /scratch/ravanelm/exp/dirha/fbank/raw_fbank_tr05_cont.1.ark:12244579
20oo010a /scratch/ravanelm/exp/dirha/fbank/raw_fbank_tr05_cont.3.ark:31178579
01qc020f /scratch/ravanelm/exp/dirha/fbank/raw_fbank_tr05_cont.2.ark:4115469
017c020d /scratch/ravanelm/exp/dirha/fbank/raw_fbank_tr05_cont.1.ark:15096929
20eo0109 /scratch/ravanelm/exp/dirha/fbank/raw_fbank_tr05_cont.3.ark:18601049
40po031b /scratch/ravanelm/exp/dirha/fbank/raw_fbank_tr05_cont.4.ark:54119969
40bc020e /scratch/ravanelm/exp/dirha/fbank/raw_fbank_tr05_cont.4.ark:11295329
40mo030q /scratch/ravanelm/exp/dirha/fbank/raw_fbank_tr05_cont.4.ark:47289069
209c010j /scratch/ravanelm/exp/dirha/fbank/raw_fbank_tr05_cont.3.ark:9708849
20oo010k /scratch/ravanelm/exp/dirha/fbank/raw_fbank_tr05_cont.3.ark:31512319
40dc020t /scratch/ravanelm/exp/dirha/fbank/raw_fbank_tr05_cont.4.ark:17302179
01fc020g /scratch/ravanelm/exp/dirha/fbank/raw_fbank_tr05_cont.1.ark:33868099
027o030u /scratch/ravanelm/exp/dirha/fbank/raw_fbank_tr05_cont.2.ark:39159809
01bc020j /scratch/ravanelm/exp/dirha/fbank/raw_fbank_tr05_cont.1.ark:24433229
01fo030k /scratch/ravanelm/exp/dirha/fbank/raw_fbank_tr05_cont.1.ark:35465019
40bo030q /scratch/ravanelm/exp/dirha/fbank/raw_fbank_tr05_cont.4.ark:13243689
40mc0214 /scratch/ravanelm/exp/dirha/fbank/raw_fbank_tr05_cont.4.ark:46012569
40fo030n /scratch/ravanelm/exp/dirha/fbank/raw_fbank_tr05_cont.4.ark:24174149
404c0218 /scratch/ravanelm/exp/dirha/fbank/raw_fbank_tr05_cont.3.ark:46614179
01bc020g /scratch/ravanelm/exp/dirha/fbank/raw_fbank_tr05_cont.1.ark:24317019
01mo0301 /scratch/ravanelm/exp/dirha/fbank/raw_fbank_tr05_cont.1.ark:55392569
017c0217 /scratch/ravanelm/exp/dirha/fbank/raw_fbank_tr05_cont.1.ark:15820669
01uo0309 /scratch/ravanelm/exp/dirha/fbank/raw_fbank_tr05_cont.2.ark:15036359
02bc020g /scratch/ravanelm/exp/dirha/fbank/raw_fbank_tr05_cont.2.ark:46457329
20dc010p /scratch/ravanelm/exp/dirha/fbank/raw_fbank_tr05_cont.3.ark:16508449
01tc020w /scratch/ravanelm/exp/dirha/fbank/raw_fbank_tr05_cont.2.ark:10716709
40dc021d /scratch/ravanelm/exp/dirha/fbank/raw_fbank_tr05_cont.4.ark:17863779
019c021c /scratch/ravanelm/exp/dirha/fbank/raw_fbank_tr05_cont.1.ark:22284719
028c0212 /scratch/ravanelm/exp/dirha/fbank/raw_fbank_tr05_cont.2.ark:40683099
20po0107 /scratch/ravanelm/exp/dirha/fbank/raw_fbank_tr05_cont.3.ark:32617249
01uc020m /scratch/ravanelm/exp/dirha/fbank/raw_fbank_tr05_cont.2.ark:13808299
40do0303 /scratch/ravanelm/exp/dirha/fbank/raw_fbank_tr05_cont.4.ark:18062759
018o030d /scratch/ravanelm/exp/dirha/fbank/raw_fbank_tr05_cont.1.ark:19624749
20oc0109 /scratch/ravanelm/exp/dirha/fbank/raw_fbank_tr05_cont.3.ark:30561349
405c0219 /scratch/ravanelm/exp/dirha/fbank/raw_fbank_tr05_cont.3.ark:49300289
40ho030v /scratch/ravanelm/exp/dirha/fbank/raw_fbank_tr05_cont.4.ark:31398309
02co030z /scratch/ravanelm/exp/dirha/fbank/raw_fbank_tr05_cont.2.ark:51632879
018c020x /scratch/ravanelm/exp/dirha/fbank/raw_fbank_tr05_cont.1.ark:18557789
20qo010j /scratch/ravanelm/exp/dirha/fbank/raw_fbank_tr05_cont.3.ark:34732099
01ic020t /scratch/ravanelm/exp/dirha/fbank/raw_fbank_tr05_cont.1.ark:40522669
02eo0313 /scratch/ravanelm/exp/dirha/fbank/raw_fbank_tr05_cont.3.ark:569809
20ic0101 /scratch/ravanelm/exp/dirha/fbank/raw_fbank_tr05_cont.3.ark:23384099
405c020t /scratch/ravanelm/exp/dirha/fbank/raw_fbank_tr05_cont.3.ark:48958929
029c0208 /scratch/ravanelm/exp/dirha/fbank/raw_fbank_tr05_cont.2.ark:43046399
40dc020w /scratch/ravanelm/exp/dirha/fbank/raw_fbank_tr05_cont.4.ark:17406029
01jc0216 /scratch/ravanelm/exp/dirha/fbank/raw_fbank_tr05_cont.1.ark:44263999
028c0217 /scratch/ravanelm/exp/dirha/fbank/raw_fbank_tr05_cont.2.ark:40844529
01fo030r /scratch/ravanelm/exp/dirha/fbank/raw_fbank_tr05_cont.1.ark:35689949
20mo010o /scratch/ravanelm/exp/dirha/fbank/raw_fbank_tr05_cont.3.ark:28296119
405c020e /scratch/ravanelm/exp/dirha/fbank/raw_fbank_tr05_cont.3.ark:48592639
408o030t /scratch/ravanelm/exp/dirha/fbank/raw_fbank_tr05_cont.4.ark:4399799
40jo0311 /scratch/ravanelm/exp/dirha/fbank/raw_fbank_tr05_cont.4.ark:37774939
01do031d /scratch/ravanelm/exp/dirha/fbank/raw_fbank_tr05_cont.1.ark:30314339
408c020t /scratch/ravanelm/exp/dirha/fbank/raw_fbank_tr05_cont.4.ark:3065879
40do030v /scratch/ravanelm/exp/dirha/fbank/raw_fbank_tr05_cont.4.ark:18859599
409c020v /scratch/ravanelm/exp/dirha/fbank/raw_fbank_tr05_cont.4.ark:5734539
01qo030r /scratch/ravanelm/exp/dirha/fbank/raw_fbank_tr05_cont.2.ark:5986449
014o031a /scratch/ravanelm/exp/dirha/fbank/raw_fbank_tr05_cont.1.ark:9290519
407c020b /scratch/ravanelm/exp/dirha/fbank/raw_fbank_tr05_cont.3.ark:53986779
404c020s /scratch/ravanelm/exp/dirha/fbank/raw_fbank_tr05_cont.3.ark:46285779
01yc020w /scratch/ravanelm/exp/dirha/fbank/raw_fbank_tr05_cont.2.ark:20395249
406c021e /scratch/ravanelm/exp/dirha/fbank/raw_fbank_tr05_cont.3.ark:52157989
20go010m /scratch/ravanelm/exp/dirha/fbank/raw_fbank_tr05_cont.3.ark:21930999
01yo0318 /scratch/ravanelm/exp/dirha/fbank/raw_fbank_tr05_cont.2.ark:22398249
204o010g /scratch/ravanelm/exp/dirha/fbank/raw_fbank_tr05_cont.3.ark:2039559
209o010g /scratch/ravanelm/exp/dirha/fbank/raw_fbank_tr05_cont.3.ark:10396659
406c0205 /scratch/ravanelm/exp/dirha/fbank/raw_fbank_tr05_cont.3.ark:51064589
20dc0103 /scratch/ravanelm/exp/dirha/fbank/raw_fbank_tr05_cont.3.ark:15818829
408o030k /scratch/ravanelm/exp/dirha/fbank/raw_fbank_tr05_cont.4.ark:4155729
01lc020g /scratch/ravanelm/exp/dirha/fbank/raw_fbank_tr05_cont.1.ark:50778209
01po030g /scratch/ravanelm/exp/dirha/fbank/raw_fbank_tr05_cont.2.ark:2462009
403c020v /scratch/ravanelm/exp/dirha/fbank/raw_fbank_tr05_cont.3.ark:43526249
01zo030t /scratch/ravanelm/exp/dirha/fbank/raw_fbank_tr05_cont.2.ark:25215729
01fc020p /scratch/ravanelm/exp/dirha/fbank/raw_fbank_tr05_cont.1.ark:34020409
01ec020b /scratch/ravanelm/exp/dirha/fbank/raw_fbank_tr05_cont.1.ark:30699889
01qc020i /scratch/ravanelm/exp/dirha/fbank/raw_fbank_tr05_cont.2.ark:4235239
01po030k /scratch/ravanelm/exp/dirha/fbank/raw_fbank_tr05_cont.2.ark:2570659
01yc0202 /scratch/ravanelm/exp/dirha/fbank/raw_fbank_tr05_cont.2.ark:19539869
01wo030m /scratch/ravanelm/exp/dirha/fbank/raw_fbank_tr05_cont.2.ark:18641469
018c020s /scratch/ravanelm/exp/dirha/fbank/raw_fbank_tr05_cont.1.ark:18407239
20do0102 /scratch/ravanelm/exp/dirha/fbank/raw_fbank_tr05_cont.3.ark:16589229
40nc0210 /scratch/ravanelm/exp/dirha/fbank/raw_fbank_tr05_cont.4.ark:49109239
01kc020j /scratch/ravanelm/exp/dirha/fbank/raw_fbank_tr05_cont.1.ark:47079399
01fc020i /scratch/ravanelm/exp/dirha/fbank/raw_fbank_tr05_cont.1.ark:33905079
027o0307 /scratch/ravanelm/exp/dirha/fbank/raw_fbank_tr05_cont.2.ark:38285479
027o0308 /scratch/ravanelm/exp/dirha/fbank/raw_fbank_tr05_cont.2.ark:38321589
028c020n /scratch/ravanelm/exp/dirha/fbank/raw_fbank_tr05_cont.2.ark:40270529
404c020r /scratch/ravanelm/exp/dirha/fbank/raw_fbank_tr05_cont.3.ark:46258709
027c020e /scratch/ravanelm/exp/dirha/fbank/raw_fbank_tr05_cont.2.ark:36995419
01tc0203 /scratch/ravanelm/exp/dirha/fbank/raw_fbank_tr05_cont.2.ark:9697879
01qc0201 /scratch/ravanelm/exp/dirha/fbank/raw_fbank_tr05_cont.2.ark:3642569
409c020d /scratch/ravanelm/exp/dirha/fbank/raw_fbank_tr05_cont.4.ark:5194839
029c020u /scratch/ravanelm/exp/dirha/fbank/raw_fbank_tr05_cont.2.ark:43688579
40kc020d /scratch/ravanelm/exp/dirha/fbank/raw_fbank_tr05_cont.4.ark:38592589
014c0217 /scratch/ravanelm/exp/dirha/fbank/raw_fbank_tr05_cont.1.ark:7499959
011o030l /scratch/ravanelm/exp/dirha/fbank/raw_fbank_tr05_cont.1.ark:2218669
015o030u /scratch/ravanelm/exp/dirha/fbank/raw_fbank_tr05_cont.1.ark:11759049
01kc020q /scratch/ravanelm/exp/dirha/fbank/raw_fbank_tr05_cont.1.ark:47279249
029c020z /scratch/ravanelm/exp/dirha/fbank/raw_fbank_tr05_cont.2.ark:43824329
01uo0314 /scratch/ravanelm/exp/dirha/fbank/raw_fbank_tr05_cont.2.ark:16279889
01lc021a /scratch/ravanelm/exp/dirha/fbank/raw_fbank_tr05_cont.1.ark:51693309
40po0305 /scratch/ravanelm/exp/dirha/fbank/raw_fbank_tr05_cont.4.ark:52705869
40jo030g /scratch/ravanelm/exp/dirha/fbank/raw_fbank_tr05_cont.4.ark:37036309
01po0305 /scratch/ravanelm/exp/dirha/fbank/raw_fbank_tr05_cont.2.ark:2098279
01bo031c /scratch/ravanelm/exp/dirha/fbank/raw_fbank_tr05_cont.1.ark:27320209
011c0207 /scratch/ravanelm/exp/dirha/fbank/raw_fbank_tr05_cont.1.ark:153549
206o010c /scratch/ravanelm/exp/dirha/fbank/raw_fbank_tr05_cont.3.ark:5198599
018c020v /scratch/ravanelm/exp/dirha/fbank/raw_fbank_tr05_cont.1.ark:18478449
01tc0204 /scratch/ravanelm/exp/dirha/fbank/raw_fbank_tr05_cont.2.ark:9733949
404c020f /scratch/ravanelm/exp/dirha/fbank/raw_fbank_tr05_cont.3.ark:45903589
026o030q /scratch/ravanelm/exp/dirha/fbank/raw_fbank_tr05_cont.2.ark:35901619
014c020n /scratch/ravanelm/exp/dirha/fbank/raw_fbank_tr05_cont.1.ark:7040599
40jc020s /scratch/ravanelm/exp/dirha/fbank/raw_fbank_tr05_cont.4.ark:35851729
20bo010q /scratch/ravanelm/exp/dirha/fbank/raw_fbank_tr05_cont.3.ark:14168729
40ac020m /scratch/ravanelm/exp/dirha/fbank/raw_fbank_tr05_cont.4.ark:8487179
016c020j /scratch/ravanelm/exp/dirha/fbank/raw_fbank_tr05_cont.1.ark:12786139
014o0318 /scratch/ravanelm/exp/dirha/fbank/raw_fbank_tr05_cont.1.ark:9226739
20pc0107 /scratch/ravanelm/exp/dirha/fbank/raw_fbank_tr05_cont.3.ark:31954179
40mo030a /scratch/ravanelm/exp/dirha/fbank/raw_fbank_tr05_cont.4.ark:46740669
40mc0215 /scratch/ravanelm/exp/dirha/fbank/raw_fbank_tr05_cont.4.ark:46050719
40ec0202 /scratch/ravanelm/exp/dirha/fbank/raw_fbank_tr05_cont.4.ark:19467919
028c0213 /scratch/ravanelm/exp/dirha/fbank/raw_fbank_tr05_cont.2.ark:40712369
40gc020c /scratch/ravanelm/exp/dirha/fbank/raw_fbank_tr05_cont.4.ark:25606299
01tc021g /scratch/ravanelm/exp/dirha/fbank/raw_fbank_tr05_cont.2.ark:11294989
405c0213 /scratch/ravanelm/exp/dirha/fbank/raw_fbank_tr05_cont.3.ark:49146069
019o030b /scratch/ravanelm/exp/dirha/fbank/raw_fbank_tr05_cont.1.ark:22732959
026c020r /scratch/ravanelm/exp/dirha/fbank/raw_fbank_tr05_cont.2.ark:34499929
40ao030u /scratch/ravanelm/exp/dirha/fbank/raw_fbank_tr05_cont.4.ark:10237799
015o030x /scratch/ravanelm/exp/dirha/fbank/raw_fbank_tr05_cont.1.ark:11819979
028c020i /scratch/ravanelm/exp/dirha/fbank/raw_fbank_tr05_cont.2.ark:40151819
20ho010b /scratch/ravanelm/exp/dirha/fbank/raw_fbank_tr05_cont.3.ark:22946209
406c0201 /scratch/ravanelm/exp/dirha/fbank/raw_fbank_tr05_cont.3.ark:50965989
401c020q /scratch/ravanelm/exp/dirha/fbank/raw_fbank_tr05_cont.3.ark:40319489
20to0102 /scratch/ravanelm/exp/dirha/fbank/raw_fbank_tr05_cont.3.ark:37440809
01yo030y /scratch/ravanelm/exp/dirha/fbank/raw_fbank_tr05_cont.2.ark:22058509
024c020x /scratch/ravanelm/exp/dirha/fbank/raw_fbank_tr05_cont.2.ark:31813519
405o030t /scratch/ravanelm/exp/dirha/fbank/raw_fbank_tr05_cont.3.ark:50272979
20nc010m /scratch/ravanelm/exp/dirha/fbank/raw_fbank_tr05_cont.3.ark:29137459
01zo030u /scratch/ravanelm/exp/dirha/fbank/raw_fbank_tr05_cont.2.ark:25272079
408o030b /scratch/ravanelm/exp/dirha/fbank/raw_fbank_tr05_cont.4.ark:3894099
018o0311 /scratch/ravanelm/exp/dirha/fbank/raw_fbank_tr05_cont.1.ark:20588549
015o030q /scratch/ravanelm/exp/dirha/fbank/raw_fbank_tr05_cont.1.ark:11642089
409c020b /scratch/ravanelm/exp/dirha/fbank/raw_fbank_tr05_cont.4.ark:5152979
01go0318 /scratch/ravanelm/exp/dirha/fbank/raw_fbank_tr05_cont.1.ark:39316079
40cc0213 /scratch/ravanelm/exp/dirha/fbank/raw_fbank_tr05_cont.4.ark:14851259
01uo0313 /scratch/ravanelm/exp/dirha/fbank/raw_fbank_tr05_cont.2.ark:16224419
024c0213 /scratch/ravanelm/exp/dirha/fbank/raw_fbank_tr05_cont.2.ark:31995579
405o0308 /scratch/ravanelm/exp/dirha/fbank/raw_fbank_tr05_cont.3.ark:49631429
208o010l /scratch/ravanelm/exp/dirha/fbank/raw_fbank_tr05_cont.3.ark:9056579
01yc020y /scratch/ravanelm/exp/dirha/fbank/raw_fbank_tr05_cont.2.ark:20461309
015c020x /scratch/ravanelm/exp/dirha/fbank/raw_fbank_tr05_cont.1.ark:10304799
027o0318 /scratch/ravanelm/exp/dirha/fbank/raw_fbank_tr05_cont.2.ark:39710269
01ec020g /scratch/ravanelm/exp/dirha/fbank/raw_fbank_tr05_cont.1.ark:30821039
40gc020r /scratch/ravanelm/exp/dirha/fbank/raw_fbank_tr05_cont.4.ark:26033429
401o030g /scratch/ravanelm/exp/dirha/fbank/raw_fbank_tr05_cont.3.ark:41589559
017o0315 /scratch/ravanelm/exp/dirha/fbank/raw_fbank_tr05_cont.1.ark:17314529
40ao030o /scratch/ravanelm/exp/dirha/fbank/raw_fbank_tr05_cont.4.ark:10015059
20lc0107 /scratch/ravanelm/exp/dirha/fbank/raw_fbank_tr05_cont.3.ark:25156899
209c0107 /scratch/ravanelm/exp/dirha/fbank/raw_fbank_tr05_cont.3.ark:9447769
013o030c /scratch/ravanelm/exp/dirha/fbank/raw_fbank_tr05_cont.1.ark:5279059
01fo030n /scratch/ravanelm/exp/dirha/fbank/raw_fbank_tr05_cont.1.ark:35559229
027o0304 /scratch/ravanelm/exp/dirha/fbank/raw_fbank_tr05_cont.2.ark:38141029
40bo030r /scratch/ravanelm/exp/dirha/fbank/raw_fbank_tr05_cont.4.ark:13285559
40fc020w /scratch/ravanelm/exp/dirha/fbank/raw_fbank_tr05_cont.4.ark:22900499
01ko0303 /scratch/ravanelm/exp/dirha/fbank/raw_fbank_tr05_cont.1.ark:48188819
403c021a /scratch/ravanelm/exp/dirha/fbank/raw_fbank_tr05_cont.3.ark:43886619
20mc010i /scratch/ravanelm/exp/dirha/fbank/raw_fbank_tr05_cont.3.ark:27434549
40lo030k /scratch/ravanelm/exp/dirha/fbank/raw_fbank_tr05_cont.4.ark:43627329
01lc0204 /scratch/ravanelm/exp/dirha/fbank/raw_fbank_tr05_cont.1.ark:50343009
40pc0216 /scratch/ravanelm/exp/dirha/fbank/raw_fbank_tr05_cont.4.ark:52375209
01eo030f /scratch/ravanelm/exp/dirha/fbank/raw_fbank_tr05_cont.1.ark:32241189
01tc020r /scratch/ravanelm/exp/dirha/fbank/raw_fbank_tr05_cont.2.ark:10516559
404o0305 /scratch/ravanelm/exp/dirha/fbank/raw_fbank_tr05_cont.3.ark:46940299
01rc0208 /scratch/ravanelm/exp/dirha/fbank/raw_fbank_tr05_cont.2.ark:6932519
40ho030h /scratch/ravanelm/exp/dirha/fbank/raw_fbank_tr05_cont.4.ark:30939449
20pc0104 /scratch/ravanelm/exp/dirha/fbank/raw_fbank_tr05_cont.3.ark:31865289
01lc020s /scratch/ravanelm/exp/dirha/fbank/raw_fbank_tr05_cont.1.ark:51135569
027c0211 /scratch/ravanelm/exp/dirha/fbank/raw_fbank_tr05_cont.2.ark:37548989
01eo0302 /scratch/ravanelm/exp/dirha/fbank/raw_fbank_tr05_cont.1.ark:31922279
017c020y /scratch/ravanelm/exp/dirha/fbank/raw_fbank_tr05_cont.1.ark:15573879
20mc010h /scratch/ravanelm/exp/dirha/fbank/raw_fbank_tr05_cont.3.ark:27414519
01gc0217 /scratch/ravanelm/exp/dirha/fbank/raw_fbank_tr05_cont.1.ark:37549629
40ho030g /scratch/ravanelm/exp/dirha/fbank/raw_fbank_tr05_cont.4.ark:30891419
40hc0202 /scratch/ravanelm/exp/dirha/fbank/raw_fbank_tr05_cont.4.ark:29155509
204o010q /scratch/ravanelm/exp/dirha/fbank/raw_fbank_tr05_cont.3.ark:2409699
02cc0207 /scratch/ravanelm/exp/dirha/fbank/raw_fbank_tr05_cont.2.ark:49436919
207o0109 /scratch/ravanelm/exp/dirha/fbank/raw_fbank_tr05_cont.3.ark:6899049
209o010a /scratch/ravanelm/exp/dirha/fbank/raw_fbank_tr05_cont.3.ark:10223439
20hc0101 /scratch/ravanelm/exp/dirha/fbank/raw_fbank_tr05_cont.3.ark:22100249
20gc010i /scratch/ravanelm/exp/dirha/fbank/raw_fbank_tr05_cont.3.ark:21145949
40lo0308 /scratch/ravanelm/exp/dirha/fbank/raw_fbank_tr05_cont.4.ark:43132849
40ac0213 /scratch/ravanelm/exp/dirha/fbank/raw_fbank_tr05_cont.4.ark:9006249
40lo030z /scratch/ravanelm/exp/dirha/fbank/raw_fbank_tr05_cont.4.ark:44395139
01rc020m /scratch/ravanelm/exp/dirha/fbank/raw_fbank_tr05_cont.2.ark:7339659
409c021c /scratch/ravanelm/exp/dirha/fbank/raw_fbank_tr05_cont.4.ark:6187929
016c021d /scratch/ravanelm/exp/dirha/fbank/raw_fbank_tr05_cont.1.ark:13375629
01pc0201 /scratch/ravanelm/exp/dirha/fbank/raw_fbank_tr05_cont.2.ark:414959
019c020g /scratch/ravanelm/exp/dirha/fbank/raw_fbank_tr05_cont.1.ark:21463159
01to0319 /scratch/ravanelm/exp/dirha/fbank/raw_fbank_tr05_cont.2.ark:12825389
01zo0318 /scratch/ravanelm/exp/dirha/fbank/raw_fbank_tr05_cont.2.ark:25804219
404c0216 /scratch/ravanelm/exp/dirha/fbank/raw_fbank_tr05_cont.3.ark:46570719
40kc020m /scratch/ravanelm/exp/dirha/fbank/raw_fbank_tr05_cont.4.ark:38872459
01io031e /scratch/ravanelm/exp/dirha/fbank/raw_fbank_tr05_cont.1.ark:42933389
017o030m /scratch/ravanelm/exp/dirha/fbank/raw_fbank_tr05_cont.1.ark:16740359
40pc0204 /scratch/ravanelm/exp/dirha/fbank/raw_fbank_tr05_cont.4.ark:51486629
02eo030z /scratch/ravanelm/exp/dirha/fbank/raw_fbank_tr05_cont.3.ark:471839
01go031f /scratch/ravanelm/exp/dirha/fbank/raw_fbank_tr05_cont.1.ark:39603129
207o0101 /scratch/ravanelm/exp/dirha/fbank/raw_fbank_tr05_cont.3.ark:6594169
01jc020n /scratch/ravanelm/exp/dirha/fbank/raw_fbank_tr05_cont.1.ark:43658029
20ro010e /scratch/ravanelm/exp/dirha/fbank/raw_fbank_tr05_cont.3.ark:36185179
40no0319 /scratch/ravanelm/exp/dirha/fbank/raw_fbank_tr05_cont.4.ark:51211389
01dc020z /scratch/ravanelm/exp/dirha/fbank/raw_fbank_tr05_cont.1.ark:28317809
20bo0103 /scratch/ravanelm/exp/dirha/fbank/raw_fbank_tr05_cont.3.ark:13185319
204c010f /scratch/ravanelm/exp/dirha/fbank/raw_fbank_tr05_cont.3.ark:1340779
404o030m /scratch/ravanelm/exp/dirha/fbank/raw_fbank_tr05_cont.3.ark:47452649
40ko030s /scratch/ravanelm/exp/dirha/fbank/raw_fbank_tr05_cont.4.ark:40580479
40dc0205 /scratch/ravanelm/exp/dirha/fbank/raw_fbank_tr05_cont.4.ark:16579979
40lo0319 /scratch/ravanelm/exp/dirha/fbank/raw_fbank_tr05_cont.4.ark:44725199
01wo0302 /scratch/ravanelm/exp/dirha/fbank/raw_fbank_tr05_cont.2.ark:18039949
40mo0307 /scratch/ravanelm/exp/dirha/fbank/raw_fbank_tr05_cont.4.ark:46637139
028o030r /scratch/ravanelm/exp/dirha/fbank/raw_fbank_tr05_cont.2.ark:42066579
40io0313 /scratch/ravanelm/exp/dirha/fbank/raw_fbank_tr05_cont.4.ark:34775829
01pc020o /scratch/ravanelm/exp/dirha/fbank/raw_fbank_tr05_cont.2.ark:1050409
01pc020p /scratch/ravanelm/exp/dirha/fbank/raw_fbank_tr05_cont.2.ark:1082679
017o0308 /scratch/ravanelm/exp/dirha/fbank/raw_fbank_tr05_cont.1.ark:16297139
01uo030q /scratch/ravanelm/exp/dirha/fbank/raw_fbank_tr05_cont.2.ark:15646709
015c021h /scratch/ravanelm/exp/dirha/fbank/raw_fbank_tr05_cont.1.ark:10763719
20ic010b /scratch/ravanelm/exp/dirha/fbank/raw_fbank_tr05_cont.3.ark:23678639
01gc020b /scratch/ravanelm/exp/dirha/fbank/raw_fbank_tr05_cont.1.ark:36667509
013c0208 /scratch/ravanelm/exp/dirha/fbank/raw_fbank_tr05_cont.1.ark:3772889
021c020a /scratch/ravanelm/exp/dirha/fbank/raw_fbank_tr05_cont.2.ark:28295129
405c0211 /scratch/ravanelm/exp/dirha/fbank/raw_fbank_tr05_cont.3.ark:49078249
01bo0317 /scratch/ravanelm/exp/dirha/fbank/raw_fbank_tr05_cont.1.ark:27104779
403o030f /scratch/ravanelm/exp/dirha/fbank/raw_fbank_tr05_cont.3.ark:44569859
016o031c /scratch/ravanelm/exp/dirha/fbank/raw_fbank_tr05_cont.1.ark:14669289
01bc020p /scratch/ravanelm/exp/dirha/fbank/raw_fbank_tr05_cont.1.ark:24599179
40cc0207 /scratch/ravanelm/exp/dirha/fbank/raw_fbank_tr05_cont.4.ark:14123699
024o030p /scratch/ravanelm/exp/dirha/fbank/raw_fbank_tr05_cont.2.ark:33074099
016o030m /scratch/ravanelm/exp/dirha/fbank/raw_fbank_tr05_cont.1.ark:13998869
01ic020l /scratch/ravanelm/exp/dirha/fbank/raw_fbank_tr05_cont.1.ark:40317749
40go0315 /scratch/ravanelm/exp/dirha/fbank/raw_fbank_tr05_cont.4.ark:28771419
20vo010c /scratch/ravanelm/exp/dirha/fbank/raw_fbank_tr05_cont.3.ark:39067489
027o0311 /scratch/ravanelm/exp/dirha/fbank/raw_fbank_tr05_cont.2.ark:39439939
01dc020n /scratch/ravanelm/exp/dirha/fbank/raw_fbank_tr05_cont.1.ark:28019289
011c021a /scratch/ravanelm/exp/dirha/fbank/raw_fbank_tr05_cont.1.ark:1282639
40po030o /scratch/ravanelm/exp/dirha/fbank/raw_fbank_tr05_cont.4.ark:53405839
018c0205 /scratch/ravanelm/exp/dirha/fbank/raw_fbank_tr05_cont.1.ark:17759869
01po030i /scratch/ravanelm/exp/dirha/fbank/raw_fbank_tr05_cont.2.ark:2496759
01wo030s /scratch/ravanelm/exp/dirha/fbank/raw_fbank_tr05_cont.2.ark:18792059
20vo0104 /scratch/ravanelm/exp/dirha/fbank/raw_fbank_tr05_cont.3.ark:38808209
01fc020t /scratch/ravanelm/exp/dirha/fbank/raw_fbank_tr05_cont.1.ark:34141649
01gc020x /scratch/ravanelm/exp/dirha/fbank/raw_fbank_tr05_cont.1.ark:37285969
020c0216 /scratch/ravanelm/exp/dirha/fbank/raw_fbank_tr05_cont.2.ark:26908639
20vo010g /scratch/ravanelm/exp/dirha/fbank/raw_fbank_tr05_cont.3.ark:39178889
40cc020d /scratch/ravanelm/exp/dirha/fbank/raw_fbank_tr05_cont.4.ark:14269439
40dc0208 /scratch/ravanelm/exp/dirha/fbank/raw_fbank_tr05_cont.4.ark:16650469
027c020b /scratch/ravanelm/exp/dirha/fbank/raw_fbank_tr05_cont.2.ark:36924129
40gc020w /scratch/ravanelm/exp/dirha/fbank/raw_fbank_tr05_cont.4.ark:26201579
01kc0204 /scratch/ravanelm/exp/dirha/fbank/raw_fbank_tr05_cont.1.ark:46589539
40kc020a /scratch/ravanelm/exp/dirha/fbank/raw_fbank_tr05_cont.4.ark:38524859
40ic020d /scratch/ravanelm/exp/dirha/fbank/raw_fbank_tr05_cont.4.ark:32410319
01gc0203 /scratch/ravanelm/exp/dirha/fbank/raw_fbank_tr05_cont.1.ark:36450669
01dc020k /scratch/ravanelm/exp/dirha/fbank/raw_fbank_tr05_cont.1.ark:27922919
406c020u /scratch/ravanelm/exp/dirha/fbank/raw_fbank_tr05_cont.3.ark:51657389
20lo0104 /scratch/ravanelm/exp/dirha/fbank/raw_fbank_tr05_cont.3.ark:25950309
408c020s /scratch/ravanelm/exp/dirha/fbank/raw_fbank_tr05_cont.4.ark:3040209
01uo030e /scratch/ravanelm/exp/dirha/fbank/raw_fbank_tr05_cont.2.ark:15219509
40ho0308 /scratch/ravanelm/exp/dirha/fbank/raw_fbank_tr05_cont.4.ark:30630659
01rc021b /scratch/ravanelm/exp/dirha/fbank/raw_fbank_tr05_cont.2.ark:8028689
020c0206 /scratch/ravanelm/exp/dirha/fbank/raw_fbank_tr05_cont.2.ark:26202999
20bc0108 /scratch/ravanelm/exp/dirha/fbank/raw_fbank_tr05_cont.3.ark:12659629
013o031d /scratch/ravanelm/exp/dirha/fbank/raw_fbank_tr05_cont.1.ark:6434329
01uc020b /scratch/ravanelm/exp/dirha/fbank/raw_fbank_tr05_cont.2.ark:13483329
01wc020a /scratch/ravanelm/exp/dirha/fbank/raw_fbank_tr05_cont.2.ark:16883569
208c010g /scratch/ravanelm/exp/dirha/fbank/raw_fbank_tr05_cont.3.ark:8046479
401o030h /scratch/ravanelm/exp/dirha/fbank/raw_fbank_tr05_cont.3.ark:41622509
40cc0214 /scratch/ravanelm/exp/dirha/fbank/raw_fbank_tr05_cont.4.ark:14881209
01ec020w /scratch/ravanelm/exp/dirha/fbank/raw_fbank_tr05_cont.1.ark:31248879
40lc0202 /scratch/ravanelm/exp/dirha/fbank/raw_fbank_tr05_cont.4.ark:41340699
01zo030f /scratch/ravanelm/exp/dirha/fbank/raw_fbank_tr05_cont.2.ark:24585829
40ec021g /scratch/ravanelm/exp/dirha/fbank/raw_fbank_tr05_cont.4.ark:20575379
020c020l /scratch/ravanelm/exp/dirha/fbank/raw_fbank_tr05_cont.2.ark:26519849
01rc021d /scratch/ravanelm/exp/dirha/fbank/raw_fbank_tr05_cont.2.ark:8076029
40bc020v /scratch/ravanelm/exp/dirha/fbank/raw_fbank_tr05_cont.4.ark:11722599
01fc020f /scratch/ravanelm/exp/dirha/fbank/raw_fbank_tr05_cont.1.ark:33826149
02co0318 /scratch/ravanelm/exp/dirha/fbank/raw_fbank_tr05_cont.2.ark:51917749
401c0208 /scratch/ravanelm/exp/dirha/fbank/raw_fbank_tr05_cont.3.ark:39801429
026c020c /scratch/ravanelm/exp/dirha/fbank/raw_fbank_tr05_cont.2.ark:34145199
01lo0311 /scratch/ravanelm/exp/dirha/fbank/raw_fbank_tr05_cont.1.ark:53476209
406c020v /scratch/ravanelm/exp/dirha/fbank/raw_fbank_tr05_cont.3.ark:51677979
40go030p /scratch/ravanelm/exp/dirha/fbank/raw_fbank_tr05_cont.4.ark:27974179
205o010m /scratch/ravanelm/exp/dirha/fbank/raw_fbank_tr05_cont.3.ark:3977669
404o031d /scratch/ravanelm/exp/dirha/fbank/raw_fbank_tr05_cont.3.ark:48216419
40ic0206 /scratch/ravanelm/exp/dirha/fbank/raw_fbank_tr05_cont.4.ark:32182629
20to010d /scratch/ravanelm/exp/dirha/fbank/raw_fbank_tr05_cont.3.ark:37715859
40kc0207 /scratch/ravanelm/exp/dirha/fbank/raw_fbank_tr05_cont.4.ark:38412209
204c0107 /scratch/ravanelm/exp/dirha/fbank/raw_fbank_tr05_cont.3.ark:1179179
20ic010m /scratch/ravanelm/exp/dirha/fbank/raw_fbank_tr05_cont.3.ark:23949049
40po0319 /scratch/ravanelm/exp/dirha/fbank/raw_fbank_tr05_cont.4.ark:54077669
01ic021f /scratch/ravanelm/exp/dirha/fbank/raw_fbank_tr05_cont.1.ark:41066049
401c020i /scratch/ravanelm/exp/dirha/fbank/raw_fbank_tr05_cont.3.ark:40128689
028c020o /scratch/ravanelm/exp/dirha/fbank/raw_fbank_tr05_cont.2.ark:40306919
01io030u /scratch/ravanelm/exp/dirha/fbank/raw_fbank_tr05_cont.1.ark:42310509
409o030p /scratch/ravanelm/exp/dirha/fbank/raw_fbank_tr05_cont.4.ark:7052919
018c0212 /scratch/ravanelm/exp/dirha/fbank/raw_fbank_tr05_cont.1.ark:18710939
40ec021c /scratch/ravanelm/exp/dirha/fbank/raw_fbank_tr05_cont.4.ark:20449179
20lc010c /scratch/ravanelm/exp/dirha/fbank/raw_fbank_tr05_cont.3.ark:25316729
015o030h /scratch/ravanelm/exp/dirha/fbank/raw_fbank_tr05_cont.1.ark:11294979
40po0316 /scratch/ravanelm/exp/dirha/fbank/raw_fbank_tr05_cont.4.ark:53994859
01wo030p /scratch/ravanelm/exp/dirha/fbank/raw_fbank_tr05_cont.2.ark:18713489
20mo010p /scratch/ravanelm/exp/dirha/fbank/raw_fbank_tr05_cont.3.ark:28334469
02co031b /scratch/ravanelm/exp/dirha/fbank/raw_fbank_tr05_cont.2.ark:52059039
20dc0106 /scratch/ravanelm/exp/dirha/fbank/raw_fbank_tr05_cont.3.ark:15908039
20ec010a /scratch/ravanelm/exp/dirha/fbank/raw_fbank_tr05_cont.3.ark:17816999
01mo030u /scratch/ravanelm/exp/dirha/fbank/raw_fbank_tr05_cont.1.ark:56287359
40do030c /scratch/ravanelm/exp/dirha/fbank/raw_fbank_tr05_cont.4.ark:18244349
01ro030v /scratch/ravanelm/exp/dirha/fbank/raw_fbank_tr05_cont.2.ark:9084969
40gc020m /scratch/ravanelm/exp/dirha/fbank/raw_fbank_tr05_cont.4.ark:25924319
013c0212 /scratch/ravanelm/exp/dirha/fbank/raw_fbank_tr05_cont.1.ark:4639789
