015o0307 /scratch/ravanelm/exp/dirha/fbank/raw_fbank_tr05_cont.1.ark:10964879
40ic0211 /scratch/ravanelm/exp/dirha/fbank/raw_fbank_tr05_cont.4.ark:33125999
40hc0213 /scratch/ravanelm/exp/dirha/fbank/raw_fbank_tr05_cont.4.ark:30089659
40bo0315 /scratch/ravanelm/exp/dirha/fbank/raw_fbank_tr05_cont.4.ark:13718519
209c0109 /scratch/ravanelm/exp/dirha/fbank/raw_fbank_tr05_cont.3.ark:9490229
01do030g /scratch/ravanelm/exp/dirha/fbank/raw_fbank_tr05_cont.1.ark:29307049
01wc020g /scratch/ravanelm/exp/dirha/fbank/raw_fbank_tr05_cont.2.ark:17079069
016o0301 /scratch/ravanelm/exp/dirha/fbank/raw_fbank_tr05_cont.1.ark:13393419
40ao0311 /scratch/ravanelm/exp/dirha/fbank/raw_fbank_tr05_cont.4.ark:10448929
01eo030w /scratch/ravanelm/exp/dirha/fbank/raw_fbank_tr05_cont.1.ark:32743739
01go030x /scratch/ravanelm/exp/dirha/fbank/raw_fbank_tr05_cont.1.ark:38898349
019c0212 /scratch/ravanelm/exp/dirha/fbank/raw_fbank_tr05_cont.1.ark:21975939
01ro0311 /scratch/ravanelm/exp/dirha/fbank/raw_fbank_tr05_cont.2.ark:9288829
20ac0109 /scratch/ravanelm/exp/dirha/fbank/raw_fbank_tr05_cont.3.ark:10959919
20vc010o /scratch/ravanelm/exp/dirha/fbank/raw_fbank_tr05_cont.3.ark:38718139
01go0303 /scratch/ravanelm/exp/dirha/fbank/raw_fbank_tr05_cont.1.ark:37879209
024o030t /scratch/ravanelm/exp/dirha/fbank/raw_fbank_tr05_cont.2.ark:33138459
018o0312 /scratch/ravanelm/exp/dirha/fbank/raw_fbank_tr05_cont.1.ark:20636819
40kc021c /scratch/ravanelm/exp/dirha/fbank/raw_fbank_tr05_cont.4.ark:39560319
01go0308 /scratch/ravanelm/exp/dirha/fbank/raw_fbank_tr05_cont.1.ark:38071359
40lc0216 /scratch/ravanelm/exp/dirha/fbank/raw_fbank_tr05_cont.4.ark:42592459
01wc021d /scratch/ravanelm/exp/dirha/fbank/raw_fbank_tr05_cont.2.ark:17911429
209o010h /scratch/ravanelm/exp/dirha/fbank/raw_fbank_tr05_cont.3.ark:10422449
40ao030f /scratch/ravanelm/exp/dirha/fbank/raw_fbank_tr05_cont.4.ark:9748829
01gc0210 /scratch/ravanelm/exp/dirha/fbank/raw_fbank_tr05_cont.1.ark:37364499
01po030n /scratch/ravanelm/exp/dirha/fbank/raw_fbank_tr05_cont.2.ark:2678989
40kc0215 /scratch/ravanelm/exp/dirha/fbank/raw_fbank_tr05_cont.4.ark:39381709
01kc0211 /scratch/ravanelm/exp/dirha/fbank/raw_fbank_tr05_cont.1.ark:47620659
40ac0207 /scratch/ravanelm/exp/dirha/fbank/raw_fbank_tr05_cont.4.ark:8003449
40jo030a /scratch/ravanelm/exp/dirha/fbank/raw_fbank_tr05_cont.4.ark:36821929
02cc020x /scratch/ravanelm/exp/dirha/fbank/raw_fbank_tr05_cont.2.ark:50057469
01lc0217 /scratch/ravanelm/exp/dirha/fbank/raw_fbank_tr05_cont.1.ark:51600659
406o030l /scratch/ravanelm/exp/dirha/fbank/raw_fbank_tr05_cont.3.ark:52797769
40no030t /scratch/ravanelm/exp/dirha/fbank/raw_fbank_tr05_cont.4.ark:50620509
408c020f /scratch/ravanelm/exp/dirha/fbank/raw_fbank_tr05_cont.4.ark:2744139
01yo030h /scratch/ravanelm/exp/dirha/fbank/raw_fbank_tr05_cont.2.ark:21452319
404o030a /scratch/ravanelm/exp/dirha/fbank/raw_fbank_tr05_cont.3.ark:47105729
20po010q /scratch/ravanelm/exp/dirha/fbank/raw_fbank_tr05_cont.3.ark:33196939
40co030n /scratch/ravanelm/exp/dirha/fbank/raw_fbank_tr05_cont.4.ark:15740239
01zc020z /scratch/ravanelm/exp/dirha/fbank/raw_fbank_tr05_cont.2.ark:23570419
405o030j /scratch/ravanelm/exp/dirha/fbank/raw_fbank_tr05_cont.3.ark:50004359
403c0219 /scratch/ravanelm/exp/dirha/fbank/raw_fbank_tr05_cont.3.ark:43870229
408c020v /scratch/ravanelm/exp/dirha/fbank/raw_fbank_tr05_cont.4.ark:3118059
027o0314 /scratch/ravanelm/exp/dirha/fbank/raw_fbank_tr05_cont.2.ark:39529549
02eo0309 /scratch/ravanelm/exp/dirha/fbank/raw_fbank_tr05_cont.2.ark:54150499
403o0311 /scratch/ravanelm/exp/dirha/fbank/raw_fbank_tr05_cont.3.ark:45211159
407o030h /scratch/ravanelm/exp/dirha/fbank/raw_fbank_tr05_cont.4.ark:1257619
401c0213 /scratch/ravanelm/exp/dirha/fbank/raw_fbank_tr05_cont.3.ark:40695359
01yc020o /scratch/ravanelm/exp/dirha/fbank/raw_fbank_tr05_cont.2.ark:20181889
021o0309 /scratch/ravanelm/exp/dirha/fbank/raw_fbank_tr05_cont.2.ark:29608669
01wc0215 /scratch/ravanelm/exp/dirha/fbank/raw_fbank_tr05_cont.2.ark:17748739
01rc020c /scratch/ravanelm/exp/dirha/fbank/raw_fbank_tr05_cont.2.ark:7043079
20rc010c /scratch/ravanelm/exp/dirha/fbank/raw_fbank_tr05_cont.3.ark:35307949
205o0106 /scratch/ravanelm/exp/dirha/fbank/raw_fbank_tr05_cont.3.ark:3313909
20ho010n /scratch/ravanelm/exp/dirha/fbank/raw_fbank_tr05_cont.3.ark:23297209
206o010e /scratch/ravanelm/exp/dirha/fbank/raw_fbank_tr05_cont.3.ark:5296179
401o030p /scratch/ravanelm/exp/dirha/fbank/raw_fbank_tr05_cont.3.ark:41991549
011o030k /scratch/ravanelm/exp/dirha/fbank/raw_fbank_tr05_cont.1.ark:2193039
401o030f /scratch/ravanelm/exp/dirha/fbank/raw_fbank_tr05_cont.3.ark:41543169
40do030s /scratch/ravanelm/exp/dirha/fbank/raw_fbank_tr05_cont.4.ark:18791229
01yo030w /scratch/ravanelm/exp/dirha/fbank/raw_fbank_tr05_cont.2.ark:21996289
401o030r /scratch/ravanelm/exp/dirha/fbank/raw_fbank_tr05_cont.3.ark:42070289
014c020k /scratch/ravanelm/exp/dirha/fbank/raw_fbank_tr05_cont.1.ark:6980829
40io030f /scratch/ravanelm/exp/dirha/fbank/raw_fbank_tr05_cont.4.ark:33971229
026o030z /scratch/ravanelm/exp/dirha/fbank/raw_fbank_tr05_cont.2.ark:36177729
205c0107 /scratch/ravanelm/exp/dirha/fbank/raw_fbank_tr05_cont.3.ark:2592149
024o030f /scratch/ravanelm/exp/dirha/fbank/raw_fbank_tr05_cont.2.ark:32776239
409c021e /scratch/ravanelm/exp/dirha/fbank/raw_fbank_tr05_cont.4.ark:6249149
02eo030s /scratch/ravanelm/exp/dirha/fbank/raw_fbank_tr05_cont.3.ark:225829
408c020q /scratch/ravanelm/exp/dirha/fbank/raw_fbank_tr05_cont.4.ark:3011029
020o0310 /scratch/ravanelm/exp/dirha/fbank/raw_fbank_tr05_cont.2.ark:27674399
40ac021b /scratch/ravanelm/exp/dirha/fbank/raw_fbank_tr05_cont.4.ark:9217329
407c0209 /scratch/ravanelm/exp/dirha/fbank/raw_fbank_tr05_cont.3.ark:53946759
207o010r /scratch/ravanelm/exp/dirha/fbank/raw_fbank_tr05_cont.3.ark:7493029
40mc0203 /scratch/ravanelm/exp/dirha/fbank/raw_fbank_tr05_cont.4.ark:45085059
40kc021g /scratch/ravanelm/exp/dirha/fbank/raw_fbank_tr05_cont.4.ark:39670639
01fc0218 /scratch/ravanelm/exp/dirha/fbank/raw_fbank_tr05_cont.1.ark:34542139
01qo0302 /scratch/ravanelm/exp/dirha/fbank/raw_fbank_tr05_cont.2.ark:5078259
40lc0205 /scratch/ravanelm/exp/dirha/fbank/raw_fbank_tr05_cont.4.ark:41458549
20pc0103 /scratch/ravanelm/exp/dirha/fbank/raw_fbank_tr05_cont.3.ark:31845819
01fc020j /scratch/ravanelm/exp/dirha/fbank/raw_fbank_tr05_cont.1.ark:33920869
40jc0215 /scratch/ravanelm/exp/dirha/fbank/raw_fbank_tr05_cont.4.ark:36209359
40jo030v /scratch/ravanelm/exp/dirha/fbank/raw_fbank_tr05_cont.4.ark:37565039
016c020x /scratch/ravanelm/exp/dirha/fbank/raw_fbank_tr05_cont.1.ark:13051049
01kc020s /scratch/ravanelm/exp/dirha/fbank/raw_fbank_tr05_cont.1.ark:47325109
01tc0213 /scratch/ravanelm/exp/dirha/fbank/raw_fbank_tr05_cont.2.ark:10945439
20mc0109 /scratch/ravanelm/exp/dirha/fbank/raw_fbank_tr05_cont.3.ark:27211719
013c0214 /scratch/ravanelm/exp/dirha/fbank/raw_fbank_tr05_cont.1.ark:4690009
01ko031c /scratch/ravanelm/exp/dirha/fbank/raw_fbank_tr05_cont.1.ark:49992129
40eo030w /scratch/ravanelm/exp/dirha/fbank/raw_fbank_tr05_cont.4.ark:21547449
01ro030d /scratch/ravanelm/exp/dirha/fbank/raw_fbank_tr05_cont.2.ark:8474469
20ao010p /scratch/ravanelm/exp/dirha/fbank/raw_fbank_tr05_cont.3.ark:12394879
01bc020b /scratch/ravanelm/exp/dirha/fbank/raw_fbank_tr05_cont.1.ark:24167709
40jc0210 /scratch/ravanelm/exp/dirha/fbank/raw_fbank_tr05_cont.4.ark:36059969
404c0207 /scratch/ravanelm/exp/dirha/fbank/raw_fbank_tr05_cont.3.ark:45710349
028o030z /scratch/ravanelm/exp/dirha/fbank/raw_fbank_tr05_cont.2.ark:42317899
024o031c /scratch/ravanelm/exp/dirha/fbank/raw_fbank_tr05_cont.2.ark:33718029
40eo030c /scratch/ravanelm/exp/dirha/fbank/raw_fbank_tr05_cont.4.ark:20993569
40cc020g /scratch/ravanelm/exp/dirha/fbank/raw_fbank_tr05_cont.4.ark:14342129
401o030v /scratch/ravanelm/exp/dirha/fbank/raw_fbank_tr05_cont.3.ark:42183369
019c0203 /scratch/ravanelm/exp/dirha/fbank/raw_fbank_tr05_cont.1.ark:21130249
019o030a /scratch/ravanelm/exp/dirha/fbank/raw_fbank_tr05_cont.1.ark:22700649
20dc010i /scratch/ravanelm/exp/dirha/fbank/raw_fbank_tr05_cont.3.ark:16240399
40po0306 /scratch/ravanelm/exp/dirha/fbank/raw_fbank_tr05_cont.4.ark:52728059
20oc010n /scratch/ravanelm/exp/dirha/fbank/raw_fbank_tr05_cont.3.ark:30863769
409o0311 /scratch/ravanelm/exp/dirha/fbank/raw_fbank_tr05_cont.4.ark:7367039
20oo0101 /scratch/ravanelm/exp/dirha/fbank/raw_fbank_tr05_cont.3.ark:30909829
408o030f /scratch/ravanelm/exp/dirha/fbank/raw_fbank_tr05_cont.4.ark:3981979
019o0303 /scratch/ravanelm/exp/dirha/fbank/raw_fbank_tr05_cont.1.ark:22461959
02co030l /scratch/ravanelm/exp/dirha/fbank/raw_fbank_tr05_cont.2.ark:51153339
20ic010a /scratch/ravanelm/exp/dirha/fbank/raw_fbank_tr05_cont.3.ark:23647009
40kc020o /scratch/ravanelm/exp/dirha/fbank/raw_fbank_tr05_cont.4.ark:38927319
01zo0305 /scratch/ravanelm/exp/dirha/fbank/raw_fbank_tr05_cont.2.ark:24246609
02cc020r /scratch/ravanelm/exp/dirha/fbank/raw_fbank_tr05_cont.2.ark:49905729
40eo0317 /scratch/ravanelm/exp/dirha/fbank/raw_fbank_tr05_cont.4.ark:21896259
20lc010p /scratch/ravanelm/exp/dirha/fbank/raw_fbank_tr05_cont.3.ark:25752799
40hc021c /scratch/ravanelm/exp/dirha/fbank/raw_fbank_tr05_cont.4.ark:30319009
01qc0215 /scratch/ravanelm/exp/dirha/fbank/raw_fbank_tr05_cont.2.ark:4742569
40no030j /scratch/ravanelm/exp/dirha/fbank/raw_fbank_tr05_cont.4.ark:50280369
40no0302 /scratch/ravanelm/exp/dirha/fbank/raw_fbank_tr05_cont.4.ark:49598539
016o031e /scratch/ravanelm/exp/dirha/fbank/raw_fbank_tr05_cont.1.ark:14716069
403c020f /scratch/ravanelm/exp/dirha/fbank/raw_fbank_tr05_cont.3.ark:43143849
209o0102 /scratch/ravanelm/exp/dirha/fbank/raw_fbank_tr05_cont.3.ark:9946239
01qo031d /scratch/ravanelm/exp/dirha/fbank/raw_fbank_tr05_cont.2.ark:6571549
40ic020s /scratch/ravanelm/exp/dirha/fbank/raw_fbank_tr05_cont.4.ark:32884009
20qc0109 /scratch/ravanelm/exp/dirha/fbank/raw_fbank_tr05_cont.3.ark:33529049
40bc021d /scratch/ravanelm/exp/dirha/fbank/raw_fbank_tr05_cont.4.ark:12233979
40pc0207 /scratch/ravanelm/exp/dirha/fbank/raw_fbank_tr05_cont.4.ark:51563839
20oo010g /scratch/ravanelm/exp/dirha/fbank/raw_fbank_tr05_cont.3.ark:31368359
01jo031b /scratch/ravanelm/exp/dirha/fbank/raw_fbank_tr05_cont.1.ark:46393549
40ho0304 /scratch/ravanelm/exp/dirha/fbank/raw_fbank_tr05_cont.4.ark:30506939
01lc020z /scratch/ravanelm/exp/dirha/fbank/raw_fbank_tr05_cont.1.ark:51323059
408c021d /scratch/ravanelm/exp/dirha/fbank/raw_fbank_tr05_cont.4.ark:3502929
40dc020a /scratch/ravanelm/exp/dirha/fbank/raw_fbank_tr05_cont.4.ark:16710209
20gc010a /scratch/ravanelm/exp/dirha/fbank/raw_fbank_tr05_cont.3.ark:20943309
01pc0213 /scratch/ravanelm/exp/dirha/fbank/raw_fbank_tr05_cont.2.ark:1495859
01do030c /scratch/ravanelm/exp/dirha/fbank/raw_fbank_tr05_cont.1.ark:29179969
01mc020a /scratch/ravanelm/exp/dirha/fbank/raw_fbank_tr05_cont.1.ark:54290349
404c020g /scratch/ravanelm/exp/dirha/fbank/raw_fbank_tr05_cont.3.ark:45921459
409o030x /scratch/ravanelm/exp/dirha/fbank/raw_fbank_tr05_cont.4.ark:7265679
01yo0304 /scratch/ravanelm/exp/dirha/fbank/raw_fbank_tr05_cont.2.ark:21043969
409o030m /scratch/ravanelm/exp/dirha/fbank/raw_fbank_tr05_cont.4.ark:6944469
40mc021a /scratch/ravanelm/exp/dirha/fbank/raw_fbank_tr05_cont.4.ark:46200989
407o0302 /scratch/ravanelm/exp/dirha/fbank/raw_fbank_tr05_cont.4.ark:674049
024o0308 /scratch/ravanelm/exp/dirha/fbank/raw_fbank_tr05_cont.2.ark:32566469
20tc010l /scratch/ravanelm/exp/dirha/fbank/raw_fbank_tr05_cont.3.ark:37260679
40mo0316 /scratch/ravanelm/exp/dirha/fbank/raw_fbank_tr05_cont.4.ark:47810669
20gc010c /scratch/ravanelm/exp/dirha/fbank/raw_fbank_tr05_cont.3.ark:20997049
40bo0314 /scratch/ravanelm/exp/dirha/fbank/raw_fbank_tr05_cont.4.ark:13684449
02ec020w /scratch/ravanelm/exp/dirha/fbank/raw_fbank_tr05_cont.2.ark:53209849
01io030s /scratch/ravanelm/exp/dirha/fbank/raw_fbank_tr05_cont.1.ark:42201569
40ec0219 /scratch/ravanelm/exp/dirha/fbank/raw_fbank_tr05_cont.4.ark:20397409
01do030a /scratch/ravanelm/exp/dirha/fbank/raw_fbank_tr05_cont.1.ark:29123869
014c020l /scratch/ravanelm/exp/dirha/fbank/raw_fbank_tr05_cont.1.ark:6995219
029o030y /scratch/ravanelm/exp/dirha/fbank/raw_fbank_tr05_cont.2.ark:45435979
021c020m /scratch/ravanelm/exp/dirha/fbank/raw_fbank_tr05_cont.2.ark:28647689
40hc020y /scratch/ravanelm/exp/dirha/fbank/raw_fbank_tr05_cont.4.ark:29949629
20lc010a /scratch/ravanelm/exp/dirha/fbank/raw_fbank_tr05_cont.3.ark:25259149
01lo031f /scratch/ravanelm/exp/dirha/fbank/raw_fbank_tr05_cont.1.ark:54070989
40ko030f /scratch/ravanelm/exp/dirha/fbank/raw_fbank_tr05_cont.4.ark:40096289
021o0310 /scratch/ravanelm/exp/dirha/fbank/raw_fbank_tr05_cont.2.ark:30457679
01uc0218 /scratch/ravanelm/exp/dirha/fbank/raw_fbank_tr05_cont.2.ark:14520079
20ic010k /scratch/ravanelm/exp/dirha/fbank/raw_fbank_tr05_cont.3.ark:23886909
02ec020x /scratch/ravanelm/exp/dirha/fbank/raw_fbank_tr05_cont.2.ark:53245079
018c020y /scratch/ravanelm/exp/dirha/fbank/raw_fbank_tr05_cont.1.ark:18573659
40ho0317 /scratch/ravanelm/exp/dirha/fbank/raw_fbank_tr05_cont.4.ark:31786629
20mo0107 /scratch/ravanelm/exp/dirha/fbank/raw_fbank_tr05_cont.3.ark:27864089
021o030e /scratch/ravanelm/exp/dirha/fbank/raw_fbank_tr05_cont.2.ark:29738939
01ro031b /scratch/ravanelm/exp/dirha/fbank/raw_fbank_tr05_cont.2.ark:9533009
02bo030r /scratch/ravanelm/exp/dirha/fbank/raw_fbank_tr05_cont.2.ark:48387629
019c020h /scratch/ravanelm/exp/dirha/fbank/raw_fbank_tr05_cont.1.ark:21499509
01dc020r /scratch/ravanelm/exp/dirha/fbank/raw_fbank_tr05_cont.1.ark:28100369
01eo030b /scratch/ravanelm/exp/dirha/fbank/raw_fbank_tr05_cont.1.ark:32120709
01fo030s /scratch/ravanelm/exp/dirha/fbank/raw_fbank_tr05_cont.1.ark:35727019
028o0311 /scratch/ravanelm/exp/dirha/fbank/raw_fbank_tr05_cont.2.ark:42373599
40ko0309 /scratch/ravanelm/exp/dirha/fbank/raw_fbank_tr05_cont.4.ark:39897749
02bc0206 /scratch/ravanelm/exp/dirha/fbank/raw_fbank_tr05_cont.2.ark:46164789
40hc0219 /scratch/ravanelm/exp/dirha/fbank/raw_fbank_tr05_cont.4.ark:30256039
20ac010b /scratch/ravanelm/exp/dirha/fbank/raw_fbank_tr05_cont.3.ark:11018219
02cc020n /scratch/ravanelm/exp/dirha/fbank/raw_fbank_tr05_cont.2.ark:49779889
01qc020j /scratch/ravanelm/exp/dirha/fbank/raw_fbank_tr05_cont.2.ark:4286429
406o030q /scratch/ravanelm/exp/dirha/fbank/raw_fbank_tr05_cont.3.ark:52963759
40fo030i /scratch/ravanelm/exp/dirha/fbank/raw_fbank_tr05_cont.4.ark:24026599
40lc020q /scratch/ravanelm/exp/dirha/fbank/raw_fbank_tr05_cont.4.ark:42069739
40no030d /scratch/ravanelm/exp/dirha/fbank/raw_fbank_tr05_cont.4.ark:50061549
018c021a /scratch/ravanelm/exp/dirha/fbank/raw_fbank_tr05_cont.1.ark:18953539
40nc0219 /scratch/ravanelm/exp/dirha/fbank/raw_fbank_tr05_cont.4.ark:49390989
01uo0301 /scratch/ravanelm/exp/dirha/fbank/raw_fbank_tr05_cont.2.ark:14742879
40fc020y /scratch/ravanelm/exp/dirha/fbank/raw_fbank_tr05_cont.4.ark:22959599
401o030u /scratch/ravanelm/exp/dirha/fbank/raw_fbank_tr05_cont.3.ark:42162819
027c0206 /scratch/ravanelm/exp/dirha/fbank/raw_fbank_tr05_cont.2.ark:36796139
401c020z /scratch/ravanelm/exp/dirha/fbank/raw_fbank_tr05_cont.3.ark:40575679
01zc020k /scratch/ravanelm/exp/dirha/fbank/raw_fbank_tr05_cont.2.ark:23151369
01fc020w /scratch/ravanelm/exp/dirha/fbank/raw_fbank_tr05_cont.1.ark:34230779
015c021g /scratch/ravanelm/exp/dirha/fbank/raw_fbank_tr05_cont.1.ark:10726729
206c010m /scratch/ravanelm/exp/dirha/fbank/raw_fbank_tr05_cont.3.ark:4757679
40ao030x /scratch/ravanelm/exp/dirha/fbank/raw_fbank_tr05_cont.4.ark:10332729
20dc010g /scratch/ravanelm/exp/dirha/fbank/raw_fbank_tr05_cont.3.ark:16193779
40ic020y /scratch/ravanelm/exp/dirha/fbank/raw_fbank_tr05_cont.4.ark:33024509
204o010l /scratch/ravanelm/exp/dirha/fbank/raw_fbank_tr05_cont.3.ark:2202189
20qc010d /scratch/ravanelm/exp/dirha/fbank/raw_fbank_tr05_cont.3.ark:33646689
02bc0213 /scratch/ravanelm/exp/dirha/fbank/raw_fbank_tr05_cont.2.ark:47048339
20lc010o /scratch/ravanelm/exp/dirha/fbank/raw_fbank_tr05_cont.3.ark:25716049
407c021b /scratch/ravanelm/exp/dirha/fbank/raw_fbank_tr05_cont.4.ark:430459
405o0302 /scratch/ravanelm/exp/dirha/fbank/raw_fbank_tr05_cont.3.ark:49518489
01bo0302 /scratch/ravanelm/exp/dirha/fbank/raw_fbank_tr05_cont.1.ark:25471569
40bc020r /scratch/ravanelm/exp/dirha/fbank/raw_fbank_tr05_cont.4.ark:11608719
20ac0102 /scratch/ravanelm/exp/dirha/fbank/raw_fbank_tr05_cont.3.ark:10731549
029c020n /scratch/ravanelm/exp/dirha/fbank/raw_fbank_tr05_cont.2.ark:43475489
20eo0107 /scratch/ravanelm/exp/dirha/fbank/raw_fbank_tr05_cont.3.ark:18505869
021c020e /scratch/ravanelm/exp/dirha/fbank/raw_fbank_tr05_cont.2.ark:28405889
01gc020l /scratch/ravanelm/exp/dirha/fbank/raw_fbank_tr05_cont.1.ark:36991049
01qo031c /scratch/ravanelm/exp/dirha/fbank/raw_fbank_tr05_cont.2.ark:6551199
408c0215 /scratch/ravanelm/exp/dirha/fbank/raw_fbank_tr05_cont.4.ark:3299049
40bo030x /scratch/ravanelm/exp/dirha/fbank/raw_fbank_tr05_cont.4.ark:13507059
01kc0202 /scratch/ravanelm/exp/dirha/fbank/raw_fbank_tr05_cont.1.ark:46525479
40bo030a /scratch/ravanelm/exp/dirha/fbank/raw_fbank_tr05_cont.4.ark:12688369
01uc020x /scratch/ravanelm/exp/dirha/fbank/raw_fbank_tr05_cont.2.ark:14123789
40pc020z /scratch/ravanelm/exp/dirha/fbank/raw_fbank_tr05_cont.4.ark:52200159
207o010j /scratch/ravanelm/exp/dirha/fbank/raw_fbank_tr05_cont.3.ark:7256229
02co030w /scratch/ravanelm/exp/dirha/fbank/raw_fbank_tr05_cont.2.ark:51505669
01kc020n /scratch/ravanelm/exp/dirha/fbank/raw_fbank_tr05_cont.1.ark:47179159
014o030k /scratch/ravanelm/exp/dirha/fbank/raw_fbank_tr05_cont.1.ark:8378899
40mo030u /scratch/ravanelm/exp/dirha/fbank/raw_fbank_tr05_cont.4.ark:47439669
405c020j /scratch/ravanelm/exp/dirha/fbank/raw_fbank_tr05_cont.3.ark:48722709
40co0316 /scratch/ravanelm/exp/dirha/fbank/raw_fbank_tr05_cont.4.ark:16170289
404c021e /scratch/ravanelm/exp/dirha/fbank/raw_fbank_tr05_cont.3.ark:46754999
01wo030h /scratch/ravanelm/exp/dirha/fbank/raw_fbank_tr05_cont.2.ark:18498959
406c0215 /scratch/ravanelm/exp/dirha/fbank/raw_fbank_tr05_cont.3.ark:51953399
40eo0303 /scratch/ravanelm/exp/dirha/fbank/raw_fbank_tr05_cont.4.ark:20710979
02co0301 /scratch/ravanelm/exp/dirha/fbank/raw_fbank_tr05_cont.2.ark:50541459
204c010k /scratch/ravanelm/exp/dirha/fbank/raw_fbank_tr05_cont.3.ark:1459729
40no030m /scratch/ravanelm/exp/dirha/fbank/raw_fbank_tr05_cont.4.ark:50389899
028o0314 /scratch/ravanelm/exp/dirha/fbank/raw_fbank_tr05_cont.2.ark:42520809
01io030c /scratch/ravanelm/exp/dirha/fbank/raw_fbank_tr05_cont.1.ark:41629249
40pc020s /scratch/ravanelm/exp/dirha/fbank/raw_fbank_tr05_cont.4.ark:51996949
021o030g /scratch/ravanelm/exp/dirha/fbank/raw_fbank_tr05_cont.2.ark:29815199
01mc0209 /scratch/ravanelm/exp/dirha/fbank/raw_fbank_tr05_cont.1.ark:54264159
026c020n /scratch/ravanelm/exp/dirha/fbank/raw_fbank_tr05_cont.2.ark:34419689
40mo030r /scratch/ravanelm/exp/dirha/fbank/raw_fbank_tr05_cont.4.ark:47342379
40jc020f /scratch/ravanelm/exp/dirha/fbank/raw_fbank_tr05_cont.4.ark:35481299
205o0107 /scratch/ravanelm/exp/dirha/fbank/raw_fbank_tr05_cont.3.ark:3343859
40lo031e /scratch/ravanelm/exp/dirha/fbank/raw_fbank_tr05_cont.4.ark:44903149
029c020l /scratch/ravanelm/exp/dirha/fbank/raw_fbank_tr05_cont.2.ark:43432509
01mc020t /scratch/ravanelm/exp/dirha/fbank/raw_fbank_tr05_cont.1.ark:54767519
40fc020k /scratch/ravanelm/exp/dirha/fbank/raw_fbank_tr05_cont.4.ark:22519739
01po0307 /scratch/ravanelm/exp/dirha/fbank/raw_fbank_tr05_cont.2.ark:2148659
028c0209 /scratch/ravanelm/exp/dirha/fbank/raw_fbank_tr05_cont.2.ark:39935709
027o030k /scratch/ravanelm/exp/dirha/fbank/raw_fbank_tr05_cont.2.ark:38808629
016c0217 /scratch/ravanelm/exp/dirha/fbank/raw_fbank_tr05_cont.1.ark:13236529
20do010a /scratch/ravanelm/exp/dirha/fbank/raw_fbank_tr05_cont.3.ark:16857229
405c020w /scratch/ravanelm/exp/dirha/fbank/raw_fbank_tr05_cont.3.ark:48993179
021c020f /scratch/ravanelm/exp/dirha/fbank/raw_fbank_tr05_cont.2.ark:28437599
01qo030i /scratch/ravanelm/exp/dirha/fbank/raw_fbank_tr05_cont.2.ark:5648139
01wo030r /scratch/ravanelm/exp/dirha/fbank/raw_fbank_tr05_cont.2.ark:18759509
01yc020q /scratch/ravanelm/exp/dirha/fbank/raw_fbank_tr05_cont.2.ark:20231269
02ec020u /scratch/ravanelm/exp/dirha/fbank/raw_fbank_tr05_cont.2.ark:53156309
40cc021e /scratch/ravanelm/exp/dirha/fbank/raw_fbank_tr05_cont.4.ark:15106709
405c020h /scratch/ravanelm/exp/dirha/fbank/raw_fbank_tr05_cont.3.ark:48663569
020c0203 /scratch/ravanelm/exp/dirha/fbank/raw_fbank_tr05_cont.2.ark:26157989
404o030w /scratch/ravanelm/exp/dirha/fbank/raw_fbank_tr05_cont.3.ark:47769429
01uo030d /scratch/ravanelm/exp/dirha/fbank/raw_fbank_tr05_cont.2.ark:15198959
011o0309 /scratch/ravanelm/exp/dirha/fbank/raw_fbank_tr05_cont.1.ark:1760069
40ko030y /scratch/ravanelm/exp/dirha/fbank/raw_fbank_tr05_cont.4.ark:40777019
40nc020e /scratch/ravanelm/exp/dirha/fbank/raw_fbank_tr05_cont.4.ark:48428659
407c020p /scratch/ravanelm/exp/dirha/fbank/raw_fbank_tr05_cont.3.ark:54421479
20go0104 /scratch/ravanelm/exp/dirha/fbank/raw_fbank_tr05_cont.3.ark:21402699
02co030u /scratch/ravanelm/exp/dirha/fbank/raw_fbank_tr05_cont.2.ark:51449529
40cc020c /scratch/ravanelm/exp/dirha/fbank/raw_fbank_tr05_cont.4.ark:14236089
40do030t /scratch/ravanelm/exp/dirha/fbank/raw_fbank_tr05_cont.4.ark:18811139
409c020j /scratch/ravanelm/exp/dirha/fbank/raw_fbank_tr05_cont.4.ark:5379939
013o031e /scratch/ravanelm/exp/dirha/fbank/raw_fbank_tr05_cont.1.ark:6470639
026o030o /scratch/ravanelm/exp/dirha/fbank/raw_fbank_tr05_cont.2.ark:35847719
40ho030f /scratch/ravanelm/exp/dirha/fbank/raw_fbank_tr05_cont.4.ark:30847909
01wo0312 /scratch/ravanelm/exp/dirha/fbank/raw_fbank_tr05_cont.2.ark:19125879
01uo030g /scratch/ravanelm/exp/dirha/fbank/raw_fbank_tr05_cont.2.ark:15278889
01wc0206 /scratch/ravanelm/exp/dirha/fbank/raw_fbank_tr05_cont.2.ark:16763809
01go030h /scratch/ravanelm/exp/dirha/fbank/raw_fbank_tr05_cont.1.ark:38366869
029c0216 /scratch/ravanelm/exp/dirha/fbank/raw_fbank_tr05_cont.2.ark:44005139
026c0204 /scratch/ravanelm/exp/dirha/fbank/raw_fbank_tr05_cont.2.ark:33986239
40bo030i /scratch/ravanelm/exp/dirha/fbank/raw_fbank_tr05_cont.4.ark:12966489
02cc020q /scratch/ravanelm/exp/dirha/fbank/raw_fbank_tr05_cont.2.ark:49864499
208o010c /scratch/ravanelm/exp/dirha/fbank/raw_fbank_tr05_cont.3.ark:8747189
40ko0314 /scratch/ravanelm/exp/dirha/fbank/raw_fbank_tr05_cont.4.ark:41019799
20co010j /scratch/ravanelm/exp/dirha/fbank/raw_fbank_tr05_cont.3.ark:15526369
01yo0308 /scratch/ravanelm/exp/dirha/fbank/raw_fbank_tr05_cont.2.ark:21154249
016c020t /scratch/ravanelm/exp/dirha/fbank/raw_fbank_tr05_cont.1.ark:12968689
024o030l /scratch/ravanelm/exp/dirha/fbank/raw_fbank_tr05_cont.2.ark:32965299
01lo031a /scratch/ravanelm/exp/dirha/fbank/raw_fbank_tr05_cont.1.ark:53885519
207c010a /scratch/ravanelm/exp/dirha/fbank/raw_fbank_tr05_cont.3.ark:6167219
40mo030w /scratch/ravanelm/exp/dirha/fbank/raw_fbank_tr05_cont.4.ark:47494049
024c020c /scratch/ravanelm/exp/dirha/fbank/raw_fbank_tr05_cont.2.ark:31224809
20dc010b /scratch/ravanelm/exp/dirha/fbank/raw_fbank_tr05_cont.3.ark:16029389
024o030e /scratch/ravanelm/exp/dirha/fbank/raw_fbank_tr05_cont.2.ark:32749569
024c0216 /scratch/ravanelm/exp/dirha/fbank/raw_fbank_tr05_cont.2.ark:32070789
02bc020a /scratch/ravanelm/exp/dirha/fbank/raw_fbank_tr05_cont.2.ark:46253949
01eo0315 /scratch/ravanelm/exp/dirha/fbank/raw_fbank_tr05_cont.1.ark:33048969
01ro0318 /scratch/ravanelm/exp/dirha/fbank/raw_fbank_tr05_cont.2.ark:9473719
40dc020b /scratch/ravanelm/exp/dirha/fbank/raw_fbank_tr05_cont.4.ark:16728839
404o0310 /scratch/ravanelm/exp/dirha/fbank/raw_fbank_tr05_cont.3.ark:47854909
40ec020o /scratch/ravanelm/exp/dirha/fbank/raw_fbank_tr05_cont.4.ark:19927819
20fo010g /scratch/ravanelm/exp/dirha/fbank/raw_fbank_tr05_cont.3.ark:20439779
407o0310 /scratch/ravanelm/exp/dirha/fbank/raw_fbank_tr05_cont.4.ark:2038869
403o0316 /scratch/ravanelm/exp/dirha/fbank/raw_fbank_tr05_cont.3.ark:45385229
01tc0209 /scratch/ravanelm/exp/dirha/fbank/raw_fbank_tr05_cont.2.ark:9895619
013o030u /scratch/ravanelm/exp/dirha/fbank/raw_fbank_tr05_cont.1.ark:5858439
40go0310 /scratch/ravanelm/exp/dirha/fbank/raw_fbank_tr05_cont.4.ark:28508549
029c0217 /scratch/ravanelm/exp/dirha/fbank/raw_fbank_tr05_cont.2.ark:44027809
024o030h /scratch/ravanelm/exp/dirha/fbank/raw_fbank_tr05_cont.2.ark:32839219
40no030l /scratch/ravanelm/exp/dirha/fbank/raw_fbank_tr05_cont.4.ark:50345509
01to030s /scratch/ravanelm/exp/dirha/fbank/raw_fbank_tr05_cont.2.ark:12255199
01go0316 /scratch/ravanelm/exp/dirha/fbank/raw_fbank_tr05_cont.1.ark:39238779
205c0106 /scratch/ravanelm/exp/dirha/fbank/raw_fbank_tr05_cont.3.ark:2553479
40ho0314 /scratch/ravanelm/exp/dirha/fbank/raw_fbank_tr05_cont.4.ark:31717099
020c020u /scratch/ravanelm/exp/dirha/fbank/raw_fbank_tr05_cont.2.ark:26693199
20io010m /scratch/ravanelm/exp/dirha/fbank/raw_fbank_tr05_cont.3.ark:24796249
01dc0209 /scratch/ravanelm/exp/dirha/fbank/raw_fbank_tr05_cont.1.ark:27598389
404o030d /scratch/ravanelm/exp/dirha/fbank/raw_fbank_tr05_cont.3.ark:47171139
02eo031b /scratch/ravanelm/exp/dirha/fbank/raw_fbank_tr05_cont.3.ark:848059
01jc020v /scratch/ravanelm/exp/dirha/fbank/raw_fbank_tr05_cont.1.ark:43877349
20no0104 /scratch/ravanelm/exp/dirha/fbank/raw_fbank_tr05_cont.3.ark:29358069
01go030l /scratch/ravanelm/exp/dirha/fbank/raw_fbank_tr05_cont.1.ark:38511869
013c020e /scratch/ravanelm/exp/dirha/fbank/raw_fbank_tr05_cont.1.ark:3942989
406c020j /scratch/ravanelm/exp/dirha/fbank/raw_fbank_tr05_cont.3.ark:51444169
40ac020w /scratch/ravanelm/exp/dirha/fbank/raw_fbank_tr05_cont.4.ark:8811999
20lo010g /scratch/ravanelm/exp/dirha/fbank/raw_fbank_tr05_cont.3.ark:26546109
408o030u /scratch/ravanelm/exp/dirha/fbank/raw_fbank_tr05_cont.4.ark:4421189
40mc020p /scratch/ravanelm/exp/dirha/fbank/raw_fbank_tr05_cont.4.ark:45653039
02cc021e /scratch/ravanelm/exp/dirha/fbank/raw_fbank_tr05_cont.2.ark:50480439
02bc020h /scratch/ravanelm/exp/dirha/fbank/raw_fbank_tr05_cont.2.ark:46489159
40io031c /scratch/ravanelm/exp/dirha/fbank/raw_fbank_tr05_cont.4.ark:35081139
20to010o /scratch/ravanelm/exp/dirha/fbank/raw_fbank_tr05_cont.3.ark:38040589
20lc0109 /scratch/ravanelm/exp/dirha/fbank/raw_fbank_tr05_cont.3.ark:25235919
20dc0107 /scratch/ravanelm/exp/dirha/fbank/raw_fbank_tr05_cont.3.ark:15922709
017o030y /scratch/ravanelm/exp/dirha/fbank/raw_fbank_tr05_cont.1.ark:17089879
40lc020h /scratch/ravanelm/exp/dirha/fbank/raw_fbank_tr05_cont.4.ark:41829069
028c0211 /scratch/ravanelm/exp/dirha/fbank/raw_fbank_tr05_cont.2.ark:40646269
20no010q /scratch/ravanelm/exp/dirha/fbank/raw_fbank_tr05_cont.3.ark:30267289
20rc0106 /scratch/ravanelm/exp/dirha/fbank/raw_fbank_tr05_cont.3.ark:35180969
40po0315 /scratch/ravanelm/exp/dirha/fbank/raw_fbank_tr05_cont.4.ark:53969229
20io010l /scratch/ravanelm/exp/dirha/fbank/raw_fbank_tr05_cont.3.ark:24766299
019c020u /scratch/ravanelm/exp/dirha/fbank/raw_fbank_tr05_cont.1.ark:21774499
01yo0303 /scratch/ravanelm/exp/dirha/fbank/raw_fbank_tr05_cont.2.ark:21014739
011o0319 /scratch/ravanelm/exp/dirha/fbank/raw_fbank_tr05_cont.1.ark:3193269
205o010p /scratch/ravanelm/exp/dirha/fbank/raw_fbank_tr05_cont.3.ark:4074959
40bo0309 /scratch/ravanelm/exp/dirha/fbank/raw_fbank_tr05_cont.4.ark:12658979
40kc020f /scratch/ravanelm/exp/dirha/fbank/raw_fbank_tr05_cont.4.ark:38669009
406c020o /scratch/ravanelm/exp/dirha/fbank/raw_fbank_tr05_cont.3.ark:51525609
013o030h /scratch/ravanelm/exp/dirha/fbank/raw_fbank_tr05_cont.1.ark:5440369
01ro030x /scratch/ravanelm/exp/dirha/fbank/raw_fbank_tr05_cont.2.ark:9151389
024c020h /scratch/ravanelm/exp/dirha/fbank/raw_fbank_tr05_cont.2.ark:31398479
01gc020d /scratch/ravanelm/exp/dirha/fbank/raw_fbank_tr05_cont.1.ark:36731489
20ro010g /scratch/ravanelm/exp/dirha/fbank/raw_fbank_tr05_cont.3.ark:36255319
40kc020u /scratch/ravanelm/exp/dirha/fbank/raw_fbank_tr05_cont.4.ark:39079459
40jc020a /scratch/ravanelm/exp/dirha/fbank/raw_fbank_tr05_cont.4.ark:35354989
028o030j /scratch/ravanelm/exp/dirha/fbank/raw_fbank_tr05_cont.2.ark:41787859
01gc020w /scratch/ravanelm/exp/dirha/fbank/raw_fbank_tr05_cont.1.ark:37256859
01yo030u /scratch/ravanelm/exp/dirha/fbank/raw_fbank_tr05_cont.2.ark:21923029
02bo031d /scratch/ravanelm/exp/dirha/fbank/raw_fbank_tr05_cont.2.ark:49141929
014c0208 /scratch/ravanelm/exp/dirha/fbank/raw_fbank_tr05_cont.1.ark:6716669
029o0307 /scratch/ravanelm/exp/dirha/fbank/raw_fbank_tr05_cont.2.ark:44507209
011o030t /scratch/ravanelm/exp/dirha/fbank/raw_fbank_tr05_cont.1.ark:2472989
014c020q /scratch/ravanelm/exp/dirha/fbank/raw_fbank_tr05_cont.1.ark:7099129
01qc020c /scratch/ravanelm/exp/dirha/fbank/raw_fbank_tr05_cont.2.ark:4009979
40do030e /scratch/ravanelm/exp/dirha/fbank/raw_fbank_tr05_cont.4.ark:18316809
40go0318 /scratch/ravanelm/exp/dirha/fbank/raw_fbank_tr05_cont.4.ark:28899669
403c0218 /scratch/ravanelm/exp/dirha/fbank/raw_fbank_tr05_cont.3.ark:43848399
019o0318 /scratch/ravanelm/exp/dirha/fbank/raw_fbank_tr05_cont.1.ark:23752509
02eo0316 /scratch/ravanelm/exp/dirha/fbank/raw_fbank_tr05_cont.3.ark:681779
20no010r /scratch/ravanelm/exp/dirha/fbank/raw_fbank_tr05_cont.3.ark:30304599
01lo0308 /scratch/ravanelm/exp/dirha/fbank/raw_fbank_tr05_cont.1.ark:52178259
40ac0217 /scratch/ravanelm/exp/dirha/fbank/raw_fbank_tr05_cont.4.ark:9092449
40ko030g /scratch/ravanelm/exp/dirha/fbank/raw_fbank_tr05_cont.4.ark:40125159
406c020l /scratch/ravanelm/exp/dirha/fbank/raw_fbank_tr05_cont.3.ark:51494269
02ec020j /scratch/ravanelm/exp/dirha/fbank/raw_fbank_tr05_cont.2.ark:52844899
40jc021c /scratch/ravanelm/exp/dirha/fbank/raw_fbank_tr05_cont.4.ark:36397049
01yc021a /scratch/ravanelm/exp/dirha/fbank/raw_fbank_tr05_cont.2.ark:20750349
029o030s /scratch/ravanelm/exp/dirha/fbank/raw_fbank_tr05_cont.2.ark:45227759
40dc021b /scratch/ravanelm/exp/dirha/fbank/raw_fbank_tr05_cont.4.ark:17810439
204o010d /scratch/ravanelm/exp/dirha/fbank/raw_fbank_tr05_cont.3.ark:1928509
404c021a /scratch/ravanelm/exp/dirha/fbank/raw_fbank_tr05_cont.3.ark:46675479
20tc010i /scratch/ravanelm/exp/dirha/fbank/raw_fbank_tr05_cont.3.ark:37180989
406o0302 /scratch/ravanelm/exp/dirha/fbank/raw_fbank_tr05_cont.3.ark:52255759
02ec021b /scratch/ravanelm/exp/dirha/fbank/raw_fbank_tr05_cont.2.ark:53719139
01po030s /scratch/ravanelm/exp/dirha/fbank/raw_fbank_tr05_cont.2.ark:2879739
01qo030v /scratch/ravanelm/exp/dirha/fbank/raw_fbank_tr05_cont.2.ark:6081809
40go0307 /scratch/ravanelm/exp/dirha/fbank/raw_fbank_tr05_cont.4.ark:27253799
015c020n /scratch/ravanelm/exp/dirha/fbank/raw_fbank_tr05_cont.1.ark:10081859
408o031b /scratch/ravanelm/exp/dirha/fbank/raw_fbank_tr05_cont.4.ark:4838699
02bo0314 /scratch/ravanelm/exp/dirha/fbank/raw_fbank_tr05_cont.2.ark:48833899
40jo030z /scratch/ravanelm/exp/dirha/fbank/raw_fbank_tr05_cont.4.ark:37718959
40lc0208 /scratch/ravanelm/exp/dirha/fbank/raw_fbank_tr05_cont.4.ark:41553959
01qo030w /scratch/ravanelm/exp/dirha/fbank/raw_fbank_tr05_cont.2.ark:6097679
021o030j /scratch/ravanelm/exp/dirha/fbank/raw_fbank_tr05_cont.2.ark:29911489
028o0313 /scratch/ravanelm/exp/dirha/fbank/raw_fbank_tr05_cont.2.ark:42469099
20lo010i /scratch/ravanelm/exp/dirha/fbank/raw_fbank_tr05_cont.3.ark:26631849
20bc010m /scratch/ravanelm/exp/dirha/fbank/raw_fbank_tr05_cont.3.ark:13028849
026o0307 /scratch/ravanelm/exp/dirha/fbank/raw_fbank_tr05_cont.2.ark:35333249
40fo0316 /scratch/ravanelm/exp/dirha/fbank/raw_fbank_tr05_cont.4.ark:24784839
028c020m /scratch/ravanelm/exp/dirha/fbank/raw_fbank_tr05_cont.2.ark:40247179
01zc020g /scratch/ravanelm/exp/dirha/fbank/raw_fbank_tr05_cont.2.ark:23051369
20do0109 /scratch/ravanelm/exp/dirha/fbank/raw_fbank_tr05_cont.3.ark:16812879
01yc0217 /scratch/ravanelm/exp/dirha/fbank/raw_fbank_tr05_cont.2.ark:20685859
015c020g /scratch/ravanelm/exp/dirha/fbank/raw_fbank_tr05_cont.1.ark:9895649
401o030y /scratch/ravanelm/exp/dirha/fbank/raw_fbank_tr05_cont.3.ark:42292219
01go030u /scratch/ravanelm/exp/dirha/fbank/raw_fbank_tr05_cont.1.ark:38827899
01po030j /scratch/ravanelm/exp/dirha/fbank/raw_fbank_tr05_cont.2.ark:2531029
01to030i /scratch/ravanelm/exp/dirha/fbank/raw_fbank_tr05_cont.2.ark:11894699
02cc020o /scratch/ravanelm/exp/dirha/fbank/raw_fbank_tr05_cont.2.ark:49805519
20hc0102 /scratch/ravanelm/exp/dirha/fbank/raw_fbank_tr05_cont.3.ark:22118759
01eo0318 /scratch/ravanelm/exp/dirha/fbank/raw_fbank_tr05_cont.1.ark:33131939
407o030g /scratch/ravanelm/exp/dirha/fbank/raw_fbank_tr05_cont.4.ark:1233909
019o030y /scratch/ravanelm/exp/dirha/fbank/raw_fbank_tr05_cont.1.ark:23450049
01dc0212 /scratch/ravanelm/exp/dirha/fbank/raw_fbank_tr05_cont.1.ark:28388179
011o031c /scratch/ravanelm/exp/dirha/fbank/raw_fbank_tr05_cont.1.ark:3326879
407o030v /scratch/ravanelm/exp/dirha/fbank/raw_fbank_tr05_cont.4.ark:1857879
01qo031e /scratch/ravanelm/exp/dirha/fbank/raw_fbank_tr05_cont.2.ark:6619019
01do0309 /scratch/ravanelm/exp/dirha/fbank/raw_fbank_tr05_cont.1.ark:29077959
40dc0209 /scratch/ravanelm/exp/dirha/fbank/raw_fbank_tr05_cont.4.ark:16671779
01uc020r /scratch/ravanelm/exp/dirha/fbank/raw_fbank_tr05_cont.2.ark:13926169
40mc020o /scratch/ravanelm/exp/dirha/fbank/raw_fbank_tr05_cont.4.ark:45621169
013o0314 /scratch/ravanelm/exp/dirha/fbank/raw_fbank_tr05_cont.1.ark:6166179
20ic0105 /scratch/ravanelm/exp/dirha/fbank/raw_fbank_tr05_cont.3.ark:23498059
01uc020i /scratch/ravanelm/exp/dirha/fbank/raw_fbank_tr05_cont.2.ark:13682139
01jo0307 /scratch/ravanelm/exp/dirha/fbank/raw_fbank_tr05_cont.1.ark:44846629
02eo0307 /scratch/ravanelm/exp/dirha/fbank/raw_fbank_tr05_cont.2.ark:54077359
401o0305 /scratch/ravanelm/exp/dirha/fbank/raw_fbank_tr05_cont.3.ark:41232829
01do031f /scratch/ravanelm/exp/dirha/fbank/raw_fbank_tr05_cont.1.ark:30364439
404o030h /scratch/ravanelm/exp/dirha/fbank/raw_fbank_tr05_cont.3.ark:47290499
20tc010e /scratch/ravanelm/exp/dirha/fbank/raw_fbank_tr05_cont.3.ark:37054069
40pc020u /scratch/ravanelm/exp/dirha/fbank/raw_fbank_tr05_cont.4.ark:52073329
01uc0210 /scratch/ravanelm/exp/dirha/fbank/raw_fbank_tr05_cont.2.ark:14225959
01jc020d /scratch/ravanelm/exp/dirha/fbank/raw_fbank_tr05_cont.1.ark:43388929
20hc010j /scratch/ravanelm/exp/dirha/fbank/raw_fbank_tr05_cont.3.ark:22458549
406c020d /scratch/ravanelm/exp/dirha/fbank/raw_fbank_tr05_cont.3.ark:51297549
401c020j /scratch/ravanelm/exp/dirha/fbank/raw_fbank_tr05_cont.3.ark:40146239
020c020w /scratch/ravanelm/exp/dirha/fbank/raw_fbank_tr05_cont.2.ark:26736219
01gc0211 /scratch/ravanelm/exp/dirha/fbank/raw_fbank_tr05_cont.1.ark:37395649
40po030z /scratch/ravanelm/exp/dirha/fbank/raw_fbank_tr05_cont.4.ark:53790889
403o0306 /scratch/ravanelm/exp/dirha/fbank/raw_fbank_tr05_cont.3.ark:44249149
02co030k /scratch/ravanelm/exp/dirha/fbank/raw_fbank_tr05_cont.2.ark:51113309
01to0315 /scratch/ravanelm/exp/dirha/fbank/raw_fbank_tr05_cont.2.ark:12657509
01qo030b /scratch/ravanelm/exp/dirha/fbank/raw_fbank_tr05_cont.2.ark:5398649
20rc0101 /scratch/ravanelm/exp/dirha/fbank/raw_fbank_tr05_cont.3.ark:35016979
409c021g /scratch/ravanelm/exp/dirha/fbank/raw_fbank_tr05_cont.4.ark:6282889
01qc0219 /scratch/ravanelm/exp/dirha/fbank/raw_fbank_tr05_cont.2.ark:4834089
404o0316 /scratch/ravanelm/exp/dirha/fbank/raw_fbank_tr05_cont.3.ark:48060209
20eo010p /scratch/ravanelm/exp/dirha/fbank/raw_fbank_tr05_cont.3.ark:19179849
40ao030e /scratch/ravanelm/exp/dirha/fbank/raw_fbank_tr05_cont.4.ark:9710439
406c0202 /scratch/ravanelm/exp/dirha/fbank/raw_fbank_tr05_cont.3.ark:50987659
407o030w /scratch/ravanelm/exp/dirha/fbank/raw_fbank_tr05_cont.4.ark:1882029
40ao030c /scratch/ravanelm/exp/dirha/fbank/raw_fbank_tr05_cont.4.ark:9641419
20rc0102 /scratch/ravanelm/exp/dirha/fbank/raw_fbank_tr05_cont.3.ark:35045889
407c0208 /scratch/ravanelm/exp/dirha/fbank/raw_fbank_tr05_cont.3.ark:53913609
20vo010m /scratch/ravanelm/exp/dirha/fbank/raw_fbank_tr05_cont.3.ark:39377869
405c020s /scratch/ravanelm/exp/dirha/fbank/raw_fbank_tr05_cont.3.ark:48947819
01tc020e /scratch/ravanelm/exp/dirha/fbank/raw_fbank_tr05_cont.2.ark:10051889
207o010f /scratch/ravanelm/exp/dirha/fbank/raw_fbank_tr05_cont.3.ark:7124989
01ic020h /scratch/ravanelm/exp/dirha/fbank/raw_fbank_tr05_cont.1.ark:40190309
026o030n /scratch/ravanelm/exp/dirha/fbank/raw_fbank_tr05_cont.2.ark:35820929
401c020r /scratch/ravanelm/exp/dirha/fbank/raw_fbank_tr05_cont.3.ark:40346679
01tc020k /scratch/ravanelm/exp/dirha/fbank/raw_fbank_tr05_cont.2.ark:10267869
01jc020z /scratch/ravanelm/exp/dirha/fbank/raw_fbank_tr05_cont.1.ark:43990149
021c0203 /scratch/ravanelm/exp/dirha/fbank/raw_fbank_tr05_cont.2.ark:28106279
40dc020v /scratch/ravanelm/exp/dirha/fbank/raw_fbank_tr05_cont.4.ark:17361119
40jc0216 /scratch/ravanelm/exp/dirha/fbank/raw_fbank_tr05_cont.4.ark:36228909
026o030l /scratch/ravanelm/exp/dirha/fbank/raw_fbank_tr05_cont.2.ark:35758749
013c020t /scratch/ravanelm/exp/dirha/fbank/raw_fbank_tr05_cont.1.ark:4438919
01tc020x /scratch/ravanelm/exp/dirha/fbank/raw_fbank_tr05_cont.2.ark:10747379
40jo030i /scratch/ravanelm/exp/dirha/fbank/raw_fbank_tr05_cont.4.ark:37080129
403o030l /scratch/ravanelm/exp/dirha/fbank/raw_fbank_tr05_cont.3.ark:44735959
401c0204 /scratch/ravanelm/exp/dirha/fbank/raw_fbank_tr05_cont.3.ark:39671869
021o030s /scratch/ravanelm/exp/dirha/fbank/raw_fbank_tr05_cont.2.ark:30229159
40po030c /scratch/ravanelm/exp/dirha/fbank/raw_fbank_tr05_cont.4.ark:52948919
01yo030p /scratch/ravanelm/exp/dirha/fbank/raw_fbank_tr05_cont.2.ark:21765079
40hc021b /scratch/ravanelm/exp/dirha/fbank/raw_fbank_tr05_cont.4.ark:30308099
01rc020k /scratch/ravanelm/exp/dirha/fbank/raw_fbank_tr05_cont.2.ark:7301679
40no030o /scratch/ravanelm/exp/dirha/fbank/raw_fbank_tr05_cont.4.ark:50471479
20tc010c /scratch/ravanelm/exp/dirha/fbank/raw_fbank_tr05_cont.3.ark:36996489
018c0217 /scratch/ravanelm/exp/dirha/fbank/raw_fbank_tr05_cont.1.ark:18851169
40bc021a /scratch/ravanelm/exp/dirha/fbank/raw_fbank_tr05_cont.4.ark:12122889
01uo030m /scratch/ravanelm/exp/dirha/fbank/raw_fbank_tr05_cont.2.ark:15487669
02co0309 /scratch/ravanelm/exp/dirha/fbank/raw_fbank_tr05_cont.2.ark:50762579
01wo030w /scratch/ravanelm/exp/dirha/fbank/raw_fbank_tr05_cont.2.ark:18900459
01rc0202 /scratch/ravanelm/exp/dirha/fbank/raw_fbank_tr05_cont.2.ark:6782379
01go0312 /scratch/ravanelm/exp/dirha/fbank/raw_fbank_tr05_cont.1.ark:39083779
026c020k /scratch/ravanelm/exp/dirha/fbank/raw_fbank_tr05_cont.2.ark:34370799
20no010i /scratch/ravanelm/exp/dirha/fbank/raw_fbank_tr05_cont.3.ark:29963129
40fc020z /scratch/ravanelm/exp/dirha/fbank/raw_fbank_tr05_cont.4.ark:22996229
01zo031b /scratch/ravanelm/exp/dirha/fbank/raw_fbank_tr05_cont.2.ark:25896149
20tc0107 /scratch/ravanelm/exp/dirha/fbank/raw_fbank_tr05_cont.3.ark:36893059
02co030x /scratch/ravanelm/exp/dirha/fbank/raw_fbank_tr05_cont.2.ark:51547099
40fo0307 /scratch/ravanelm/exp/dirha/fbank/raw_fbank_tr05_cont.4.ark:23648669
024c021c /scratch/ravanelm/exp/dirha/fbank/raw_fbank_tr05_cont.2.ark:32232409
01ec020k /scratch/ravanelm/exp/dirha/fbank/raw_fbank_tr05_cont.1.ark:30926079
204c010g /scratch/ravanelm/exp/dirha/fbank/raw_fbank_tr05_cont.3.ark:1359129
01uc020y /scratch/ravanelm/exp/dirha/fbank/raw_fbank_tr05_cont.2.ark:14142059
406o0301 /scratch/ravanelm/exp/dirha/fbank/raw_fbank_tr05_cont.3.ark:52211129
205o0103 /scratch/ravanelm/exp/dirha/fbank/raw_fbank_tr05_cont.3.ark:3202539
01gc020i /scratch/ravanelm/exp/dirha/fbank/raw_fbank_tr05_cont.1.ark:36904639
40fc0219 /scratch/ravanelm/exp/dirha/fbank/raw_fbank_tr05_cont.4.ark:23257209
01zo030s /scratch/ravanelm/exp/dirha/fbank/raw_fbank_tr05_cont.2.ark:25171619
013c020f /scratch/ravanelm/exp/dirha/fbank/raw_fbank_tr05_cont.1.ark:3979219
01po030b /scratch/ravanelm/exp/dirha/fbank/raw_fbank_tr05_cont.2.ark:2286059
20dc010o /scratch/ravanelm/exp/dirha/fbank/raw_fbank_tr05_cont.3.ark:16480259
01wo030n /scratch/ravanelm/exp/dirha/fbank/raw_fbank_tr05_cont.2.ark:18677819
40ko030k /scratch/ravanelm/exp/dirha/fbank/raw_fbank_tr05_cont.4.ark:40266479
01mo0310 /scratch/ravanelm/exp/dirha/fbank/raw_fbank_tr05_cont.1.ark:56493139
408c0211 /scratch/ravanelm/exp/dirha/fbank/raw_fbank_tr05_cont.4.ark:3234169
020o0319 /scratch/ravanelm/exp/dirha/fbank/raw_fbank_tr05_cont.2.ark:27879069
40kc0211 /scratch/ravanelm/exp/dirha/fbank/raw_fbank_tr05_cont.4.ark:39264189
01io030v /scratch/ravanelm/exp/dirha/fbank/raw_fbank_tr05_cont.1.ark:42335819
40lo030t /scratch/ravanelm/exp/dirha/fbank/raw_fbank_tr05_cont.4.ark:44060439
40pc020n /scratch/ravanelm/exp/dirha/fbank/raw_fbank_tr05_cont.4.ark:51892919
029o0309 /scratch/ravanelm/exp/dirha/fbank/raw_fbank_tr05_cont.2.ark:44551389
40pc0206 /scratch/ravanelm/exp/dirha/fbank/raw_fbank_tr05_cont.4.ark:51547849
20mc0102 /scratch/ravanelm/exp/dirha/fbank/raw_fbank_tr05_cont.3.ark:27024789
01kc0212 /scratch/ravanelm/exp/dirha/fbank/raw_fbank_tr05_cont.1.ark:47653409
20gc0108 /scratch/ravanelm/exp/dirha/fbank/raw_fbank_tr05_cont.3.ark:20899169
021c021a /scratch/ravanelm/exp/dirha/fbank/raw_fbank_tr05_cont.2.ark:29267249
40bo0303 /scratch/ravanelm/exp/dirha/fbank/raw_fbank_tr05_cont.4.ark:12439599
01bc020h /scratch/ravanelm/exp/dirha/fbank/raw_fbank_tr05_cont.1.ark:24360249
01lc0209 /scratch/ravanelm/exp/dirha/fbank/raw_fbank_tr05_cont.1.ark:50528399
02bc020w /scratch/ravanelm/exp/dirha/fbank/raw_fbank_tr05_cont.2.ark:46875409
20go0101 /scratch/ravanelm/exp/dirha/fbank/raw_fbank_tr05_cont.3.ark:21313169
01ro030f /scratch/ravanelm/exp/dirha/fbank/raw_fbank_tr05_cont.2.ark:8547409
01qo030n /scratch/ravanelm/exp/dirha/fbank/raw_fbank_tr05_cont.2.ark:5829249
017c0211 /scratch/ravanelm/exp/dirha/fbank/raw_fbank_tr05_cont.1.ark:15667889
40kc020h /scratch/ravanelm/exp/dirha/fbank/raw_fbank_tr05_cont.4.ark:38723509
40jc020p /scratch/ravanelm/exp/dirha/fbank/raw_fbank_tr05_cont.4.ark:35745319
409o030f /scratch/ravanelm/exp/dirha/fbank/raw_fbank_tr05_cont.4.ark:6687859
011c020c /scratch/ravanelm/exp/dirha/fbank/raw_fbank_tr05_cont.1.ark:292259
014o030v /scratch/ravanelm/exp/dirha/fbank/raw_fbank_tr05_cont.1.ark:8838549
01zc020x /scratch/ravanelm/exp/dirha/fbank/raw_fbank_tr05_cont.2.ark:23490759
01yo0319 /scratch/ravanelm/exp/dirha/fbank/raw_fbank_tr05_cont.2.ark:22417319
20lo010b /scratch/ravanelm/exp/dirha/fbank/raw_fbank_tr05_cont.3.ark:26255239
01qc0204 /scratch/ravanelm/exp/dirha/fbank/raw_fbank_tr05_cont.2.ark:3748299
20mo010l /scratch/ravanelm/exp/dirha/fbank/raw_fbank_tr05_cont.3.ark:28230989
01eo0312 /scratch/ravanelm/exp/dirha/fbank/raw_fbank_tr05_cont.1.ark:32957719
01to030h /scratch/ravanelm/exp/dirha/fbank/raw_fbank_tr05_cont.2.ark:11855109
011o031e /scratch/ravanelm/exp/dirha/fbank/raw_fbank_tr05_cont.1.ark:3452059
024c0219 /scratch/ravanelm/exp/dirha/fbank/raw_fbank_tr05_cont.2.ark:32147119
01zc021a /scratch/ravanelm/exp/dirha/fbank/raw_fbank_tr05_cont.2.ark:23909229
404c0208 /scratch/ravanelm/exp/dirha/fbank/raw_fbank_tr05_cont.3.ark:45737659
40go030g /scratch/ravanelm/exp/dirha/fbank/raw_fbank_tr05_cont.4.ark:27587349
40kc0216 /scratch/ravanelm/exp/dirha/fbank/raw_fbank_tr05_cont.4.ark:39407259
405o0318 /scratch/ravanelm/exp/dirha/fbank/raw_fbank_tr05_cont.3.ark:50722429
01mo030f /scratch/ravanelm/exp/dirha/fbank/raw_fbank_tr05_cont.1.ark:55864069
40ic0210 /scratch/ravanelm/exp/dirha/fbank/raw_fbank_tr05_cont.4.ark:33091409
026c021d /scratch/ravanelm/exp/dirha/fbank/raw_fbank_tr05_cont.2.ark:35025749
029c020e /scratch/ravanelm/exp/dirha/fbank/raw_fbank_tr05_cont.2.ark:43226499
01io031c /scratch/ravanelm/exp/dirha/fbank/raw_fbank_tr05_cont.1.ark:42890609
029c020y /scratch/ravanelm/exp/dirha/fbank/raw_fbank_tr05_cont.2.ark:43808379
01wc020r /scratch/ravanelm/exp/dirha/fbank/raw_fbank_tr05_cont.2.ark:17413399
405c021e /scratch/ravanelm/exp/dirha/fbank/raw_fbank_tr05_cont.3.ark:49442559
01uc0215 /scratch/ravanelm/exp/dirha/fbank/raw_fbank_tr05_cont.2.ark:14411429
01lo0316 /scratch/ravanelm/exp/dirha/fbank/raw_fbank_tr05_cont.1.ark:53687399
01bo0316 /scratch/ravanelm/exp/dirha/fbank/raw_fbank_tr05_cont.1.ark:27078789
407c020l /scratch/ravanelm/exp/dirha/fbank/raw_fbank_tr05_cont.3.ark:54285679
016c020l /scratch/ravanelm/exp/dirha/fbank/raw_fbank_tr05_cont.1.ark:12843479
20vo010p /scratch/ravanelm/exp/dirha/fbank/raw_fbank_tr05_cont.3.ark:39500439
029c0204 /scratch/ravanelm/exp/dirha/fbank/raw_fbank_tr05_cont.2.ark:42948599
40io0308 /scratch/ravanelm/exp/dirha/fbank/raw_fbank_tr05_cont.4.ark:33724019
01io030x /scratch/ravanelm/exp/dirha/fbank/raw_fbank_tr05_cont.1.ark:42397439
018o030e /scratch/ravanelm/exp/dirha/fbank/raw_fbank_tr05_cont.1.ark:19654779
40go0305 /scratch/ravanelm/exp/dirha/fbank/raw_fbank_tr05_cont.4.ark:27206779
408o0303 /scratch/ravanelm/exp/dirha/fbank/raw_fbank_tr05_cont.4.ark:3625979
01eo0305 /scratch/ravanelm/exp/dirha/fbank/raw_fbank_tr05_cont.1.ark:31985849
40bc0203 /scratch/ravanelm/exp/dirha/fbank/raw_fbank_tr05_cont.4.ark:10980159
20no010n /scratch/ravanelm/exp/dirha/fbank/raw_fbank_tr05_cont.3.ark:30150959
01dc020b /scratch/ravanelm/exp/dirha/fbank/raw_fbank_tr05_cont.1.ark:27648289
40ao030n /scratch/ravanelm/exp/dirha/fbank/raw_fbank_tr05_cont.4.ark:9969469
40po030p /scratch/ravanelm/exp/dirha/fbank/raw_fbank_tr05_cont.4.ark:53445829
40jc020r /scratch/ravanelm/exp/dirha/fbank/raw_fbank_tr05_cont.4.ark:35815459
026c020x /scratch/ravanelm/exp/dirha/fbank/raw_fbank_tr05_cont.2.ark:34642389
01eo0307 /scratch/ravanelm/exp/dirha/fbank/raw_fbank_tr05_cont.1.ark:32026909
01kc0207 /scratch/ravanelm/exp/dirha/fbank/raw_fbank_tr05_cont.1.ark:46693349
021o0301 /scratch/ravanelm/exp/dirha/fbank/raw_fbank_tr05_cont.2.ark:29384229
40pc020w /scratch/ravanelm/exp/dirha/fbank/raw_fbank_tr05_cont.4.ark:52120869
028o0315 /scratch/ravanelm/exp/dirha/fbank/raw_fbank_tr05_cont.2.ark:42541799
014o0308 /scratch/ravanelm/exp/dirha/fbank/raw_fbank_tr05_cont.1.ark:8015139
20dc010d /scratch/ravanelm/exp/dirha/fbank/raw_fbank_tr05_cont.3.ark:16121449
404c0212 /scratch/ravanelm/exp/dirha/fbank/raw_fbank_tr05_cont.3.ark:46475879
015o030p /scratch/ravanelm/exp/dirha/fbank/raw_fbank_tr05_cont.1.ark:11629059
20oo0109 /scratch/ravanelm/exp/dirha/fbank/raw_fbank_tr05_cont.3.ark:31117989
40cc0212 /scratch/ravanelm/exp/dirha/fbank/raw_fbank_tr05_cont.4.ark:14827789
40lc020e /scratch/ravanelm/exp/dirha/fbank/raw_fbank_tr05_cont.4.ark:41727739
40no031d /scratch/ravanelm/exp/dirha/fbank/raw_fbank_tr05_cont.4.ark:51364469
01mc0206 /scratch/ravanelm/exp/dirha/fbank/raw_fbank_tr05_cont.1.ark:54180629
20co0105 /scratch/ravanelm/exp/dirha/fbank/raw_fbank_tr05_cont.3.ark:15088989
40gc0201 /scratch/ravanelm/exp/dirha/fbank/raw_fbank_tr05_cont.4.ark:25186449
019o0302 /scratch/ravanelm/exp/dirha/fbank/raw_fbank_tr05_cont.1.ark:22419009
403o030o /scratch/ravanelm/exp/dirha/fbank/raw_fbank_tr05_cont.3.ark:44796729
01yc0206 /scratch/ravanelm/exp/dirha/fbank/raw_fbank_tr05_cont.2.ark:19641109
40ko0316 /scratch/ravanelm/exp/dirha/fbank/raw_fbank_tr05_cont.4.ark:41072539
405c0207 /scratch/ravanelm/exp/dirha/fbank/raw_fbank_tr05_cont.3.ark:48408309
019o0305 /scratch/ravanelm/exp/dirha/fbank/raw_fbank_tr05_cont.1.ark:22501139
014o0304 /scratch/ravanelm/exp/dirha/fbank/raw_fbank_tr05_cont.1.ark:7853939
020o0307 /scratch/ravanelm/exp/dirha/fbank/raw_fbank_tr05_cont.2.ark:27215569
020o0306 /scratch/ravanelm/exp/dirha/fbank/raw_fbank_tr05_cont.2.ark:27180019
01lc020c /scratch/ravanelm/exp/dirha/fbank/raw_fbank_tr05_cont.1.ark:50661169
408o030g /scratch/ravanelm/exp/dirha/fbank/raw_fbank_tr05_cont.4.ark:4009369
027c0217 /scratch/ravanelm/exp/dirha/fbank/raw_fbank_tr05_cont.2.ark:37776089
01lo0314 /scratch/ravanelm/exp/dirha/fbank/raw_fbank_tr05_cont.1.ark:53586459
01pc0203 /scratch/ravanelm/exp/dirha/fbank/raw_fbank_tr05_cont.2.ark:483739
408o0306 /scratch/ravanelm/exp/dirha/fbank/raw_fbank_tr05_cont.4.ark:3733109
40co030k /scratch/ravanelm/exp/dirha/fbank/raw_fbank_tr05_cont.4.ark:15660549
408o030l /scratch/ravanelm/exp/dirha/fbank/raw_fbank_tr05_cont.4.ark:4194079
015c020d /scratch/ravanelm/exp/dirha/fbank/raw_fbank_tr05_cont.1.ark:9792319
40io030u /scratch/ravanelm/exp/dirha/fbank/raw_fbank_tr05_cont.4.ark:34434959
40ic0202 /scratch/ravanelm/exp/dirha/fbank/raw_fbank_tr05_cont.4.ark:32070869
401c0203 /scratch/ravanelm/exp/dirha/fbank/raw_fbank_tr05_cont.3.ark:39653479
01ic020x /scratch/ravanelm/exp/dirha/fbank/raw_fbank_tr05_cont.1.ark:40635749
01zc0204 /scratch/ravanelm/exp/dirha/fbank/raw_fbank_tr05_cont.2.ark:22707889
40hc021f /scratch/ravanelm/exp/dirha/fbank/raw_fbank_tr05_cont.4.ark:30393899
01tc0214 /scratch/ravanelm/exp/dirha/fbank/raw_fbank_tr05_cont.2.ark:10966709
209o010i /scratch/ravanelm/exp/dirha/fbank/raw_fbank_tr05_cont.3.ark:10463119
409c0207 /scratch/ravanelm/exp/dirha/fbank/raw_fbank_tr05_cont.4.ark:5042099
01io0311 /scratch/ravanelm/exp/dirha/fbank/raw_fbank_tr05_cont.1.ark:42539599
01zc0205 /scratch/ravanelm/exp/dirha/fbank/raw_fbank_tr05_cont.2.ark:22732959
40pc020g /scratch/ravanelm/exp/dirha/fbank/raw_fbank_tr05_cont.4.ark:51737429
014c021d /scratch/ravanelm/exp/dirha/fbank/raw_fbank_tr05_cont.1.ark:7648419
405o030v /scratch/ravanelm/exp/dirha/fbank/raw_fbank_tr05_cont.3.ark:50326479
019c0215 /scratch/ravanelm/exp/dirha/fbank/raw_fbank_tr05_cont.1.ark:22072949
40fo030j /scratch/ravanelm/exp/dirha/fbank/raw_fbank_tr05_cont.4.ark:24072389
01do030q /scratch/ravanelm/exp/dirha/fbank/raw_fbank_tr05_cont.1.ark:29565449
01wo0313 /scratch/ravanelm/exp/dirha/fbank/raw_fbank_tr05_cont.2.ark:19156589
408o030v /scratch/ravanelm/exp/dirha/fbank/raw_fbank_tr05_cont.4.ark:4452779
409c021b /scratch/ravanelm/exp/dirha/fbank/raw_fbank_tr05_cont.4.ark:6171179
02eo0318 /scratch/ravanelm/exp/dirha/fbank/raw_fbank_tr05_cont.3.ark:755359
20ho010k /scratch/ravanelm/exp/dirha/fbank/raw_fbank_tr05_cont.3.ark:23200319
401c020n /scratch/ravanelm/exp/dirha/fbank/raw_fbank_tr05_cont.3.ark:40257799
01fo0318 /scratch/ravanelm/exp/dirha/fbank/raw_fbank_tr05_cont.1.ark:36223419
204o0107 /scratch/ravanelm/exp/dirha/fbank/raw_fbank_tr05_cont.3.ark:1761769
20ec010b /scratch/ravanelm/exp/dirha/fbank/raw_fbank_tr05_cont.3.ark:17825829
40ao030h /scratch/ravanelm/exp/dirha/fbank/raw_fbank_tr05_cont.4.ark:9817329
40ec020c /scratch/ravanelm/exp/dirha/fbank/raw_fbank_tr05_cont.4.ark:19674659
20fc010g /scratch/ravanelm/exp/dirha/fbank/raw_fbank_tr05_cont.3.ark:19666279
01eo030j /scratch/ravanelm/exp/dirha/fbank/raw_fbank_tr05_cont.1.ark:32345469
20bc0102 /scratch/ravanelm/exp/dirha/fbank/raw_fbank_tr05_cont.3.ark:12525609
403c020u /scratch/ravanelm/exp/dirha/fbank/raw_fbank_tr05_cont.3.ark:43513699
404o0314 /scratch/ravanelm/exp/dirha/fbank/raw_fbank_tr05_cont.3.ark:48000909
40pc0213 /scratch/ravanelm/exp/dirha/fbank/raw_fbank_tr05_cont.4.ark:52301319
40jo0302 /scratch/ravanelm/exp/dirha/fbank/raw_fbank_tr05_cont.4.ark:36519409
406o0306 /scratch/ravanelm/exp/dirha/fbank/raw_fbank_tr05_cont.3.ark:52405119
01eo0316 /scratch/ravanelm/exp/dirha/fbank/raw_fbank_tr05_cont.1.ark:33068719
20no0107 /scratch/ravanelm/exp/dirha/fbank/raw_fbank_tr05_cont.3.ark:29454639
02eo030n /scratch/ravanelm/exp/dirha/fbank/raw_fbank_tr05_cont.3.ark:52679
019c020x /scratch/ravanelm/exp/dirha/fbank/raw_fbank_tr05_cont.1.ark:21848589
01pc021a /scratch/ravanelm/exp/dirha/fbank/raw_fbank_tr05_cont.2.ark:1705589
014o030m /scratch/ravanelm/exp/dirha/fbank/raw_fbank_tr05_cont.1.ark:8475079
40ho030j /scratch/ravanelm/exp/dirha/fbank/raw_fbank_tr05_cont.4.ark:31017149
01bo030b /scratch/ravanelm/exp/dirha/fbank/raw_fbank_tr05_cont.1.ark:25837849
021c0211 /scratch/ravanelm/exp/dirha/fbank/raw_fbank_tr05_cont.2.ark:29043299
01kc020f /scratch/ravanelm/exp/dirha/fbank/raw_fbank_tr05_cont.1.ark:46968869
01bc020e /scratch/ravanelm/exp/dirha/fbank/raw_fbank_tr05_cont.1.ark:24222759
208o010j /scratch/ravanelm/exp/dirha/fbank/raw_fbank_tr05_cont.3.ark:8961239
406o0309 /scratch/ravanelm/exp/dirha/fbank/raw_fbank_tr05_cont.3.ark:52462889
01wo0318 /scratch/ravanelm/exp/dirha/fbank/raw_fbank_tr05_cont.2.ark:19311899
401o031a /scratch/ravanelm/exp/dirha/fbank/raw_fbank_tr05_cont.3.ark:42713309
015c020l /scratch/ravanelm/exp/dirha/fbank/raw_fbank_tr05_cont.1.ark:10030999
20nc0107 /scratch/ravanelm/exp/dirha/fbank/raw_fbank_tr05_cont.3.ark:28638209
40fo0317 /scratch/ravanelm/exp/dirha/fbank/raw_fbank_tr05_cont.4.ark:24827869
01do0317 /scratch/ravanelm/exp/dirha/fbank/raw_fbank_tr05_cont.1.ark:30141159
013o030x /scratch/ravanelm/exp/dirha/fbank/raw_fbank_tr05_cont.1.ark:5945849
20pc010e /scratch/ravanelm/exp/dirha/fbank/raw_fbank_tr05_cont.3.ark:32097989
40ic020v /scratch/ravanelm/exp/dirha/fbank/raw_fbank_tr05_cont.4.ark:32949899
408c021c /scratch/ravanelm/exp/dirha/fbank/raw_fbank_tr05_cont.4.ark:3465499
01wc020h /scratch/ravanelm/exp/dirha/fbank/raw_fbank_tr05_cont.2.ark:17106459
409c020x /scratch/ravanelm/exp/dirha/fbank/raw_fbank_tr05_cont.4.ark:5792439
404o0308 /scratch/ravanelm/exp/dirha/fbank/raw_fbank_tr05_cont.3.ark:47023389
40eo030x /scratch/ravanelm/exp/dirha/fbank/raw_fbank_tr05_cont.4.ark:21587039
20ac0107 /scratch/ravanelm/exp/dirha/fbank/raw_fbank_tr05_cont.3.ark:10902979
018c020w /scratch/ravanelm/exp/dirha/fbank/raw_fbank_tr05_cont.1.ark:18520639
015o0316 /scratch/ravanelm/exp/dirha/fbank/raw_fbank_tr05_cont.1.ark:12145969
40po030y /scratch/ravanelm/exp/dirha/fbank/raw_fbank_tr05_cont.4.ark:53756459
20qo0106 /scratch/ravanelm/exp/dirha/fbank/raw_fbank_tr05_cont.3.ark:34252509
20go010p /scratch/ravanelm/exp/dirha/fbank/raw_fbank_tr05_cont.3.ark:21983329
02bo031f /scratch/ravanelm/exp/dirha/fbank/raw_fbank_tr05_cont.2.ark:49194909
40mc020b /scratch/ravanelm/exp/dirha/fbank/raw_fbank_tr05_cont.4.ark:45285579
20do0106 /scratch/ravanelm/exp/dirha/fbank/raw_fbank_tr05_cont.3.ark:16752869
40co0302 /scratch/ravanelm/exp/dirha/fbank/raw_fbank_tr05_cont.4.ark:15164409
405o030i /scratch/ravanelm/exp/dirha/fbank/raw_fbank_tr05_cont.3.ark:49977449
024c0203 /scratch/ravanelm/exp/dirha/fbank/raw_fbank_tr05_cont.2.ark:30962699
40ec0201 /scratch/ravanelm/exp/dirha/fbank/raw_fbank_tr05_cont.4.ark:19435569
01qc0207 /scratch/ravanelm/exp/dirha/fbank/raw_fbank_tr05_cont.2.ark:3855749
018c0216 /scratch/ravanelm/exp/dirha/fbank/raw_fbank_tr05_cont.1.ark:18812019
407o030k /scratch/ravanelm/exp/dirha/fbank/raw_fbank_tr05_cont.4.ark:1366669
02eo030t /scratch/ravanelm/exp/dirha/fbank/raw_fbank_tr05_cont.3.ark:258579
20hc0109 /scratch/ravanelm/exp/dirha/fbank/raw_fbank_tr05_cont.3.ark:22256089
40mo030s /scratch/ravanelm/exp/dirha/fbank/raw_fbank_tr05_cont.4.ark:47375009
01po0309 /scratch/ravanelm/exp/dirha/fbank/raw_fbank_tr05_cont.2.ark:2239159
40no030a /scratch/ravanelm/exp/dirha/fbank/raw_fbank_tr05_cont.4.ark:49960539
40kc020k /scratch/ravanelm/exp/dirha/fbank/raw_fbank_tr05_cont.4.ark:38808439
018o0313 /scratch/ravanelm/exp/dirha/fbank/raw_fbank_tr05_cont.1.ark:20690809
20mc010a /scratch/ravanelm/exp/dirha/fbank/raw_fbank_tr05_cont.3.ark:27227429
016o030i /scratch/ravanelm/exp/dirha/fbank/raw_fbank_tr05_cont.1.ark:13874469
408c0210 /scratch/ravanelm/exp/dirha/fbank/raw_fbank_tr05_cont.4.ark:3212659
018c0215 /scratch/ravanelm/exp/dirha/fbank/raw_fbank_tr05_cont.1.ark:18785909
029c0206 /scratch/ravanelm/exp/dirha/fbank/raw_fbank_tr05_cont.2.ark:43002699
404c020v /scratch/ravanelm/exp/dirha/fbank/raw_fbank_tr05_cont.3.ark:46335989
403c021g /scratch/ravanelm/exp/dirha/fbank/raw_fbank_tr05_cont.3.ark:44023369
017o030c /scratch/ravanelm/exp/dirha/fbank/raw_fbank_tr05_cont.1.ark:16421419
401c0217 /scratch/ravanelm/exp/dirha/fbank/raw_fbank_tr05_cont.3.ark:40822119
404o030o /scratch/ravanelm/exp/dirha/fbank/raw_fbank_tr05_cont.3.ark:47506909
01mo030a /scratch/ravanelm/exp/dirha/fbank/raw_fbank_tr05_cont.1.ark:55717279
01ec0204 /scratch/ravanelm/exp/dirha/fbank/raw_fbank_tr05_cont.1.ark:30503039
20ec010h /scratch/ravanelm/exp/dirha/fbank/raw_fbank_tr05_cont.3.ark:18028809
017o0309 /scratch/ravanelm/exp/dirha/fbank/raw_fbank_tr05_cont.1.ark:16316329
40co030c /scratch/ravanelm/exp/dirha/fbank/raw_fbank_tr05_cont.4.ark:15440389
01lo030g /scratch/ravanelm/exp/dirha/fbank/raw_fbank_tr05_cont.1.ark:52574219
01ec020z /scratch/ravanelm/exp/dirha/fbank/raw_fbank_tr05_cont.1.ark:31342929
205c0105 /scratch/ravanelm/exp/dirha/fbank/raw_fbank_tr05_cont.3.ark:2533049
