017c0202 /scratch/ravanelm/exp/dirha/fbank/raw_fbank_tr05_cont.1.ark:14828839
018o030v /scratch/ravanelm/exp/dirha/fbank/raw_fbank_tr05_cont.1.ark:20333329
01wc020e /scratch/ravanelm/exp/dirha/fbank/raw_fbank_tr05_cont.2.ark:16996169
01mo0318 /scratch/ravanelm/exp/dirha/fbank/raw_fbank_tr05_cont.2.ark:208109
404c020j /scratch/ravanelm/exp/dirha/fbank/raw_fbank_tr05_cont.3.ark:46000789
029o0315 /scratch/ravanelm/exp/dirha/fbank/raw_fbank_tr05_cont.2.ark:45669269
027c020b /scratch/ravanelm/exp/dirha/fbank/raw_fbank_tr05_cont.2.ark:36924129
01ic020a /scratch/ravanelm/exp/dirha/fbank/raw_fbank_tr05_cont.1.ark:39983179
20ec0101 /scratch/ravanelm/exp/dirha/fbank/raw_fbank_tr05_cont.3.ark:17553289
02cc021f /scratch/ravanelm/exp/dirha/fbank/raw_fbank_tr05_cont.2.ark:50513149
020o031e /scratch/ravanelm/exp/dirha/fbank/raw_fbank_tr05_cont.2.ark:27997589
40mo0308 /scratch/ravanelm/exp/dirha/fbank/raw_fbank_tr05_cont.4.ark:46687129
409c0216 /scratch/ravanelm/exp/dirha/fbank/raw_fbank_tr05_cont.4.ark:6020909
40mc0213 /scratch/ravanelm/exp/dirha/fbank/raw_fbank_tr05_cont.4.ark:45985339
01uc020j /scratch/ravanelm/exp/dirha/fbank/raw_fbank_tr05_cont.2.ark:13699409
01tc020z /scratch/ravanelm/exp/dirha/fbank/raw_fbank_tr05_cont.2.ark:10822839
02co0301 /scratch/ravanelm/exp/dirha/fbank/raw_fbank_tr05_cont.2.ark:50541459
20no010d /scratch/ravanelm/exp/dirha/fbank/raw_fbank_tr05_cont.3.ark:29713939
20bc010b /scratch/ravanelm/exp/dirha/fbank/raw_fbank_tr05_cont.3.ark:12701879
20go0103 /scratch/ravanelm/exp/dirha/fbank/raw_fbank_tr05_cont.3.ark:21387469
024c020u /scratch/ravanelm/exp/dirha/fbank/raw_fbank_tr05_cont.2.ark:31726909
01bc020f /scratch/ravanelm/exp/dirha/fbank/raw_fbank_tr05_cont.1.ark:24273389
02bc020l /scratch/ravanelm/exp/dirha/fbank/raw_fbank_tr05_cont.2.ark:46594679
40ho0317 /scratch/ravanelm/exp/dirha/fbank/raw_fbank_tr05_cont.4.ark:31786629
015o0309 /scratch/ravanelm/exp/dirha/fbank/raw_fbank_tr05_cont.1.ark:11045419
01uo0305 /scratch/ravanelm/exp/dirha/fbank/raw_fbank_tr05_cont.2.ark:14936599
014c021e /scratch/ravanelm/exp/dirha/fbank/raw_fbank_tr05_cont.1.ark:7670329
20vo010l /scratch/ravanelm/exp/dirha/fbank/raw_fbank_tr05_cont.3.ark:39330159
028c0210 /scratch/ravanelm/exp/dirha/fbank/raw_fbank_tr05_cont.2.ark:40638239
209o010c /scratch/ravanelm/exp/dirha/fbank/raw_fbank_tr05_cont.3.ark:10276299
40nc021c /scratch/ravanelm/exp/dirha/fbank/raw_fbank_tr05_cont.4.ark:49466559
019c020g /scratch/ravanelm/exp/dirha/fbank/raw_fbank_tr05_cont.1.ark:21463159
01bo0311 /scratch/ravanelm/exp/dirha/fbank/raw_fbank_tr05_cont.1.ark:26930069
01wc0201 /scratch/ravanelm/exp/dirha/fbank/raw_fbank_tr05_cont.2.ark:16631219
20to010a /scratch/ravanelm/exp/dirha/fbank/raw_fbank_tr05_cont.3.ark:37602649
40pc020n /scratch/ravanelm/exp/dirha/fbank/raw_fbank_tr05_cont.4.ark:51892919
20vc010c /scratch/ravanelm/exp/dirha/fbank/raw_fbank_tr05_cont.3.ark:38428979
20qo010f /scratch/ravanelm/exp/dirha/fbank/raw_fbank_tr05_cont.3.ark:34593019
20tc010m /scratch/ravanelm/exp/dirha/fbank/raw_fbank_tr05_cont.3.ark:37292389
02bo0303 /scratch/ravanelm/exp/dirha/fbank/raw_fbank_tr05_cont.2.ark:47507229
016c020n /scratch/ravanelm/exp/dirha/fbank/raw_fbank_tr05_cont.1.ark:12862539
40jc020v /scratch/ravanelm/exp/dirha/fbank/raw_fbank_tr05_cont.4.ark:35940419
01ro0312 /scratch/ravanelm/exp/dirha/fbank/raw_fbank_tr05_cont.2.ark:9327939
01go030o /scratch/ravanelm/exp/dirha/fbank/raw_fbank_tr05_cont.1.ark:38619479
01fo0303 /scratch/ravanelm/exp/dirha/fbank/raw_fbank_tr05_cont.1.ark:34874709
01pc020r /scratch/ravanelm/exp/dirha/fbank/raw_fbank_tr05_cont.2.ark:1149659
017c020s /scratch/ravanelm/exp/dirha/fbank/raw_fbank_tr05_cont.1.ark:15435859
019o030h /scratch/ravanelm/exp/dirha/fbank/raw_fbank_tr05_cont.1.ark:22941059
02eo030n /scratch/ravanelm/exp/dirha/fbank/raw_fbank_tr05_cont.3.ark:52679
40kc020v /scratch/ravanelm/exp/dirha/fbank/raw_fbank_tr05_cont.4.ark:39111849
016c020e /scratch/ravanelm/exp/dirha/fbank/raw_fbank_tr05_cont.1.ark:12648749
01mo0315 /scratch/ravanelm/exp/dirha/fbank/raw_fbank_tr05_cont.2.ark:96859
20fo010k /scratch/ravanelm/exp/dirha/fbank/raw_fbank_tr05_cont.3.ark:20567739
20fo010c /scratch/ravanelm/exp/dirha/fbank/raw_fbank_tr05_cont.3.ark:20350619
40no0301 /scratch/ravanelm/exp/dirha/fbank/raw_fbank_tr05_cont.4.ark:49586469
014o0302 /scratch/ravanelm/exp/dirha/fbank/raw_fbank_tr05_cont.1.ark:7802799
021c0205 /scratch/ravanelm/exp/dirha/fbank/raw_fbank_tr05_cont.2.ark:28165619
403c0202 /scratch/ravanelm/exp/dirha/fbank/raw_fbank_tr05_cont.3.ark:42916859
207o010n /scratch/ravanelm/exp/dirha/fbank/raw_fbank_tr05_cont.3.ark:7390029
01tc020g /scratch/ravanelm/exp/dirha/fbank/raw_fbank_tr05_cont.2.ark:10128149
20ac010d /scratch/ravanelm/exp/dirha/fbank/raw_fbank_tr05_cont.3.ark:11085559
20po010c /scratch/ravanelm/exp/dirha/fbank/raw_fbank_tr05_cont.3.ark:32768919
017c020d /scratch/ravanelm/exp/dirha/fbank/raw_fbank_tr05_cont.1.ark:15096929
40gc021c /scratch/ravanelm/exp/dirha/fbank/raw_fbank_tr05_cont.4.ark:26841659
206c0107 /scratch/ravanelm/exp/dirha/fbank/raw_fbank_tr05_cont.3.ark:4375869
024c0212 /scratch/ravanelm/exp/dirha/fbank/raw_fbank_tr05_cont.2.ark:31952829
20fc0108 /scratch/ravanelm/exp/dirha/fbank/raw_fbank_tr05_cont.3.ark:19469479
01uc0205 /scratch/ravanelm/exp/dirha/fbank/raw_fbank_tr05_cont.2.ark:13267989
40ao030g /scratch/ravanelm/exp/dirha/fbank/raw_fbank_tr05_cont.4.ark:9787139
01yo0317 /scratch/ravanelm/exp/dirha/fbank/raw_fbank_tr05_cont.2.ark:22371859
401c020a /scratch/ravanelm/exp/dirha/fbank/raw_fbank_tr05_cont.3.ark:39887369
024o030w /scratch/ravanelm/exp/dirha/fbank/raw_fbank_tr05_cont.2.ark:33227749
209c010p /scratch/ravanelm/exp/dirha/fbank/raw_fbank_tr05_cont.3.ark:9872629
40ho0319 /scratch/ravanelm/exp/dirha/fbank/raw_fbank_tr05_cont.4.ark:31875969
020o030o /scratch/ravanelm/exp/dirha/fbank/raw_fbank_tr05_cont.2.ark:27443809
207o0104 /scratch/ravanelm/exp/dirha/fbank/raw_fbank_tr05_cont.3.ark:6732259
015o030n /scratch/ravanelm/exp/dirha/fbank/raw_fbank_tr05_cont.1.ark:11519079
020o0310 /scratch/ravanelm/exp/dirha/fbank/raw_fbank_tr05_cont.2.ark:27674399
029o0318 /scratch/ravanelm/exp/dirha/fbank/raw_fbank_tr05_cont.2.ark:45776479
020c020g /scratch/ravanelm/exp/dirha/fbank/raw_fbank_tr05_cont.2.ark:26408539
021c020e /scratch/ravanelm/exp/dirha/fbank/raw_fbank_tr05_cont.2.ark:28405889
403o030a /scratch/ravanelm/exp/dirha/fbank/raw_fbank_tr05_cont.3.ark:44397749
01ko0313 /scratch/ravanelm/exp/dirha/fbank/raw_fbank_tr05_cont.1.ark:49642779
403o0306 /scratch/ravanelm/exp/dirha/fbank/raw_fbank_tr05_cont.3.ark:44249149
024o030f /scratch/ravanelm/exp/dirha/fbank/raw_fbank_tr05_cont.2.ark:32776239
01ec021b /scratch/ravanelm/exp/dirha/fbank/raw_fbank_tr05_cont.1.ark:31754369
20rc010n /scratch/ravanelm/exp/dirha/fbank/raw_fbank_tr05_cont.3.ark:35637239
205o0106 /scratch/ravanelm/exp/dirha/fbank/raw_fbank_tr05_cont.3.ark:3313909
40bc020v /scratch/ravanelm/exp/dirha/fbank/raw_fbank_tr05_cont.4.ark:11722599
026o031a /scratch/ravanelm/exp/dirha/fbank/raw_fbank_tr05_cont.2.ark:36523979
013o030i /scratch/ravanelm/exp/dirha/fbank/raw_fbank_tr05_cont.1.ark:5486279
405o031e /scratch/ravanelm/exp/dirha/fbank/raw_fbank_tr05_cont.3.ark:50899769
209c010m /scratch/ravanelm/exp/dirha/fbank/raw_fbank_tr05_cont.3.ark:9779739
026c020i /scratch/ravanelm/exp/dirha/fbank/raw_fbank_tr05_cont.2.ark:34297099
01zc020x /scratch/ravanelm/exp/dirha/fbank/raw_fbank_tr05_cont.2.ark:23490759
20ho010p /scratch/ravanelm/exp/dirha/fbank/raw_fbank_tr05_cont.3.ark:23351109
01jc020y /scratch/ravanelm/exp/dirha/fbank/raw_fbank_tr05_cont.1.ark:43969079
019o0318 /scratch/ravanelm/exp/dirha/fbank/raw_fbank_tr05_cont.1.ark:23752509
014c0205 /scratch/ravanelm/exp/dirha/fbank/raw_fbank_tr05_cont.1.ark:6639019
01yo030a /scratch/ravanelm/exp/dirha/fbank/raw_fbank_tr05_cont.2.ark:21229149
40ec020n /scratch/ravanelm/exp/dirha/fbank/raw_fbank_tr05_cont.4.ark:19908909
014c0215 /scratch/ravanelm/exp/dirha/fbank/raw_fbank_tr05_cont.1.ark:7457019
01ic020w /scratch/ravanelm/exp/dirha/fbank/raw_fbank_tr05_cont.1.ark:40617319
40po030c /scratch/ravanelm/exp/dirha/fbank/raw_fbank_tr05_cont.4.ark:52948919
019c0217 /scratch/ravanelm/exp/dirha/fbank/raw_fbank_tr05_cont.1.ark:22147769
02eo030s /scratch/ravanelm/exp/dirha/fbank/raw_fbank_tr05_cont.3.ark:225829
027c0218 /scratch/ravanelm/exp/dirha/fbank/raw_fbank_tr05_cont.2.ark:37812759
40jo030t /scratch/ravanelm/exp/dirha/fbank/raw_fbank_tr05_cont.4.ark:37500179
408c021e /scratch/ravanelm/exp/dirha/fbank/raw_fbank_tr05_cont.4.ark:3510239
02bo030k /scratch/ravanelm/exp/dirha/fbank/raw_fbank_tr05_cont.2.ark:48130499
20bc010g /scratch/ravanelm/exp/dirha/fbank/raw_fbank_tr05_cont.3.ark:12868669
01ko031a /scratch/ravanelm/exp/dirha/fbank/raw_fbank_tr05_cont.1.ark:49923709
409o030k /scratch/ravanelm/exp/dirha/fbank/raw_fbank_tr05_cont.4.ark:6858369
406c021d /scratch/ravanelm/exp/dirha/fbank/raw_fbank_tr05_cont.3.ark:52137639
01to031b /scratch/ravanelm/exp/dirha/fbank/raw_fbank_tr05_cont.2.ark:12889569
20rc0101 /scratch/ravanelm/exp/dirha/fbank/raw_fbank_tr05_cont.3.ark:35016979
026c0207 /scratch/ravanelm/exp/dirha/fbank/raw_fbank_tr05_cont.2.ark:34054929
40bo0310 /scratch/ravanelm/exp/dirha/fbank/raw_fbank_tr05_cont.4.ark:13580719
01qo030b /scratch/ravanelm/exp/dirha/fbank/raw_fbank_tr05_cont.2.ark:5398649
20lc0105 /scratch/ravanelm/exp/dirha/fbank/raw_fbank_tr05_cont.3.ark:25101719
01po0313 /scratch/ravanelm/exp/dirha/fbank/raw_fbank_tr05_cont.2.ark:3308669
40cc0216 /scratch/ravanelm/exp/dirha/fbank/raw_fbank_tr05_cont.4.ark:14916469
028o0315 /scratch/ravanelm/exp/dirha/fbank/raw_fbank_tr05_cont.2.ark:42541799
207o010q /scratch/ravanelm/exp/dirha/fbank/raw_fbank_tr05_cont.3.ark:7480439
407o0312 /scratch/ravanelm/exp/dirha/fbank/raw_fbank_tr05_cont.4.ark:2099129
029o030q /scratch/ravanelm/exp/dirha/fbank/raw_fbank_tr05_cont.2.ark:45141579
01ko0315 /scratch/ravanelm/exp/dirha/fbank/raw_fbank_tr05_cont.1.ark:49707599
40cc020a /scratch/ravanelm/exp/dirha/fbank/raw_fbank_tr05_cont.4.ark:14199789
40do030y /scratch/ravanelm/exp/dirha/fbank/raw_fbank_tr05_cont.4.ark:18943689
027o0303 /scratch/ravanelm/exp/dirha/fbank/raw_fbank_tr05_cont.2.ark:38118639
01to0316 /scratch/ravanelm/exp/dirha/fbank/raw_fbank_tr05_cont.2.ark:12711939
20ec010j /scratch/ravanelm/exp/dirha/fbank/raw_fbank_tr05_cont.3.ark:18091269
016c020j /scratch/ravanelm/exp/dirha/fbank/raw_fbank_tr05_cont.1.ark:12786139
01uo030t /scratch/ravanelm/exp/dirha/fbank/raw_fbank_tr05_cont.2.ark:15746479
01kc0208 /scratch/ravanelm/exp/dirha/fbank/raw_fbank_tr05_cont.1.ark:46738779
40io030m /scratch/ravanelm/exp/dirha/fbank/raw_fbank_tr05_cont.4.ark:34206519
404c020y /scratch/ravanelm/exp/dirha/fbank/raw_fbank_tr05_cont.3.ark:46374279
014o0312 /scratch/ravanelm/exp/dirha/fbank/raw_fbank_tr05_cont.1.ark:9071279
018o030f /scratch/ravanelm/exp/dirha/fbank/raw_fbank_tr05_cont.1.ark:19684089
20hc0106 /scratch/ravanelm/exp/dirha/fbank/raw_fbank_tr05_cont.3.ark:22188399
408o030e /scratch/ravanelm/exp/dirha/fbank/raw_fbank_tr05_cont.4.ark:3945869
024c020g /scratch/ravanelm/exp/dirha/fbank/raw_fbank_tr05_cont.2.ark:31359969
406c020m /scratch/ravanelm/exp/dirha/fbank/raw_fbank_tr05_cont.3.ark:51513419
208o010b /scratch/ravanelm/exp/dirha/fbank/raw_fbank_tr05_cont.3.ark:8710759
01gc0212 /scratch/ravanelm/exp/dirha/fbank/raw_fbank_tr05_cont.1.ark:37435759
407c020i /scratch/ravanelm/exp/dirha/fbank/raw_fbank_tr05_cont.3.ark:54206909
01uc020i /scratch/ravanelm/exp/dirha/fbank/raw_fbank_tr05_cont.2.ark:13682139
40fo0310 /scratch/ravanelm/exp/dirha/fbank/raw_fbank_tr05_cont.4.ark:24581859
407c020d /scratch/ravanelm/exp/dirha/fbank/raw_fbank_tr05_cont.3.ark:54031719
408c0205 /scratch/ravanelm/exp/dirha/fbank/raw_fbank_tr05_cont.4.ark:2486679
20gc010d /scratch/ravanelm/exp/dirha/fbank/raw_fbank_tr05_cont.3.ark:21023159
40ko0309 /scratch/ravanelm/exp/dirha/fbank/raw_fbank_tr05_cont.4.ark:39897749
02ec0217 /scratch/ravanelm/exp/dirha/fbank/raw_fbank_tr05_cont.2.ark:53556019
40jc021b /scratch/ravanelm/exp/dirha/fbank/raw_fbank_tr05_cont.4.ark:36380819
014o031b /scratch/ravanelm/exp/dirha/fbank/raw_fbank_tr05_cont.1.ark:9335429
01qo030w /scratch/ravanelm/exp/dirha/fbank/raw_fbank_tr05_cont.2.ark:6097679
011o0310 /scratch/ravanelm/exp/dirha/fbank/raw_fbank_tr05_cont.1.ark:2759239
40ic020i /scratch/ravanelm/exp/dirha/fbank/raw_fbank_tr05_cont.4.ark:32584829
027o030g /scratch/ravanelm/exp/dirha/fbank/raw_fbank_tr05_cont.2.ark:38614949
407c020v /scratch/ravanelm/exp/dirha/fbank/raw_fbank_tr05_cont.3.ark:54563339
02co030b /scratch/ravanelm/exp/dirha/fbank/raw_fbank_tr05_cont.2.ark:50819319
40kc0204 /scratch/ravanelm/exp/dirha/fbank/raw_fbank_tr05_cont.4.ark:38343279
409o030x /scratch/ravanelm/exp/dirha/fbank/raw_fbank_tr05_cont.4.ark:7265679
01pc021f /scratch/ravanelm/exp/dirha/fbank/raw_fbank_tr05_cont.2.ark:1888859
01uc0215 /scratch/ravanelm/exp/dirha/fbank/raw_fbank_tr05_cont.2.ark:14411429
02cc020w /scratch/ravanelm/exp/dirha/fbank/raw_fbank_tr05_cont.2.ark:50020559
401c020x /scratch/ravanelm/exp/dirha/fbank/raw_fbank_tr05_cont.3.ark:40519539
020c0204 /scratch/ravanelm/exp/dirha/fbank/raw_fbank_tr05_cont.2.ark:26165699
20oo0109 /scratch/ravanelm/exp/dirha/fbank/raw_fbank_tr05_cont.3.ark:31117989
40eo030n /scratch/ravanelm/exp/dirha/fbank/raw_fbank_tr05_cont.4.ark:21329659
028c021a /scratch/ravanelm/exp/dirha/fbank/raw_fbank_tr05_cont.2.ark:40922019
024o030a /scratch/ravanelm/exp/dirha/fbank/raw_fbank_tr05_cont.2.ark:32609329
404o030u /scratch/ravanelm/exp/dirha/fbank/raw_fbank_tr05_cont.3.ark:47721289
013o0319 /scratch/ravanelm/exp/dirha/fbank/raw_fbank_tr05_cont.1.ark:6339009
40dc0218 /scratch/ravanelm/exp/dirha/fbank/raw_fbank_tr05_cont.4.ark:17743629
40cc020u /scratch/ravanelm/exp/dirha/fbank/raw_fbank_tr05_cont.4.ark:14637029
01dc020f /scratch/ravanelm/exp/dirha/fbank/raw_fbank_tr05_cont.1.ark:27777009
01uc020q /scratch/ravanelm/exp/dirha/fbank/raw_fbank_tr05_cont.2.ark:13908059
409o0314 /scratch/ravanelm/exp/dirha/fbank/raw_fbank_tr05_cont.4.ark:7446089
20qo0109 /scratch/ravanelm/exp/dirha/fbank/raw_fbank_tr05_cont.3.ark:34352279
01to030z /scratch/ravanelm/exp/dirha/fbank/raw_fbank_tr05_cont.2.ark:12459049
02ec020s /scratch/ravanelm/exp/dirha/fbank/raw_fbank_tr05_cont.2.ark:53112889
029o030a /scratch/ravanelm/exp/dirha/fbank/raw_fbank_tr05_cont.2.ark:44595499
01mc020m /scratch/ravanelm/exp/dirha/fbank/raw_fbank_tr05_cont.1.ark:54603069
01mc0219 /scratch/ravanelm/exp/dirha/fbank/raw_fbank_tr05_cont.1.ark:55172639
011c0201 /scratch/ravanelm/exp/dirha/fbank/raw_fbank_tr05_cont.1.ark:9
02ec020u /scratch/ravanelm/exp/dirha/fbank/raw_fbank_tr05_cont.2.ark:53156309
01qo030m /scratch/ravanelm/exp/dirha/fbank/raw_fbank_tr05_cont.2.ark:5799059
407o030r /scratch/ravanelm/exp/dirha/fbank/raw_fbank_tr05_cont.4.ark:1662959
01wc0213 /scratch/ravanelm/exp/dirha/fbank/raw_fbank_tr05_cont.2.ark:17703399
02bc0219 /scratch/ravanelm/exp/dirha/fbank/raw_fbank_tr05_cont.2.ark:47236239
205c0104 /scratch/ravanelm/exp/dirha/fbank/raw_fbank_tr05_cont.3.ark:2512619
01eo0315 /scratch/ravanelm/exp/dirha/fbank/raw_fbank_tr05_cont.1.ark:33048969
018c020c /scratch/ravanelm/exp/dirha/fbank/raw_fbank_tr05_cont.1.ark:17923919
01rc0219 /scratch/ravanelm/exp/dirha/fbank/raw_fbank_tr05_cont.2.ark:7982589
013c0213 /scratch/ravanelm/exp/dirha/fbank/raw_fbank_tr05_cont.1.ark:4667099
405o030s /scratch/ravanelm/exp/dirha/fbank/raw_fbank_tr05_cont.3.ark:50246469
01do030v /scratch/ravanelm/exp/dirha/fbank/raw_fbank_tr05_cont.1.ark:29740479
02eo030r /scratch/ravanelm/exp/dirha/fbank/raw_fbank_tr05_cont.3.ark:172839
01ec020t /scratch/ravanelm/exp/dirha/fbank/raw_fbank_tr05_cont.1.ark:31179269
01ec0207 /scratch/ravanelm/exp/dirha/fbank/raw_fbank_tr05_cont.1.ark:30599449
01uo0315 /scratch/ravanelm/exp/dirha/fbank/raw_fbank_tr05_cont.2.ark:16299679
02cc020h /scratch/ravanelm/exp/dirha/fbank/raw_fbank_tr05_cont.2.ark:49674339
40dc020j /scratch/ravanelm/exp/dirha/fbank/raw_fbank_tr05_cont.4.ark:16983479
028o030k /scratch/ravanelm/exp/dirha/fbank/raw_fbank_tr05_cont.2.ark:41844529
406o031d /scratch/ravanelm/exp/dirha/fbank/raw_fbank_tr05_cont.3.ark:53722969
20ec010l /scratch/ravanelm/exp/dirha/fbank/raw_fbank_tr05_cont.3.ark:18141809
209o010j /scratch/ravanelm/exp/dirha/fbank/raw_fbank_tr05_cont.3.ark:10486829
01mo030k /scratch/ravanelm/exp/dirha/fbank/raw_fbank_tr05_cont.1.ark:55967099
40gc0208 /scratch/ravanelm/exp/dirha/fbank/raw_fbank_tr05_cont.4.ark:25427459
204o0101 /scratch/ravanelm/exp/dirha/fbank/raw_fbank_tr05_cont.3.ark:1603829
40lc020u /scratch/ravanelm/exp/dirha/fbank/raw_fbank_tr05_cont.4.ark:42146379
40do0315 /scratch/ravanelm/exp/dirha/fbank/raw_fbank_tr05_cont.4.ark:19180179
20nc010m /scratch/ravanelm/exp/dirha/fbank/raw_fbank_tr05_cont.3.ark:29137459
01mo030c /scratch/ravanelm/exp/dirha/fbank/raw_fbank_tr05_cont.1.ark:55777539
208c0105 /scratch/ravanelm/exp/dirha/fbank/raw_fbank_tr05_cont.3.ark:7736789
40dc020i /scratch/ravanelm/exp/dirha/fbank/raw_fbank_tr05_cont.4.ark:16953609
01ic020p /scratch/ravanelm/exp/dirha/fbank/raw_fbank_tr05_cont.1.ark:40415469
40hc021a /scratch/ravanelm/exp/dirha/fbank/raw_fbank_tr05_cont.4.ark:30292309
021c020u /scratch/ravanelm/exp/dirha/fbank/raw_fbank_tr05_cont.2.ark:28903009
407c020g /scratch/ravanelm/exp/dirha/fbank/raw_fbank_tr05_cont.3.ark:54144729
01yc021f /scratch/ravanelm/exp/dirha/fbank/raw_fbank_tr05_cont.2.ark:20905259
017o0314 /scratch/ravanelm/exp/dirha/fbank/raw_fbank_tr05_cont.1.ark:17302579
405c0214 /scratch/ravanelm/exp/dirha/fbank/raw_fbank_tr05_cont.3.ark:49169139
01zo0314 /scratch/ravanelm/exp/dirha/fbank/raw_fbank_tr05_cont.2.ark:25696979
01zc020v /scratch/ravanelm/exp/dirha/fbank/raw_fbank_tr05_cont.2.ark:23414619
015o0305 /scratch/ravanelm/exp/dirha/fbank/raw_fbank_tr05_cont.1.ark:10898579
40eo030e /scratch/ravanelm/exp/dirha/fbank/raw_fbank_tr05_cont.4.ark:21070749
207c010g /scratch/ravanelm/exp/dirha/fbank/raw_fbank_tr05_cont.3.ark:6362199
408c0210 /scratch/ravanelm/exp/dirha/fbank/raw_fbank_tr05_cont.4.ark:3212659
20co010i /scratch/ravanelm/exp/dirha/fbank/raw_fbank_tr05_cont.3.ark:15501859
017o0307 /scratch/ravanelm/exp/dirha/fbank/raw_fbank_tr05_cont.1.ark:16262229
013c021a /scratch/ravanelm/exp/dirha/fbank/raw_fbank_tr05_cont.1.ark:4840989
024o0310 /scratch/ravanelm/exp/dirha/fbank/raw_fbank_tr05_cont.2.ark:33375029
01fo030a /scratch/ravanelm/exp/dirha/fbank/raw_fbank_tr05_cont.1.ark:35149239
024c020t /scratch/ravanelm/exp/dirha/fbank/raw_fbank_tr05_cont.2.ark:31716599
40hc0216 /scratch/ravanelm/exp/dirha/fbank/raw_fbank_tr05_cont.4.ark:30174149
20gc010j /scratch/ravanelm/exp/dirha/fbank/raw_fbank_tr05_cont.3.ark:21162779
02co0305 /scratch/ravanelm/exp/dirha/fbank/raw_fbank_tr05_cont.2.ark:50659099
027o0308 /scratch/ravanelm/exp/dirha/fbank/raw_fbank_tr05_cont.2.ark:38321589
40mo0301 /scratch/ravanelm/exp/dirha/fbank/raw_fbank_tr05_cont.4.ark:46388679
018o030t /scratch/ravanelm/exp/dirha/fbank/raw_fbank_tr05_cont.1.ark:20238749
027c020f /scratch/ravanelm/exp/dirha/fbank/raw_fbank_tr05_cont.2.ark:37018969
20lo0109 /scratch/ravanelm/exp/dirha/fbank/raw_fbank_tr05_cont.3.ark:26148699
20vc010p /scratch/ravanelm/exp/dirha/fbank/raw_fbank_tr05_cont.3.ark:38730329
01ro0302 /scratch/ravanelm/exp/dirha/fbank/raw_fbank_tr05_cont.2.ark:8226259
028c020r /scratch/ravanelm/exp/dirha/fbank/raw_fbank_tr05_cont.2.ark:40406409
024c020r /scratch/ravanelm/exp/dirha/fbank/raw_fbank_tr05_cont.2.ark:31658979
40io030s /scratch/ravanelm/exp/dirha/fbank/raw_fbank_tr05_cont.4.ark:34377139
20fc010f /scratch/ravanelm/exp/dirha/fbank/raw_fbank_tr05_cont.3.ark:19635289
404c0213 /scratch/ravanelm/exp/dirha/fbank/raw_fbank_tr05_cont.3.ark:46498549
01fo0311 /scratch/ravanelm/exp/dirha/fbank/raw_fbank_tr05_cont.1.ark:35962489
017c0207 /scratch/ravanelm/exp/dirha/fbank/raw_fbank_tr05_cont.1.ark:14965629
027o0314 /scratch/ravanelm/exp/dirha/fbank/raw_fbank_tr05_cont.2.ark:39529549
015c020n /scratch/ravanelm/exp/dirha/fbank/raw_fbank_tr05_cont.1.ark:10081859
20po010l /scratch/ravanelm/exp/dirha/fbank/raw_fbank_tr05_cont.3.ark:33030629
020c0215 /scratch/ravanelm/exp/dirha/fbank/raw_fbank_tr05_cont.2.ark:26897009
01qc020b /scratch/ravanelm/exp/dirha/fbank/raw_fbank_tr05_cont.2.ark:3990549
01lo031a /scratch/ravanelm/exp/dirha/fbank/raw_fbank_tr05_cont.1.ark:53885519
405o030z /scratch/ravanelm/exp/dirha/fbank/raw_fbank_tr05_cont.3.ark:50438279
026o030l /scratch/ravanelm/exp/dirha/fbank/raw_fbank_tr05_cont.2.ark:35758749
01kc020i /scratch/ravanelm/exp/dirha/fbank/raw_fbank_tr05_cont.1.ark:47034809
01yo030q /scratch/ravanelm/exp/dirha/fbank/raw_fbank_tr05_cont.2.ark:21795229
013c021b /scratch/ravanelm/exp/dirha/fbank/raw_fbank_tr05_cont.1.ark:4854579
40ac020r /scratch/ravanelm/exp/dirha/fbank/raw_fbank_tr05_cont.4.ark:8650009
40ko030c /scratch/ravanelm/exp/dirha/fbank/raw_fbank_tr05_cont.4.ark:40023559
20mo010p /scratch/ravanelm/exp/dirha/fbank/raw_fbank_tr05_cont.3.ark:28334469
205o010r /scratch/ravanelm/exp/dirha/fbank/raw_fbank_tr05_cont.3.ark:4182219
409o0317 /scratch/ravanelm/exp/dirha/fbank/raw_fbank_tr05_cont.4.ark:7548659
40lo0310 /scratch/ravanelm/exp/dirha/fbank/raw_fbank_tr05_cont.4.ark:44438969
40cc0208 /scratch/ravanelm/exp/dirha/fbank/raw_fbank_tr05_cont.4.ark:14152529
40jc0214 /scratch/ravanelm/exp/dirha/fbank/raw_fbank_tr05_cont.4.ark:36170729
017o030h /scratch/ravanelm/exp/dirha/fbank/raw_fbank_tr05_cont.1.ark:16555889
208c0108 /scratch/ravanelm/exp/dirha/fbank/raw_fbank_tr05_cont.3.ark:7836319
014o030n /scratch/ravanelm/exp/dirha/fbank/raw_fbank_tr05_cont.1.ark:8496629
20cc010h /scratch/ravanelm/exp/dirha/fbank/raw_fbank_tr05_cont.3.ark:14731589
40ac020x /scratch/ravanelm/exp/dirha/fbank/raw_fbank_tr05_cont.4.ark:8845429
014o030y /scratch/ravanelm/exp/dirha/fbank/raw_fbank_tr05_cont.1.ark:8934119
015c0215 /scratch/ravanelm/exp/dirha/fbank/raw_fbank_tr05_cont.1.ark:10486999
01go030w /scratch/ravanelm/exp/dirha/fbank/raw_fbank_tr05_cont.1.ark:38868519
205c0105 /scratch/ravanelm/exp/dirha/fbank/raw_fbank_tr05_cont.3.ark:2533049
40bc0209 /scratch/ravanelm/exp/dirha/fbank/raw_fbank_tr05_cont.4.ark:11116059
01zc020g /scratch/ravanelm/exp/dirha/fbank/raw_fbank_tr05_cont.2.ark:23051369
024c0213 /scratch/ravanelm/exp/dirha/fbank/raw_fbank_tr05_cont.2.ark:31995579
40bo030j /scratch/ravanelm/exp/dirha/fbank/raw_fbank_tr05_cont.4.ark:13000039
40jo030f /scratch/ravanelm/exp/dirha/fbank/raw_fbank_tr05_cont.4.ark:36989679
01io030m /scratch/ravanelm/exp/dirha/fbank/raw_fbank_tr05_cont.1.ark:41980469
40lo030i /scratch/ravanelm/exp/dirha/fbank/raw_fbank_tr05_cont.4.ark:43540429
01jc0212 /scratch/ravanelm/exp/dirha/fbank/raw_fbank_tr05_cont.1.ark:44115359
20eo010q /scratch/ravanelm/exp/dirha/fbank/raw_fbank_tr05_cont.3.ark:19225479
40co030y /scratch/ravanelm/exp/dirha/fbank/raw_fbank_tr05_cont.4.ark:15985489
404c0206 /scratch/ravanelm/exp/dirha/fbank/raw_fbank_tr05_cont.3.ark:45701399
405o0315 /scratch/ravanelm/exp/dirha/fbank/raw_fbank_tr05_cont.3.ark:50627539
01do030a /scratch/ravanelm/exp/dirha/fbank/raw_fbank_tr05_cont.1.ark:29123869
207o0101 /scratch/ravanelm/exp/dirha/fbank/raw_fbank_tr05_cont.3.ark:6594169
20hc010j /scratch/ravanelm/exp/dirha/fbank/raw_fbank_tr05_cont.3.ark:22458549
01mo031a /scratch/ravanelm/exp/dirha/fbank/raw_fbank_tr05_cont.2.ark:262129
01mc0216 /scratch/ravanelm/exp/dirha/fbank/raw_fbank_tr05_cont.1.ark:55132989
028o030i /scratch/ravanelm/exp/dirha/fbank/raw_fbank_tr05_cont.2.ark:41746629
20oo010q /scratch/ravanelm/exp/dirha/fbank/raw_fbank_tr05_cont.3.ark:31746899
01go0310 /scratch/ravanelm/exp/dirha/fbank/raw_fbank_tr05_cont.1.ark:39020999
021o031b /scratch/ravanelm/exp/dirha/fbank/raw_fbank_tr05_cont.2.ark:30784169
01lo0307 /scratch/ravanelm/exp/dirha/fbank/raw_fbank_tr05_cont.1.ark:52121269
20do0101 /scratch/ravanelm/exp/dirha/fbank/raw_fbank_tr05_cont.3.ark:16526879
20oo0101 /scratch/ravanelm/exp/dirha/fbank/raw_fbank_tr05_cont.3.ark:30909829
01lo031e /scratch/ravanelm/exp/dirha/fbank/raw_fbank_tr05_cont.1.ark:54020599
409c020n /scratch/ravanelm/exp/dirha/fbank/raw_fbank_tr05_cont.4.ark:5475499
40no0308 /scratch/ravanelm/exp/dirha/fbank/raw_fbank_tr05_cont.4.ark:49891279
20po010p /scratch/ravanelm/exp/dirha/fbank/raw_fbank_tr05_cont.3.ark:33150909
403o030w /scratch/ravanelm/exp/dirha/fbank/raw_fbank_tr05_cont.3.ark:45062609
20do010e /scratch/ravanelm/exp/dirha/fbank/raw_fbank_tr05_cont.3.ark:17004149
015o0303 /scratch/ravanelm/exp/dirha/fbank/raw_fbank_tr05_cont.1.ark:10849239
408c021g /scratch/ravanelm/exp/dirha/fbank/raw_fbank_tr05_cont.4.ark:3534659
01rc020o /scratch/ravanelm/exp/dirha/fbank/raw_fbank_tr05_cont.2.ark:7396719
01yo030h /scratch/ravanelm/exp/dirha/fbank/raw_fbank_tr05_cont.2.ark:21452319
01yo030d /scratch/ravanelm/exp/dirha/fbank/raw_fbank_tr05_cont.2.ark:21329319
408c020p /scratch/ravanelm/exp/dirha/fbank/raw_fbank_tr05_cont.4.ark:2984879
01zo030v /scratch/ravanelm/exp/dirha/fbank/raw_fbank_tr05_cont.2.ark:25319429
021o030q /scratch/ravanelm/exp/dirha/fbank/raw_fbank_tr05_cont.2.ark:30163659
01uc0207 /scratch/ravanelm/exp/dirha/fbank/raw_fbank_tr05_cont.2.ark:13328489
01wo030m /scratch/ravanelm/exp/dirha/fbank/raw_fbank_tr05_cont.2.ark:18641469
02cc0209 /scratch/ravanelm/exp/dirha/fbank/raw_fbank_tr05_cont.2.ark:49491339
01dc020h /scratch/ravanelm/exp/dirha/fbank/raw_fbank_tr05_cont.1.ark:27855109
02eo0303 /scratch/ravanelm/exp/dirha/fbank/raw_fbank_tr05_cont.2.ark:53931079
027o030c /scratch/ravanelm/exp/dirha/fbank/raw_fbank_tr05_cont.2.ark:38465029
01pc020z /scratch/ravanelm/exp/dirha/fbank/raw_fbank_tr05_cont.2.ark:1375339
409o030e /scratch/ravanelm/exp/dirha/fbank/raw_fbank_tr05_cont.4.ark:6666709
01jo0305 /scratch/ravanelm/exp/dirha/fbank/raw_fbank_tr05_cont.1.ark:44772009
01lo0303 /scratch/ravanelm/exp/dirha/fbank/raw_fbank_tr05_cont.1.ark:51979869
40go030c /scratch/ravanelm/exp/dirha/fbank/raw_fbank_tr05_cont.4.ark:27473389
01bc020m /scratch/ravanelm/exp/dirha/fbank/raw_fbank_tr05_cont.1.ark:24475369
20po0101 /scratch/ravanelm/exp/dirha/fbank/raw_fbank_tr05_cont.3.ark:32423549
026o030t /scratch/ravanelm/exp/dirha/fbank/raw_fbank_tr05_cont.2.ark:35984429
01uc020w /scratch/ravanelm/exp/dirha/fbank/raw_fbank_tr05_cont.2.ark:14079079
40lo0314 /scratch/ravanelm/exp/dirha/fbank/raw_fbank_tr05_cont.4.ark:44583409
40ko0306 /scratch/ravanelm/exp/dirha/fbank/raw_fbank_tr05_cont.4.ark:39829779
40nc0219 /scratch/ravanelm/exp/dirha/fbank/raw_fbank_tr05_cont.4.ark:49390989
40ko0317 /scratch/ravanelm/exp/dirha/fbank/raw_fbank_tr05_cont.4.ark:41091449
01mc020k /scratch/ravanelm/exp/dirha/fbank/raw_fbank_tr05_cont.1.ark:54548409
01uo0311 /scratch/ravanelm/exp/dirha/fbank/raw_fbank_tr05_cont.2.ark:16138719
029o030h /scratch/ravanelm/exp/dirha/fbank/raw_fbank_tr05_cont.2.ark:44809269
01eo030p /scratch/ravanelm/exp/dirha/fbank/raw_fbank_tr05_cont.1.ark:32534129
018o030e /scratch/ravanelm/exp/dirha/fbank/raw_fbank_tr05_cont.1.ark:19654779
01ro030p /scratch/ravanelm/exp/dirha/fbank/raw_fbank_tr05_cont.2.ark:8925749
40ac0209 /scratch/ravanelm/exp/dirha/fbank/raw_fbank_tr05_cont.4.ark:8073789
40hc020i /scratch/ravanelm/exp/dirha/fbank/raw_fbank_tr05_cont.4.ark:29550309
01dc020b /scratch/ravanelm/exp/dirha/fbank/raw_fbank_tr05_cont.1.ark:27648289
01ko030l /scratch/ravanelm/exp/dirha/fbank/raw_fbank_tr05_cont.1.ark:48928439
40gc0215 /scratch/ravanelm/exp/dirha/fbank/raw_fbank_tr05_cont.4.ark:26601249
20do0106 /scratch/ravanelm/exp/dirha/fbank/raw_fbank_tr05_cont.3.ark:16752869
02cc021d /scratch/ravanelm/exp/dirha/fbank/raw_fbank_tr05_cont.2.ark:50448729
20co010q /scratch/ravanelm/exp/dirha/fbank/raw_fbank_tr05_cont.3.ark:15719459
40pc020c /scratch/ravanelm/exp/dirha/fbank/raw_fbank_tr05_cont.4.ark:51641709
40mo030i /scratch/ravanelm/exp/dirha/fbank/raw_fbank_tr05_cont.4.ark:47016269
20ac0104 /scratch/ravanelm/exp/dirha/fbank/raw_fbank_tr05_cont.3.ark:10798009
017o0315 /scratch/ravanelm/exp/dirha/fbank/raw_fbank_tr05_cont.1.ark:17314529
20bo0106 /scratch/ravanelm/exp/dirha/fbank/raw_fbank_tr05_cont.3.ark:13301729
027o0301 /scratch/ravanelm/exp/dirha/fbank/raw_fbank_tr05_cont.2.ark:38045699
40jo030p /scratch/ravanelm/exp/dirha/fbank/raw_fbank_tr05_cont.4.ark:37372299
01uc020n /scratch/ravanelm/exp/dirha/fbank/raw_fbank_tr05_cont.2.ark:13836209
20pc010e /scratch/ravanelm/exp/dirha/fbank/raw_fbank_tr05_cont.3.ark:32097989
40kc021e /scratch/ravanelm/exp/dirha/fbank/raw_fbank_tr05_cont.4.ark:39630899
20eo0103 /scratch/ravanelm/exp/dirha/fbank/raw_fbank_tr05_cont.3.ark:18339749
40gc020i /scratch/ravanelm/exp/dirha/fbank/raw_fbank_tr05_cont.4.ark:25787479
40no0302 /scratch/ravanelm/exp/dirha/fbank/raw_fbank_tr05_cont.4.ark:49598539
02bo030e /scratch/ravanelm/exp/dirha/fbank/raw_fbank_tr05_cont.2.ark:47929879
40mo030r /scratch/ravanelm/exp/dirha/fbank/raw_fbank_tr05_cont.4.ark:47342379
407o0302 /scratch/ravanelm/exp/dirha/fbank/raw_fbank_tr05_cont.4.ark:674049
01ko030c /scratch/ravanelm/exp/dirha/fbank/raw_fbank_tr05_cont.1.ark:48540729
404c020k /scratch/ravanelm/exp/dirha/fbank/raw_fbank_tr05_cont.3.ark:46036899
403c020g /scratch/ravanelm/exp/dirha/fbank/raw_fbank_tr05_cont.3.ark:43177839
409c020p /scratch/ravanelm/exp/dirha/fbank/raw_fbank_tr05_cont.4.ark:5531799
408c020w /scratch/ravanelm/exp/dirha/fbank/raw_fbank_tr05_cont.4.ark:3152129
404c020e /scratch/ravanelm/exp/dirha/fbank/raw_fbank_tr05_cont.3.ark:45893039
020o030k /scratch/ravanelm/exp/dirha/fbank/raw_fbank_tr05_cont.2.ark:27376169
01lo030e /scratch/ravanelm/exp/dirha/fbank/raw_fbank_tr05_cont.1.ark:52507239
014c0219 /scratch/ravanelm/exp/dirha/fbank/raw_fbank_tr05_cont.1.ark:7541739
204o010h /scratch/ravanelm/exp/dirha/fbank/raw_fbank_tr05_cont.3.ark:2079589
20eo0107 /scratch/ravanelm/exp/dirha/fbank/raw_fbank_tr05_cont.3.ark:18505869
01zc020b /scratch/ravanelm/exp/dirha/fbank/raw_fbank_tr05_cont.2.ark:22880779
028c020q /scratch/ravanelm/exp/dirha/fbank/raw_fbank_tr05_cont.2.ark:40373419
20ao010m /scratch/ravanelm/exp/dirha/fbank/raw_fbank_tr05_cont.3.ark:12288549
01wo030p /scratch/ravanelm/exp/dirha/fbank/raw_fbank_tr05_cont.2.ark:18713489
407c020r /scratch/ravanelm/exp/dirha/fbank/raw_fbank_tr05_cont.3.ark:54468459
015o030d /scratch/ravanelm/exp/dirha/fbank/raw_fbank_tr05_cont.1.ark:11173179
40ko030k /scratch/ravanelm/exp/dirha/fbank/raw_fbank_tr05_cont.4.ark:40266479
014o0306 /scratch/ravanelm/exp/dirha/fbank/raw_fbank_tr05_cont.1.ark:7927079
404o0303 /scratch/ravanelm/exp/dirha/fbank/raw_fbank_tr05_cont.3.ark:46878519
20ic0101 /scratch/ravanelm/exp/dirha/fbank/raw_fbank_tr05_cont.3.ark:23384099
01io0312 /scratch/ravanelm/exp/dirha/fbank/raw_fbank_tr05_cont.1.ark:42572389
40ao0305 /scratch/ravanelm/exp/dirha/fbank/raw_fbank_tr05_cont.4.ark:9419049
029c0206 /scratch/ravanelm/exp/dirha/fbank/raw_fbank_tr05_cont.2.ark:43002699
40eo0303 /scratch/ravanelm/exp/dirha/fbank/raw_fbank_tr05_cont.4.ark:20710979
01go030s /scratch/ravanelm/exp/dirha/fbank/raw_fbank_tr05_cont.1.ark:38761439
028c020h /scratch/ravanelm/exp/dirha/fbank/raw_fbank_tr05_cont.2.ark:40133749
20ec010k /scratch/ravanelm/exp/dirha/fbank/raw_fbank_tr05_cont.3.ark:18131779
02co031e /scratch/ravanelm/exp/dirha/fbank/raw_fbank_tr05_cont.2.ark:52207049
40co0311 /scratch/ravanelm/exp/dirha/fbank/raw_fbank_tr05_cont.4.ark:16081299
01io030e /scratch/ravanelm/exp/dirha/fbank/raw_fbank_tr05_cont.1.ark:41693229
01wo031c /scratch/ravanelm/exp/dirha/fbank/raw_fbank_tr05_cont.2.ark:19438139
20pc0106 /scratch/ravanelm/exp/dirha/fbank/raw_fbank_tr05_cont.3.ark:31912389
020o030q /scratch/ravanelm/exp/dirha/fbank/raw_fbank_tr05_cont.2.ark:27497709
20po010h /scratch/ravanelm/exp/dirha/fbank/raw_fbank_tr05_cont.3.ark:32883629
407o030m /scratch/ravanelm/exp/dirha/fbank/raw_fbank_tr05_cont.4.ark:1461729
404o0312 /scratch/ravanelm/exp/dirha/fbank/raw_fbank_tr05_cont.3.ark:47925889
20nc010e /scratch/ravanelm/exp/dirha/fbank/raw_fbank_tr05_cont.3.ark:28844339
01do030w /scratch/ravanelm/exp/dirha/fbank/raw_fbank_tr05_cont.1.ark:29757349
021o030s /scratch/ravanelm/exp/dirha/fbank/raw_fbank_tr05_cont.2.ark:30229159
40fo030x /scratch/ravanelm/exp/dirha/fbank/raw_fbank_tr05_cont.4.ark:24524409
20ic010f /scratch/ravanelm/exp/dirha/fbank/raw_fbank_tr05_cont.3.ark:23780199
20nc010f /scratch/ravanelm/exp/dirha/fbank/raw_fbank_tr05_cont.3.ark:28883489
40nc0211 /scratch/ravanelm/exp/dirha/fbank/raw_fbank_tr05_cont.4.ark:49131869
01tc020i /scratch/ravanelm/exp/dirha/fbank/raw_fbank_tr05_cont.2.ark:10198929
01mc020v /scratch/ravanelm/exp/dirha/fbank/raw_fbank_tr05_cont.1.ark:54823619
209c010f /scratch/ravanelm/exp/dirha/fbank/raw_fbank_tr05_cont.3.ark:9633129
01ro030k /scratch/ravanelm/exp/dirha/fbank/raw_fbank_tr05_cont.2.ark:8745639
02co031d /scratch/ravanelm/exp/dirha/fbank/raw_fbank_tr05_cont.2.ark:52148139
20ho0108 /scratch/ravanelm/exp/dirha/fbank/raw_fbank_tr05_cont.3.ark:22862119
01bc020t /scratch/ravanelm/exp/dirha/fbank/raw_fbank_tr05_cont.1.ark:24771899
40ac0215 /scratch/ravanelm/exp/dirha/fbank/raw_fbank_tr05_cont.4.ark:9043509
403o030c /scratch/ravanelm/exp/dirha/fbank/raw_fbank_tr05_cont.3.ark:44460409
40co0316 /scratch/ravanelm/exp/dirha/fbank/raw_fbank_tr05_cont.4.ark:16170289
206o010m /scratch/ravanelm/exp/dirha/fbank/raw_fbank_tr05_cont.3.ark:5655539
026o0304 /scratch/ravanelm/exp/dirha/fbank/raw_fbank_tr05_cont.2.ark:35241319
40jc0203 /scratch/ravanelm/exp/dirha/fbank/raw_fbank_tr05_cont.4.ark:35193099
205c010l /scratch/ravanelm/exp/dirha/fbank/raw_fbank_tr05_cont.3.ark:2988809
01kc0211 /scratch/ravanelm/exp/dirha/fbank/raw_fbank_tr05_cont.1.ark:47620659
403o0311 /scratch/ravanelm/exp/dirha/fbank/raw_fbank_tr05_cont.3.ark:45211159
01tc020q /scratch/ravanelm/exp/dirha/fbank/raw_fbank_tr05_cont.2.ark:10486889
029c021d /scratch/ravanelm/exp/dirha/fbank/raw_fbank_tr05_cont.2.ark:44162909
026o0317 /scratch/ravanelm/exp/dirha/fbank/raw_fbank_tr05_cont.2.ark:36435689
40gc021d /scratch/ravanelm/exp/dirha/fbank/raw_fbank_tr05_cont.4.ark:26879209
40io030x /scratch/ravanelm/exp/dirha/fbank/raw_fbank_tr05_cont.4.ark:34520169
01lo0311 /scratch/ravanelm/exp/dirha/fbank/raw_fbank_tr05_cont.1.ark:53476209
20ho010k /scratch/ravanelm/exp/dirha/fbank/raw_fbank_tr05_cont.3.ark:23200319
01pc0204 /scratch/ravanelm/exp/dirha/fbank/raw_fbank_tr05_cont.2.ark:497009
20no010r /scratch/ravanelm/exp/dirha/fbank/raw_fbank_tr05_cont.3.ark:30304599
02ec020k /scratch/ravanelm/exp/dirha/fbank/raw_fbank_tr05_cont.2.ark:52878049
407c020c /scratch/ravanelm/exp/dirha/fbank/raw_fbank_tr05_cont.3.ark:54006969
20mc0107 /scratch/ravanelm/exp/dirha/fbank/raw_fbank_tr05_cont.3.ark:27149419
20rc010c /scratch/ravanelm/exp/dirha/fbank/raw_fbank_tr05_cont.3.ark:35307949
409o030d /scratch/ravanelm/exp/dirha/fbank/raw_fbank_tr05_cont.4.ark:6635199
40nc0216 /scratch/ravanelm/exp/dirha/fbank/raw_fbank_tr05_cont.4.ark:49270539
01fc020s /scratch/ravanelm/exp/dirha/fbank/raw_fbank_tr05_cont.1.ark:34117299
20go0108 /scratch/ravanelm/exp/dirha/fbank/raw_fbank_tr05_cont.3.ark:21489859
20hc010f /scratch/ravanelm/exp/dirha/fbank/raw_fbank_tr05_cont.3.ark:22372589
40cc021b /scratch/ravanelm/exp/dirha/fbank/raw_fbank_tr05_cont.4.ark:15021979
01fo030z /scratch/ravanelm/exp/dirha/fbank/raw_fbank_tr05_cont.1.ark:35893829
01rc0214 /scratch/ravanelm/exp/dirha/fbank/raw_fbank_tr05_cont.2.ark:7891359
01qo0312 /scratch/ravanelm/exp/dirha/fbank/raw_fbank_tr05_cont.2.ark:6295299
015c021f /scratch/ravanelm/exp/dirha/fbank/raw_fbank_tr05_cont.1.ark:10709499
024c0202 /scratch/ravanelm/exp/dirha/fbank/raw_fbank_tr05_cont.2.ark:30939309
403c0201 /scratch/ravanelm/exp/dirha/fbank/raw_fbank_tr05_cont.3.ark:42876069
020o0305 /scratch/ravanelm/exp/dirha/fbank/raw_fbank_tr05_cont.2.ark:27144229
405c0201 /scratch/ravanelm/exp/dirha/fbank/raw_fbank_tr05_cont.3.ark:48237809
019c020v /scratch/ravanelm/exp/dirha/fbank/raw_fbank_tr05_cont.1.ark:21792049
013o0309 /scratch/ravanelm/exp/dirha/fbank/raw_fbank_tr05_cont.1.ark:5196209
011c020z /scratch/ravanelm/exp/dirha/fbank/raw_fbank_tr05_cont.1.ark:956309
029o030b /scratch/ravanelm/exp/dirha/fbank/raw_fbank_tr05_cont.2.ark:44615609
205c010p /scratch/ravanelm/exp/dirha/fbank/raw_fbank_tr05_cont.3.ark:3103009
01go0317 /scratch/ravanelm/exp/dirha/fbank/raw_fbank_tr05_cont.1.ark:39264689
40jo0311 /scratch/ravanelm/exp/dirha/fbank/raw_fbank_tr05_cont.4.ark:37774939
20mo0101 /scratch/ravanelm/exp/dirha/fbank/raw_fbank_tr05_cont.3.ark:27669589
018c020h /scratch/ravanelm/exp/dirha/fbank/raw_fbank_tr05_cont.1.ark:18082389
404c020x /scratch/ravanelm/exp/dirha/fbank/raw_fbank_tr05_cont.3.ark:46349649
20fo010j /scratch/ravanelm/exp/dirha/fbank/raw_fbank_tr05_cont.3.ark:20527709
20fc0105 /scratch/ravanelm/exp/dirha/fbank/raw_fbank_tr05_cont.3.ark:19379789
01fc020v /scratch/ravanelm/exp/dirha/fbank/raw_fbank_tr05_cont.1.ark:34192429
20vo010b /scratch/ravanelm/exp/dirha/fbank/raw_fbank_tr05_cont.3.ark:39032419
020o0318 /scratch/ravanelm/exp/dirha/fbank/raw_fbank_tr05_cont.2.ark:27851999
01lc020m /scratch/ravanelm/exp/dirha/fbank/raw_fbank_tr05_cont.1.ark:50989389
20fc010m /scratch/ravanelm/exp/dirha/fbank/raw_fbank_tr05_cont.3.ark:19830539
017o030c /scratch/ravanelm/exp/dirha/fbank/raw_fbank_tr05_cont.1.ark:16421419
40po0307 /scratch/ravanelm/exp/dirha/fbank/raw_fbank_tr05_cont.4.ark:52749009
024o030u /scratch/ravanelm/exp/dirha/fbank/raw_fbank_tr05_cont.2.ark:33178569
01uc0217 /scratch/ravanelm/exp/dirha/fbank/raw_fbank_tr05_cont.2.ark:14488009
405c020t /scratch/ravanelm/exp/dirha/fbank/raw_fbank_tr05_cont.3.ark:48958929
40kc021c /scratch/ravanelm/exp/dirha/fbank/raw_fbank_tr05_cont.4.ark:39560319
401c0206 /scratch/ravanelm/exp/dirha/fbank/raw_fbank_tr05_cont.3.ark:39734209
205c010b /scratch/ravanelm/exp/dirha/fbank/raw_fbank_tr05_cont.3.ark:2720669
20ic010h /scratch/ravanelm/exp/dirha/fbank/raw_fbank_tr05_cont.3.ark:23818259
02co0318 /scratch/ravanelm/exp/dirha/fbank/raw_fbank_tr05_cont.2.ark:51917749
20do0103 /scratch/ravanelm/exp/dirha/fbank/raw_fbank_tr05_cont.3.ark:16618139
40jo030g /scratch/ravanelm/exp/dirha/fbank/raw_fbank_tr05_cont.4.ark:37036309
40ko031a /scratch/ravanelm/exp/dirha/fbank/raw_fbank_tr05_cont.4.ark:41187939
20ao010j /scratch/ravanelm/exp/dirha/fbank/raw_fbank_tr05_cont.3.ark:12157099
01tc0219 /scratch/ravanelm/exp/dirha/fbank/raw_fbank_tr05_cont.2.ark:11099859
01bc021f /scratch/ravanelm/exp/dirha/fbank/raw_fbank_tr05_cont.1.ark:25417179
027c0211 /scratch/ravanelm/exp/dirha/fbank/raw_fbank_tr05_cont.2.ark:37548989
408o0308 /scratch/ravanelm/exp/dirha/fbank/raw_fbank_tr05_cont.4.ark:3798609
01jc0207 /scratch/ravanelm/exp/dirha/fbank/raw_fbank_tr05_cont.1.ark:43206269
01lo030b /scratch/ravanelm/exp/dirha/fbank/raw_fbank_tr05_cont.1.ark:52325549
20ho010j /scratch/ravanelm/exp/dirha/fbank/raw_fbank_tr05_cont.3.ark:23165969
40co030e /scratch/ravanelm/exp/dirha/fbank/raw_fbank_tr05_cont.4.ark:15485849
01qo0311 /scratch/ravanelm/exp/dirha/fbank/raw_fbank_tr05_cont.2.ark:6273349
40bo0304 /scratch/ravanelm/exp/dirha/fbank/raw_fbank_tr05_cont.4.ark:12456629
20ao010i /scratch/ravanelm/exp/dirha/fbank/raw_fbank_tr05_cont.3.ark:12105549
011c021c /scratch/ravanelm/exp/dirha/fbank/raw_fbank_tr05_cont.1.ark:1323779
40nc020v /scratch/ravanelm/exp/dirha/fbank/raw_fbank_tr05_cont.4.ark:48947929
20cc010e /scratch/ravanelm/exp/dirha/fbank/raw_fbank_tr05_cont.3.ark:14659259
01do030f /scratch/ravanelm/exp/dirha/fbank/raw_fbank_tr05_cont.1.ark:29290899
405c0207 /scratch/ravanelm/exp/dirha/fbank/raw_fbank_tr05_cont.3.ark:48408309
405c021b /scratch/ravanelm/exp/dirha/fbank/raw_fbank_tr05_cont.3.ark:49356629
01jo030o /scratch/ravanelm/exp/dirha/fbank/raw_fbank_tr05_cont.1.ark:45444259
40io0303 /scratch/ravanelm/exp/dirha/fbank/raw_fbank_tr05_cont.4.ark:33602069
40ho0304 /scratch/ravanelm/exp/dirha/fbank/raw_fbank_tr05_cont.4.ark:30506939
40lo0316 /scratch/ravanelm/exp/dirha/fbank/raw_fbank_tr05_cont.4.ark:44644149
01eo0307 /scratch/ravanelm/exp/dirha/fbank/raw_fbank_tr05_cont.1.ark:32026909
407c020p /scratch/ravanelm/exp/dirha/fbank/raw_fbank_tr05_cont.3.ark:54421479
011o0308 /scratch/ravanelm/exp/dirha/fbank/raw_fbank_tr05_cont.1.ark:1740239
013c020o /scratch/ravanelm/exp/dirha/fbank/raw_fbank_tr05_cont.1.ark:4282769
40bo030s /scratch/ravanelm/exp/dirha/fbank/raw_fbank_tr05_cont.4.ark:13320429
01wc020j /scratch/ravanelm/exp/dirha/fbank/raw_fbank_tr05_cont.2.ark:17166999
027c0206 /scratch/ravanelm/exp/dirha/fbank/raw_fbank_tr05_cont.2.ark:36796139
40fc020h /scratch/ravanelm/exp/dirha/fbank/raw_fbank_tr05_cont.4.ark:22447969
20bo0108 /scratch/ravanelm/exp/dirha/fbank/raw_fbank_tr05_cont.3.ark:13413709
20ic010m /scratch/ravanelm/exp/dirha/fbank/raw_fbank_tr05_cont.3.ark:23949049
409o030u /scratch/ravanelm/exp/dirha/fbank/raw_fbank_tr05_cont.4.ark:7182349
405c021c /scratch/ravanelm/exp/dirha/fbank/raw_fbank_tr05_cont.3.ark:49390859
02co031a /scratch/ravanelm/exp/dirha/fbank/raw_fbank_tr05_cont.2.ark:52002329
01jc020p /scratch/ravanelm/exp/dirha/fbank/raw_fbank_tr05_cont.1.ark:43728529
40kc020n /scratch/ravanelm/exp/dirha/fbank/raw_fbank_tr05_cont.4.ark:38902529
404c0207 /scratch/ravanelm/exp/dirha/fbank/raw_fbank_tr05_cont.3.ark:45710349
403o0303 /scratch/ravanelm/exp/dirha/fbank/raw_fbank_tr05_cont.3.ark:44147379
40do030z /scratch/ravanelm/exp/dirha/fbank/raw_fbank_tr05_cont.4.ark:18997959
016o0302 /scratch/ravanelm/exp/dirha/fbank/raw_fbank_tr05_cont.1.ark:13427409
208c010c /scratch/ravanelm/exp/dirha/fbank/raw_fbank_tr05_cont.3.ark:7953639
20ho010b /scratch/ravanelm/exp/dirha/fbank/raw_fbank_tr05_cont.3.ark:22946209
01po031b /scratch/ravanelm/exp/dirha/fbank/raw_fbank_tr05_cont.2.ark:3586029
01jo030b /scratch/ravanelm/exp/dirha/fbank/raw_fbank_tr05_cont.1.ark:44982029
011o0314 /scratch/ravanelm/exp/dirha/fbank/raw_fbank_tr05_cont.1.ark:2977759
20fc0102 /scratch/ravanelm/exp/dirha/fbank/raw_fbank_tr05_cont.3.ark:19295299
018o0318 /scratch/ravanelm/exp/dirha/fbank/raw_fbank_tr05_cont.1.ark:20887239
20fo0102 /scratch/ravanelm/exp/dirha/fbank/raw_fbank_tr05_cont.3.ark:19972639
015o030o /scratch/ravanelm/exp/dirha/fbank/raw_fbank_tr05_cont.1.ark:11579309
01go030g /scratch/ravanelm/exp/dirha/fbank/raw_fbank_tr05_cont.1.ark:38341799
024o030r /scratch/ravanelm/exp/dirha/fbank/raw_fbank_tr05_cont.2.ark:33111159
016o030m /scratch/ravanelm/exp/dirha/fbank/raw_fbank_tr05_cont.1.ark:13998869
027c0214 /scratch/ravanelm/exp/dirha/fbank/raw_fbank_tr05_cont.2.ark:37654999
40nc020e /scratch/ravanelm/exp/dirha/fbank/raw_fbank_tr05_cont.4.ark:48428659
01ec020u /scratch/ravanelm/exp/dirha/fbank/raw_fbank_tr05_cont.1.ark:31202299
01pc020f /scratch/ravanelm/exp/dirha/fbank/raw_fbank_tr05_cont.2.ark:850459
01uc0218 /scratch/ravanelm/exp/dirha/fbank/raw_fbank_tr05_cont.2.ark:14520079
20mo010s /scratch/ravanelm/exp/dirha/fbank/raw_fbank_tr05_cont.3.ark:28412159
40ao031e /scratch/ravanelm/exp/dirha/fbank/raw_fbank_tr05_cont.4.ark:10833999
40bc020s /scratch/ravanelm/exp/dirha/fbank/raw_fbank_tr05_cont.4.ark:11640829
40eo030p /scratch/ravanelm/exp/dirha/fbank/raw_fbank_tr05_cont.4.ark:21390519
20ec010d /scratch/ravanelm/exp/dirha/fbank/raw_fbank_tr05_cont.3.ark:17904689
017c0210 /scratch/ravanelm/exp/dirha/fbank/raw_fbank_tr05_cont.1.ark:15645779
018c021c /scratch/ravanelm/exp/dirha/fbank/raw_fbank_tr05_cont.1.ark:19003959
029c0211 /scratch/ravanelm/exp/dirha/fbank/raw_fbank_tr05_cont.2.ark:43868949
01qo0314 /scratch/ravanelm/exp/dirha/fbank/raw_fbank_tr05_cont.2.ark:6351999
01ro0316 /scratch/ravanelm/exp/dirha/fbank/raw_fbank_tr05_cont.2.ark:9418099
029c020k /scratch/ravanelm/exp/dirha/fbank/raw_fbank_tr05_cont.2.ark:43405039
40cc020t /scratch/ravanelm/exp/dirha/fbank/raw_fbank_tr05_cont.4.ark:14625239
40ic020g /scratch/ravanelm/exp/dirha/fbank/raw_fbank_tr05_cont.4.ark:32517649
011o030p /scratch/ravanelm/exp/dirha/fbank/raw_fbank_tr05_cont.1.ark:2377789
40lo0311 /scratch/ravanelm/exp/dirha/fbank/raw_fbank_tr05_cont.4.ark:44497799
014c0209 /scratch/ravanelm/exp/dirha/fbank/raw_fbank_tr05_cont.1.ark:6727499
207o0108 /scratch/ravanelm/exp/dirha/fbank/raw_fbank_tr05_cont.3.ark:6874379
01mc020z /scratch/ravanelm/exp/dirha/fbank/raw_fbank_tr05_cont.1.ark:54942259
209o010e /scratch/ravanelm/exp/dirha/fbank/raw_fbank_tr05_cont.3.ark:10338839
40po030r /scratch/ravanelm/exp/dirha/fbank/raw_fbank_tr05_cont.4.ark:53495929
40co031b /scratch/ravanelm/exp/dirha/fbank/raw_fbank_tr05_cont.4.ark:16282959
01lo030d /scratch/ravanelm/exp/dirha/fbank/raw_fbank_tr05_cont.1.ark:52459689
40mo0306 /scratch/ravanelm/exp/dirha/fbank/raw_fbank_tr05_cont.4.ark:46602629
017c021b /scratch/ravanelm/exp/dirha/fbank/raw_fbank_tr05_cont.1.ark:15894069
20dc0103 /scratch/ravanelm/exp/dirha/fbank/raw_fbank_tr05_cont.3.ark:15818829
027c0203 /scratch/ravanelm/exp/dirha/fbank/raw_fbank_tr05_cont.2.ark:36678889
20do0109 /scratch/ravanelm/exp/dirha/fbank/raw_fbank_tr05_cont.3.ark:16812879
027c0202 /scratch/ravanelm/exp/dirha/fbank/raw_fbank_tr05_cont.2.ark:36661099
01pc0207 /scratch/ravanelm/exp/dirha/fbank/raw_fbank_tr05_cont.2.ark:585459
404c020l /scratch/ravanelm/exp/dirha/fbank/raw_fbank_tr05_cont.3.ark:46069129
01do0316 /scratch/ravanelm/exp/dirha/fbank/raw_fbank_tr05_cont.1.ark:30099969
40bc0217 /scratch/ravanelm/exp/dirha/fbank/raw_fbank_tr05_cont.4.ark:12058519
205o010h /scratch/ravanelm/exp/dirha/fbank/raw_fbank_tr05_cont.3.ark:3773279
020c0205 /scratch/ravanelm/exp/dirha/fbank/raw_fbank_tr05_cont.2.ark:26173329
01zo030x /scratch/ravanelm/exp/dirha/fbank/raw_fbank_tr05_cont.2.ark:25398489
401o0304 /scratch/ravanelm/exp/dirha/fbank/raw_fbank_tr05_cont.3.ark:41182279
209c010g /scratch/ravanelm/exp/dirha/fbank/raw_fbank_tr05_cont.3.ark:9651719
20bc0101 /scratch/ravanelm/exp/dirha/fbank/raw_fbank_tr05_cont.3.ark:12508459
40go030i /scratch/ravanelm/exp/dirha/fbank/raw_fbank_tr05_cont.4.ark:27690569
20ao0105 /scratch/ravanelm/exp/dirha/fbank/raw_fbank_tr05_cont.3.ark:11538919
013c0202 /scratch/ravanelm/exp/dirha/fbank/raw_fbank_tr05_cont.1.ark:3576909
40eo0311 /scratch/ravanelm/exp/dirha/fbank/raw_fbank_tr05_cont.4.ark:21715919
01gc020f /scratch/ravanelm/exp/dirha/fbank/raw_fbank_tr05_cont.1.ark:36800869
021c021f /scratch/ravanelm/exp/dirha/fbank/raw_fbank_tr05_cont.2.ark:29353759
014c020m /scratch/ravanelm/exp/dirha/fbank/raw_fbank_tr05_cont.1.ark:7023809
20ao0103 /scratch/ravanelm/exp/dirha/fbank/raw_fbank_tr05_cont.3.ark:11457659
409c020l /scratch/ravanelm/exp/dirha/fbank/raw_fbank_tr05_cont.4.ark:5421599
40nc020z /scratch/ravanelm/exp/dirha/fbank/raw_fbank_tr05_cont.4.ark:49072209
20gc010k /scratch/ravanelm/exp/dirha/fbank/raw_fbank_tr05_cont.3.ark:21201049
01ic0201 /scratch/ravanelm/exp/dirha/fbank/raw_fbank_tr05_cont.1.ark:39677869
01wo0309 /scratch/ravanelm/exp/dirha/fbank/raw_fbank_tr05_cont.2.ark:18205519
01do030o /scratch/ravanelm/exp/dirha/fbank/raw_fbank_tr05_cont.1.ark:29493109
013c020g /scratch/ravanelm/exp/dirha/fbank/raw_fbank_tr05_cont.1.ark:4008769
40lo0301 /scratch/ravanelm/exp/dirha/fbank/raw_fbank_tr05_cont.4.ark:42906239
408c020z /scratch/ravanelm/exp/dirha/fbank/raw_fbank_tr05_cont.4.ark:3185029
20pc010o /scratch/ravanelm/exp/dirha/fbank/raw_fbank_tr05_cont.3.ark:32352289
01eo0312 /scratch/ravanelm/exp/dirha/fbank/raw_fbank_tr05_cont.1.ark:32957719
40pc0218 /scratch/ravanelm/exp/dirha/fbank/raw_fbank_tr05_cont.4.ark:52425429
01lo0304 /scratch/ravanelm/exp/dirha/fbank/raw_fbank_tr05_cont.1.ark:52010859
01lc0205 /scratch/ravanelm/exp/dirha/fbank/raw_fbank_tr05_cont.1.ark:50386999
40jo030k /scratch/ravanelm/exp/dirha/fbank/raw_fbank_tr05_cont.4.ark:37162149
407c020h /scratch/ravanelm/exp/dirha/fbank/raw_fbank_tr05_cont.3.ark:54165479
20ic0103 /scratch/ravanelm/exp/dirha/fbank/raw_fbank_tr05_cont.3.ark:23434479
40pc020r /scratch/ravanelm/exp/dirha/fbank/raw_fbank_tr05_cont.4.ark:51967279
01ic0204 /scratch/ravanelm/exp/dirha/fbank/raw_fbank_tr05_cont.1.ark:39773759
01ro031b /scratch/ravanelm/exp/dirha/fbank/raw_fbank_tr05_cont.2.ark:9533009
01qo030p /scratch/ravanelm/exp/dirha/fbank/raw_fbank_tr05_cont.2.ark:5897989
401o030e /scratch/ravanelm/exp/dirha/fbank/raw_fbank_tr05_cont.3.ark:41525859
406o030r /scratch/ravanelm/exp/dirha/fbank/raw_fbank_tr05_cont.3.ark:53009549
011c020d /scratch/ravanelm/exp/dirha/fbank/raw_fbank_tr05_cont.1.ark:311929
20lc0106 /scratch/ravanelm/exp/dirha/fbank/raw_fbank_tr05_cont.3.ark:25121909
40dc0202 /scratch/ravanelm/exp/dirha/fbank/raw_fbank_tr05_cont.4.ark:16485529
204c010k /scratch/ravanelm/exp/dirha/fbank/raw_fbank_tr05_cont.3.ark:1459729
011o0315 /scratch/ravanelm/exp/dirha/fbank/raw_fbank_tr05_cont.1.ark:3036949
401c020r /scratch/ravanelm/exp/dirha/fbank/raw_fbank_tr05_cont.3.ark:40346679
01uc020b /scratch/ravanelm/exp/dirha/fbank/raw_fbank_tr05_cont.2.ark:13483329
013c0212 /scratch/ravanelm/exp/dirha/fbank/raw_fbank_tr05_cont.1.ark:4639789
01uo030e /scratch/ravanelm/exp/dirha/fbank/raw_fbank_tr05_cont.2.ark:15219509
01wo030s /scratch/ravanelm/exp/dirha/fbank/raw_fbank_tr05_cont.2.ark:18792059
40po031e /scratch/ravanelm/exp/dirha/fbank/raw_fbank_tr05_cont.4.ark:54229099
404c020p /scratch/ravanelm/exp/dirha/fbank/raw_fbank_tr05_cont.3.ark:46189409
016o030i /scratch/ravanelm/exp/dirha/fbank/raw_fbank_tr05_cont.1.ark:13874469
209c0108 /scratch/ravanelm/exp/dirha/fbank/raw_fbank_tr05_cont.3.ark:9462199
20fo0101 /scratch/ravanelm/exp/dirha/fbank/raw_fbank_tr05_cont.3.ark:19939729
40hc020s /scratch/ravanelm/exp/dirha/fbank/raw_fbank_tr05_cont.4.ark:29829449
01bo030i /scratch/ravanelm/exp/dirha/fbank/raw_fbank_tr05_cont.1.ark:26132579
01mc020l /scratch/ravanelm/exp/dirha/fbank/raw_fbank_tr05_cont.1.ark:54576399
01yc020j /scratch/ravanelm/exp/dirha/fbank/raw_fbank_tr05_cont.2.ark:20035059
028o030u /scratch/ravanelm/exp/dirha/fbank/raw_fbank_tr05_cont.2.ark:42182149
02eo0305 /scratch/ravanelm/exp/dirha/fbank/raw_fbank_tr05_cont.2.ark:53980779
01ic021a /scratch/ravanelm/exp/dirha/fbank/raw_fbank_tr05_cont.1.ark:40952459
015c020a /scratch/ravanelm/exp/dirha/fbank/raw_fbank_tr05_cont.1.ark:9723549
01uo0302 /scratch/ravanelm/exp/dirha/fbank/raw_fbank_tr05_cont.2.ark:14798949
01yc0211 /scratch/ravanelm/exp/dirha/fbank/raw_fbank_tr05_cont.2.ark:20524519
01kc0219 /scratch/ravanelm/exp/dirha/fbank/raw_fbank_tr05_cont.1.ark:47858779
403o0301 /scratch/ravanelm/exp/dirha/fbank/raw_fbank_tr05_cont.3.ark:44050199
017c020v /scratch/ravanelm/exp/dirha/fbank/raw_fbank_tr05_cont.1.ark:15509149
01uo0306 /scratch/ravanelm/exp/dirha/fbank/raw_fbank_tr05_cont.2.ark:14962669
021c020a /scratch/ravanelm/exp/dirha/fbank/raw_fbank_tr05_cont.2.ark:28295129
40hc0218 /scratch/ravanelm/exp/dirha/fbank/raw_fbank_tr05_cont.4.ark:30248889
01dc020p /scratch/ravanelm/exp/dirha/fbank/raw_fbank_tr05_cont.1.ark:28066549
015c020k /scratch/ravanelm/exp/dirha/fbank/raw_fbank_tr05_cont.1.ark:9999609
01zc020z /scratch/ravanelm/exp/dirha/fbank/raw_fbank_tr05_cont.2.ark:23570419
016o0314 /scratch/ravanelm/exp/dirha/fbank/raw_fbank_tr05_cont.1.ark:14474529
408c0215 /scratch/ravanelm/exp/dirha/fbank/raw_fbank_tr05_cont.4.ark:3299049
01jc021a /scratch/ravanelm/exp/dirha/fbank/raw_fbank_tr05_cont.1.ark:44377999
40fo030f /scratch/ravanelm/exp/dirha/fbank/raw_fbank_tr05_cont.4.ark:23908389
01wo030r /scratch/ravanelm/exp/dirha/fbank/raw_fbank_tr05_cont.2.ark:18759509
013c020j /scratch/ravanelm/exp/dirha/fbank/raw_fbank_tr05_cont.1.ark:4112979
021c020l /scratch/ravanelm/exp/dirha/fbank/raw_fbank_tr05_cont.2.ark:28611459
01wo030h /scratch/ravanelm/exp/dirha/fbank/raw_fbank_tr05_cont.2.ark:18498959
01to0313 /scratch/ravanelm/exp/dirha/fbank/raw_fbank_tr05_cont.2.ark:12596449
017c020m /scratch/ravanelm/exp/dirha/fbank/raw_fbank_tr05_cont.1.ark:15323559
01rc020d /scratch/ravanelm/exp/dirha/fbank/raw_fbank_tr05_cont.2.ark:7071469
015o0308 /scratch/ravanelm/exp/dirha/fbank/raw_fbank_tr05_cont.1.ark:10991629
01rc020g /scratch/ravanelm/exp/dirha/fbank/raw_fbank_tr05_cont.2.ark:7163599
01mo030u /scratch/ravanelm/exp/dirha/fbank/raw_fbank_tr05_cont.1.ark:56287359
40pc0207 /scratch/ravanelm/exp/dirha/fbank/raw_fbank_tr05_cont.4.ark:51563839
40go030h /scratch/ravanelm/exp/dirha/fbank/raw_fbank_tr05_cont.4.ark:27649859
01uc0210 /scratch/ravanelm/exp/dirha/fbank/raw_fbank_tr05_cont.2.ark:14225959
20mc010b /scratch/ravanelm/exp/dirha/fbank/raw_fbank_tr05_cont.3.ark:27274979
40bo030x /scratch/ravanelm/exp/dirha/fbank/raw_fbank_tr05_cont.4.ark:13507059
02eo030c /scratch/ravanelm/exp/dirha/fbank/raw_fbank_tr05_cont.2.ark:54235909
20mo0105 /scratch/ravanelm/exp/dirha/fbank/raw_fbank_tr05_cont.3.ark:27794669
40fc020z /scratch/ravanelm/exp/dirha/fbank/raw_fbank_tr05_cont.4.ark:22996229
40kc0209 /scratch/ravanelm/exp/dirha/fbank/raw_fbank_tr05_cont.4.ark:38488469
40ho031b /scratch/ravanelm/exp/dirha/fbank/raw_fbank_tr05_cont.4.ark:31947429
01zc0212 /scratch/ravanelm/exp/dirha/fbank/raw_fbank_tr05_cont.2.ark:23658389
02cc020r /scratch/ravanelm/exp/dirha/fbank/raw_fbank_tr05_cont.2.ark:49905729
40mc020x /scratch/ravanelm/exp/dirha/fbank/raw_fbank_tr05_cont.4.ark:45856799
20vo010e /scratch/ravanelm/exp/dirha/fbank/raw_fbank_tr05_cont.3.ark:39132269
01go030n /scratch/ravanelm/exp/dirha/fbank/raw_fbank_tr05_cont.1.ark:38589049
40no0305 /scratch/ravanelm/exp/dirha/fbank/raw_fbank_tr05_cont.4.ark:49759349
01jc020o /scratch/ravanelm/exp/dirha/fbank/raw_fbank_tr05_cont.1.ark:43683739
015o030z /scratch/ravanelm/exp/dirha/fbank/raw_fbank_tr05_cont.1.ark:11894719
01uo0301 /scratch/ravanelm/exp/dirha/fbank/raw_fbank_tr05_cont.2.ark:14742879
01ic020s /scratch/ravanelm/exp/dirha/fbank/raw_fbank_tr05_cont.1.ark:40498719
40hc020n /scratch/ravanelm/exp/dirha/fbank/raw_fbank_tr05_cont.4.ark:29681259
01do030h /scratch/ravanelm/exp/dirha/fbank/raw_fbank_tr05_cont.1.ark:29331479
020c020h /scratch/ravanelm/exp/dirha/fbank/raw_fbank_tr05_cont.2.ark:26441729
01mc020j /scratch/ravanelm/exp/dirha/fbank/raw_fbank_tr05_cont.1.ark:54516299
20po0109 /scratch/ravanelm/exp/dirha/fbank/raw_fbank_tr05_cont.3.ark:32689709
018c021a /scratch/ravanelm/exp/dirha/fbank/raw_fbank_tr05_cont.1.ark:18953539
40mo030w /scratch/ravanelm/exp/dirha/fbank/raw_fbank_tr05_cont.4.ark:47494049
40ec021c /scratch/ravanelm/exp/dirha/fbank/raw_fbank_tr05_cont.4.ark:20449179
014o030k /scratch/ravanelm/exp/dirha/fbank/raw_fbank_tr05_cont.1.ark:8378899
01ic020h /scratch/ravanelm/exp/dirha/fbank/raw_fbank_tr05_cont.1.ark:40190309
01jc021e /scratch/ravanelm/exp/dirha/fbank/raw_fbank_tr05_cont.1.ark:44489079
40no030t /scratch/ravanelm/exp/dirha/fbank/raw_fbank_tr05_cont.4.ark:50620509
01pc020w /scratch/ravanelm/exp/dirha/fbank/raw_fbank_tr05_cont.2.ark:1294329
20eo010d /scratch/ravanelm/exp/dirha/fbank/raw_fbank_tr05_cont.3.ark:18778449
20oc010h /scratch/ravanelm/exp/dirha/fbank/raw_fbank_tr05_cont.3.ark:30729269
02cc020s /scratch/ravanelm/exp/dirha/fbank/raw_fbank_tr05_cont.2.ark:49916759
019c020d /scratch/ravanelm/exp/dirha/fbank/raw_fbank_tr05_cont.1.ark:21394309
40cc0218 /scratch/ravanelm/exp/dirha/fbank/raw_fbank_tr05_cont.4.ark:14954809
01uo0319 /scratch/ravanelm/exp/dirha/fbank/raw_fbank_tr05_cont.2.ark:16458279
40ko0311 /scratch/ravanelm/exp/dirha/fbank/raw_fbank_tr05_cont.4.ark:40922829
01zc020f /scratch/ravanelm/exp/dirha/fbank/raw_fbank_tr05_cont.2.ark:23018299
205c010m /scratch/ravanelm/exp/dirha/fbank/raw_fbank_tr05_cont.3.ark:3019639
20qc0103 /scratch/ravanelm/exp/dirha/fbank/raw_fbank_tr05_cont.3.ark:33297429
20gc010n /scratch/ravanelm/exp/dirha/fbank/raw_fbank_tr05_cont.3.ark:21290979
406c0204 /scratch/ravanelm/exp/dirha/fbank/raw_fbank_tr05_cont.3.ark:51044919
013o030q /scratch/ravanelm/exp/dirha/fbank/raw_fbank_tr05_cont.1.ark:5749839
40mc020f /scratch/ravanelm/exp/dirha/fbank/raw_fbank_tr05_cont.4.ark:45352379
013c0207 /scratch/ravanelm/exp/dirha/fbank/raw_fbank_tr05_cont.1.ark:3721019
01yo0301 /scratch/ravanelm/exp/dirha/fbank/raw_fbank_tr05_cont.2.ark:20956959
204c010g /scratch/ravanelm/exp/dirha/fbank/raw_fbank_tr05_cont.3.ark:1359129
01to0318 /scratch/ravanelm/exp/dirha/fbank/raw_fbank_tr05_cont.2.ark:12804159
407c0216 /scratch/ravanelm/exp/dirha/fbank/raw_fbank_tr05_cont.4.ark:247749
405c0206 /scratch/ravanelm/exp/dirha/fbank/raw_fbank_tr05_cont.3.ark:48379719
40ko0316 /scratch/ravanelm/exp/dirha/fbank/raw_fbank_tr05_cont.4.ark:41072539
