408o030y /scratch/ravanelm/exp/dirha/fbank/raw_fbank_tr05_cont.4.ark:4512869
20qc0104 /scratch/ravanelm/exp/dirha/fbank/raw_fbank_tr05_cont.3.ark:33327459
409c020x /scratch/ravanelm/exp/dirha/fbank/raw_fbank_tr05_cont.4.ark:5792439
021c0213 /scratch/ravanelm/exp/dirha/fbank/raw_fbank_tr05_cont.2.ark:29101639
40dc020g /scratch/ravanelm/exp/dirha/fbank/raw_fbank_tr05_cont.4.ark:16879349
40fo030n /scratch/ravanelm/exp/dirha/fbank/raw_fbank_tr05_cont.4.ark:24174149
029c0217 /scratch/ravanelm/exp/dirha/fbank/raw_fbank_tr05_cont.2.ark:44027809
011c020e /scratch/ravanelm/exp/dirha/fbank/raw_fbank_tr05_cont.1.ark:351919
019c020d /scratch/ravanelm/exp/dirha/fbank/raw_fbank_tr05_cont.1.ark:21394309
01pc020e /scratch/ravanelm/exp/dirha/fbank/raw_fbank_tr05_cont.2.ark:806949
404c0218 /scratch/ravanelm/exp/dirha/fbank/raw_fbank_tr05_cont.3.ark:46614179
01wo030w /scratch/ravanelm/exp/dirha/fbank/raw_fbank_tr05_cont.2.ark:18900459
20pc0105 /scratch/ravanelm/exp/dirha/fbank/raw_fbank_tr05_cont.3.ark:31887239
01ec020v /scratch/ravanelm/exp/dirha/fbank/raw_fbank_tr05_cont.1.ark:31218329
20co010p /scratch/ravanelm/exp/dirha/fbank/raw_fbank_tr05_cont.3.ark:15700069
011c020n /scratch/ravanelm/exp/dirha/fbank/raw_fbank_tr05_cont.1.ark:602269
20rc0104 /scratch/ravanelm/exp/dirha/fbank/raw_fbank_tr05_cont.3.ark:35108269
20mo010k /scratch/ravanelm/exp/dirha/fbank/raw_fbank_tr05_cont.3.ark:28208239
40io030i /scratch/ravanelm/exp/dirha/fbank/raw_fbank_tr05_cont.4.ark:34094359
40ec0219 /scratch/ravanelm/exp/dirha/fbank/raw_fbank_tr05_cont.4.ark:20397409
20cc010l /scratch/ravanelm/exp/dirha/fbank/raw_fbank_tr05_cont.3.ark:14821229
016o031b /scratch/ravanelm/exp/dirha/fbank/raw_fbank_tr05_cont.1.ark:14632219
029o031d /scratch/ravanelm/exp/dirha/fbank/raw_fbank_tr05_cont.2.ark:45929389
40co0315 /scratch/ravanelm/exp/dirha/fbank/raw_fbank_tr05_cont.4.ark:16155179
024c020m /scratch/ravanelm/exp/dirha/fbank/raw_fbank_tr05_cont.2.ark:31547469
026c020m /scratch/ravanelm/exp/dirha/fbank/raw_fbank_tr05_cont.2.ark:34401219
206o010j /scratch/ravanelm/exp/dirha/fbank/raw_fbank_tr05_cont.3.ark:5510409
20cc0109 /scratch/ravanelm/exp/dirha/fbank/raw_fbank_tr05_cont.3.ark:14537749
02ec020s /scratch/ravanelm/exp/dirha/fbank/raw_fbank_tr05_cont.2.ark:53112889
02cc020j /scratch/ravanelm/exp/dirha/fbank/raw_fbank_tr05_cont.2.ark:49720999
40lo030g /scratch/ravanelm/exp/dirha/fbank/raw_fbank_tr05_cont.4.ark:43460089
40pc020g /scratch/ravanelm/exp/dirha/fbank/raw_fbank_tr05_cont.4.ark:51737429
20ec010o /scratch/ravanelm/exp/dirha/fbank/raw_fbank_tr05_cont.3.ark:18219579
01ko0313 /scratch/ravanelm/exp/dirha/fbank/raw_fbank_tr05_cont.1.ark:49642779
20to0106 /scratch/ravanelm/exp/dirha/fbank/raw_fbank_tr05_cont.3.ark:37526369
01ko031f /scratch/ravanelm/exp/dirha/fbank/raw_fbank_tr05_cont.1.ark:50144379
01zc021d /scratch/ravanelm/exp/dirha/fbank/raw_fbank_tr05_cont.2.ark:24021119
01fo031c /scratch/ravanelm/exp/dirha/fbank/raw_fbank_tr05_cont.1.ark:36343739
01bo030i /scratch/ravanelm/exp/dirha/fbank/raw_fbank_tr05_cont.1.ark:26132579
01to030s /scratch/ravanelm/exp/dirha/fbank/raw_fbank_tr05_cont.2.ark:12255199
40mc0217 /scratch/ravanelm/exp/dirha/fbank/raw_fbank_tr05_cont.4.ark:46114419
20lo010n /scratch/ravanelm/exp/dirha/fbank/raw_fbank_tr05_cont.3.ark:26870479
018o030j /scratch/ravanelm/exp/dirha/fbank/raw_fbank_tr05_cont.1.ark:19861489
403o030r /scratch/ravanelm/exp/dirha/fbank/raw_fbank_tr05_cont.3.ark:44884059
01wc020c /scratch/ravanelm/exp/dirha/fbank/raw_fbank_tr05_cont.2.ark:16937189
40fo030e /scratch/ravanelm/exp/dirha/fbank/raw_fbank_tr05_cont.4.ark:23868639
401c0215 /scratch/ravanelm/exp/dirha/fbank/raw_fbank_tr05_cont.3.ark:40757499
01ko030e /scratch/ravanelm/exp/dirha/fbank/raw_fbank_tr05_cont.1.ark:48642069
029c020s /scratch/ravanelm/exp/dirha/fbank/raw_fbank_tr05_cont.2.ark:43626519
01ec020j /scratch/ravanelm/exp/dirha/fbank/raw_fbank_tr05_cont.1.ark:30901689
028o0302 /scratch/ravanelm/exp/dirha/fbank/raw_fbank_tr05_cont.2.ark:41122869
01jc020m /scratch/ravanelm/exp/dirha/fbank/raw_fbank_tr05_cont.1.ark:43643919
20hc010d /scratch/ravanelm/exp/dirha/fbank/raw_fbank_tr05_cont.3.ark:22325809
409o030g /scratch/ravanelm/exp/dirha/fbank/raw_fbank_tr05_cont.4.ark:6717369
40go0310 /scratch/ravanelm/exp/dirha/fbank/raw_fbank_tr05_cont.4.ark:28508549
20fc010d /scratch/ravanelm/exp/dirha/fbank/raw_fbank_tr05_cont.3.ark:19585389
40bc0218 /scratch/ravanelm/exp/dirha/fbank/raw_fbank_tr05_cont.4.ark:12070829
02bc0212 /scratch/ravanelm/exp/dirha/fbank/raw_fbank_tr05_cont.2.ark:47031389
404c020m /scratch/ravanelm/exp/dirha/fbank/raw_fbank_tr05_cont.3.ark:46104079
40jo030n /scratch/ravanelm/exp/dirha/fbank/raw_fbank_tr05_cont.4.ark:37294719
205o0101 /scratch/ravanelm/exp/dirha/fbank/raw_fbank_tr05_cont.3.ark:3128719
40bo0315 /scratch/ravanelm/exp/dirha/fbank/raw_fbank_tr05_cont.4.ark:13718519
014o0304 /scratch/ravanelm/exp/dirha/fbank/raw_fbank_tr05_cont.1.ark:7853939
20no010e /scratch/ravanelm/exp/dirha/fbank/raw_fbank_tr05_cont.3.ark:29782049
406c0206 /scratch/ravanelm/exp/dirha/fbank/raw_fbank_tr05_cont.3.ark:51093339
02bo030t /scratch/ravanelm/exp/dirha/fbank/raw_fbank_tr05_cont.2.ark:48442889
206c010b /scratch/ravanelm/exp/dirha/fbank/raw_fbank_tr05_cont.3.ark:4454709
401o031d /scratch/ravanelm/exp/dirha/fbank/raw_fbank_tr05_cont.3.ark:42841439
40ao030s /scratch/ravanelm/exp/dirha/fbank/raw_fbank_tr05_cont.4.ark:10167139
20lc010d /scratch/ravanelm/exp/dirha/fbank/raw_fbank_tr05_cont.3.ark:25351559
01do030r /scratch/ravanelm/exp/dirha/fbank/raw_fbank_tr05_cont.1.ark:29617479
206o010g /scratch/ravanelm/exp/dirha/fbank/raw_fbank_tr05_cont.3.ark:5391439
40nc020e /scratch/ravanelm/exp/dirha/fbank/raw_fbank_tr05_cont.4.ark:48428659
208c010m /scratch/ravanelm/exp/dirha/fbank/raw_fbank_tr05_cont.3.ark:8237139
20oo010p /scratch/ravanelm/exp/dirha/fbank/raw_fbank_tr05_cont.3.ark:31719429
02bo031f /scratch/ravanelm/exp/dirha/fbank/raw_fbank_tr05_cont.2.ark:49194909
20dc010d /scratch/ravanelm/exp/dirha/fbank/raw_fbank_tr05_cont.3.ark:16121449
01tc020b /scratch/ravanelm/exp/dirha/fbank/raw_fbank_tr05_cont.2.ark:9950839
20fo010l /scratch/ravanelm/exp/dirha/fbank/raw_fbank_tr05_cont.3.ark:20597289
40kc021a /scratch/ravanelm/exp/dirha/fbank/raw_fbank_tr05_cont.4.ark:39500419
40go031e /scratch/ravanelm/exp/dirha/fbank/raw_fbank_tr05_cont.4.ark:29106009
20oo010b /scratch/ravanelm/exp/dirha/fbank/raw_fbank_tr05_cont.3.ark:31217969
021o030y /scratch/ravanelm/exp/dirha/fbank/raw_fbank_tr05_cont.2.ark:30379299
01ko030q /scratch/ravanelm/exp/dirha/fbank/raw_fbank_tr05_cont.1.ark:49130589
40po031c /scratch/ravanelm/exp/dirha/fbank/raw_fbank_tr05_cont.4.ark:54158039
01rc020g /scratch/ravanelm/exp/dirha/fbank/raw_fbank_tr05_cont.2.ark:7163599
20oc010o /scratch/ravanelm/exp/dirha/fbank/raw_fbank_tr05_cont.3.ark:30881639
021o0306 /scratch/ravanelm/exp/dirha/fbank/raw_fbank_tr05_cont.2.ark:29519059
40do030l /scratch/ravanelm/exp/dirha/fbank/raw_fbank_tr05_cont.4.ark:18576259
40kc0203 /scratch/ravanelm/exp/dirha/fbank/raw_fbank_tr05_cont.4.ark:38308209
01pc020w /scratch/ravanelm/exp/dirha/fbank/raw_fbank_tr05_cont.2.ark:1294329
01io030s /scratch/ravanelm/exp/dirha/fbank/raw_fbank_tr05_cont.1.ark:42201569
407o0315 /scratch/ravanelm/exp/dirha/fbank/raw_fbank_tr05_cont.4.ark:2207019
017c0202 /scratch/ravanelm/exp/dirha/fbank/raw_fbank_tr05_cont.1.ark:14828839
20oo010e /scratch/ravanelm/exp/dirha/fbank/raw_fbank_tr05_cont.3.ark:31320939
20ac010l /scratch/ravanelm/exp/dirha/fbank/raw_fbank_tr05_cont.3.ark:11269159
026c020l /scratch/ravanelm/exp/dirha/fbank/raw_fbank_tr05_cont.2.ark:34386509
01ko0311 /scratch/ravanelm/exp/dirha/fbank/raw_fbank_tr05_cont.1.ark:49550919
40go030n /scratch/ravanelm/exp/dirha/fbank/raw_fbank_tr05_cont.4.ark:27902199
409o031a /scratch/ravanelm/exp/dirha/fbank/raw_fbank_tr05_cont.4.ark:7614789
20nc010p /scratch/ravanelm/exp/dirha/fbank/raw_fbank_tr05_cont.3.ark:29222269
01uo030r /scratch/ravanelm/exp/dirha/fbank/raw_fbank_tr05_cont.2.ark:15700019
40gc0215 /scratch/ravanelm/exp/dirha/fbank/raw_fbank_tr05_cont.4.ark:26601249
013c020g /scratch/ravanelm/exp/dirha/fbank/raw_fbank_tr05_cont.1.ark:4008769
405c020f /scratch/ravanelm/exp/dirha/fbank/raw_fbank_tr05_cont.3.ark:48620909
01yc0212 /scratch/ravanelm/exp/dirha/fbank/raw_fbank_tr05_cont.2.ark:20546829
20fo010g /scratch/ravanelm/exp/dirha/fbank/raw_fbank_tr05_cont.3.ark:20439779
015c020k /scratch/ravanelm/exp/dirha/fbank/raw_fbank_tr05_cont.1.ark:9999609
403c0219 /scratch/ravanelm/exp/dirha/fbank/raw_fbank_tr05_cont.3.ark:43870229
013c0212 /scratch/ravanelm/exp/dirha/fbank/raw_fbank_tr05_cont.1.ark:4639789
403c020a /scratch/ravanelm/exp/dirha/fbank/raw_fbank_tr05_cont.3.ark:43048139
20oc010e /scratch/ravanelm/exp/dirha/fbank/raw_fbank_tr05_cont.3.ark:30674379
209c010p /scratch/ravanelm/exp/dirha/fbank/raw_fbank_tr05_cont.3.ark:9872629
02ec020q /scratch/ravanelm/exp/dirha/fbank/raw_fbank_tr05_cont.2.ark:53077749
204c010k /scratch/ravanelm/exp/dirha/fbank/raw_fbank_tr05_cont.3.ark:1459729
403o030t /scratch/ravanelm/exp/dirha/fbank/raw_fbank_tr05_cont.3.ark:44976759
024c020y /scratch/ravanelm/exp/dirha/fbank/raw_fbank_tr05_cont.2.ark:31841949
40eo030n /scratch/ravanelm/exp/dirha/fbank/raw_fbank_tr05_cont.4.ark:21329659
20to0104 /scratch/ravanelm/exp/dirha/fbank/raw_fbank_tr05_cont.3.ark:37502549
204o010b /scratch/ravanelm/exp/dirha/fbank/raw_fbank_tr05_cont.3.ark:1846529
020o0311 /scratch/ravanelm/exp/dirha/fbank/raw_fbank_tr05_cont.2.ark:27693629
40lo030d /scratch/ravanelm/exp/dirha/fbank/raw_fbank_tr05_cont.4.ark:43334399
01io030b /scratch/ravanelm/exp/dirha/fbank/raw_fbank_tr05_cont.1.ark:41563019
018o0317 /scratch/ravanelm/exp/dirha/fbank/raw_fbank_tr05_cont.1.ark:20839609
401o0314 /scratch/ravanelm/exp/dirha/fbank/raw_fbank_tr05_cont.3.ark:42468729
407c0209 /scratch/ravanelm/exp/dirha/fbank/raw_fbank_tr05_cont.3.ark:53946759
024c0219 /scratch/ravanelm/exp/dirha/fbank/raw_fbank_tr05_cont.2.ark:32147119
40lo030r /scratch/ravanelm/exp/dirha/fbank/raw_fbank_tr05_cont.4.ark:43945379
40dc020z /scratch/ravanelm/exp/dirha/fbank/raw_fbank_tr05_cont.4.ark:17487199
026c020t /scratch/ravanelm/exp/dirha/fbank/raw_fbank_tr05_cont.2.ark:34538429
015o030c /scratch/ravanelm/exp/dirha/fbank/raw_fbank_tr05_cont.1.ark:11147789
40cc0204 /scratch/ravanelm/exp/dirha/fbank/raw_fbank_tr05_cont.4.ark:14044489
406c020y /scratch/ravanelm/exp/dirha/fbank/raw_fbank_tr05_cont.3.ark:51756389
401o0307 /scratch/ravanelm/exp/dirha/fbank/raw_fbank_tr05_cont.3.ark:41289849
20lo010a /scratch/ravanelm/exp/dirha/fbank/raw_fbank_tr05_cont.3.ark:26196009
20ac010b /scratch/ravanelm/exp/dirha/fbank/raw_fbank_tr05_cont.3.ark:11018219
01wo030i /scratch/ravanelm/exp/dirha/fbank/raw_fbank_tr05_cont.2.ark:18539909
40fc0214 /scratch/ravanelm/exp/dirha/fbank/raw_fbank_tr05_cont.4.ark:23129499
40ec020d /scratch/ravanelm/exp/dirha/fbank/raw_fbank_tr05_cont.4.ark:19701929
029c020l /scratch/ravanelm/exp/dirha/fbank/raw_fbank_tr05_cont.2.ark:43432509
019o030f /scratch/ravanelm/exp/dirha/fbank/raw_fbank_tr05_cont.1.ark:22869479
028o030i /scratch/ravanelm/exp/dirha/fbank/raw_fbank_tr05_cont.2.ark:41746629
206o010f /scratch/ravanelm/exp/dirha/fbank/raw_fbank_tr05_cont.3.ark:5338129
01to031d /scratch/ravanelm/exp/dirha/fbank/raw_fbank_tr05_cont.2.ark:12960029
016o0308 /scratch/ravanelm/exp/dirha/fbank/raw_fbank_tr05_cont.1.ark:13608479
021o030k /scratch/ravanelm/exp/dirha/fbank/raw_fbank_tr05_cont.2.ark:29951039
01gc0209 /scratch/ravanelm/exp/dirha/fbank/raw_fbank_tr05_cont.1.ark:36623249
024c021b /scratch/ravanelm/exp/dirha/fbank/raw_fbank_tr05_cont.2.ark:32213579
01wc0205 /scratch/ravanelm/exp/dirha/fbank/raw_fbank_tr05_cont.2.ark:16741339
40ko030a /scratch/ravanelm/exp/dirha/fbank/raw_fbank_tr05_cont.4.ark:39947099
01uo030m /scratch/ravanelm/exp/dirha/fbank/raw_fbank_tr05_cont.2.ark:15487669
020o0306 /scratch/ravanelm/exp/dirha/fbank/raw_fbank_tr05_cont.2.ark:27180019
40lo030v /scratch/ravanelm/exp/dirha/fbank/raw_fbank_tr05_cont.4.ark:44171739
20go0101 /scratch/ravanelm/exp/dirha/fbank/raw_fbank_tr05_cont.3.ark:21313169
40mo0313 /scratch/ravanelm/exp/dirha/fbank/raw_fbank_tr05_cont.4.ark:47742059
01fo030r /scratch/ravanelm/exp/dirha/fbank/raw_fbank_tr05_cont.1.ark:35689949
40lo030p /scratch/ravanelm/exp/dirha/fbank/raw_fbank_tr05_cont.4.ark:43868279
40jc020w /scratch/ravanelm/exp/dirha/fbank/raw_fbank_tr05_cont.4.ark:35967489
403c021g /scratch/ravanelm/exp/dirha/fbank/raw_fbank_tr05_cont.3.ark:44023369
408c020k /scratch/ravanelm/exp/dirha/fbank/raw_fbank_tr05_cont.4.ark:2866969
40po030m /scratch/ravanelm/exp/dirha/fbank/raw_fbank_tr05_cont.4.ark:53330259
40ac020t /scratch/ravanelm/exp/dirha/fbank/raw_fbank_tr05_cont.4.ark:8726829
40bc020x /scratch/ravanelm/exp/dirha/fbank/raw_fbank_tr05_cont.4.ark:11762979
20go010m /scratch/ravanelm/exp/dirha/fbank/raw_fbank_tr05_cont.3.ark:21930999
015c020c /scratch/ravanelm/exp/dirha/fbank/raw_fbank_tr05_cont.1.ark:9771769
01fc020w /scratch/ravanelm/exp/dirha/fbank/raw_fbank_tr05_cont.1.ark:34230779
01go031g /scratch/ravanelm/exp/dirha/fbank/raw_fbank_tr05_cont.1.ark:39628279
40io0314 /scratch/ravanelm/exp/dirha/fbank/raw_fbank_tr05_cont.4.ark:34824899
404c020u /scratch/ravanelm/exp/dirha/fbank/raw_fbank_tr05_cont.3.ark:46327879
20mc010n /scratch/ravanelm/exp/dirha/fbank/raw_fbank_tr05_cont.3.ark:27572859
02co031d /scratch/ravanelm/exp/dirha/fbank/raw_fbank_tr05_cont.2.ark:52148139
401o030d /scratch/ravanelm/exp/dirha/fbank/raw_fbank_tr05_cont.3.ark:41488989
01jc020n /scratch/ravanelm/exp/dirha/fbank/raw_fbank_tr05_cont.1.ark:43658029
013o030u /scratch/ravanelm/exp/dirha/fbank/raw_fbank_tr05_cont.1.ark:5858439
20nc010j /scratch/ravanelm/exp/dirha/fbank/raw_fbank_tr05_cont.3.ark:29021049
01bo030u /scratch/ravanelm/exp/dirha/fbank/raw_fbank_tr05_cont.1.ark:26660579
40fc020b /scratch/ravanelm/exp/dirha/fbank/raw_fbank_tr05_cont.4.ark:22280389
02co030z /scratch/ravanelm/exp/dirha/fbank/raw_fbank_tr05_cont.2.ark:51632879
20bc0101 /scratch/ravanelm/exp/dirha/fbank/raw_fbank_tr05_cont.3.ark:12508459
40bc020c /scratch/ravanelm/exp/dirha/fbank/raw_fbank_tr05_cont.4.ark:11216749
01wc021f /scratch/ravanelm/exp/dirha/fbank/raw_fbank_tr05_cont.2.ark:17970209
024o030p /scratch/ravanelm/exp/dirha/fbank/raw_fbank_tr05_cont.2.ark:33074099
204c0104 /scratch/ravanelm/exp/dirha/fbank/raw_fbank_tr05_cont.3.ark:1121969
017c020u /scratch/ravanelm/exp/dirha/fbank/raw_fbank_tr05_cont.1.ark:15487159
20do010b /scratch/ravanelm/exp/dirha/fbank/raw_fbank_tr05_cont.3.ark:16873419
40kc0212 /scratch/ravanelm/exp/dirha/fbank/raw_fbank_tr05_cont.4.ark:39284979
01ro030q /scratch/ravanelm/exp/dirha/fbank/raw_fbank_tr05_cont.2.ark:8942779
01ic021d /scratch/ravanelm/exp/dirha/fbank/raw_fbank_tr05_cont.1.ark:41009909
014o030s /scratch/ravanelm/exp/dirha/fbank/raw_fbank_tr05_cont.1.ark:8702219
01qc021e /scratch/ravanelm/exp/dirha/fbank/raw_fbank_tr05_cont.2.ark:5000919
01qo030t /scratch/ravanelm/exp/dirha/fbank/raw_fbank_tr05_cont.2.ark:6028509
01io030p /scratch/ravanelm/exp/dirha/fbank/raw_fbank_tr05_cont.1.ark:42095999
20mc010h /scratch/ravanelm/exp/dirha/fbank/raw_fbank_tr05_cont.3.ark:27414519
40gc0219 /scratch/ravanelm/exp/dirha/fbank/raw_fbank_tr05_cont.4.ark:26743849
017o030u /scratch/ravanelm/exp/dirha/fbank/raw_fbank_tr05_cont.1.ark:16972399
015c020a /scratch/ravanelm/exp/dirha/fbank/raw_fbank_tr05_cont.1.ark:9723549
403o030d /scratch/ravanelm/exp/dirha/fbank/raw_fbank_tr05_cont.3.ark:44506079
206c010c /scratch/ravanelm/exp/dirha/fbank/raw_fbank_tr05_cont.3.ark:4464579
01tc020s /scratch/ravanelm/exp/dirha/fbank/raw_fbank_tr05_cont.2.ark:10543749
20fo0101 /scratch/ravanelm/exp/dirha/fbank/raw_fbank_tr05_cont.3.ark:19939729
408c0214 /scratch/ravanelm/exp/dirha/fbank/raw_fbank_tr05_cont.4.ark:3287339
02co030x /scratch/ravanelm/exp/dirha/fbank/raw_fbank_tr05_cont.2.ark:51547099
404o0315 /scratch/ravanelm/exp/dirha/fbank/raw_fbank_tr05_cont.3.ark:48041579
01tc021a /scratch/ravanelm/exp/dirha/fbank/raw_fbank_tr05_cont.2.ark:11136649
01lo030y /scratch/ravanelm/exp/dirha/fbank/raw_fbank_tr05_cont.1.ark:53279239
01eo030a /scratch/ravanelm/exp/dirha/fbank/raw_fbank_tr05_cont.1.ark:32098479
408c020y /scratch/ravanelm/exp/dirha/fbank/raw_fbank_tr05_cont.4.ark:3173039
40ac020w /scratch/ravanelm/exp/dirha/fbank/raw_fbank_tr05_cont.4.ark:8811999
405c020x /scratch/ravanelm/exp/dirha/fbank/raw_fbank_tr05_cont.3.ark:49021369
02ec020v /scratch/ravanelm/exp/dirha/fbank/raw_fbank_tr05_cont.2.ark:53180339
40po0316 /scratch/ravanelm/exp/dirha/fbank/raw_fbank_tr05_cont.4.ark:53994859
40jo030v /scratch/ravanelm/exp/dirha/fbank/raw_fbank_tr05_cont.4.ark:37565039
206c0103 /scratch/ravanelm/exp/dirha/fbank/raw_fbank_tr05_cont.3.ark:4271669
019o030k /scratch/ravanelm/exp/dirha/fbank/raw_fbank_tr05_cont.1.ark:23049469
40pc020s /scratch/ravanelm/exp/dirha/fbank/raw_fbank_tr05_cont.4.ark:51996949
40hc0206 /scratch/ravanelm/exp/dirha/fbank/raw_fbank_tr05_cont.4.ark:29266629
01mo030f /scratch/ravanelm/exp/dirha/fbank/raw_fbank_tr05_cont.1.ark:55864069
01yo030o /scratch/ravanelm/exp/dirha/fbank/raw_fbank_tr05_cont.2.ark:21719929
40lo031e /scratch/ravanelm/exp/dirha/fbank/raw_fbank_tr05_cont.4.ark:44903149
20mc0101 /scratch/ravanelm/exp/dirha/fbank/raw_fbank_tr05_cont.3.ark:26993959
024o030i /scratch/ravanelm/exp/dirha/fbank/raw_fbank_tr05_cont.2.ark:32879649
027o0305 /scratch/ravanelm/exp/dirha/fbank/raw_fbank_tr05_cont.2.ark:38164899
01go030m /scratch/ravanelm/exp/dirha/fbank/raw_fbank_tr05_cont.1.ark:38544659
024c0214 /scratch/ravanelm/exp/dirha/fbank/raw_fbank_tr05_cont.2.ark:32019009
20po010p /scratch/ravanelm/exp/dirha/fbank/raw_fbank_tr05_cont.3.ark:33150909
02cc0212 /scratch/ravanelm/exp/dirha/fbank/raw_fbank_tr05_cont.2.ark:50219499
01po030k /scratch/ravanelm/exp/dirha/fbank/raw_fbank_tr05_cont.2.ark:2570659
20go010i /scratch/ravanelm/exp/dirha/fbank/raw_fbank_tr05_cont.3.ark:21812639
40lo030w /scratch/ravanelm/exp/dirha/fbank/raw_fbank_tr05_cont.4.ark:44216169
40ac021e /scratch/ravanelm/exp/dirha/fbank/raw_fbank_tr05_cont.4.ark:9318779
40jc020l /scratch/ravanelm/exp/dirha/fbank/raw_fbank_tr05_cont.4.ark:35655799
408c020d /scratch/ravanelm/exp/dirha/fbank/raw_fbank_tr05_cont.4.ark:2679119
026o0309 /scratch/ravanelm/exp/dirha/fbank/raw_fbank_tr05_cont.2.ark:35365669
013c020m /scratch/ravanelm/exp/dirha/fbank/raw_fbank_tr05_cont.1.ark:4202709
02eo031g /scratch/ravanelm/exp/dirha/fbank/raw_fbank_tr05_cont.3.ark:1019769
015c020e /scratch/ravanelm/exp/dirha/fbank/raw_fbank_tr05_cont.1.ark:9837389
40po030v /scratch/ravanelm/exp/dirha/fbank/raw_fbank_tr05_cont.4.ark:53626209
01io0313 /scratch/ravanelm/exp/dirha/fbank/raw_fbank_tr05_cont.1.ark:42606579
028o030a /scratch/ravanelm/exp/dirha/fbank/raw_fbank_tr05_cont.2.ark:41409669
021c020f /scratch/ravanelm/exp/dirha/fbank/raw_fbank_tr05_cont.2.ark:28437599
40nc021d /scratch/ravanelm/exp/dirha/fbank/raw_fbank_tr05_cont.4.ark:49490229
408o0309 /scratch/ravanelm/exp/dirha/fbank/raw_fbank_tr05_cont.4.ark:3841399
401c020o /scratch/ravanelm/exp/dirha/fbank/raw_fbank_tr05_cont.3.ark:40282029
021o030s /scratch/ravanelm/exp/dirha/fbank/raw_fbank_tr05_cont.2.ark:30229159
01ro030i /scratch/ravanelm/exp/dirha/fbank/raw_fbank_tr05_cont.2.ark:8650299
408o0318 /scratch/ravanelm/exp/dirha/fbank/raw_fbank_tr05_cont.4.ark:4774409
401o030h /scratch/ravanelm/exp/dirha/fbank/raw_fbank_tr05_cont.3.ark:41622509
01yc020b /scratch/ravanelm/exp/dirha/fbank/raw_fbank_tr05_cont.2.ark:19807139
405c0210 /scratch/ravanelm/exp/dirha/fbank/raw_fbank_tr05_cont.3.ark:49057019
014o0313 /scratch/ravanelm/exp/dirha/fbank/raw_fbank_tr05_cont.1.ark:9110549
406o030r /scratch/ravanelm/exp/dirha/fbank/raw_fbank_tr05_cont.3.ark:53009549
409o030o /scratch/ravanelm/exp/dirha/fbank/raw_fbank_tr05_cont.4.ark:7012809
401o0301 /scratch/ravanelm/exp/dirha/fbank/raw_fbank_tr05_cont.3.ark:41071189
026o030g /scratch/ravanelm/exp/dirha/fbank/raw_fbank_tr05_cont.2.ark:35588279
40gc020i /scratch/ravanelm/exp/dirha/fbank/raw_fbank_tr05_cont.4.ark:25787479
01uc020b /scratch/ravanelm/exp/dirha/fbank/raw_fbank_tr05_cont.2.ark:13483329
40ac020q /scratch/ravanelm/exp/dirha/fbank/raw_fbank_tr05_cont.4.ark:8606019
20lc010e /scratch/ravanelm/exp/dirha/fbank/raw_fbank_tr05_cont.3.ark:25384709
024o030h /scratch/ravanelm/exp/dirha/fbank/raw_fbank_tr05_cont.2.ark:32839219
011o030s /scratch/ravanelm/exp/dirha/fbank/raw_fbank_tr05_cont.1.ark:2434719
40fo030y /scratch/ravanelm/exp/dirha/fbank/raw_fbank_tr05_cont.4.ark:24537719
027c021d /scratch/ravanelm/exp/dirha/fbank/raw_fbank_tr05_cont.2.ark:37963149
015o030k /scratch/ravanelm/exp/dirha/fbank/raw_fbank_tr05_cont.1.ark:11403509
405o031d /scratch/ravanelm/exp/dirha/fbank/raw_fbank_tr05_cont.3.ark:50887819
40ho0318 /scratch/ravanelm/exp/dirha/fbank/raw_fbank_tr05_cont.4.ark:31818619
40po030x /scratch/ravanelm/exp/dirha/fbank/raw_fbank_tr05_cont.4.ark:53716509
01fc020c /scratch/ravanelm/exp/dirha/fbank/raw_fbank_tr05_cont.1.ark:33723379
20fo010c /scratch/ravanelm/exp/dirha/fbank/raw_fbank_tr05_cont.3.ark:20350619
020o030i /scratch/ravanelm/exp/dirha/fbank/raw_fbank_tr05_cont.2.ark:27334869
20pc010f /scratch/ravanelm/exp/dirha/fbank/raw_fbank_tr05_cont.3.ark:32143939
013o030o /scratch/ravanelm/exp/dirha/fbank/raw_fbank_tr05_cont.1.ark:5680699
40hc020o /scratch/ravanelm/exp/dirha/fbank/raw_fbank_tr05_cont.4.ark:29726649
20no0102 /scratch/ravanelm/exp/dirha/fbank/raw_fbank_tr05_cont.3.ark:29286889
404o0309 /scratch/ravanelm/exp/dirha/fbank/raw_fbank_tr05_cont.3.ark:47063979
40hc0218 /scratch/ravanelm/exp/dirha/fbank/raw_fbank_tr05_cont.4.ark:30248889
026c021e /scratch/ravanelm/exp/dirha/fbank/raw_fbank_tr05_cont.2.ark:35063939
20tc010p /scratch/ravanelm/exp/dirha/fbank/raw_fbank_tr05_cont.3.ark:37382639
40bc020h /scratch/ravanelm/exp/dirha/fbank/raw_fbank_tr05_cont.4.ark:11374379
20ho010n /scratch/ravanelm/exp/dirha/fbank/raw_fbank_tr05_cont.3.ark:23297209
209o010f /scratch/ravanelm/exp/dirha/fbank/raw_fbank_tr05_cont.3.ark:10371989
407c020u /scratch/ravanelm/exp/dirha/fbank/raw_fbank_tr05_cont.3.ark:54544589
403c0206 /scratch/ravanelm/exp/dirha/fbank/raw_fbank_tr05_cont.3.ark:43002019
01jo0311 /scratch/ravanelm/exp/dirha/fbank/raw_fbank_tr05_cont.1.ark:45947449
40cc020u /scratch/ravanelm/exp/dirha/fbank/raw_fbank_tr05_cont.4.ark:14637029
40go0303 /scratch/ravanelm/exp/dirha/fbank/raw_fbank_tr05_cont.4.ark:27094039
021c020p /scratch/ravanelm/exp/dirha/fbank/raw_fbank_tr05_cont.2.ark:28756019
028c021d /scratch/ravanelm/exp/dirha/fbank/raw_fbank_tr05_cont.2.ark:41004789
016c020i /scratch/ravanelm/exp/dirha/fbank/raw_fbank_tr05_cont.1.ark:12752629
01uo030z /scratch/ravanelm/exp/dirha/fbank/raw_fbank_tr05_cont.2.ark:16042379
01ko030i /scratch/ravanelm/exp/dirha/fbank/raw_fbank_tr05_cont.1.ark:48817789
01to030w /scratch/ravanelm/exp/dirha/fbank/raw_fbank_tr05_cont.2.ark:12413679
027o0319 /scratch/ravanelm/exp/dirha/fbank/raw_fbank_tr05_cont.2.ark:39728059
028o0304 /scratch/ravanelm/exp/dirha/fbank/raw_fbank_tr05_cont.2.ark:41192849
021o030f /scratch/ravanelm/exp/dirha/fbank/raw_fbank_tr05_cont.2.ark:29782729
40ho030c /scratch/ravanelm/exp/dirha/fbank/raw_fbank_tr05_cont.4.ark:30756419
01bc020r /scratch/ravanelm/exp/dirha/fbank/raw_fbank_tr05_cont.1.ark:24698999
01tc020w /scratch/ravanelm/exp/dirha/fbank/raw_fbank_tr05_cont.2.ark:10716709
40ic0215 /scratch/ravanelm/exp/dirha/fbank/raw_fbank_tr05_cont.4.ark:33228679
209o010d /scratch/ravanelm/exp/dirha/fbank/raw_fbank_tr05_cont.3.ark:10296649
20oc010j /scratch/ravanelm/exp/dirha/fbank/raw_fbank_tr05_cont.3.ark:30788209
01do031e /scratch/ravanelm/exp/dirha/fbank/raw_fbank_tr05_cont.1.ark:30332609
01tc0206 /scratch/ravanelm/exp/dirha/fbank/raw_fbank_tr05_cont.2.ark:9785769
20ao010i /scratch/ravanelm/exp/dirha/fbank/raw_fbank_tr05_cont.3.ark:12105549
020c020h /scratch/ravanelm/exp/dirha/fbank/raw_fbank_tr05_cont.2.ark:26441729
01wo0319 /scratch/ravanelm/exp/dirha/fbank/raw_fbank_tr05_cont.2.ark:19336849
02eo0310 /scratch/ravanelm/exp/dirha/fbank/raw_fbank_tr05_cont.3.ark:496469
026o030n /scratch/ravanelm/exp/dirha/fbank/raw_fbank_tr05_cont.2.ark:35820929
01ko0307 /scratch/ravanelm/exp/dirha/fbank/raw_fbank_tr05_cont.1.ark:48333259
015c0201 /scratch/ravanelm/exp/dirha/fbank/raw_fbank_tr05_cont.1.ark:9457479
01yo030j /scratch/ravanelm/exp/dirha/fbank/raw_fbank_tr05_cont.2.ark:21523619
40go0313 /scratch/ravanelm/exp/dirha/fbank/raw_fbank_tr05_cont.4.ark:28679839
018c020o /scratch/ravanelm/exp/dirha/fbank/raw_fbank_tr05_cont.1.ark:18278719
01jc020a /scratch/ravanelm/exp/dirha/fbank/raw_fbank_tr05_cont.1.ark:43307199
40ho030i /scratch/ravanelm/exp/dirha/fbank/raw_fbank_tr05_cont.4.ark:30984039
40bc020z /scratch/ravanelm/exp/dirha/fbank/raw_fbank_tr05_cont.4.ark:11822919
407c0215 /scratch/ravanelm/exp/dirha/fbank/raw_fbank_tr05_cont.4.ark:211119
40hc021b /scratch/ravanelm/exp/dirha/fbank/raw_fbank_tr05_cont.4.ark:30308099
20gc010h /scratch/ravanelm/exp/dirha/fbank/raw_fbank_tr05_cont.3.ark:21117919
407o030w /scratch/ravanelm/exp/dirha/fbank/raw_fbank_tr05_cont.4.ark:1882029
20bo010c /scratch/ravanelm/exp/dirha/fbank/raw_fbank_tr05_cont.3.ark:13591669
405o0314 /scratch/ravanelm/exp/dirha/fbank/raw_fbank_tr05_cont.3.ark:50582269
029c020f /scratch/ravanelm/exp/dirha/fbank/raw_fbank_tr05_cont.2.ark:43246849
20do0108 /scratch/ravanelm/exp/dirha/fbank/raw_fbank_tr05_cont.3.ark:16791569
40nc0206 /scratch/ravanelm/exp/dirha/fbank/raw_fbank_tr05_cont.4.ark:48185739
204c0108 /scratch/ravanelm/exp/dirha/fbank/raw_fbank_tr05_cont.3.ark:1210489
02cc0210 /scratch/ravanelm/exp/dirha/fbank/raw_fbank_tr05_cont.2.ark:50147079
207o0108 /scratch/ravanelm/exp/dirha/fbank/raw_fbank_tr05_cont.3.ark:6874379
01yc020u /scratch/ravanelm/exp/dirha/fbank/raw_fbank_tr05_cont.2.ark:20332149
01to0309 /scratch/ravanelm/exp/dirha/fbank/raw_fbank_tr05_cont.2.ark:11585269
40cc020m /scratch/ravanelm/exp/dirha/fbank/raw_fbank_tr05_cont.4.ark:14488589
40eo0306 /scratch/ravanelm/exp/dirha/fbank/raw_fbank_tr05_cont.4.ark:20808749
40mc020w /scratch/ravanelm/exp/dirha/fbank/raw_fbank_tr05_cont.4.ark:45828969
01jo0312 /scratch/ravanelm/exp/dirha/fbank/raw_fbank_tr05_cont.1.ark:45987759
40co030h /scratch/ravanelm/exp/dirha/fbank/raw_fbank_tr05_cont.4.ark:15578419
027o030p /scratch/ravanelm/exp/dirha/fbank/raw_fbank_tr05_cont.2.ark:38977099
20lc010m /scratch/ravanelm/exp/dirha/fbank/raw_fbank_tr05_cont.3.ark:25659989
01fc020i /scratch/ravanelm/exp/dirha/fbank/raw_fbank_tr05_cont.1.ark:33905079
026c020a /scratch/ravanelm/exp/dirha/fbank/raw_fbank_tr05_cont.2.ark:34100979
406o030i /scratch/ravanelm/exp/dirha/fbank/raw_fbank_tr05_cont.3.ark:52682519
018c0207 /scratch/ravanelm/exp/dirha/fbank/raw_fbank_tr05_cont.1.ark:17810049
20qc0101 /scratch/ravanelm/exp/dirha/fbank/raw_fbank_tr05_cont.3.ark:33220489
01zc020d /scratch/ravanelm/exp/dirha/fbank/raw_fbank_tr05_cont.2.ark:22947999
020c020i /scratch/ravanelm/exp/dirha/fbank/raw_fbank_tr05_cont.2.ark:26458759
40jc0214 /scratch/ravanelm/exp/dirha/fbank/raw_fbank_tr05_cont.4.ark:36170729
40kc020j /scratch/ravanelm/exp/dirha/fbank/raw_fbank_tr05_cont.4.ark:38775209
20mc0102 /scratch/ravanelm/exp/dirha/fbank/raw_fbank_tr05_cont.3.ark:27024789
029o030s /scratch/ravanelm/exp/dirha/fbank/raw_fbank_tr05_cont.2.ark:45227759
20lc0105 /scratch/ravanelm/exp/dirha/fbank/raw_fbank_tr05_cont.3.ark:25101719
02co030h /scratch/ravanelm/exp/dirha/fbank/raw_fbank_tr05_cont.2.ark:51020899
406c020g /scratch/ravanelm/exp/dirha/fbank/raw_fbank_tr05_cont.3.ark:51361239
01jo0301 /scratch/ravanelm/exp/dirha/fbank/raw_fbank_tr05_cont.1.ark:44590409
20oc010n /scratch/ravanelm/exp/dirha/fbank/raw_fbank_tr05_cont.3.ark:30863769
029c021g /scratch/ravanelm/exp/dirha/fbank/raw_fbank_tr05_cont.2.ark:44250959
01rc020m /scratch/ravanelm/exp/dirha/fbank/raw_fbank_tr05_cont.2.ark:7339659
028c021e /scratch/ravanelm/exp/dirha/fbank/raw_fbank_tr05_cont.2.ark:41037699
029o030m /scratch/ravanelm/exp/dirha/fbank/raw_fbank_tr05_cont.2.ark:44983779
01ic020b /scratch/ravanelm/exp/dirha/fbank/raw_fbank_tr05_cont.1.ark:40024169
01zc0217 /scratch/ravanelm/exp/dirha/fbank/raw_fbank_tr05_cont.2.ark:23822899
205o010h /scratch/ravanelm/exp/dirha/fbank/raw_fbank_tr05_cont.3.ark:3773279
40bc020q /scratch/ravanelm/exp/dirha/fbank/raw_fbank_tr05_cont.4.ark:11568489
40co0303 /scratch/ravanelm/exp/dirha/fbank/raw_fbank_tr05_cont.4.ark:15182999
01uo030i /scratch/ravanelm/exp/dirha/fbank/raw_fbank_tr05_cont.2.ark:15365749
40io030c /scratch/ravanelm/exp/dirha/fbank/raw_fbank_tr05_cont.4.ark:33865019
40lc0219 /scratch/ravanelm/exp/dirha/fbank/raw_fbank_tr05_cont.4.ark:42695509
40ho0302 /scratch/ravanelm/exp/dirha/fbank/raw_fbank_tr05_cont.4.ark:30465799
01rc0209 /scratch/ravanelm/exp/dirha/fbank/raw_fbank_tr05_cont.2.ark:6952749
01kc021d /scratch/ravanelm/exp/dirha/fbank/raw_fbank_tr05_cont.1.ark:47980939
40jo0319 /scratch/ravanelm/exp/dirha/fbank/raw_fbank_tr05_cont.4.ark:38004499
027o030z /scratch/ravanelm/exp/dirha/fbank/raw_fbank_tr05_cont.2.ark:39360359
40mc020y /scratch/ravanelm/exp/dirha/fbank/raw_fbank_tr05_cont.4.ark:45880389
015o030g /scratch/ravanelm/exp/dirha/fbank/raw_fbank_tr05_cont.1.ark:11267269
01po0318 /scratch/ravanelm/exp/dirha/fbank/raw_fbank_tr05_cont.2.ark:3469939
015c0215 /scratch/ravanelm/exp/dirha/fbank/raw_fbank_tr05_cont.1.ark:10486999
029c020q /scratch/ravanelm/exp/dirha/fbank/raw_fbank_tr05_cont.2.ark:43566579
20pc010i /scratch/ravanelm/exp/dirha/fbank/raw_fbank_tr05_cont.3.ark:32223709
40hc020p /scratch/ravanelm/exp/dirha/fbank/raw_fbank_tr05_cont.4.ark:29758399
013c020q /scratch/ravanelm/exp/dirha/fbank/raw_fbank_tr05_cont.1.ark:4328469
40mo0315 /scratch/ravanelm/exp/dirha/fbank/raw_fbank_tr05_cont.4.ark:47781559
205o010n /scratch/ravanelm/exp/dirha/fbank/raw_fbank_tr05_cont.3.ark:4004179
01rc0215 /scratch/ravanelm/exp/dirha/fbank/raw_fbank_tr05_cont.2.ark:7919309
40jc020d /scratch/ravanelm/exp/dirha/fbank/raw_fbank_tr05_cont.4.ark:35427559
01uc020i /scratch/ravanelm/exp/dirha/fbank/raw_fbank_tr05_cont.2.ark:13682139
40ao0313 /scratch/ravanelm/exp/dirha/fbank/raw_fbank_tr05_cont.4.ark:10532829
01fc021c /scratch/ravanelm/exp/dirha/fbank/raw_fbank_tr05_cont.1.ark:34657859
01dc021f /scratch/ravanelm/exp/dirha/fbank/raw_fbank_tr05_cont.1.ark:28760089
209o010h /scratch/ravanelm/exp/dirha/fbank/raw_fbank_tr05_cont.3.ark:10422449
01pc0208 /scratch/ravanelm/exp/dirha/fbank/raw_fbank_tr05_cont.2.ark:601329
01jo030a /scratch/ravanelm/exp/dirha/fbank/raw_fbank_tr05_cont.1.ark:44925599
409o030k /scratch/ravanelm/exp/dirha/fbank/raw_fbank_tr05_cont.4.ark:6858369
02ec0217 /scratch/ravanelm/exp/dirha/fbank/raw_fbank_tr05_cont.2.ark:53556019
01bo030v /scratch/ravanelm/exp/dirha/fbank/raw_fbank_tr05_cont.1.ark:26687209
40hc020c /scratch/ravanelm/exp/dirha/fbank/raw_fbank_tr05_cont.4.ark:29436889
01qc0208 /scratch/ravanelm/exp/dirha/fbank/raw_fbank_tr05_cont.2.ark:3902539
018o0314 /scratch/ravanelm/exp/dirha/fbank/raw_fbank_tr05_cont.1.ark:20731159
028o0309 /scratch/ravanelm/exp/dirha/fbank/raw_fbank_tr05_cont.2.ark:41376439
015c020p /scratch/ravanelm/exp/dirha/fbank/raw_fbank_tr05_cont.1.ark:10143399
40mc0212 /scratch/ravanelm/exp/dirha/fbank/raw_fbank_tr05_cont.4.ark:45958349
40jo030u /scratch/ravanelm/exp/dirha/fbank/raw_fbank_tr05_cont.4.ark:37519489
20ao0105 /scratch/ravanelm/exp/dirha/fbank/raw_fbank_tr05_cont.3.ark:11538919
020c0207 /scratch/ravanelm/exp/dirha/fbank/raw_fbank_tr05_cont.2.ark:26219149
403o0306 /scratch/ravanelm/exp/dirha/fbank/raw_fbank_tr05_cont.3.ark:44249149
01yc0217 /scratch/ravanelm/exp/dirha/fbank/raw_fbank_tr05_cont.2.ark:20685859
405o030q /scratch/ravanelm/exp/dirha/fbank/raw_fbank_tr05_cont.3.ark:50187689
406o030j /scratch/ravanelm/exp/dirha/fbank/raw_fbank_tr05_cont.3.ark:52705109
01do030i /scratch/ravanelm/exp/dirha/fbank/raw_fbank_tr05_cont.1.ark:29360269
01bc0208 /scratch/ravanelm/exp/dirha/fbank/raw_fbank_tr05_cont.1.ark:24023539
401c020j /scratch/ravanelm/exp/dirha/fbank/raw_fbank_tr05_cont.3.ark:40146239
20nc0102 /scratch/ravanelm/exp/dirha/fbank/raw_fbank_tr05_cont.3.ark:28483259
40ao030d /scratch/ravanelm/exp/dirha/fbank/raw_fbank_tr05_cont.4.ark:9675849
01ic0201 /scratch/ravanelm/exp/dirha/fbank/raw_fbank_tr05_cont.1.ark:39677869
40jo031a /scratch/ravanelm/exp/dirha/fbank/raw_fbank_tr05_cont.4.ark:38062489
01ec020b /scratch/ravanelm/exp/dirha/fbank/raw_fbank_tr05_cont.1.ark:30699889
40bc0213 /scratch/ravanelm/exp/dirha/fbank/raw_fbank_tr05_cont.4.ark:11937399
20bc0102 /scratch/ravanelm/exp/dirha/fbank/raw_fbank_tr05_cont.3.ark:12525609
01eo0301 /scratch/ravanelm/exp/dirha/fbank/raw_fbank_tr05_cont.1.ark:31875969
20mc0106 /scratch/ravanelm/exp/dirha/fbank/raw_fbank_tr05_cont.3.ark:27131709
01ic020h /scratch/ravanelm/exp/dirha/fbank/raw_fbank_tr05_cont.1.ark:40190309
01jc021a /scratch/ravanelm/exp/dirha/fbank/raw_fbank_tr05_cont.1.ark:44377999
40bo030k /scratch/ravanelm/exp/dirha/fbank/raw_fbank_tr05_cont.4.ark:13035029
20cc010e /scratch/ravanelm/exp/dirha/fbank/raw_fbank_tr05_cont.3.ark:14659259
40ko030p /scratch/ravanelm/exp/dirha/fbank/raw_fbank_tr05_cont.4.ark:40473389
208o0109 /scratch/ravanelm/exp/dirha/fbank/raw_fbank_tr05_cont.3.ark:8638939
40mc020a /scratch/ravanelm/exp/dirha/fbank/raw_fbank_tr05_cont.4.ark:45254589
021o030j /scratch/ravanelm/exp/dirha/fbank/raw_fbank_tr05_cont.2.ark:29911489
01to030t /scratch/ravanelm/exp/dirha/fbank/raw_fbank_tr05_cont.2.ark:12304949
01lc0203 /scratch/ravanelm/exp/dirha/fbank/raw_fbank_tr05_cont.1.ark:50298699
401c020t /scratch/ravanelm/exp/dirha/fbank/raw_fbank_tr05_cont.3.ark:40392699
014c020i /scratch/ravanelm/exp/dirha/fbank/raw_fbank_tr05_cont.1.ark:6950809
01tc020i /scratch/ravanelm/exp/dirha/fbank/raw_fbank_tr05_cont.2.ark:10198929
01fo030d /scratch/ravanelm/exp/dirha/fbank/raw_fbank_tr05_cont.1.ark:35250569
409o0317 /scratch/ravanelm/exp/dirha/fbank/raw_fbank_tr05_cont.4.ark:7548659
01fo0306 /scratch/ravanelm/exp/dirha/fbank/raw_fbank_tr05_cont.1.ark:34966999
40mo030f /scratch/ravanelm/exp/dirha/fbank/raw_fbank_tr05_cont.4.ark:46897579
01uo030d /scratch/ravanelm/exp/dirha/fbank/raw_fbank_tr05_cont.2.ark:15198959
02cc0218 /scratch/ravanelm/exp/dirha/fbank/raw_fbank_tr05_cont.2.ark:50342659
017c0205 /scratch/ravanelm/exp/dirha/fbank/raw_fbank_tr05_cont.1.ark:14926809
01pc020t /scratch/ravanelm/exp/dirha/fbank/raw_fbank_tr05_cont.2.ark:1206239
40ec020q /scratch/ravanelm/exp/dirha/fbank/raw_fbank_tr05_cont.4.ark:19960399
40go030d /scratch/ravanelm/exp/dirha/fbank/raw_fbank_tr05_cont.4.ark:27505579
40fc020r /scratch/ravanelm/exp/dirha/fbank/raw_fbank_tr05_cont.4.ark:22738469
01kc021a /scratch/ravanelm/exp/dirha/fbank/raw_fbank_tr05_cont.1.ark:47900769
405c0215 /scratch/ravanelm/exp/dirha/fbank/raw_fbank_tr05_cont.3.ark:49206249
40fc0208 /scratch/ravanelm/exp/dirha/fbank/raw_fbank_tr05_cont.4.ark:22190739
017c020t /scratch/ravanelm/exp/dirha/fbank/raw_fbank_tr05_cont.1.ark:15457169
20fc0102 /scratch/ravanelm/exp/dirha/fbank/raw_fbank_tr05_cont.3.ark:19295299
40ko0303 /scratch/ravanelm/exp/dirha/fbank/raw_fbank_tr05_cont.4.ark:39754369
01wc020s /scratch/ravanelm/exp/dirha/fbank/raw_fbank_tr05_cont.2.ark:17430949
40hc0216 /scratch/ravanelm/exp/dirha/fbank/raw_fbank_tr05_cont.4.ark:30174149
20fc010g /scratch/ravanelm/exp/dirha/fbank/raw_fbank_tr05_cont.3.ark:19666279
401c020q /scratch/ravanelm/exp/dirha/fbank/raw_fbank_tr05_cont.3.ark:40319489
02bc020x /scratch/ravanelm/exp/dirha/fbank/raw_fbank_tr05_cont.2.ark:46912399
019c020c /scratch/ravanelm/exp/dirha/fbank/raw_fbank_tr05_cont.1.ark:21373279
02ec020g /scratch/ravanelm/exp/dirha/fbank/raw_fbank_tr05_cont.2.ark:52752969
20lc0107 /scratch/ravanelm/exp/dirha/fbank/raw_fbank_tr05_cont.3.ark:25156899
404o030z /scratch/ravanelm/exp/dirha/fbank/raw_fbank_tr05_cont.3.ark:47839999
026o0314 /scratch/ravanelm/exp/dirha/fbank/raw_fbank_tr05_cont.2.ark:36356639
026o030y /scratch/ravanelm/exp/dirha/fbank/raw_fbank_tr05_cont.2.ark:36162219
40go030b /scratch/ravanelm/exp/dirha/fbank/raw_fbank_tr05_cont.4.ark:27437599
028c020a /scratch/ravanelm/exp/dirha/fbank/raw_fbank_tr05_cont.2.ark:39975699
015c0202 /scratch/ravanelm/exp/dirha/fbank/raw_fbank_tr05_cont.1.ark:9487189
20bc0108 /scratch/ravanelm/exp/dirha/fbank/raw_fbank_tr05_cont.3.ark:12659629
20cc0101 /scratch/ravanelm/exp/dirha/fbank/raw_fbank_tr05_cont.3.ark:14271269
40gc020a /scratch/ravanelm/exp/dirha/fbank/raw_fbank_tr05_cont.4.ark:25517719
011c0206 /scratch/ravanelm/exp/dirha/fbank/raw_fbank_tr05_cont.1.ark:131199
403c0204 /scratch/ravanelm/exp/dirha/fbank/raw_fbank_tr05_cont.3.ark:42968039
20oo010h /scratch/ravanelm/exp/dirha/fbank/raw_fbank_tr05_cont.3.ark:31413509
205o0104 /scratch/ravanelm/exp/dirha/fbank/raw_fbank_tr05_cont.3.ark:3235529
20lo0101 /scratch/ravanelm/exp/dirha/fbank/raw_fbank_tr05_cont.3.ark:25832219
404c0202 /scratch/ravanelm/exp/dirha/fbank/raw_fbank_tr05_cont.3.ark:45595679
016o030t /scratch/ravanelm/exp/dirha/fbank/raw_fbank_tr05_cont.1.ark:14122919
028o0301 /scratch/ravanelm/exp/dirha/fbank/raw_fbank_tr05_cont.2.ark:41095519
011c021d /scratch/ravanelm/exp/dirha/fbank/raw_fbank_tr05_cont.1.ark:1340409
01bo030w /scratch/ravanelm/exp/dirha/fbank/raw_fbank_tr05_cont.1.ark:26731679
01uc0203 /scratch/ravanelm/exp/dirha/fbank/raw_fbank_tr05_cont.2.ark:13185649
026o0307 /scratch/ravanelm/exp/dirha/fbank/raw_fbank_tr05_cont.2.ark:35333249
40ic0214 /scratch/ravanelm/exp/dirha/fbank/raw_fbank_tr05_cont.4.ark:33196249
01zo030a /scratch/ravanelm/exp/dirha/fbank/raw_fbank_tr05_cont.2.ark:24378799
015o030t /scratch/ravanelm/exp/dirha/fbank/raw_fbank_tr05_cont.1.ark:11740459
015c020o /scratch/ravanelm/exp/dirha/fbank/raw_fbank_tr05_cont.1.ark:10120529
401c021d /scratch/ravanelm/exp/dirha/fbank/raw_fbank_tr05_cont.3.ark:41006899
014c0212 /scratch/ravanelm/exp/dirha/fbank/raw_fbank_tr05_cont.1.ark:7401489
01wc020t /scratch/ravanelm/exp/dirha/fbank/raw_fbank_tr05_cont.2.ark:17444019
20mc010b /scratch/ravanelm/exp/dirha/fbank/raw_fbank_tr05_cont.3.ark:27274979
01lc020j /scratch/ravanelm/exp/dirha/fbank/raw_fbank_tr05_cont.1.ark:50892299
20qo010o /scratch/ravanelm/exp/dirha/fbank/raw_fbank_tr05_cont.3.ark:34891449
021c020u /scratch/ravanelm/exp/dirha/fbank/raw_fbank_tr05_cont.2.ark:28903009
40jc0210 /scratch/ravanelm/exp/dirha/fbank/raw_fbank_tr05_cont.4.ark:36059969
205c010h /scratch/ravanelm/exp/dirha/fbank/raw_fbank_tr05_cont.3.ark:2897169
029c0212 /scratch/ravanelm/exp/dirha/fbank/raw_fbank_tr05_cont.2.ark:43883619
40fc0213 /scratch/ravanelm/exp/dirha/fbank/raw_fbank_tr05_cont.4.ark:23107669
401c0204 /scratch/ravanelm/exp/dirha/fbank/raw_fbank_tr05_cont.3.ark:39671869
01wo0315 /scratch/ravanelm/exp/dirha/fbank/raw_fbank_tr05_cont.2.ark:19239049
01wc021b /scratch/ravanelm/exp/dirha/fbank/raw_fbank_tr05_cont.2.ark:17866049
405c021a /scratch/ravanelm/exp/dirha/fbank/raw_fbank_tr05_cont.3.ark:49328479
026o030p /scratch/ravanelm/exp/dirha/fbank/raw_fbank_tr05_cont.2.ark:35867829
01rc021e /scratch/ravanelm/exp/dirha/fbank/raw_fbank_tr05_cont.2.ark:8105459
40go031b /scratch/ravanelm/exp/dirha/fbank/raw_fbank_tr05_cont.4.ark:29015479
40co0304 /scratch/ravanelm/exp/dirha/fbank/raw_fbank_tr05_cont.4.ark:15213189
40fo0301 /scratch/ravanelm/exp/dirha/fbank/raw_fbank_tr05_cont.4.ark:23458649
016o031d /scratch/ravanelm/exp/dirha/fbank/raw_fbank_tr05_cont.1.ark:14699359
013o0311 /scratch/ravanelm/exp/dirha/fbank/raw_fbank_tr05_cont.1.ark:6067409
209o010p /scratch/ravanelm/exp/dirha/fbank/raw_fbank_tr05_cont.3.ark:10667329
205o010c /scratch/ravanelm/exp/dirha/fbank/raw_fbank_tr05_cont.3.ark:3526009
40bo0317 /scratch/ravanelm/exp/dirha/fbank/raw_fbank_tr05_cont.4.ark:13770819
20ao010k /scratch/ravanelm/exp/dirha/fbank/raw_fbank_tr05_cont.3.ark:12196089
40go0315 /scratch/ravanelm/exp/dirha/fbank/raw_fbank_tr05_cont.4.ark:28771419
208c010o /scratch/ravanelm/exp/dirha/fbank/raw_fbank_tr05_cont.3.ark:8297039
02cc0217 /scratch/ravanelm/exp/dirha/fbank/raw_fbank_tr05_cont.2.ark:50305069
409o0316 /scratch/ravanelm/exp/dirha/fbank/raw_fbank_tr05_cont.4.ark:7507749
01lc021a /scratch/ravanelm/exp/dirha/fbank/raw_fbank_tr05_cont.1.ark:51693309
011o0318 /scratch/ravanelm/exp/dirha/fbank/raw_fbank_tr05_cont.1.ark:3164799
404c0213 /scratch/ravanelm/exp/dirha/fbank/raw_fbank_tr05_cont.3.ark:46498549
409c020h /scratch/ravanelm/exp/dirha/fbank/raw_fbank_tr05_cont.4.ark:5321039
408c020p /scratch/ravanelm/exp/dirha/fbank/raw_fbank_tr05_cont.4.ark:2984879
40bc0207 /scratch/ravanelm/exp/dirha/fbank/raw_fbank_tr05_cont.4.ark:11074039
02ec0209 /scratch/ravanelm/exp/dirha/fbank/raw_fbank_tr05_cont.2.ark:52504719
40lc020h /scratch/ravanelm/exp/dirha/fbank/raw_fbank_tr05_cont.4.ark:41829069
40no0316 /scratch/ravanelm/exp/dirha/fbank/raw_fbank_tr05_cont.4.ark:51082099
40gc020c /scratch/ravanelm/exp/dirha/fbank/raw_fbank_tr05_cont.4.ark:25606299
40ic0207 /scratch/ravanelm/exp/dirha/fbank/raw_fbank_tr05_cont.4.ark:32212259
205o0103 /scratch/ravanelm/exp/dirha/fbank/raw_fbank_tr05_cont.3.ark:3202539
01qo031c /scratch/ravanelm/exp/dirha/fbank/raw_fbank_tr05_cont.2.ark:6551199
20vo0106 /scratch/ravanelm/exp/dirha/fbank/raw_fbank_tr05_cont.3.ark:38894269
01bo0314 /scratch/ravanelm/exp/dirha/fbank/raw_fbank_tr05_cont.1.ark:27059279
40jc020i /scratch/ravanelm/exp/dirha/fbank/raw_fbank_tr05_cont.4.ark:35581189
01wc020a /scratch/ravanelm/exp/dirha/fbank/raw_fbank_tr05_cont.2.ark:16883569
40go0311 /scratch/ravanelm/exp/dirha/fbank/raw_fbank_tr05_cont.4.ark:28581019
011c020j /scratch/ravanelm/exp/dirha/fbank/raw_fbank_tr05_cont.1.ark:479949
20fc010e /scratch/ravanelm/exp/dirha/fbank/raw_fbank_tr05_cont.3.ark:19606219
40co0302 /scratch/ravanelm/exp/dirha/fbank/raw_fbank_tr05_cont.4.ark:15164409
40cc020z /scratch/ravanelm/exp/dirha/fbank/raw_fbank_tr05_cont.4.ark:14756939
028c020n /scratch/ravanelm/exp/dirha/fbank/raw_fbank_tr05_cont.2.ark:40270529
409o0301 /scratch/ravanelm/exp/dirha/fbank/raw_fbank_tr05_cont.4.ark:6305079
01eo030e /scratch/ravanelm/exp/dirha/fbank/raw_fbank_tr05_cont.1.ark:32216759
024o030c /scratch/ravanelm/exp/dirha/fbank/raw_fbank_tr05_cont.2.ark:32677149
01zo0303 /scratch/ravanelm/exp/dirha/fbank/raw_fbank_tr05_cont.2.ark:24185309
20io010k /scratch/ravanelm/exp/dirha/fbank/raw_fbank_tr05_cont.3.ark:24744669
407c0214 /scratch/ravanelm/exp/dirha/fbank/raw_fbank_tr05_cont.4.ark:195369
40ic020i /scratch/ravanelm/exp/dirha/fbank/raw_fbank_tr05_cont.4.ark:32584829
404c0203 /scratch/ravanelm/exp/dirha/fbank/raw_fbank_tr05_cont.3.ark:45624469
406o031c /scratch/ravanelm/exp/dirha/fbank/raw_fbank_tr05_cont.3.ark:53699859
02eo031c /scratch/ravanelm/exp/dirha/fbank/raw_fbank_tr05_cont.3.ark:888089
028o030w /scratch/ravanelm/exp/dirha/fbank/raw_fbank_tr05_cont.2.ark:42256929
406o030o /scratch/ravanelm/exp/dirha/fbank/raw_fbank_tr05_cont.3.ark:52916819
020c020m /scratch/ravanelm/exp/dirha/fbank/raw_fbank_tr05_cont.2.ark:26547479
01go0313 /scratch/ravanelm/exp/dirha/fbank/raw_fbank_tr05_cont.1.ark:39123609
20do010f /scratch/ravanelm/exp/dirha/fbank/raw_fbank_tr05_cont.3.ark:17030499
027c0209 /scratch/ravanelm/exp/dirha/fbank/raw_fbank_tr05_cont.2.ark:36862189
20gc0109 /scratch/ravanelm/exp/dirha/fbank/raw_fbank_tr05_cont.3.ark:20929039
40do030c /scratch/ravanelm/exp/dirha/fbank/raw_fbank_tr05_cont.4.ark:18244349
01kc020t /scratch/ravanelm/exp/dirha/fbank/raw_fbank_tr05_cont.1.ark:47360259
02bc0206 /scratch/ravanelm/exp/dirha/fbank/raw_fbank_tr05_cont.2.ark:46164789
01po030o /scratch/ravanelm/exp/dirha/fbank/raw_fbank_tr05_cont.2.ark:2705659
01uo0304 /scratch/ravanelm/exp/dirha/fbank/raw_fbank_tr05_cont.2.ark:14895689
02eo030d /scratch/ravanelm/exp/dirha/fbank/raw_fbank_tr05_cont.2.ark:54284179
02co0316 /scratch/ravanelm/exp/dirha/fbank/raw_fbank_tr05_cont.2.ark:51844209
02ec020d /scratch/ravanelm/exp/dirha/fbank/raw_fbank_tr05_cont.2.ark:52633199
20cc0106 /scratch/ravanelm/exp/dirha/fbank/raw_fbank_tr05_cont.3.ark:14408699
40cc021b /scratch/ravanelm/exp/dirha/fbank/raw_fbank_tr05_cont.4.ark:15021979
027c020d /scratch/ravanelm/exp/dirha/fbank/raw_fbank_tr05_cont.2.ark:36974869
40mc020u /scratch/ravanelm/exp/dirha/fbank/raw_fbank_tr05_cont.4.ark:45766469
028o0318 /scratch/ravanelm/exp/dirha/fbank/raw_fbank_tr05_cont.2.ark:42632689
408c021a /scratch/ravanelm/exp/dirha/fbank/raw_fbank_tr05_cont.4.ark:3422839
011c021a /scratch/ravanelm/exp/dirha/fbank/raw_fbank_tr05_cont.1.ark:1282639
40fo0314 /scratch/ravanelm/exp/dirha/fbank/raw_fbank_tr05_cont.4.ark:24710699
40ao031b /scratch/ravanelm/exp/dirha/fbank/raw_fbank_tr05_cont.4.ark:10770509
20co0104 /scratch/ravanelm/exp/dirha/fbank/raw_fbank_tr05_cont.3.ark:15035919
01to030x /scratch/ravanelm/exp/dirha/fbank/raw_fbank_tr05_cont.2.ark:12428709
20ec010a /scratch/ravanelm/exp/dirha/fbank/raw_fbank_tr05_cont.3.ark:17816999
027c020a /scratch/ravanelm/exp/dirha/fbank/raw_fbank_tr05_cont.2.ark:36893019
029c0214 /scratch/ravanelm/exp/dirha/fbank/raw_fbank_tr05_cont.2.ark:43939759
40io030l /scratch/ravanelm/exp/dirha/fbank/raw_fbank_tr05_cont.4.ark:34189809
024o0309 /scratch/ravanelm/exp/dirha/fbank/raw_fbank_tr05_cont.2.ark:32586859
408c020a /scratch/ravanelm/exp/dirha/fbank/raw_fbank_tr05_cont.4.ark:2612949
40ic020r /scratch/ravanelm/exp/dirha/fbank/raw_fbank_tr05_cont.4.ark:32863099
20mc0103 /scratch/ravanelm/exp/dirha/fbank/raw_fbank_tr05_cont.3.ark:27053379
01go030b /scratch/ravanelm/exp/dirha/fbank/raw_fbank_tr05_cont.1.ark:38165609
01eo0315 /scratch/ravanelm/exp/dirha/fbank/raw_fbank_tr05_cont.1.ark:33048969
024c020i /scratch/ravanelm/exp/dirha/fbank/raw_fbank_tr05_cont.2.ark:31425389
40cc020b /scratch/ravanelm/exp/dirha/fbank/raw_fbank_tr05_cont.4.ark:14220259
20mo010a /scratch/ravanelm/exp/dirha/fbank/raw_fbank_tr05_cont.3.ark:27963939
01qo0313 /scratch/ravanelm/exp/dirha/fbank/raw_fbank_tr05_cont.2.ark:6329529
40fc0201 /scratch/ravanelm/exp/dirha/fbank/raw_fbank_tr05_cont.4.ark:22023649
20po010c /scratch/ravanelm/exp/dirha/fbank/raw_fbank_tr05_cont.3.ark:32768919
02bc020k /scratch/ravanelm/exp/dirha/fbank/raw_fbank_tr05_cont.2.ark:46557449
40lo030z /scratch/ravanelm/exp/dirha/fbank/raw_fbank_tr05_cont.4.ark:44395139
40jo031e /scratch/ravanelm/exp/dirha/fbank/raw_fbank_tr05_cont.4.ark:38183449
20lc010g /scratch/ravanelm/exp/dirha/fbank/raw_fbank_tr05_cont.3.ark:25454129
40bo0313 /scratch/ravanelm/exp/dirha/fbank/raw_fbank_tr05_cont.4.ark:13645939
01lc021f /scratch/ravanelm/exp/dirha/fbank/raw_fbank_tr05_cont.1.ark:51867539
40nc021g /scratch/ravanelm/exp/dirha/fbank/raw_fbank_tr05_cont.4.ark:49556639
40kc020k /scratch/ravanelm/exp/dirha/fbank/raw_fbank_tr05_cont.4.ark:38808439
209o010i /scratch/ravanelm/exp/dirha/fbank/raw_fbank_tr05_cont.3.ark:10463119
408o0303 /scratch/ravanelm/exp/dirha/fbank/raw_fbank_tr05_cont.4.ark:3625979
02bo0309 /scratch/ravanelm/exp/dirha/fbank/raw_fbank_tr05_cont.2.ark:47741449
01ec020p /scratch/ravanelm/exp/dirha/fbank/raw_fbank_tr05_cont.1.ark:31067749
01kc020b /scratch/ravanelm/exp/dirha/fbank/raw_fbank_tr05_cont.1.ark:46827269
40jc0203 /scratch/ravanelm/exp/dirha/fbank/raw_fbank_tr05_cont.4.ark:35193099
01go031f /scratch/ravanelm/exp/dirha/fbank/raw_fbank_tr05_cont.1.ark:39603129
01tc020u /scratch/ravanelm/exp/dirha/fbank/raw_fbank_tr05_cont.2.ark:10634169
018c021c /scratch/ravanelm/exp/dirha/fbank/raw_fbank_tr05_cont.1.ark:19003959
01ic0216 /scratch/ravanelm/exp/dirha/fbank/raw_fbank_tr05_cont.1.ark:40851299
01do0312 /scratch/ravanelm/exp/dirha/fbank/raw_fbank_tr05_cont.1.ark:29947609
01io030m /scratch/ravanelm/exp/dirha/fbank/raw_fbank_tr05_cont.1.ark:41980469
404o0308 /scratch/ravanelm/exp/dirha/fbank/raw_fbank_tr05_cont.3.ark:47023389
02eo030s /scratch/ravanelm/exp/dirha/fbank/raw_fbank_tr05_cont.3.ark:225829
024c020z /scratch/ravanelm/exp/dirha/fbank/raw_fbank_tr05_cont.2.ark:31874339
01to030d /scratch/ravanelm/exp/dirha/fbank/raw_fbank_tr05_cont.2.ark:11706109
401c0219 /scratch/ravanelm/exp/dirha/fbank/raw_fbank_tr05_cont.3.ark:40889779
01go030s /scratch/ravanelm/exp/dirha/fbank/raw_fbank_tr05_cont.1.ark:38761439
20dc010k /scratch/ravanelm/exp/dirha/fbank/raw_fbank_tr05_cont.3.ark:16339179
401c021b /scratch/ravanelm/exp/dirha/fbank/raw_fbank_tr05_cont.3.ark:40955239
015c0204 /scratch/ravanelm/exp/dirha/fbank/raw_fbank_tr05_cont.1.ark:9551849
403c0210 /scratch/ravanelm/exp/dirha/fbank/raw_fbank_tr05_cont.3.ark:43638119
01ko0314 /scratch/ravanelm/exp/dirha/fbank/raw_fbank_tr05_cont.1.ark:49660169
40ko030n /scratch/ravanelm/exp/dirha/fbank/raw_fbank_tr05_cont.4.ark:40392969
406c0214 /scratch/ravanelm/exp/dirha/fbank/raw_fbank_tr05_cont.3.ark:51921449
408c020b /scratch/ravanelm/exp/dirha/fbank/raw_fbank_tr05_cont.4.ark:2635779
40mc021b /scratch/ravanelm/exp/dirha/fbank/raw_fbank_tr05_cont.4.ark:46213099
40lo030o /scratch/ravanelm/exp/dirha/fbank/raw_fbank_tr05_cont.4.ark:43828289
20do010r /scratch/ravanelm/exp/dirha/fbank/raw_fbank_tr05_cont.3.ark:17505259
40bo030r /scratch/ravanelm/exp/dirha/fbank/raw_fbank_tr05_cont.4.ark:13285559
027c0216 /scratch/ravanelm/exp/dirha/fbank/raw_fbank_tr05_cont.2.ark:37734019
020c021c /scratch/ravanelm/exp/dirha/fbank/raw_fbank_tr05_cont.2.ark:27017779
01to0317 /scratch/ravanelm/exp/dirha/fbank/raw_fbank_tr05_cont.2.ark:12766729
01dc020u /scratch/ravanelm/exp/dirha/fbank/raw_fbank_tr05_cont.1.ark:28173499
02ec020m /scratch/ravanelm/exp/dirha/fbank/raw_fbank_tr05_cont.2.ark:52939469
01qc020i /scratch/ravanelm/exp/dirha/fbank/raw_fbank_tr05_cont.2.ark:4235239
40ec0208 /scratch/ravanelm/exp/dirha/fbank/raw_fbank_tr05_cont.4.ark:19582379
019c020l /scratch/ravanelm/exp/dirha/fbank/raw_fbank_tr05_cont.1.ark:21578629
016c020g /scratch/ravanelm/exp/dirha/fbank/raw_fbank_tr05_cont.1.ark:12696889
01yo030y /scratch/ravanelm/exp/dirha/fbank/raw_fbank_tr05_cont.2.ark:22058509
02eo031d /scratch/ravanelm/exp/dirha/fbank/raw_fbank_tr05_cont.3.ark:920199
01jo030s /scratch/ravanelm/exp/dirha/fbank/raw_fbank_tr05_cont.1.ark:45568499
20fo010o /scratch/ravanelm/exp/dirha/fbank/raw_fbank_tr05_cont.3.ark:20680579
20po0102 /scratch/ravanelm/exp/dirha/fbank/raw_fbank_tr05_cont.3.ark:32468539
20gc010b /scratch/ravanelm/exp/dirha/fbank/raw_fbank_tr05_cont.3.ark:20970059
405c0201 /scratch/ravanelm/exp/dirha/fbank/raw_fbank_tr05_cont.3.ark:48237809
207o010s /scratch/ravanelm/exp/dirha/fbank/raw_fbank_tr05_cont.3.ark:7521379
01fo030c /scratch/ravanelm/exp/dirha/fbank/raw_fbank_tr05_cont.1.ark:35230499
404o0319 /scratch/ravanelm/exp/dirha/fbank/raw_fbank_tr05_cont.3.ark:48110219
01fo031a /scratch/ravanelm/exp/dirha/fbank/raw_fbank_tr05_cont.1.ark:36283679
01tc020l /scratch/ravanelm/exp/dirha/fbank/raw_fbank_tr05_cont.2.ark:10303259
01wo0310 /scratch/ravanelm/exp/dirha/fbank/raw_fbank_tr05_cont.2.ark:19031019
40co030y /scratch/ravanelm/exp/dirha/fbank/raw_fbank_tr05_cont.4.ark:15985489
20co010m /scratch/ravanelm/exp/dirha/fbank/raw_fbank_tr05_cont.3.ark:15606619
208o010d /scratch/ravanelm/exp/dirha/fbank/raw_fbank_tr05_cont.3.ark:8788579
40ic020h /scratch/ravanelm/exp/dirha/fbank/raw_fbank_tr05_cont.4.ark:32548479
208o010r /scratch/ravanelm/exp/dirha/fbank/raw_fbank_tr05_cont.3.ark:9264919
01lc0210 /scratch/ravanelm/exp/dirha/fbank/raw_fbank_tr05_cont.1.ark:51350049
01ic020l /scratch/ravanelm/exp/dirha/fbank/raw_fbank_tr05_cont.1.ark:40317749
01uc020c /scratch/ravanelm/exp/dirha/fbank/raw_fbank_tr05_cont.2.ark:13514519
40ao030h /scratch/ravanelm/exp/dirha/fbank/raw_fbank_tr05_cont.4.ark:9817329
206c0102 /scratch/ravanelm/exp/dirha/fbank/raw_fbank_tr05_cont.3.ark:4260359
40eo030r /scratch/ravanelm/exp/dirha/fbank/raw_fbank_tr05_cont.4.ark:21432979
40bc021g /scratch/ravanelm/exp/dirha/fbank/raw_fbank_tr05_cont.4.ark:12320349
20oc010f /scratch/ravanelm/exp/dirha/fbank/raw_fbank_tr05_cont.3.ark:30688249
01fc0213 /scratch/ravanelm/exp/dirha/fbank/raw_fbank_tr05_cont.1.ark:34421589
20po0106 /scratch/ravanelm/exp/dirha/fbank/raw_fbank_tr05_cont.3.ark:32579859
02eo0307 /scratch/ravanelm/exp/dirha/fbank/raw_fbank_tr05_cont.2.ark:54077359
02bo030f /scratch/ravanelm/exp/dirha/fbank/raw_fbank_tr05_cont.2.ark:47964629
018o030s /scratch/ravanelm/exp/dirha/fbank/raw_fbank_tr05_cont.1.ark:20208039
40io031b /scratch/ravanelm/exp/dirha/fbank/raw_fbank_tr05_cont.4.ark:35038949
40mo030w /scratch/ravanelm/exp/dirha/fbank/raw_fbank_tr05_cont.4.ark:47494049
02bo030x /scratch/ravanelm/exp/dirha/fbank/raw_fbank_tr05_cont.2.ark:48577049
017o030x /scratch/ravanelm/exp/dirha/fbank/raw_fbank_tr05_cont.1.ark:17050809
405o031a /scratch/ravanelm/exp/dirha/fbank/raw_fbank_tr05_cont.3.ark:50781009
017c020z /scratch/ravanelm/exp/dirha/fbank/raw_fbank_tr05_cont.1.ark:15607349
01yo030r /scratch/ravanelm/exp/dirha/fbank/raw_fbank_tr05_cont.2.ark:21821419
40gc020f /scratch/ravanelm/exp/dirha/fbank/raw_fbank_tr05_cont.4.ark:25669949
017c021e /scratch/ravanelm/exp/dirha/fbank/raw_fbank_tr05_cont.1.ark:15963559
40fo030b /scratch/ravanelm/exp/dirha/fbank/raw_fbank_tr05_cont.4.ark:23802949
01gc020h /scratch/ravanelm/exp/dirha/fbank/raw_fbank_tr05_cont.1.ark:36869289
01ko0318 /scratch/ravanelm/exp/dirha/fbank/raw_fbank_tr05_cont.1.ark:49825329
40cc020t /scratch/ravanelm/exp/dirha/fbank/raw_fbank_tr05_cont.4.ark:14625239
40pc020p /scratch/ravanelm/exp/dirha/fbank/raw_fbank_tr05_cont.4.ark:51938539
013o030v /scratch/ravanelm/exp/dirha/fbank/raw_fbank_tr05_cont.1.ark:5879269
01qo030f /scratch/ravanelm/exp/dirha/fbank/raw_fbank_tr05_cont.2.ark:5523529
01qc020y /scratch/ravanelm/exp/dirha/fbank/raw_fbank_tr05_cont.2.ark:4531239
40ac020i /scratch/ravanelm/exp/dirha/fbank/raw_fbank_tr05_cont.4.ark:8393859
40do030t /scratch/ravanelm/exp/dirha/fbank/raw_fbank_tr05_cont.4.ark:18811139
20do010j /scratch/ravanelm/exp/dirha/fbank/raw_fbank_tr05_cont.3.ark:17205579
01fc020e /scratch/ravanelm/exp/dirha/fbank/raw_fbank_tr05_cont.1.ark:33787079
01do030q /scratch/ravanelm/exp/dirha/fbank/raw_fbank_tr05_cont.1.ark:29565449
206c0108 /scratch/ravanelm/exp/dirha/fbank/raw_fbank_tr05_cont.3.ark:4387339
40kc021e /scratch/ravanelm/exp/dirha/fbank/raw_fbank_tr05_cont.4.ark:39630899
404o0307 /scratch/ravanelm/exp/dirha/fbank/raw_fbank_tr05_cont.3.ark:47009239
40ac021b /scratch/ravanelm/exp/dirha/fbank/raw_fbank_tr05_cont.4.ark:9217329
40bc020y /scratch/ravanelm/exp/dirha/fbank/raw_fbank_tr05_cont.4.ark:11799329
02bc020p /scratch/ravanelm/exp/dirha/fbank/raw_fbank_tr05_cont.2.ark:46701479
011o030m /scratch/ravanelm/exp/dirha/fbank/raw_fbank_tr05_cont.1.ark:2263019
01tc021g /scratch/ravanelm/exp/dirha/fbank/raw_fbank_tr05_cont.2.ark:11294989
02bc0216 /scratch/ravanelm/exp/dirha/fbank/raw_fbank_tr05_cont.2.ark:47142949
01lo030r /scratch/ravanelm/exp/dirha/fbank/raw_fbank_tr05_cont.1.ark:52997349
20fc010k /scratch/ravanelm/exp/dirha/fbank/raw_fbank_tr05_cont.3.ark:19765839
40fc020s /scratch/ravanelm/exp/dirha/fbank/raw_fbank_tr05_cont.4.ark:22761019
014o0306 /scratch/ravanelm/exp/dirha/fbank/raw_fbank_tr05_cont.1.ark:7927079
204o010l /scratch/ravanelm/exp/dirha/fbank/raw_fbank_tr05_cont.3.ark:2202189
02cc021b /scratch/ravanelm/exp/dirha/fbank/raw_fbank_tr05_cont.2.ark:50417989
406c0217 /scratch/ravanelm/exp/dirha/fbank/raw_fbank_tr05_cont.3.ark:52024419
01wo030n /scratch/ravanelm/exp/dirha/fbank/raw_fbank_tr05_cont.2.ark:18677819
01fo0318 /scratch/ravanelm/exp/dirha/fbank/raw_fbank_tr05_cont.1.ark:36223419
01jc020u /scratch/ravanelm/exp/dirha/fbank/raw_fbank_tr05_cont.1.ark:43849919
026c020q /scratch/ravanelm/exp/dirha/fbank/raw_fbank_tr05_cont.2.ark:34488499
01do0311 /scratch/ravanelm/exp/dirha/fbank/raw_fbank_tr05_cont.1.ark:29928739
40co030e /scratch/ravanelm/exp/dirha/fbank/raw_fbank_tr05_cont.4.ark:15485849
027c020t /scratch/ravanelm/exp/dirha/fbank/raw_fbank_tr05_cont.2.ark:37345429
014c020p /scratch/ravanelm/exp/dirha/fbank/raw_fbank_tr05_cont.1.ark:7081659
404o030n /scratch/ravanelm/exp/dirha/fbank/raw_fbank_tr05_cont.3.ark:47479959
20mc010o /scratch/ravanelm/exp/dirha/fbank/raw_fbank_tr05_cont.3.ark:27607129
013c020p /scratch/ravanelm/exp/dirha/fbank/raw_fbank_tr05_cont.1.ark:4319359
40jo030o /scratch/ravanelm/exp/dirha/fbank/raw_fbank_tr05_cont.4.ark:37339429
01go030u /scratch/ravanelm/exp/dirha/fbank/raw_fbank_tr05_cont.1.ark:38827899
