40mc0218 /scratch/ravanelm/exp/dirha/fbank/raw_fbank_tr05_cont.4.ark:46145009
01wo030s /scratch/ravanelm/exp/dirha/fbank/raw_fbank_tr05_cont.2.ark:18792059
407c021i /scratch/ravanelm/exp/dirha/fbank/raw_fbank_tr05_cont.4.ark:615549
408o0311 /scratch/ravanelm/exp/dirha/fbank/raw_fbank_tr05_cont.4.ark:4580839
01bc0211 /scratch/ravanelm/exp/dirha/fbank/raw_fbank_tr05_cont.1.ark:24924909
40co0301 /scratch/ravanelm/exp/dirha/fbank/raw_fbank_tr05_cont.4.ark:15130939
01ic020a /scratch/ravanelm/exp/dirha/fbank/raw_fbank_tr05_cont.1.ark:39983179
01go0314 /scratch/ravanelm/exp/dirha/fbank/raw_fbank_tr05_cont.1.ark:39160519
018c020i /scratch/ravanelm/exp/dirha/fbank/raw_fbank_tr05_cont.1.ark:18116779
015c020s /scratch/ravanelm/exp/dirha/fbank/raw_fbank_tr05_cont.1.ark:10193609
01rc021g /scratch/ravanelm/exp/dirha/fbank/raw_fbank_tr05_cont.2.ark:8169119
20mc010m /scratch/ravanelm/exp/dirha/fbank/raw_fbank_tr05_cont.3.ark:27544269
01bc0206 /scratch/ravanelm/exp/dirha/fbank/raw_fbank_tr05_cont.1.ark:23923599
016c0204 /scratch/ravanelm/exp/dirha/fbank/raw_fbank_tr05_cont.1.ark:12372209
028c0208 /scratch/ravanelm/exp/dirha/fbank/raw_fbank_tr05_cont.2.ark:39927639
40ko030u /scratch/ravanelm/exp/dirha/fbank/raw_fbank_tr05_cont.4.ark:40634259
40ho030n /scratch/ravanelm/exp/dirha/fbank/raw_fbank_tr05_cont.4.ark:31145549
20vo010o /scratch/ravanelm/exp/dirha/fbank/raw_fbank_tr05_cont.3.ark:39456409
40bo030x /scratch/ravanelm/exp/dirha/fbank/raw_fbank_tr05_cont.4.ark:13507059
011c020c /scratch/ravanelm/exp/dirha/fbank/raw_fbank_tr05_cont.1.ark:292259
01mo031e /scratch/ravanelm/exp/dirha/fbank/raw_fbank_tr05_cont.2.ark:397369
02cc020h /scratch/ravanelm/exp/dirha/fbank/raw_fbank_tr05_cont.2.ark:49674339
01lc0201 /scratch/ravanelm/exp/dirha/fbank/raw_fbank_tr05_cont.1.ark:50248399
40no030b /scratch/ravanelm/exp/dirha/fbank/raw_fbank_tr05_cont.4.ark:49995329
207o0103 /scratch/ravanelm/exp/dirha/fbank/raw_fbank_tr05_cont.3.ark:6685669
018o030m /scratch/ravanelm/exp/dirha/fbank/raw_fbank_tr05_cont.1.ark:19989779
40kc0209 /scratch/ravanelm/exp/dirha/fbank/raw_fbank_tr05_cont.4.ark:38488469
018c020k /scratch/ravanelm/exp/dirha/fbank/raw_fbank_tr05_cont.1.ark:18199319
021c020z /scratch/ravanelm/exp/dirha/fbank/raw_fbank_tr05_cont.2.ark:28995479
01ro0301 /scratch/ravanelm/exp/dirha/fbank/raw_fbank_tr05_cont.2.ark:8190469
027o030a /scratch/ravanelm/exp/dirha/fbank/raw_fbank_tr05_cont.2.ark:38391329
018c0212 /scratch/ravanelm/exp/dirha/fbank/raw_fbank_tr05_cont.1.ark:18710939
017o030j /scratch/ravanelm/exp/dirha/fbank/raw_fbank_tr05_cont.1.ark:16653629
406c020e /scratch/ravanelm/exp/dirha/fbank/raw_fbank_tr05_cont.3.ark:51323739
40ho030v /scratch/ravanelm/exp/dirha/fbank/raw_fbank_tr05_cont.4.ark:31398309
20io0107 /scratch/ravanelm/exp/dirha/fbank/raw_fbank_tr05_cont.3.ark:24256039
017o0304 /scratch/ravanelm/exp/dirha/fbank/raw_fbank_tr05_cont.1.ark:16176939
014c020r /scratch/ravanelm/exp/dirha/fbank/raw_fbank_tr05_cont.1.ark:7130319
014c021e /scratch/ravanelm/exp/dirha/fbank/raw_fbank_tr05_cont.1.ark:7670329
20no010a /scratch/ravanelm/exp/dirha/fbank/raw_fbank_tr05_cont.3.ark:29580809
020c020l /scratch/ravanelm/exp/dirha/fbank/raw_fbank_tr05_cont.2.ark:26519849
40ac020j /scratch/ravanelm/exp/dirha/fbank/raw_fbank_tr05_cont.4.ark:8411689
01lc0216 /scratch/ravanelm/exp/dirha/fbank/raw_fbank_tr05_cont.1.ark:51562429
019o0307 /scratch/ravanelm/exp/dirha/fbank/raw_fbank_tr05_cont.1.ark:22609599
406c020d /scratch/ravanelm/exp/dirha/fbank/raw_fbank_tr05_cont.3.ark:51297549
01mc020l /scratch/ravanelm/exp/dirha/fbank/raw_fbank_tr05_cont.1.ark:54576399
40fo0318 /scratch/ravanelm/exp/dirha/fbank/raw_fbank_tr05_cont.4.ark:24859579
028o0311 /scratch/ravanelm/exp/dirha/fbank/raw_fbank_tr05_cont.2.ark:42373599
20io010l /scratch/ravanelm/exp/dirha/fbank/raw_fbank_tr05_cont.3.ark:24766299
021o030x /scratch/ravanelm/exp/dirha/fbank/raw_fbank_tr05_cont.2.ark:30353149
40gc020h /scratch/ravanelm/exp/dirha/fbank/raw_fbank_tr05_cont.4.ark:25744489
40mo0301 /scratch/ravanelm/exp/dirha/fbank/raw_fbank_tr05_cont.4.ark:46388679
017c0209 /scratch/ravanelm/exp/dirha/fbank/raw_fbank_tr05_cont.1.ark:15010369
015o0308 /scratch/ravanelm/exp/dirha/fbank/raw_fbank_tr05_cont.1.ark:10991629
021c0201 /scratch/ravanelm/exp/dirha/fbank/raw_fbank_tr05_cont.2.ark:28031779
407c020g /scratch/ravanelm/exp/dirha/fbank/raw_fbank_tr05_cont.3.ark:54144729
407c0212 /scratch/ravanelm/exp/dirha/fbank/raw_fbank_tr05_cont.4.ark:159909
409o030x /scratch/ravanelm/exp/dirha/fbank/raw_fbank_tr05_cont.4.ark:7265679
20vc010k /scratch/ravanelm/exp/dirha/fbank/raw_fbank_tr05_cont.3.ark:38635459
404c0201 /scratch/ravanelm/exp/dirha/fbank/raw_fbank_tr05_cont.3.ark:45573569
20ac0103 /scratch/ravanelm/exp/dirha/fbank/raw_fbank_tr05_cont.3.ark:10756619
40ao0318 /scratch/ravanelm/exp/dirha/fbank/raw_fbank_tr05_cont.4.ark:10699899
01pc020m /scratch/ravanelm/exp/dirha/fbank/raw_fbank_tr05_cont.2.ark:994909
027o031b /scratch/ravanelm/exp/dirha/fbank/raw_fbank_tr05_cont.2.ark:39754879
404c0216 /scratch/ravanelm/exp/dirha/fbank/raw_fbank_tr05_cont.3.ark:46570719
01jo030n /scratch/ravanelm/exp/dirha/fbank/raw_fbank_tr05_cont.1.ark:45421749
20hc0107 /scratch/ravanelm/exp/dirha/fbank/raw_fbank_tr05_cont.3.ark:22211389
01ic020k /scratch/ravanelm/exp/dirha/fbank/raw_fbank_tr05_cont.1.ark:40282759
207o010u /scratch/ravanelm/exp/dirha/fbank/raw_fbank_tr05_cont.3.ark:7584399
40ic020k /scratch/ravanelm/exp/dirha/fbank/raw_fbank_tr05_cont.4.ark:32635929
01ro030y /scratch/ravanelm/exp/dirha/fbank/raw_fbank_tr05_cont.2.ark:9169179
40ho0301 /scratch/ravanelm/exp/dirha/fbank/raw_fbank_tr05_cont.4.ark:30422689
20dc010l /scratch/ravanelm/exp/dirha/fbank/raw_fbank_tr05_cont.3.ark:16371129
01bo0318 /scratch/ravanelm/exp/dirha/fbank/raw_fbank_tr05_cont.1.ark:27153529
405o030j /scratch/ravanelm/exp/dirha/fbank/raw_fbank_tr05_cont.3.ark:50004359
406o0302 /scratch/ravanelm/exp/dirha/fbank/raw_fbank_tr05_cont.3.ark:52255759
01ko0308 /scratch/ravanelm/exp/dirha/fbank/raw_fbank_tr05_cont.1.ark:48381209
017c0214 /scratch/ravanelm/exp/dirha/fbank/raw_fbank_tr05_cont.1.ark:15723099
024c020n /scratch/ravanelm/exp/dirha/fbank/raw_fbank_tr05_cont.2.ark:31559459
01qo030g /scratch/ravanelm/exp/dirha/fbank/raw_fbank_tr05_cont.2.ark:5572879
01qo030l /scratch/ravanelm/exp/dirha/fbank/raw_fbank_tr05_cont.2.ark:5756629
01jo0314 /scratch/ravanelm/exp/dirha/fbank/raw_fbank_tr05_cont.1.ark:46078299
024o030r /scratch/ravanelm/exp/dirha/fbank/raw_fbank_tr05_cont.2.ark:33111159
409o0318 /scratch/ravanelm/exp/dirha/fbank/raw_fbank_tr05_cont.4.ark:7563929
40co030r /scratch/ravanelm/exp/dirha/fbank/raw_fbank_tr05_cont.4.ark:15863999
20ec010m /scratch/ravanelm/exp/dirha/fbank/raw_fbank_tr05_cont.3.ark:18174479
40ec020w /scratch/ravanelm/exp/dirha/fbank/raw_fbank_tr05_cont.4.ark:20092859
40ac0212 /scratch/ravanelm/exp/dirha/fbank/raw_fbank_tr05_cont.4.ark:8981139
018c0205 /scratch/ravanelm/exp/dirha/fbank/raw_fbank_tr05_cont.1.ark:17759869
20vo0109 /scratch/ravanelm/exp/dirha/fbank/raw_fbank_tr05_cont.3.ark:38954679
407c021f /scratch/ravanelm/exp/dirha/fbank/raw_fbank_tr05_cont.4.ark:563979
40gc020p /scratch/ravanelm/exp/dirha/fbank/raw_fbank_tr05_cont.4.ark:26002649
016c020p /scratch/ravanelm/exp/dirha/fbank/raw_fbank_tr05_cont.1.ark:12905319
02bc020o /scratch/ravanelm/exp/dirha/fbank/raw_fbank_tr05_cont.2.ark:46680849
205c010n /scratch/ravanelm/exp/dirha/fbank/raw_fbank_tr05_cont.3.ark:3042069
01uc020k /scratch/ravanelm/exp/dirha/fbank/raw_fbank_tr05_cont.2.ark:13744679
40kc021c /scratch/ravanelm/exp/dirha/fbank/raw_fbank_tr05_cont.4.ark:39560319
40ec021f /scratch/ravanelm/exp/dirha/fbank/raw_fbank_tr05_cont.4.ark:20544269
024o031b /scratch/ravanelm/exp/dirha/fbank/raw_fbank_tr05_cont.2.ark:33678559
016c0216 /scratch/ravanelm/exp/dirha/fbank/raw_fbank_tr05_cont.1.ark:13215899
40pc0211 /scratch/ravanelm/exp/dirha/fbank/raw_fbank_tr05_cont.4.ark:52235459
405c020r /scratch/ravanelm/exp/dirha/fbank/raw_fbank_tr05_cont.3.ark:48926469
207o0102 /scratch/ravanelm/exp/dirha/fbank/raw_fbank_tr05_cont.3.ark:6655399
01fo0308 /scratch/ravanelm/exp/dirha/fbank/raw_fbank_tr05_cont.1.ark:35053819
011o0312 /scratch/ravanelm/exp/dirha/fbank/raw_fbank_tr05_cont.1.ark:2862019
01rc021c /scratch/ravanelm/exp/dirha/fbank/raw_fbank_tr05_cont.2.ark:8059679
40ho030h /scratch/ravanelm/exp/dirha/fbank/raw_fbank_tr05_cont.4.ark:30939449
01qo030b /scratch/ravanelm/exp/dirha/fbank/raw_fbank_tr05_cont.2.ark:5398649
02bc020w /scratch/ravanelm/exp/dirha/fbank/raw_fbank_tr05_cont.2.ark:46875409
01lo030b /scratch/ravanelm/exp/dirha/fbank/raw_fbank_tr05_cont.1.ark:52325549
40ec0214 /scratch/ravanelm/exp/dirha/fbank/raw_fbank_tr05_cont.4.ark:20292779
01do031d /scratch/ravanelm/exp/dirha/fbank/raw_fbank_tr05_cont.1.ark:30314339
40bo0314 /scratch/ravanelm/exp/dirha/fbank/raw_fbank_tr05_cont.4.ark:13684449
406o0304 /scratch/ravanelm/exp/dirha/fbank/raw_fbank_tr05_cont.3.ark:52317459
40hc0212 /scratch/ravanelm/exp/dirha/fbank/raw_fbank_tr05_cont.4.ark:30054309
408o030c /scratch/ravanelm/exp/dirha/fbank/raw_fbank_tr05_cont.4.ark:3917129
01rc020a /scratch/ravanelm/exp/dirha/fbank/raw_fbank_tr05_cont.2.ark:6990179
027o0312 /scratch/ravanelm/exp/dirha/fbank/raw_fbank_tr05_cont.2.ark:39474929
20mo010b /scratch/ravanelm/exp/dirha/fbank/raw_fbank_tr05_cont.3.ark:27981889
20pc0102 /scratch/ravanelm/exp/dirha/fbank/raw_fbank_tr05_cont.3.ark:31819709
01pc0214 /scratch/ravanelm/exp/dirha/fbank/raw_fbank_tr05_cont.2.ark:1527049
40bc0203 /scratch/ravanelm/exp/dirha/fbank/raw_fbank_tr05_cont.4.ark:10980159
405o0309 /scratch/ravanelm/exp/dirha/fbank/raw_fbank_tr05_cont.3.ark:49643699
01zo0319 /scratch/ravanelm/exp/dirha/fbank/raw_fbank_tr05_cont.2.ark:25827649
40ic0218 /scratch/ravanelm/exp/dirha/fbank/raw_fbank_tr05_cont.4.ark:33300889
01jo030e /scratch/ravanelm/exp/dirha/fbank/raw_fbank_tr05_cont.1.ark:45093639
409c0215 /scratch/ravanelm/exp/dirha/fbank/raw_fbank_tr05_cont.4.ark:5976159
40lo0308 /scratch/ravanelm/exp/dirha/fbank/raw_fbank_tr05_cont.4.ark:43132849
01jo0305 /scratch/ravanelm/exp/dirha/fbank/raw_fbank_tr05_cont.1.ark:44772009
40eo0309 /scratch/ravanelm/exp/dirha/fbank/raw_fbank_tr05_cont.4.ark:20876279
20no010q /scratch/ravanelm/exp/dirha/fbank/raw_fbank_tr05_cont.3.ark:30267289
01eo030v /scratch/ravanelm/exp/dirha/fbank/raw_fbank_tr05_cont.1.ark:32721429
403c020k /scratch/ravanelm/exp/dirha/fbank/raw_fbank_tr05_cont.3.ark:43294919
40po030o /scratch/ravanelm/exp/dirha/fbank/raw_fbank_tr05_cont.4.ark:53405839
016c0218 /scratch/ravanelm/exp/dirha/fbank/raw_fbank_tr05_cont.1.ark:13250199
209o0107 /scratch/ravanelm/exp/dirha/fbank/raw_fbank_tr05_cont.3.ark:10127589
019o0306 /scratch/ravanelm/exp/dirha/fbank/raw_fbank_tr05_cont.1.ark:22557129
027o030u /scratch/ravanelm/exp/dirha/fbank/raw_fbank_tr05_cont.2.ark:39159809
01io0318 /scratch/ravanelm/exp/dirha/fbank/raw_fbank_tr05_cont.1.ark:42783609
01ec020z /scratch/ravanelm/exp/dirha/fbank/raw_fbank_tr05_cont.1.ark:31342929
02bo0306 /scratch/ravanelm/exp/dirha/fbank/raw_fbank_tr05_cont.2.ark:47611919
40ec0206 /scratch/ravanelm/exp/dirha/fbank/raw_fbank_tr05_cont.4.ark:19536079
016c020s /scratch/ravanelm/exp/dirha/fbank/raw_fbank_tr05_cont.1.ark:12942099
40bc020v /scratch/ravanelm/exp/dirha/fbank/raw_fbank_tr05_cont.4.ark:11722599
406c0210 /scratch/ravanelm/exp/dirha/fbank/raw_fbank_tr05_cont.3.ark:51812569
408c0217 /scratch/ravanelm/exp/dirha/fbank/raw_fbank_tr05_cont.4.ark:3355829
409c0201 /scratch/ravanelm/exp/dirha/fbank/raw_fbank_tr05_cont.4.ark:4868519
01zo031d /scratch/ravanelm/exp/dirha/fbank/raw_fbank_tr05_cont.2.ark:25963929
40bc021f /scratch/ravanelm/exp/dirha/fbank/raw_fbank_tr05_cont.4.ark:12293959
40bo0304 /scratch/ravanelm/exp/dirha/fbank/raw_fbank_tr05_cont.4.ark:12456629
20bc010e /scratch/ravanelm/exp/dirha/fbank/raw_fbank_tr05_cont.3.ark:12795009
014o0316 /scratch/ravanelm/exp/dirha/fbank/raw_fbank_tr05_cont.1.ark:9192079
40lc0213 /scratch/ravanelm/exp/dirha/fbank/raw_fbank_tr05_cont.4.ark:42479289
021o030r /scratch/ravanelm/exp/dirha/fbank/raw_fbank_tr05_cont.2.ark:30201129
027c0218 /scratch/ravanelm/exp/dirha/fbank/raw_fbank_tr05_cont.2.ark:37812759
40fo0312 /scratch/ravanelm/exp/dirha/fbank/raw_fbank_tr05_cont.4.ark:24656319
40ao0316 /scratch/ravanelm/exp/dirha/fbank/raw_fbank_tr05_cont.4.ark:10631719
011o0302 /scratch/ravanelm/exp/dirha/fbank/raw_fbank_tr05_cont.1.ark:1434419
013o0308 /scratch/ravanelm/exp/dirha/fbank/raw_fbank_tr05_cont.1.ark:5166299
20no0105 /scratch/ravanelm/exp/dirha/fbank/raw_fbank_tr05_cont.3.ark:29387139
40co0309 /scratch/ravanelm/exp/dirha/fbank/raw_fbank_tr05_cont.4.ark:15330659
409c0205 /scratch/ravanelm/exp/dirha/fbank/raw_fbank_tr05_cont.4.ark:4976079
01eo030c /scratch/ravanelm/exp/dirha/fbank/raw_fbank_tr05_cont.1.ark:32157579
406o0316 /scratch/ravanelm/exp/dirha/fbank/raw_fbank_tr05_cont.3.ark:53518559
020o031e /scratch/ravanelm/exp/dirha/fbank/raw_fbank_tr05_cont.2.ark:27997589
406c020l /scratch/ravanelm/exp/dirha/fbank/raw_fbank_tr05_cont.3.ark:51494269
40eo031a /scratch/ravanelm/exp/dirha/fbank/raw_fbank_tr05_cont.4.ark:21968149
01ic020m /scratch/ravanelm/exp/dirha/fbank/raw_fbank_tr05_cont.1.ark:40345659
20ro0108 /scratch/ravanelm/exp/dirha/fbank/raw_fbank_tr05_cont.3.ark:35912439
209o010m /scratch/ravanelm/exp/dirha/fbank/raw_fbank_tr05_cont.3.ark:10582359
017o0317 /scratch/ravanelm/exp/dirha/fbank/raw_fbank_tr05_cont.1.ark:17377869
01mc0216 /scratch/ravanelm/exp/dirha/fbank/raw_fbank_tr05_cont.1.ark:55132989
40ic0217 /scratch/ravanelm/exp/dirha/fbank/raw_fbank_tr05_cont.4.ark:33270339
40bc020g /scratch/ravanelm/exp/dirha/fbank/raw_fbank_tr05_cont.4.ark:11354829
01jo0315 /scratch/ravanelm/exp/dirha/fbank/raw_fbank_tr05_cont.1.ark:46144449
40co031a /scratch/ravanelm/exp/dirha/fbank/raw_fbank_tr05_cont.4.ark:16262409
011c021b /scratch/ravanelm/exp/dirha/fbank/raw_fbank_tr05_cont.1.ark:1307749
021o0318 /scratch/ravanelm/exp/dirha/fbank/raw_fbank_tr05_cont.2.ark:30694559
016o0313 /scratch/ravanelm/exp/dirha/fbank/raw_fbank_tr05_cont.1.ark:14447499
40pc020u /scratch/ravanelm/exp/dirha/fbank/raw_fbank_tr05_cont.4.ark:52073329
01bo030f /scratch/ravanelm/exp/dirha/fbank/raw_fbank_tr05_cont.1.ark:26027849
408o0302 /scratch/ravanelm/exp/dirha/fbank/raw_fbank_tr05_cont.4.ark:3603709
20to0105 /scratch/ravanelm/exp/dirha/fbank/raw_fbank_tr05_cont.3.ark:37516979
01rc0213 /scratch/ravanelm/exp/dirha/fbank/raw_fbank_tr05_cont.2.ark:7877169
019o0308 /scratch/ravanelm/exp/dirha/fbank/raw_fbank_tr05_cont.1.ark:22638069
40do0318 /scratch/ravanelm/exp/dirha/fbank/raw_fbank_tr05_cont.4.ark:19254229
40lo030l /scratch/ravanelm/exp/dirha/fbank/raw_fbank_tr05_cont.4.ark:43664599
026o0312 /scratch/ravanelm/exp/dirha/fbank/raw_fbank_tr05_cont.2.ark:36283699
20nc0107 /scratch/ravanelm/exp/dirha/fbank/raw_fbank_tr05_cont.3.ark:28638209
20po0105 /scratch/ravanelm/exp/dirha/fbank/raw_fbank_tr05_cont.3.ark:32558549
40go0318 /scratch/ravanelm/exp/dirha/fbank/raw_fbank_tr05_cont.4.ark:28899669
01ec020c /scratch/ravanelm/exp/dirha/fbank/raw_fbank_tr05_cont.1.ark:30724999
01wc0213 /scratch/ravanelm/exp/dirha/fbank/raw_fbank_tr05_cont.2.ark:17703399
01wo030t /scratch/ravanelm/exp/dirha/fbank/raw_fbank_tr05_cont.2.ark:18813609
018o0308 /scratch/ravanelm/exp/dirha/fbank/raw_fbank_tr05_cont.1.ark:19436799
20do010a /scratch/ravanelm/exp/dirha/fbank/raw_fbank_tr05_cont.3.ark:16857229
407c020r /scratch/ravanelm/exp/dirha/fbank/raw_fbank_tr05_cont.3.ark:54468459
409o0304 /scratch/ravanelm/exp/dirha/fbank/raw_fbank_tr05_cont.4.ark:6390249
40ao031c /scratch/ravanelm/exp/dirha/fbank/raw_fbank_tr05_cont.4.ark:10805259
209o010k /scratch/ravanelm/exp/dirha/fbank/raw_fbank_tr05_cont.3.ark:10526299
40pc0214 /scratch/ravanelm/exp/dirha/fbank/raw_fbank_tr05_cont.4.ark:52328429
016c0202 /scratch/ravanelm/exp/dirha/fbank/raw_fbank_tr05_cont.1.ark:12338949
01lc0218 /scratch/ravanelm/exp/dirha/fbank/raw_fbank_tr05_cont.1.ark:51624809
40lo0305 /scratch/ravanelm/exp/dirha/fbank/raw_fbank_tr05_cont.4.ark:43055079
20eo0108 /scratch/ravanelm/exp/dirha/fbank/raw_fbank_tr05_cont.3.ark:18559259
01zc020j /scratch/ravanelm/exp/dirha/fbank/raw_fbank_tr05_cont.2.ark:23122659
017c0210 /scratch/ravanelm/exp/dirha/fbank/raw_fbank_tr05_cont.1.ark:15645779
40ac020p /scratch/ravanelm/exp/dirha/fbank/raw_fbank_tr05_cont.4.ark:8587909
016c0208 /scratch/ravanelm/exp/dirha/fbank/raw_fbank_tr05_cont.1.ark:12483169
40fo030j /scratch/ravanelm/exp/dirha/fbank/raw_fbank_tr05_cont.4.ark:24072389
01uo031a /scratch/ravanelm/exp/dirha/fbank/raw_fbank_tr05_cont.2.ark:16482189
01ec0202 /scratch/ravanelm/exp/dirha/fbank/raw_fbank_tr05_cont.1.ark:30435939
40io0301 /scratch/ravanelm/exp/dirha/fbank/raw_fbank_tr05_cont.4.ark:33551649
406c0219 /scratch/ravanelm/exp/dirha/fbank/raw_fbank_tr05_cont.3.ark:52062479
027o030f /scratch/ravanelm/exp/dirha/fbank/raw_fbank_tr05_cont.2.ark:38587199
20po010e /scratch/ravanelm/exp/dirha/fbank/raw_fbank_tr05_cont.3.ark:32803059
40ko030w /scratch/ravanelm/exp/dirha/fbank/raw_fbank_tr05_cont.4.ark:40715999
018c020a /scratch/ravanelm/exp/dirha/fbank/raw_fbank_tr05_cont.1.ark:17868019
01lc020o /scratch/ravanelm/exp/dirha/fbank/raw_fbank_tr05_cont.1.ark:51033369
205c010c /scratch/ravanelm/exp/dirha/fbank/raw_fbank_tr05_cont.3.ark:2755819
20nc010m /scratch/ravanelm/exp/dirha/fbank/raw_fbank_tr05_cont.3.ark:29137459
01wc021c /scratch/ravanelm/exp/dirha/fbank/raw_fbank_tr05_cont.2.ark:17884679
011o0305 /scratch/ravanelm/exp/dirha/fbank/raw_fbank_tr05_cont.1.ark:1586229
01zc020f /scratch/ravanelm/exp/dirha/fbank/raw_fbank_tr05_cont.2.ark:23018299
01uo031d /scratch/ravanelm/exp/dirha/fbank/raw_fbank_tr05_cont.2.ark:16560239
018o030h /scratch/ravanelm/exp/dirha/fbank/raw_fbank_tr05_cont.1.ark:19762469
20do010m /scratch/ravanelm/exp/dirha/fbank/raw_fbank_tr05_cont.3.ark:17311349
019o030z /scratch/ravanelm/exp/dirha/fbank/raw_fbank_tr05_cont.1.ark:23477359
01ro030k /scratch/ravanelm/exp/dirha/fbank/raw_fbank_tr05_cont.2.ark:8745639
401o030w /scratch/ravanelm/exp/dirha/fbank/raw_fbank_tr05_cont.3.ark:42206759
209o010l /scratch/ravanelm/exp/dirha/fbank/raw_fbank_tr05_cont.3.ark:10556649
20co0102 /scratch/ravanelm/exp/dirha/fbank/raw_fbank_tr05_cont.3.ark:14998209
01bo0308 /scratch/ravanelm/exp/dirha/fbank/raw_fbank_tr05_cont.1.ark:25739789
016c0211 /scratch/ravanelm/exp/dirha/fbank/raw_fbank_tr05_cont.1.ark:13147329
011c020d /scratch/ravanelm/exp/dirha/fbank/raw_fbank_tr05_cont.1.ark:311929
016c021c /scratch/ravanelm/exp/dirha/fbank/raw_fbank_tr05_cont.1.ark:13358959
40fo0302 /scratch/ravanelm/exp/dirha/fbank/raw_fbank_tr05_cont.4.ark:23495119
40jc021c /scratch/ravanelm/exp/dirha/fbank/raw_fbank_tr05_cont.4.ark:36397049
016c020b /scratch/ravanelm/exp/dirha/fbank/raw_fbank_tr05_cont.1.ark:12553939
40no030n /scratch/ravanelm/exp/dirha/fbank/raw_fbank_tr05_cont.4.ark:50422009
01fc0211 /scratch/ravanelm/exp/dirha/fbank/raw_fbank_tr05_cont.1.ark:34363729
40do031b /scratch/ravanelm/exp/dirha/fbank/raw_fbank_tr05_cont.4.ark:19332999
02cc021d /scratch/ravanelm/exp/dirha/fbank/raw_fbank_tr05_cont.2.ark:50448729
20ac010j /scratch/ravanelm/exp/dirha/fbank/raw_fbank_tr05_cont.3.ark:11228459
01dc020e /scratch/ravanelm/exp/dirha/fbank/raw_fbank_tr05_cont.1.ark:27758499
40mo030c /scratch/ravanelm/exp/dirha/fbank/raw_fbank_tr05_cont.4.ark:46814609
20po010h /scratch/ravanelm/exp/dirha/fbank/raw_fbank_tr05_cont.3.ark:32883629
019o030s /scratch/ravanelm/exp/dirha/fbank/raw_fbank_tr05_cont.1.ark:23254629
02bo030p /scratch/ravanelm/exp/dirha/fbank/raw_fbank_tr05_cont.2.ark:48295209
02eo030e /scratch/ravanelm/exp/dirha/fbank/raw_fbank_tr05_cont.2.ark:54310529
40bc0201 /scratch/ravanelm/exp/dirha/fbank/raw_fbank_tr05_cont.4.ark:10916419
40fo030r /scratch/ravanelm/exp/dirha/fbank/raw_fbank_tr05_cont.4.ark:24319109
01qo0314 /scratch/ravanelm/exp/dirha/fbank/raw_fbank_tr05_cont.2.ark:6351999
029c020d /scratch/ravanelm/exp/dirha/fbank/raw_fbank_tr05_cont.2.ark:43198949
01do0319 /scratch/ravanelm/exp/dirha/fbank/raw_fbank_tr05_cont.1.ark:30204219
40fo030v /scratch/ravanelm/exp/dirha/fbank/raw_fbank_tr05_cont.4.ark:24474869
016c020w /scratch/ravanelm/exp/dirha/fbank/raw_fbank_tr05_cont.1.ark:13030539
017o0313 /scratch/ravanelm/exp/dirha/fbank/raw_fbank_tr05_cont.1.ark:17261069
016c020k /scratch/ravanelm/exp/dirha/fbank/raw_fbank_tr05_cont.1.ark:12818689
01go0307 /scratch/ravanelm/exp/dirha/fbank/raw_fbank_tr05_cont.1.ark:38035249
01ic0215 /scratch/ravanelm/exp/dirha/fbank/raw_fbank_tr05_cont.1.ark:40831029
02co030k /scratch/ravanelm/exp/dirha/fbank/raw_fbank_tr05_cont.2.ark:51113309
020c021d /scratch/ravanelm/exp/dirha/fbank/raw_fbank_tr05_cont.2.ark:27030369
01yc021d /scratch/ravanelm/exp/dirha/fbank/raw_fbank_tr05_cont.2.ark:20852159
018c020w /scratch/ravanelm/exp/dirha/fbank/raw_fbank_tr05_cont.1.ark:18520639
02co0311 /scratch/ravanelm/exp/dirha/fbank/raw_fbank_tr05_cont.2.ark:51704139
408c020q /scratch/ravanelm/exp/dirha/fbank/raw_fbank_tr05_cont.4.ark:3011029
40no0306 /scratch/ravanelm/exp/dirha/fbank/raw_fbank_tr05_cont.4.ark:49792899
019c0213 /scratch/ravanelm/exp/dirha/fbank/raw_fbank_tr05_cont.1.ark:22017169
408o0310 /scratch/ravanelm/exp/dirha/fbank/raw_fbank_tr05_cont.4.ark:4550409
01uo030k /scratch/ravanelm/exp/dirha/fbank/raw_fbank_tr05_cont.2.ark:15434289
20mo0101 /scratch/ravanelm/exp/dirha/fbank/raw_fbank_tr05_cont.3.ark:27669589
206o010c /scratch/ravanelm/exp/dirha/fbank/raw_fbank_tr05_cont.3.ark:5198599
40nc0218 /scratch/ravanelm/exp/dirha/fbank/raw_fbank_tr05_cont.4.ark:49347759
028o0306 /scratch/ravanelm/exp/dirha/fbank/raw_fbank_tr05_cont.2.ark:41279029
20bc0109 /scratch/ravanelm/exp/dirha/fbank/raw_fbank_tr05_cont.3.ark:12681179
20bo010a /scratch/ravanelm/exp/dirha/fbank/raw_fbank_tr05_cont.3.ark:13504169
205o010o /scratch/ravanelm/exp/dirha/fbank/raw_fbank_tr05_cont.3.ark:4026849
20mc010d /scratch/ravanelm/exp/dirha/fbank/raw_fbank_tr05_cont.3.ark:27306879
20rc010i /scratch/ravanelm/exp/dirha/fbank/raw_fbank_tr05_cont.3.ark:35509009
020c020g /scratch/ravanelm/exp/dirha/fbank/raw_fbank_tr05_cont.2.ark:26408539
20gc010c /scratch/ravanelm/exp/dirha/fbank/raw_fbank_tr05_cont.3.ark:20997049
40ao0307 /scratch/ravanelm/exp/dirha/fbank/raw_fbank_tr05_cont.4.ark:9470669
011o030o /scratch/ravanelm/exp/dirha/fbank/raw_fbank_tr05_cont.1.ark:2326599
20qc010c /scratch/ravanelm/exp/dirha/fbank/raw_fbank_tr05_cont.3.ark:33623059
20vc010j /scratch/ravanelm/exp/dirha/fbank/raw_fbank_tr05_cont.3.ark:38610469
020o030r /scratch/ravanelm/exp/dirha/fbank/raw_fbank_tr05_cont.2.ark:27525859
021o0309 /scratch/ravanelm/exp/dirha/fbank/raw_fbank_tr05_cont.2.ark:29608669
029o0312 /scratch/ravanelm/exp/dirha/fbank/raw_fbank_tr05_cont.2.ark:45567059
01qc0206 /scratch/ravanelm/exp/dirha/fbank/raw_fbank_tr05_cont.2.ark:3814839
20ao010e /scratch/ravanelm/exp/dirha/fbank/raw_fbank_tr05_cont.3.ark:11943509
018c020n /scratch/ravanelm/exp/dirha/fbank/raw_fbank_tr05_cont.1.ark:18261929
029o0306 /scratch/ravanelm/exp/dirha/fbank/raw_fbank_tr05_cont.2.ark:44471859
01eo0303 /scratch/ravanelm/exp/dirha/fbank/raw_fbank_tr05_cont.1.ark:31941789
40ko030i /scratch/ravanelm/exp/dirha/fbank/raw_fbank_tr05_cont.4.ark:40183099
40po030p /scratch/ravanelm/exp/dirha/fbank/raw_fbank_tr05_cont.4.ark:53445829
40ho030e /scratch/ravanelm/exp/dirha/fbank/raw_fbank_tr05_cont.4.ark:30825319
01bc021a /scratch/ravanelm/exp/dirha/fbank/raw_fbank_tr05_cont.1.ark:25274099
01ic0219 /scratch/ravanelm/exp/dirha/fbank/raw_fbank_tr05_cont.1.ark:40925589
20ec010c /scratch/ravanelm/exp/dirha/fbank/raw_fbank_tr05_cont.3.ark:17861379
20eo010b /scratch/ravanelm/exp/dirha/fbank/raw_fbank_tr05_cont.3.ark:18664549
024o0319 /scratch/ravanelm/exp/dirha/fbank/raw_fbank_tr05_cont.2.ark:33621499
014c0203 /scratch/ravanelm/exp/dirha/fbank/raw_fbank_tr05_cont.1.ark:6581279
403c021e /scratch/ravanelm/exp/dirha/fbank/raw_fbank_tr05_cont.3.ark:43997619
01ec020q /scratch/ravanelm/exp/dirha/fbank/raw_fbank_tr05_cont.1.ark:31089179
01to0316 /scratch/ravanelm/exp/dirha/fbank/raw_fbank_tr05_cont.2.ark:12711939
405c020e /scratch/ravanelm/exp/dirha/fbank/raw_fbank_tr05_cont.3.ark:48592639
011c020z /scratch/ravanelm/exp/dirha/fbank/raw_fbank_tr05_cont.1.ark:956309
01wo0312 /scratch/ravanelm/exp/dirha/fbank/raw_fbank_tr05_cont.2.ark:19125879
20oo0108 /scratch/ravanelm/exp/dirha/fbank/raw_fbank_tr05_cont.3.ark:31088999
016o030n /scratch/ravanelm/exp/dirha/fbank/raw_fbank_tr05_cont.1.ark:14022019
403o030o /scratch/ravanelm/exp/dirha/fbank/raw_fbank_tr05_cont.3.ark:44796729
20ic010n /scratch/ravanelm/exp/dirha/fbank/raw_fbank_tr05_cont.3.ark:23972279
01tc020h /scratch/ravanelm/exp/dirha/fbank/raw_fbank_tr05_cont.2.ark:10178139
40do0319 /scratch/ravanelm/exp/dirha/fbank/raw_fbank_tr05_cont.4.ark:19286539
01fo0311 /scratch/ravanelm/exp/dirha/fbank/raw_fbank_tr05_cont.1.ark:35962489
20ic010o /scratch/ravanelm/exp/dirha/fbank/raw_fbank_tr05_cont.3.ark:24005029
40lo0309 /scratch/ravanelm/exp/dirha/fbank/raw_fbank_tr05_cont.4.ark:43180919
40eo030l /scratch/ravanelm/exp/dirha/fbank/raw_fbank_tr05_cont.4.ark:21283159
01ic020q /scratch/ravanelm/exp/dirha/fbank/raw_fbank_tr05_cont.1.ark:40434459
20qc010i /scratch/ravanelm/exp/dirha/fbank/raw_fbank_tr05_cont.3.ark:33782359
015o030u /scratch/ravanelm/exp/dirha/fbank/raw_fbank_tr05_cont.1.ark:11759049
01do030v /scratch/ravanelm/exp/dirha/fbank/raw_fbank_tr05_cont.1.ark:29740479
405o030g /scratch/ravanelm/exp/dirha/fbank/raw_fbank_tr05_cont.3.ark:49903029
01io0302 /scratch/ravanelm/exp/dirha/fbank/raw_fbank_tr05_cont.1.ark:41163229
01to030q /scratch/ravanelm/exp/dirha/fbank/raw_fbank_tr05_cont.2.ark:12165259
403c0213 /scratch/ravanelm/exp/dirha/fbank/raw_fbank_tr05_cont.3.ark:43723089
017o030g /scratch/ravanelm/exp/dirha/fbank/raw_fbank_tr05_cont.1.ark:16521379
40co030s /scratch/ravanelm/exp/dirha/fbank/raw_fbank_tr05_cont.4.ark:15876669
01wo030l /scratch/ravanelm/exp/dirha/fbank/raw_fbank_tr05_cont.2.ark:18626999
404c021a /scratch/ravanelm/exp/dirha/fbank/raw_fbank_tr05_cont.3.ark:46675479
20tc010n /scratch/ravanelm/exp/dirha/fbank/raw_fbank_tr05_cont.3.ark:37322499
01eo031e /scratch/ravanelm/exp/dirha/fbank/raw_fbank_tr05_cont.1.ark:33402839
20eo010a /scratch/ravanelm/exp/dirha/fbank/raw_fbank_tr05_cont.3.ark:18644839
02ec0218 /scratch/ravanelm/exp/dirha/fbank/raw_fbank_tr05_cont.2.ark:53601809
01wo0314 /scratch/ravanelm/exp/dirha/fbank/raw_fbank_tr05_cont.2.ark:19205819
209c0109 /scratch/ravanelm/exp/dirha/fbank/raw_fbank_tr05_cont.3.ark:9490229
20do010p /scratch/ravanelm/exp/dirha/fbank/raw_fbank_tr05_cont.3.ark:17417759
024o030s /scratch/ravanelm/exp/dirha/fbank/raw_fbank_tr05_cont.2.ark:33126949
20rc010c /scratch/ravanelm/exp/dirha/fbank/raw_fbank_tr05_cont.3.ark:35307949
02bc021b /scratch/ravanelm/exp/dirha/fbank/raw_fbank_tr05_cont.2.ark:47303739
02ec0204 /scratch/ravanelm/exp/dirha/fbank/raw_fbank_tr05_cont.2.ark:52344369
208o010m /scratch/ravanelm/exp/dirha/fbank/raw_fbank_tr05_cont.3.ark:9071169
404c0219 /scratch/ravanelm/exp/dirha/fbank/raw_fbank_tr05_cont.3.ark:46639089
01po030r /scratch/ravanelm/exp/dirha/fbank/raw_fbank_tr05_cont.2.ark:2843269
20ro010g /scratch/ravanelm/exp/dirha/fbank/raw_fbank_tr05_cont.3.ark:36255319
409o030e /scratch/ravanelm/exp/dirha/fbank/raw_fbank_tr05_cont.4.ark:6666709
01ec020f /scratch/ravanelm/exp/dirha/fbank/raw_fbank_tr05_cont.1.ark:30794729
029o0305 /scratch/ravanelm/exp/dirha/fbank/raw_fbank_tr05_cont.2.ark:44427669
403o031c /scratch/ravanelm/exp/dirha/fbank/raw_fbank_tr05_cont.3.ark:45559739
40mo0304 /scratch/ravanelm/exp/dirha/fbank/raw_fbank_tr05_cont.4.ark:46500689
40ko0309 /scratch/ravanelm/exp/dirha/fbank/raw_fbank_tr05_cont.4.ark:39897749
40ko0306 /scratch/ravanelm/exp/dirha/fbank/raw_fbank_tr05_cont.4.ark:39829779
20qc0103 /scratch/ravanelm/exp/dirha/fbank/raw_fbank_tr05_cont.3.ark:33297429
01qo031b /scratch/ravanelm/exp/dirha/fbank/raw_fbank_tr05_cont.2.ark:6536409
40dc0202 /scratch/ravanelm/exp/dirha/fbank/raw_fbank_tr05_cont.4.ark:16485529
40ao030b /scratch/ravanelm/exp/dirha/fbank/raw_fbank_tr05_cont.4.ark:9614469
01eo0302 /scratch/ravanelm/exp/dirha/fbank/raw_fbank_tr05_cont.1.ark:31922279
20ro010k /scratch/ravanelm/exp/dirha/fbank/raw_fbank_tr05_cont.3.ark:36420239
01bc020u /scratch/ravanelm/exp/dirha/fbank/raw_fbank_tr05_cont.1.ark:24808489
20co0105 /scratch/ravanelm/exp/dirha/fbank/raw_fbank_tr05_cont.3.ark:15088989
403c0216 /scratch/ravanelm/exp/dirha/fbank/raw_fbank_tr05_cont.3.ark:43807379
01bc020d /scratch/ravanelm/exp/dirha/fbank/raw_fbank_tr05_cont.1.ark:24204489
014o030m /scratch/ravanelm/exp/dirha/fbank/raw_fbank_tr05_cont.1.ark:8475079
02bc0215 /scratch/ravanelm/exp/dirha/fbank/raw_fbank_tr05_cont.2.ark:47103639
015o030r /scratch/ravanelm/exp/dirha/fbank/raw_fbank_tr05_cont.1.ark:11682399
40cc020d /scratch/ravanelm/exp/dirha/fbank/raw_fbank_tr05_cont.4.ark:14269439
20io010j /scratch/ravanelm/exp/dirha/fbank/raw_fbank_tr05_cont.3.ark:24723839
015c0214 /scratch/ravanelm/exp/dirha/fbank/raw_fbank_tr05_cont.1.ark:10473529
40fo031c /scratch/ravanelm/exp/dirha/fbank/raw_fbank_tr05_cont.4.ark:24974659
018c020p /scratch/ravanelm/exp/dirha/fbank/raw_fbank_tr05_cont.1.ark:18312909
01yc020a /scratch/ravanelm/exp/dirha/fbank/raw_fbank_tr05_cont.2.ark:19785949
01pc0218 /scratch/ravanelm/exp/dirha/fbank/raw_fbank_tr05_cont.2.ark:1647849
40gc020u /scratch/ravanelm/exp/dirha/fbank/raw_fbank_tr05_cont.4.ark:26132039
20oo010j /scratch/ravanelm/exp/dirha/fbank/raw_fbank_tr05_cont.3.ark:31472529
019o0319 /scratch/ravanelm/exp/dirha/fbank/raw_fbank_tr05_cont.1.ark:23768619
01io0317 /scratch/ravanelm/exp/dirha/fbank/raw_fbank_tr05_cont.1.ark:42758539
017o030p /scratch/ravanelm/exp/dirha/fbank/raw_fbank_tr05_cont.1.ark:16819329
40mo031b /scratch/ravanelm/exp/dirha/fbank/raw_fbank_tr05_cont.4.ark:47960619
406c020x /scratch/ravanelm/exp/dirha/fbank/raw_fbank_tr05_cont.3.ark:51733639
403c020j /scratch/ravanelm/exp/dirha/fbank/raw_fbank_tr05_cont.3.ark:43268489
01ko030z /scratch/ravanelm/exp/dirha/fbank/raw_fbank_tr05_cont.1.ark:49481659
013o030z /scratch/ravanelm/exp/dirha/fbank/raw_fbank_tr05_cont.1.ark:6017549
014o030r /scratch/ravanelm/exp/dirha/fbank/raw_fbank_tr05_cont.1.ark:8662749
209c0108 /scratch/ravanelm/exp/dirha/fbank/raw_fbank_tr05_cont.3.ark:9462199
408o031a /scratch/ravanelm/exp/dirha/fbank/raw_fbank_tr05_cont.4.ark:4823669
40mc0208 /scratch/ravanelm/exp/dirha/fbank/raw_fbank_tr05_cont.4.ark:45202729
40ao030g /scratch/ravanelm/exp/dirha/fbank/raw_fbank_tr05_cont.4.ark:9787139
20qo0106 /scratch/ravanelm/exp/dirha/fbank/raw_fbank_tr05_cont.3.ark:34252509
014o030y /scratch/ravanelm/exp/dirha/fbank/raw_fbank_tr05_cont.1.ark:8934119
407c0219 /scratch/ravanelm/exp/dirha/fbank/raw_fbank_tr05_cont.4.ark:364119
01bc020e /scratch/ravanelm/exp/dirha/fbank/raw_fbank_tr05_cont.1.ark:24222759
40fc020x /scratch/ravanelm/exp/dirha/fbank/raw_fbank_tr05_cont.4.ark:22929209
405o0308 /scratch/ravanelm/exp/dirha/fbank/raw_fbank_tr05_cont.3.ark:49631429
40do0301 /scratch/ravanelm/exp/dirha/fbank/raw_fbank_tr05_cont.4.ark:17985779
021c0212 /scratch/ravanelm/exp/dirha/fbank/raw_fbank_tr05_cont.2.ark:29074489
20dc0108 /scratch/ravanelm/exp/dirha/fbank/raw_fbank_tr05_cont.3.ark:15941139
206o0104 /scratch/ravanelm/exp/dirha/fbank/raw_fbank_tr05_cont.3.ark:4880439
01dc0218 /scratch/ravanelm/exp/dirha/fbank/raw_fbank_tr05_cont.1.ark:28550479
403o030z /scratch/ravanelm/exp/dirha/fbank/raw_fbank_tr05_cont.3.ark:45150379
021o030l /scratch/ravanelm/exp/dirha/fbank/raw_fbank_tr05_cont.2.ark:29986469
020o0301 /scratch/ravanelm/exp/dirha/fbank/raw_fbank_tr05_cont.2.ark:27081739
20ao010c /scratch/ravanelm/exp/dirha/fbank/raw_fbank_tr05_cont.3.ark:11869849
024c020x /scratch/ravanelm/exp/dirha/fbank/raw_fbank_tr05_cont.2.ark:31813519
20oo010i /scratch/ravanelm/exp/dirha/fbank/raw_fbank_tr05_cont.3.ark:31455139
016c020m /scratch/ravanelm/exp/dirha/fbank/raw_fbank_tr05_cont.1.ark:12853029
20tc0104 /scratch/ravanelm/exp/dirha/fbank/raw_fbank_tr05_cont.3.ark:36831689
01gc020v /scratch/ravanelm/exp/dirha/fbank/raw_fbank_tr05_cont.1.ark:37231669
404o030g /scratch/ravanelm/exp/dirha/fbank/raw_fbank_tr05_cont.3.ark:47257149
020o030y /scratch/ravanelm/exp/dirha/fbank/raw_fbank_tr05_cont.2.ark:27621859
02ec020y /scratch/ravanelm/exp/dirha/fbank/raw_fbank_tr05_cont.2.ark:53281589
01mc020n /scratch/ravanelm/exp/dirha/fbank/raw_fbank_tr05_cont.1.ark:54623259
017c020e /scratch/ravanelm/exp/dirha/fbank/raw_fbank_tr05_cont.1.ark:15120359
40go0309 /scratch/ravanelm/exp/dirha/fbank/raw_fbank_tr05_cont.4.ark:27315819
20mo0109 /scratch/ravanelm/exp/dirha/fbank/raw_fbank_tr05_cont.3.ark:27922229
01do030j /scratch/ravanelm/exp/dirha/fbank/raw_fbank_tr05_cont.1.ark:29408259
01uo0315 /scratch/ravanelm/exp/dirha/fbank/raw_fbank_tr05_cont.2.ark:16299679
40nc020n /scratch/ravanelm/exp/dirha/fbank/raw_fbank_tr05_cont.4.ark:48731729
20mc010g /scratch/ravanelm/exp/dirha/fbank/raw_fbank_tr05_cont.3.ark:27395369
01jc021g /scratch/ravanelm/exp/dirha/fbank/raw_fbank_tr05_cont.1.ark:44550379
01po030b /scratch/ravanelm/exp/dirha/fbank/raw_fbank_tr05_cont.2.ark:2286059
028o030o /scratch/ravanelm/exp/dirha/fbank/raw_fbank_tr05_cont.2.ark:41970849
01ko030x /scratch/ravanelm/exp/dirha/fbank/raw_fbank_tr05_cont.1.ark:49395719
02co030v /scratch/ravanelm/exp/dirha/fbank/raw_fbank_tr05_cont.2.ark:51484319
026c020e /scratch/ravanelm/exp/dirha/fbank/raw_fbank_tr05_cont.2.ark:34196419
40ho030u /scratch/ravanelm/exp/dirha/fbank/raw_fbank_tr05_cont.4.ark:31358439
40fc0206 /scratch/ravanelm/exp/dirha/fbank/raw_fbank_tr05_cont.4.ark:22135439
02co031b /scratch/ravanelm/exp/dirha/fbank/raw_fbank_tr05_cont.2.ark:52059039
20ec010b /scratch/ravanelm/exp/dirha/fbank/raw_fbank_tr05_cont.3.ark:17825829
20ic010a /scratch/ravanelm/exp/dirha/fbank/raw_fbank_tr05_cont.3.ark:23647009
024c0204 /scratch/ravanelm/exp/dirha/fbank/raw_fbank_tr05_cont.2.ark:30978849
40ic020s /scratch/ravanelm/exp/dirha/fbank/raw_fbank_tr05_cont.4.ark:32884009
01wo030e /scratch/ravanelm/exp/dirha/fbank/raw_fbank_tr05_cont.2.ark:18391949
20pc0107 /scratch/ravanelm/exp/dirha/fbank/raw_fbank_tr05_cont.3.ark:31954179
01ko030h /scratch/ravanelm/exp/dirha/fbank/raw_fbank_tr05_cont.1.ark:48781599
024c0203 /scratch/ravanelm/exp/dirha/fbank/raw_fbank_tr05_cont.2.ark:30962699
40go030j /scratch/ravanelm/exp/dirha/fbank/raw_fbank_tr05_cont.4.ark:27714599
40mo0306 /scratch/ravanelm/exp/dirha/fbank/raw_fbank_tr05_cont.4.ark:46602629
408o030l /scratch/ravanelm/exp/dirha/fbank/raw_fbank_tr05_cont.4.ark:4194079
20hc010n /scratch/ravanelm/exp/dirha/fbank/raw_fbank_tr05_cont.3.ark:22510589
40fo0319 /scratch/ravanelm/exp/dirha/fbank/raw_fbank_tr05_cont.4.ark:24882049
018c020q /scratch/ravanelm/exp/dirha/fbank/raw_fbank_tr05_cont.1.ark:18345939
024c020c /scratch/ravanelm/exp/dirha/fbank/raw_fbank_tr05_cont.2.ark:31224809
01lc020g /scratch/ravanelm/exp/dirha/fbank/raw_fbank_tr05_cont.1.ark:50778209
02bo0304 /scratch/ravanelm/exp/dirha/fbank/raw_fbank_tr05_cont.2.ark:47559259
401o0305 /scratch/ravanelm/exp/dirha/fbank/raw_fbank_tr05_cont.3.ark:41232829
20qc010f /scratch/ravanelm/exp/dirha/fbank/raw_fbank_tr05_cont.3.ark:33722349
01mc020u /scratch/ravanelm/exp/dirha/fbank/raw_fbank_tr05_cont.1.ark:54805349
40jc021d /scratch/ravanelm/exp/dirha/fbank/raw_fbank_tr05_cont.4.ark:36431319
20dc010m /scratch/ravanelm/exp/dirha/fbank/raw_fbank_tr05_cont.3.ark:16412759
01fo0309 /scratch/ravanelm/exp/dirha/fbank/raw_fbank_tr05_cont.1.ark:35110969
20vc0107 /scratch/ravanelm/exp/dirha/fbank/raw_fbank_tr05_cont.3.ark:38272429
20ao0109 /scratch/ravanelm/exp/dirha/fbank/raw_fbank_tr05_cont.3.ark:11718079
02eo0313 /scratch/ravanelm/exp/dirha/fbank/raw_fbank_tr05_cont.3.ark:569809
01uc0208 /scratch/ravanelm/exp/dirha/fbank/raw_fbank_tr05_cont.2.ark:13360199
01bo0304 /scratch/ravanelm/exp/dirha/fbank/raw_fbank_tr05_cont.1.ark:25546909
01gc0215 /scratch/ravanelm/exp/dirha/fbank/raw_fbank_tr05_cont.1.ark:37511129
02cc020z /scratch/ravanelm/exp/dirha/fbank/raw_fbank_tr05_cont.2.ark:50115969
407c0204 /scratch/ravanelm/exp/dirha/fbank/raw_fbank_tr05_cont.3.ark:53836329
40do0307 /scratch/ravanelm/exp/dirha/fbank/raw_fbank_tr05_cont.4.ark:18139559
01ec0208 /scratch/ravanelm/exp/dirha/fbank/raw_fbank_tr05_cont.1.ark:30630279
20oc010k /scratch/ravanelm/exp/dirha/fbank/raw_fbank_tr05_cont.3.ark:30813119
406c020q /scratch/ravanelm/exp/dirha/fbank/raw_fbank_tr05_cont.3.ark:51586549
204o010h /scratch/ravanelm/exp/dirha/fbank/raw_fbank_tr05_cont.3.ark:2079589
011c0212 /scratch/ravanelm/exp/dirha/fbank/raw_fbank_tr05_cont.1.ark:1041399
019o030y /scratch/ravanelm/exp/dirha/fbank/raw_fbank_tr05_cont.1.ark:23450049
017c0203 /scratch/ravanelm/exp/dirha/fbank/raw_fbank_tr05_cont.1.ark:14868149
01ic020w /scratch/ravanelm/exp/dirha/fbank/raw_fbank_tr05_cont.1.ark:40617319
20vo010b /scratch/ravanelm/exp/dirha/fbank/raw_fbank_tr05_cont.3.ark:39032419
40nc020t /scratch/ravanelm/exp/dirha/fbank/raw_fbank_tr05_cont.4.ark:48912349
01bo0302 /scratch/ravanelm/exp/dirha/fbank/raw_fbank_tr05_cont.1.ark:25471569
40eo030v /scratch/ravanelm/exp/dirha/fbank/raw_fbank_tr05_cont.4.ark:21523899
40dc020j /scratch/ravanelm/exp/dirha/fbank/raw_fbank_tr05_cont.4.ark:16983479
20go0104 /scratch/ravanelm/exp/dirha/fbank/raw_fbank_tr05_cont.3.ark:21402699
20pc010j /scratch/ravanelm/exp/dirha/fbank/raw_fbank_tr05_cont.3.ark:32244619
20vo010g /scratch/ravanelm/exp/dirha/fbank/raw_fbank_tr05_cont.3.ark:39178889
01yc020d /scratch/ravanelm/exp/dirha/fbank/raw_fbank_tr05_cont.2.ark:19852599
40ic020p /scratch/ravanelm/exp/dirha/fbank/raw_fbank_tr05_cont.4.ark:32811759
01bc020n /scratch/ravanelm/exp/dirha/fbank/raw_fbank_tr05_cont.1.ark:24519039
40lc020c /scratch/ravanelm/exp/dirha/fbank/raw_fbank_tr05_cont.4.ark:41655359
01do030u /scratch/ravanelm/exp/dirha/fbank/raw_fbank_tr05_cont.1.ark:29707689
40jc020q /scratch/ravanelm/exp/dirha/fbank/raw_fbank_tr05_cont.4.ark:35780549
409c020l /scratch/ravanelm/exp/dirha/fbank/raw_fbank_tr05_cont.4.ark:5421599
02ec020h /scratch/ravanelm/exp/dirha/fbank/raw_fbank_tr05_cont.2.ark:52789239
40lo031b /scratch/ravanelm/exp/dirha/fbank/raw_fbank_tr05_cont.4.ark:44792219
40jo030b /scratch/ravanelm/exp/dirha/fbank/raw_fbank_tr05_cont.4.ark:36869519
40ec0205 /scratch/ravanelm/exp/dirha/fbank/raw_fbank_tr05_cont.4.ark:19510449
409o0303 /scratch/ravanelm/exp/dirha/fbank/raw_fbank_tr05_cont.4.ark:6351019
40po030a /scratch/ravanelm/exp/dirha/fbank/raw_fbank_tr05_cont.4.ark:52860939
40io031c /scratch/ravanelm/exp/dirha/fbank/raw_fbank_tr05_cont.4.ark:35081139
40kc020y /scratch/ravanelm/exp/dirha/fbank/raw_fbank_tr05_cont.4.ark:39199179
409c020f /scratch/ravanelm/exp/dirha/fbank/raw_fbank_tr05_cont.4.ark:5268259
01ko0303 /scratch/ravanelm/exp/dirha/fbank/raw_fbank_tr05_cont.1.ark:48188819
01mo030a /scratch/ravanelm/exp/dirha/fbank/raw_fbank_tr05_cont.1.ark:55717279
019o030b /scratch/ravanelm/exp/dirha/fbank/raw_fbank_tr05_cont.1.ark:22732959
40lc020l /scratch/ravanelm/exp/dirha/fbank/raw_fbank_tr05_cont.4.ark:41950149
017o030l /scratch/ravanelm/exp/dirha/fbank/raw_fbank_tr05_cont.1.ark:16699249
205c010b /scratch/ravanelm/exp/dirha/fbank/raw_fbank_tr05_cont.3.ark:2720669
40ho030d /scratch/ravanelm/exp/dirha/fbank/raw_fbank_tr05_cont.4.ark:30781769
40ao030o /scratch/ravanelm/exp/dirha/fbank/raw_fbank_tr05_cont.4.ark:10015059
20ac0101 /scratch/ravanelm/exp/dirha/fbank/raw_fbank_tr05_cont.3.ark:10711279
019o030p /scratch/ravanelm/exp/dirha/fbank/raw_fbank_tr05_cont.1.ark:23185059
20fo0102 /scratch/ravanelm/exp/dirha/fbank/raw_fbank_tr05_cont.3.ark:19972639
019o0311 /scratch/ravanelm/exp/dirha/fbank/raw_fbank_tr05_cont.1.ark:23538499
01to030g /scratch/ravanelm/exp/dirha/fbank/raw_fbank_tr05_cont.2.ark:11800559
40fo030a /scratch/ravanelm/exp/dirha/fbank/raw_fbank_tr05_cont.4.ark:23775879
02ec0210 /scratch/ravanelm/exp/dirha/fbank/raw_fbank_tr05_cont.2.ark:53331849
019c0208 /scratch/ravanelm/exp/dirha/fbank/raw_fbank_tr05_cont.1.ark:21263599
40jo030t /scratch/ravanelm/exp/dirha/fbank/raw_fbank_tr05_cont.4.ark:37500179
40ho030r /scratch/ravanelm/exp/dirha/fbank/raw_fbank_tr05_cont.4.ark:31263709
027c020u /scratch/ravanelm/exp/dirha/fbank/raw_fbank_tr05_cont.2.ark:37369739
206o0102 /scratch/ravanelm/exp/dirha/fbank/raw_fbank_tr05_cont.3.ark:4818699
02bo030m /scratch/ravanelm/exp/dirha/fbank/raw_fbank_tr05_cont.2.ark:48162799
01uc020p /scratch/ravanelm/exp/dirha/fbank/raw_fbank_tr05_cont.2.ark:13894349
409c0211 /scratch/ravanelm/exp/dirha/fbank/raw_fbank_tr05_cont.4.ark:5893759
20do010l /scratch/ravanelm/exp/dirha/fbank/raw_fbank_tr05_cont.3.ark:17274439
20ac010n /scratch/ravanelm/exp/dirha/fbank/raw_fbank_tr05_cont.3.ark:11324259
01lo030s /scratch/ravanelm/exp/dirha/fbank/raw_fbank_tr05_cont.1.ark:53030819
404o0314 /scratch/ravanelm/exp/dirha/fbank/raw_fbank_tr05_cont.3.ark:48000909
204o010q /scratch/ravanelm/exp/dirha/fbank/raw_fbank_tr05_cont.3.ark:2409699
20rc010n /scratch/ravanelm/exp/dirha/fbank/raw_fbank_tr05_cont.3.ark:35637239
01ic020g /scratch/ravanelm/exp/dirha/fbank/raw_fbank_tr05_cont.1.ark:40159399
019c0205 /scratch/ravanelm/exp/dirha/fbank/raw_fbank_tr05_cont.1.ark:21194029
021o030c /scratch/ravanelm/exp/dirha/fbank/raw_fbank_tr05_cont.2.ark:29689759
02ec021d /scratch/ravanelm/exp/dirha/fbank/raw_fbank_tr05_cont.2.ark:53758679
20oo010f /scratch/ravanelm/exp/dirha/fbank/raw_fbank_tr05_cont.3.ark:31341129
40ec020t /scratch/ravanelm/exp/dirha/fbank/raw_fbank_tr05_cont.4.ark:20020089
40bc020l /scratch/ravanelm/exp/dirha/fbank/raw_fbank_tr05_cont.4.ark:11452779
02bc0204 /scratch/ravanelm/exp/dirha/fbank/raw_fbank_tr05_cont.2.ark:46128049
40bo030e /scratch/ravanelm/exp/dirha/fbank/raw_fbank_tr05_cont.4.ark:12819609
01mo0317 /scratch/ravanelm/exp/dirha/fbank/raw_fbank_tr05_cont.2.ark:177839
01dc0219 /scratch/ravanelm/exp/dirha/fbank/raw_fbank_tr05_cont.1.ark:28586149
024o0313 /scratch/ravanelm/exp/dirha/fbank/raw_fbank_tr05_cont.2.ark:33489879
40kc020b /scratch/ravanelm/exp/dirha/fbank/raw_fbank_tr05_cont.4.ark:38547289
40kc020f /scratch/ravanelm/exp/dirha/fbank/raw_fbank_tr05_cont.4.ark:38669009
40ac020s /scratch/ravanelm/exp/dirha/fbank/raw_fbank_tr05_cont.4.ark:8684319
01mo0304 /scratch/ravanelm/exp/dirha/fbank/raw_fbank_tr05_cont.1.ark:55494059
01io0315 /scratch/ravanelm/exp/dirha/fbank/raw_fbank_tr05_cont.1.ark:42681799
20io0103 /scratch/ravanelm/exp/dirha/fbank/raw_fbank_tr05_cont.3.ark:24137599
01uc0217 /scratch/ravanelm/exp/dirha/fbank/raw_fbank_tr05_cont.2.ark:14488009
024o0305 /scratch/ravanelm/exp/dirha/fbank/raw_fbank_tr05_cont.2.ark:32463099
018o030c /scratch/ravanelm/exp/dirha/fbank/raw_fbank_tr05_cont.1.ark:19547279
013c020h /scratch/ravanelm/exp/dirha/fbank/raw_fbank_tr05_cont.1.ark:4035119
40ao0311 /scratch/ravanelm/exp/dirha/fbank/raw_fbank_tr05_cont.4.ark:10448929
024c0213 /scratch/ravanelm/exp/dirha/fbank/raw_fbank_tr05_cont.2.ark:31995579
40dc020a /scratch/ravanelm/exp/dirha/fbank/raw_fbank_tr05_cont.4.ark:16710209
40ac0201 /scratch/ravanelm/exp/dirha/fbank/raw_fbank_tr05_cont.4.ark:7773709
20ac0107 /scratch/ravanelm/exp/dirha/fbank/raw_fbank_tr05_cont.3.ark:10902979
018o030w /scratch/ravanelm/exp/dirha/fbank/raw_fbank_tr05_cont.1.ark:20374399
01uc020g /scratch/ravanelm/exp/dirha/fbank/raw_fbank_tr05_cont.2.ark:13597959
02co0302 /scratch/ravanelm/exp/dirha/fbank/raw_fbank_tr05_cont.2.ark:50593649
020o030v /scratch/ravanelm/exp/dirha/fbank/raw_fbank_tr05_cont.2.ark:27598229
20ro010m /scratch/ravanelm/exp/dirha/fbank/raw_fbank_tr05_cont.3.ark:36504059
01yo0319 /scratch/ravanelm/exp/dirha/fbank/raw_fbank_tr05_cont.2.ark:22417319
40no031a /scratch/ravanelm/exp/dirha/fbank/raw_fbank_tr05_cont.4.ark:51267659
01lc0208 /scratch/ravanelm/exp/dirha/fbank/raw_fbank_tr05_cont.1.ark:50495089
20mo010g /scratch/ravanelm/exp/dirha/fbank/raw_fbank_tr05_cont.3.ark:28118679
01zo030c /scratch/ravanelm/exp/dirha/fbank/raw_fbank_tr05_cont.2.ark:24466539
207o010c /scratch/ravanelm/exp/dirha/fbank/raw_fbank_tr05_cont.3.ark:7042499
40fo030k /scratch/ravanelm/exp/dirha/fbank/raw_fbank_tr05_cont.4.ark:24110579
02co030s /scratch/ravanelm/exp/dirha/fbank/raw_fbank_tr05_cont.2.ark:51398669
40ko030y /scratch/ravanelm/exp/dirha/fbank/raw_fbank_tr05_cont.4.ark:40777019
40kc0214 /scratch/ravanelm/exp/dirha/fbank/raw_fbank_tr05_cont.4.ark:39356039
40pc020o /scratch/ravanelm/exp/dirha/fbank/raw_fbank_tr05_cont.4.ark:51918829
029o030l /scratch/ravanelm/exp/dirha/fbank/raw_fbank_tr05_cont.2.ark:44930589
01kc0201 /scratch/ravanelm/exp/dirha/fbank/raw_fbank_tr05_cont.1.ark:46477529
20fc0104 /scratch/ravanelm/exp/dirha/fbank/raw_fbank_tr05_cont.3.ark:19345119
019c0211 /scratch/ravanelm/exp/dirha/fbank/raw_fbank_tr05_cont.1.ark:21940189
016o0311 /scratch/ravanelm/exp/dirha/fbank/raw_fbank_tr05_cont.1.ark:14375279
019c020y /scratch/ravanelm/exp/dirha/fbank/raw_fbank_tr05_cont.1.ark:21861539
205c0105 /scratch/ravanelm/exp/dirha/fbank/raw_fbank_tr05_cont.3.ark:2533049
40fc0209 /scratch/ravanelm/exp/dirha/fbank/raw_fbank_tr05_cont.4.ark:22232529
40mc020e /scratch/ravanelm/exp/dirha/fbank/raw_fbank_tr05_cont.4.ark:45330949
40go030r /scratch/ravanelm/exp/dirha/fbank/raw_fbank_tr05_cont.4.ark:28074439
40lo030h /scratch/ravanelm/exp/dirha/fbank/raw_fbank_tr05_cont.4.ark:43497479
40co031e /scratch/ravanelm/exp/dirha/fbank/raw_fbank_tr05_cont.4.ark:16351409
019c020q /scratch/ravanelm/exp/dirha/fbank/raw_fbank_tr05_cont.1.ark:21664739
01bo031d /scratch/ravanelm/exp/dirha/fbank/raw_fbank_tr05_cont.1.ark:27386679
01qo031f /scratch/ravanelm/exp/dirha/fbank/raw_fbank_tr05_cont.2.ark:6675089
01ro0303 /scratch/ravanelm/exp/dirha/fbank/raw_fbank_tr05_cont.2.ark:8263409
01yo031c /scratch/ravanelm/exp/dirha/fbank/raw_fbank_tr05_cont.2.ark:22527609
209c0103 /scratch/ravanelm/exp/dirha/fbank/raw_fbank_tr05_cont.3.ark:9328769
406c021b /scratch/ravanelm/exp/dirha/fbank/raw_fbank_tr05_cont.3.ark:52115979
011c020g /scratch/ravanelm/exp/dirha/fbank/raw_fbank_tr05_cont.1.ark:392059
40mc021c /scratch/ravanelm/exp/dirha/fbank/raw_fbank_tr05_cont.4.ark:46225249
01ic020f /scratch/ravanelm/exp/dirha/fbank/raw_fbank_tr05_cont.1.ark:40113169
021c020q /scratch/ravanelm/exp/dirha/fbank/raw_fbank_tr05_cont.2.ark:28767169
40fo030m /scratch/ravanelm/exp/dirha/fbank/raw_fbank_tr05_cont.4.ark:24143279
403o0316 /scratch/ravanelm/exp/dirha/fbank/raw_fbank_tr05_cont.3.ark:45385229
01eo030j /scratch/ravanelm/exp/dirha/fbank/raw_fbank_tr05_cont.1.ark:32345469
20go0103 /scratch/ravanelm/exp/dirha/fbank/raw_fbank_tr05_cont.3.ark:21387469
401c021a /scratch/ravanelm/exp/dirha/fbank/raw_fbank_tr05_cont.3.ark:40920329
20po010g /scratch/ravanelm/exp/dirha/fbank/raw_fbank_tr05_cont.3.ark:32845119
01uo030q /scratch/ravanelm/exp/dirha/fbank/raw_fbank_tr05_cont.2.ark:15646709
20nc010d /scratch/ravanelm/exp/dirha/fbank/raw_fbank_tr05_cont.3.ark:28808149
40lc021e /scratch/ravanelm/exp/dirha/fbank/raw_fbank_tr05_cont.4.ark:42853699
028o030s /scratch/ravanelm/exp/dirha/fbank/raw_fbank_tr05_cont.2.ark:42099649
401o030u /scratch/ravanelm/exp/dirha/fbank/raw_fbank_tr05_cont.3.ark:42162819
020c0204 /scratch/ravanelm/exp/dirha/fbank/raw_fbank_tr05_cont.2.ark:26165699
40no0310 /scratch/ravanelm/exp/dirha/fbank/raw_fbank_tr05_cont.4.ark:50823359
01fc0215 /scratch/ravanelm/exp/dirha/fbank/raw_fbank_tr05_cont.1.ark:34485969
20ec010l /scratch/ravanelm/exp/dirha/fbank/raw_fbank_tr05_cont.3.ark:18141809
01uo030l /scratch/ravanelm/exp/dirha/fbank/raw_fbank_tr05_cont.2.ark:15460479
40mo0305 /scratch/ravanelm/exp/dirha/fbank/raw_fbank_tr05_cont.4.ark:46554199
404c020k /scratch/ravanelm/exp/dirha/fbank/raw_fbank_tr05_cont.3.ark:46036899
409c020j /scratch/ravanelm/exp/dirha/fbank/raw_fbank_tr05_cont.4.ark:5379939
017c0211 /scratch/ravanelm/exp/dirha/fbank/raw_fbank_tr05_cont.1.ark:15667889
20qc0108 /scratch/ravanelm/exp/dirha/fbank/raw_fbank_tr05_cont.3.ark:33480539
401o0312 /scratch/ravanelm/exp/dirha/fbank/raw_fbank_tr05_cont.3.ark:42385709
20qo010n /scratch/ravanelm/exp/dirha/fbank/raw_fbank_tr05_cont.3.ark:34860539
01pc0209 /scratch/ravanelm/exp/dirha/fbank/raw_fbank_tr05_cont.2.ark:631079
409c020t /scratch/ravanelm/exp/dirha/fbank/raw_fbank_tr05_cont.4.ark:5672399
20eo010h /scratch/ravanelm/exp/dirha/fbank/raw_fbank_tr05_cont.3.ark:18885609
40kc0202 /scratch/ravanelm/exp/dirha/fbank/raw_fbank_tr05_cont.4.ark:38283859
40cc0208 /scratch/ravanelm/exp/dirha/fbank/raw_fbank_tr05_cont.4.ark:14152529
014o030p /scratch/ravanelm/exp/dirha/fbank/raw_fbank_tr05_cont.1.ark:8596209
01bo030y /scratch/ravanelm/exp/dirha/fbank/raw_fbank_tr05_cont.1.ark:26831539
40po031e /scratch/ravanelm/exp/dirha/fbank/raw_fbank_tr05_cont.4.ark:54229099
014c020s /scratch/ravanelm/exp/dirha/fbank/raw_fbank_tr05_cont.1.ark:7157189
404o030j /scratch/ravanelm/exp/dirha/fbank/raw_fbank_tr05_cont.3.ark:47369159
01gc0208 /scratch/ravanelm/exp/dirha/fbank/raw_fbank_tr05_cont.1.ark:36601059
20ic010e /scratch/ravanelm/exp/dirha/fbank/raw_fbank_tr05_cont.3.ark:23748969
20po010q /scratch/ravanelm/exp/dirha/fbank/raw_fbank_tr05_cont.3.ark:33196939
40fo031d /scratch/ravanelm/exp/dirha/fbank/raw_fbank_tr05_cont.4.ark:25019089
204o0108 /scratch/ravanelm/exp/dirha/fbank/raw_fbank_tr05_cont.3.ark:1774679
01zo031f /scratch/ravanelm/exp/dirha/fbank/raw_fbank_tr05_cont.2.ark:26069829
40jc0208 /scratch/ravanelm/exp/dirha/fbank/raw_fbank_tr05_cont.4.ark:35327209
014c020c /scratch/ravanelm/exp/dirha/fbank/raw_fbank_tr05_cont.1.ark:6803509
011o030r /scratch/ravanelm/exp/dirha/fbank/raw_fbank_tr05_cont.1.ark:2412649
017o030q /scratch/ravanelm/exp/dirha/fbank/raw_fbank_tr05_cont.1.ark:16859999
40ao030j /scratch/ravanelm/exp/dirha/fbank/raw_fbank_tr05_cont.4.ark:9862189
01fc020n /scratch/ravanelm/exp/dirha/fbank/raw_fbank_tr05_cont.1.ark:33980509
014c020g /scratch/ravanelm/exp/dirha/fbank/raw_fbank_tr05_cont.1.ark:6890189
20gc010f /scratch/ravanelm/exp/dirha/fbank/raw_fbank_tr05_cont.3.ark:21067539
01wc020l /scratch/ravanelm/exp/dirha/fbank/raw_fbank_tr05_cont.2.ark:17228179
20co010d /scratch/ravanelm/exp/dirha/fbank/raw_fbank_tr05_cont.3.ark:15375069
20ac010c /scratch/ravanelm/exp/dirha/fbank/raw_fbank_tr05_cont.3.ark:11042009
40mo030y /scratch/ravanelm/exp/dirha/fbank/raw_fbank_tr05_cont.4.ark:47571309
40ic020u /scratch/ravanelm/exp/dirha/fbank/raw_fbank_tr05_cont.4.ark:32919629
01wc0203 /scratch/ravanelm/exp/dirha/fbank/raw_fbank_tr05_cont.2.ark:16687839
40po0319 /scratch/ravanelm/exp/dirha/fbank/raw_fbank_tr05_cont.4.ark:54077669
01uo031c /scratch/ravanelm/exp/dirha/fbank/raw_fbank_tr05_cont.2.ark:16537649
40cc0218 /scratch/ravanelm/exp/dirha/fbank/raw_fbank_tr05_cont.4.ark:14954809
408o0306 /scratch/ravanelm/exp/dirha/fbank/raw_fbank_tr05_cont.4.ark:3733109
20co010g /scratch/ravanelm/exp/dirha/fbank/raw_fbank_tr05_cont.3.ark:15434839
013c0215 /scratch/ravanelm/exp/dirha/fbank/raw_fbank_tr05_cont.1.ark:4707239
40jo0314 /scratch/ravanelm/exp/dirha/fbank/raw_fbank_tr05_cont.4.ark:37846349
01uc021a /scratch/ravanelm/exp/dirha/fbank/raw_fbank_tr05_cont.2.ark:14552979
20tc010h /scratch/ravanelm/exp/dirha/fbank/raw_fbank_tr05_cont.3.ark:37137279
01yc0214 /scratch/ravanelm/exp/dirha/fbank/raw_fbank_tr05_cont.2.ark:20610929
02eo0301 /scratch/ravanelm/exp/dirha/fbank/raw_fbank_tr05_cont.2.ark:53847739
40do0313 /scratch/ravanelm/exp/dirha/fbank/raw_fbank_tr05_cont.4.ark:19138239
407o0310 /scratch/ravanelm/exp/dirha/fbank/raw_fbank_tr05_cont.4.ark:2038869
01uo030h /scratch/ravanelm/exp/dirha/fbank/raw_fbank_tr05_cont.2.ark:15329879
207o0104 /scratch/ravanelm/exp/dirha/fbank/raw_fbank_tr05_cont.3.ark:6732259
01fo030k /scratch/ravanelm/exp/dirha/fbank/raw_fbank_tr05_cont.1.ark:35465019
40jo0316 /scratch/ravanelm/exp/dirha/fbank/raw_fbank_tr05_cont.4.ark:37927249
40lo0312 /scratch/ravanelm/exp/dirha/fbank/raw_fbank_tr05_cont.4.ark:44525629
01bo030o /scratch/ravanelm/exp/dirha/fbank/raw_fbank_tr05_cont.1.ark:26389479
406o030z /scratch/ravanelm/exp/dirha/fbank/raw_fbank_tr05_cont.3.ark:53262269
018c0219 /scratch/ravanelm/exp/dirha/fbank/raw_fbank_tr05_cont.1.ark:18904629
01fc0207 /scratch/ravanelm/exp/dirha/fbank/raw_fbank_tr05_cont.1.ark:33571669
40lo0311 /scratch/ravanelm/exp/dirha/fbank/raw_fbank_tr05_cont.4.ark:44497799
20no010i /scratch/ravanelm/exp/dirha/fbank/raw_fbank_tr05_cont.3.ark:29963129
021o030m /scratch/ravanelm/exp/dirha/fbank/raw_fbank_tr05_cont.2.ark:30007579
028o0312 /scratch/ravanelm/exp/dirha/fbank/raw_fbank_tr05_cont.2.ark:42417069
40mo0318 /scratch/ravanelm/exp/dirha/fbank/raw_fbank_tr05_cont.4.ark:47859169
026o0316 /scratch/ravanelm/exp/dirha/fbank/raw_fbank_tr05_cont.2.ark:36420699
017c020h /scratch/ravanelm/exp/dirha/fbank/raw_fbank_tr05_cont.1.ark:15197609
206c010g /scratch/ravanelm/exp/dirha/fbank/raw_fbank_tr05_cont.3.ark:4557899
019c020r /scratch/ravanelm/exp/dirha/fbank/raw_fbank_tr05_cont.1.ark:21695889
40do030b /scratch/ravanelm/exp/dirha/fbank/raw_fbank_tr05_cont.4.ark:18214919
01do030f /scratch/ravanelm/exp/dirha/fbank/raw_fbank_tr05_cont.1.ark:29290899
205o0107 /scratch/ravanelm/exp/dirha/fbank/raw_fbank_tr05_cont.3.ark:3343859
20cc010m /scratch/ravanelm/exp/dirha/fbank/raw_fbank_tr05_cont.3.ark:14842539
01io0307 /scratch/ravanelm/exp/dirha/fbank/raw_fbank_tr05_cont.1.ark:41370859
01pc020p /scratch/ravanelm/exp/dirha/fbank/raw_fbank_tr05_cont.2.ark:1082679
209c010a /scratch/ravanelm/exp/dirha/fbank/raw_fbank_tr05_cont.3.ark:9509699
017c020x /scratch/ravanelm/exp/dirha/fbank/raw_fbank_tr05_cont.1.ark:15555729
021o0312 /scratch/ravanelm/exp/dirha/fbank/raw_fbank_tr05_cont.2.ark:30503939
01zo030j /scratch/ravanelm/exp/dirha/fbank/raw_fbank_tr05_cont.2.ark:24730789
02bo030i /scratch/ravanelm/exp/dirha/fbank/raw_fbank_tr05_cont.2.ark:48038919
40eo030b /scratch/ravanelm/exp/dirha/fbank/raw_fbank_tr05_cont.4.ark:20953579
019c0216 /scratch/ravanelm/exp/dirha/fbank/raw_fbank_tr05_cont.1.ark:22107739
01rc0202 /scratch/ravanelm/exp/dirha/fbank/raw_fbank_tr05_cont.2.ark:6782379
02cc020i /scratch/ravanelm/exp/dirha/fbank/raw_fbank_tr05_cont.2.ark:49691449
02eo0302 /scratch/ravanelm/exp/dirha/fbank/raw_fbank_tr05_cont.2.ark:53874129
018o030e /scratch/ravanelm/exp/dirha/fbank/raw_fbank_tr05_cont.1.ark:19654779
40ao0302 /scratch/ravanelm/exp/dirha/fbank/raw_fbank_tr05_cont.4.ark:9361879
403o0301 /scratch/ravanelm/exp/dirha/fbank/raw_fbank_tr05_cont.3.ark:44050199
028c020l /scratch/ravanelm/exp/dirha/fbank/raw_fbank_tr05_cont.2.ark:40221709
018o0309 /scratch/ravanelm/exp/dirha/fbank/raw_fbank_tr05_cont.1.ark:19461149
01uc0218 /scratch/ravanelm/exp/dirha/fbank/raw_fbank_tr05_cont.2.ark:14520079
409o0313 /scratch/ravanelm/exp/dirha/fbank/raw_fbank_tr05_cont.4.ark:7427179
01go030x /scratch/ravanelm/exp/dirha/fbank/raw_fbank_tr05_cont.1.ark:38898349
01qc020l /scratch/ravanelm/exp/dirha/fbank/raw_fbank_tr05_cont.2.ark:4315339
01wo030q /scratch/ravanelm/exp/dirha/fbank/raw_fbank_tr05_cont.2.ark:18744039
015c0212 /scratch/ravanelm/exp/dirha/fbank/raw_fbank_tr05_cont.1.ark:10438989
02eo030b /scratch/ravanelm/exp/dirha/fbank/raw_fbank_tr05_cont.2.ark:54205959
20fc010q /scratch/ravanelm/exp/dirha/fbank/raw_fbank_tr05_cont.3.ark:19923459
02eo030w /scratch/ravanelm/exp/dirha/fbank/raw_fbank_tr05_cont.3.ark:344189
01kc0219 /scratch/ravanelm/exp/dirha/fbank/raw_fbank_tr05_cont.1.ark:47858779
40eo0316 /scratch/ravanelm/exp/dirha/fbank/raw_fbank_tr05_cont.4.ark:21868229
028c0206 /scratch/ravanelm/exp/dirha/fbank/raw_fbank_tr05_cont.2.ark:39900379
40jc0205 /scratch/ravanelm/exp/dirha/fbank/raw_fbank_tr05_cont.4.ark:35262399
20ho010f /scratch/ravanelm/exp/dirha/fbank/raw_fbank_tr05_cont.3.ark:23062409
01mc020h /scratch/ravanelm/exp/dirha/fbank/raw_fbank_tr05_cont.1.ark:54467359
024c020e /scratch/ravanelm/exp/dirha/fbank/raw_fbank_tr05_cont.2.ark:31306909
40ec020b /scratch/ravanelm/exp/dirha/fbank/raw_fbank_tr05_cont.4.ark:19645789
40io030v /scratch/ravanelm/exp/dirha/fbank/raw_fbank_tr05_cont.4.ark:34472109
20fc010i /scratch/ravanelm/exp/dirha/fbank/raw_fbank_tr05_cont.3.ark:19724739
207c0103 /scratch/ravanelm/exp/dirha/fbank/raw_fbank_tr05_cont.3.ark:6016129
01jc0207 /scratch/ravanelm/exp/dirha/fbank/raw_fbank_tr05_cont.1.ark:43206269
