403c021g /scratch/ravanelm/exp/dirha/fbank/raw_fbank_tr05_cont.3.ark:44023369
40do030e /scratch/ravanelm/exp/dirha/fbank/raw_fbank_tr05_cont.4.ark:18316809
209o010g /scratch/ravanelm/exp/dirha/fbank/raw_fbank_tr05_cont.3.ark:10396659
20mo010e /scratch/ravanelm/exp/dirha/fbank/raw_fbank_tr05_cont.3.ark:28064299
20rc010b /scratch/ravanelm/exp/dirha/fbank/raw_fbank_tr05_cont.3.ark:35273999
01bc020z /scratch/ravanelm/exp/dirha/fbank/raw_fbank_tr05_cont.1.ark:24912199
20bc010n /scratch/ravanelm/exp/dirha/fbank/raw_fbank_tr05_cont.3.ark:13066479
40dc020b /scratch/ravanelm/exp/dirha/fbank/raw_fbank_tr05_cont.4.ark:16728839
20nc010o /scratch/ravanelm/exp/dirha/fbank/raw_fbank_tr05_cont.3.ark:29199039
401o030x /scratch/ravanelm/exp/dirha/fbank/raw_fbank_tr05_cont.3.ark:42256829
40jo030i /scratch/ravanelm/exp/dirha/fbank/raw_fbank_tr05_cont.4.ark:37080129
021o030w /scratch/ravanelm/exp/dirha/fbank/raw_fbank_tr05_cont.2.ark:30325879
40bo0319 /scratch/ravanelm/exp/dirha/fbank/raw_fbank_tr05_cont.4.ark:13830559
02ec0210 /scratch/ravanelm/exp/dirha/fbank/raw_fbank_tr05_cont.2.ark:53331849
408o0319 /scratch/ravanelm/exp/dirha/fbank/raw_fbank_tr05_cont.4.ark:4788479
408c021f /scratch/ravanelm/exp/dirha/fbank/raw_fbank_tr05_cont.4.ark:3527309
40ac020p /scratch/ravanelm/exp/dirha/fbank/raw_fbank_tr05_cont.4.ark:8587909
01pc0205 /scratch/ravanelm/exp/dirha/fbank/raw_fbank_tr05_cont.2.ark:512599
01tc020y /scratch/ravanelm/exp/dirha/fbank/raw_fbank_tr05_cont.2.ark:10787849
01dc020z /scratch/ravanelm/exp/dirha/fbank/raw_fbank_tr05_cont.1.ark:28317809
409o030a /scratch/ravanelm/exp/dirha/fbank/raw_fbank_tr05_cont.4.ark:6558549
40no0309 /scratch/ravanelm/exp/dirha/fbank/raw_fbank_tr05_cont.4.ark:49928949
40ic020c /scratch/ravanelm/exp/dirha/fbank/raw_fbank_tr05_cont.4.ark:32375849
408c021e /scratch/ravanelm/exp/dirha/fbank/raw_fbank_tr05_cont.4.ark:3510239
01tc0208 /scratch/ravanelm/exp/dirha/fbank/raw_fbank_tr05_cont.2.ark:9852989
014c0206 /scratch/ravanelm/exp/dirha/fbank/raw_fbank_tr05_cont.1.ark:6656249
20lo010p /scratch/ravanelm/exp/dirha/fbank/raw_fbank_tr05_cont.3.ark:26928459
20nc0109 /scratch/ravanelm/exp/dirha/fbank/raw_fbank_tr05_cont.3.ark:28701629
01pc021e /scratch/ravanelm/exp/dirha/fbank/raw_fbank_tr05_cont.2.ark:1856189
403c0205 /scratch/ravanelm/exp/dirha/fbank/raw_fbank_tr05_cont.3.ark:42986669
20fc010b /scratch/ravanelm/exp/dirha/fbank/raw_fbank_tr05_cont.3.ark:19555009
20oc0101 /scratch/ravanelm/exp/dirha/fbank/raw_fbank_tr05_cont.3.ark:30335349
204c010f /scratch/ravanelm/exp/dirha/fbank/raw_fbank_tr05_cont.3.ark:1340779
01zo030c /scratch/ravanelm/exp/dirha/fbank/raw_fbank_tr05_cont.2.ark:24466539
015o0307 /scratch/ravanelm/exp/dirha/fbank/raw_fbank_tr05_cont.1.ark:10964879
01bc020a /scratch/ravanelm/exp/dirha/fbank/raw_fbank_tr05_cont.1.ark:24130999
404c020t /scratch/ravanelm/exp/dirha/fbank/raw_fbank_tr05_cont.3.ark:46306969
01mc021c /scratch/ravanelm/exp/dirha/fbank/raw_fbank_tr05_cont.1.ark:55266289
20ao010p /scratch/ravanelm/exp/dirha/fbank/raw_fbank_tr05_cont.3.ark:12394879
20oo010j /scratch/ravanelm/exp/dirha/fbank/raw_fbank_tr05_cont.3.ark:31472529
40bc020g /scratch/ravanelm/exp/dirha/fbank/raw_fbank_tr05_cont.4.ark:11354829
027c021b /scratch/ravanelm/exp/dirha/fbank/raw_fbank_tr05_cont.2.ark:37912569
40cc0203 /scratch/ravanelm/exp/dirha/fbank/raw_fbank_tr05_cont.4.ark:14016379
40jc021c /scratch/ravanelm/exp/dirha/fbank/raw_fbank_tr05_cont.4.ark:36397049
015o030e /scratch/ravanelm/exp/dirha/fbank/raw_fbank_tr05_cont.1.ark:11200849
20tc010g /scratch/ravanelm/exp/dirha/fbank/raw_fbank_tr05_cont.3.ark:37107569
40go030b /scratch/ravanelm/exp/dirha/fbank/raw_fbank_tr05_cont.4.ark:27437599
018o030p /scratch/ravanelm/exp/dirha/fbank/raw_fbank_tr05_cont.1.ark:20092749
02cc020j /scratch/ravanelm/exp/dirha/fbank/raw_fbank_tr05_cont.2.ark:49720999
20co0101 /scratch/ravanelm/exp/dirha/fbank/raw_fbank_tr05_cont.3.ark:14951939
20rc0103 /scratch/ravanelm/exp/dirha/fbank/raw_fbank_tr05_cont.3.ark:35069119
40do031a /scratch/ravanelm/exp/dirha/fbank/raw_fbank_tr05_cont.4.ark:19303729
01kc0205 /scratch/ravanelm/exp/dirha/fbank/raw_fbank_tr05_cont.1.ark:46627809
01dc020o /scratch/ravanelm/exp/dirha/fbank/raw_fbank_tr05_cont.1.ark:28046079
20co010n /scratch/ravanelm/exp/dirha/fbank/raw_fbank_tr05_cont.3.ark:15649529
401c020s /scratch/ravanelm/exp/dirha/fbank/raw_fbank_tr05_cont.3.ark:40375989
01wo030z /scratch/ravanelm/exp/dirha/fbank/raw_fbank_tr05_cont.2.ark:18998109
015c0209 /scratch/ravanelm/exp/dirha/fbank/raw_fbank_tr05_cont.1.ark:9683439
40jo0319 /scratch/ravanelm/exp/dirha/fbank/raw_fbank_tr05_cont.4.ark:38004499
20no010i /scratch/ravanelm/exp/dirha/fbank/raw_fbank_tr05_cont.3.ark:29963129
018c020a /scratch/ravanelm/exp/dirha/fbank/raw_fbank_tr05_cont.1.ark:17868019
405c0211 /scratch/ravanelm/exp/dirha/fbank/raw_fbank_tr05_cont.3.ark:49078249
014o030e /scratch/ravanelm/exp/dirha/fbank/raw_fbank_tr05_cont.1.ark:8217599
018c021g /scratch/ravanelm/exp/dirha/fbank/raw_fbank_tr05_cont.1.ark:19162519
40fc020t /scratch/ravanelm/exp/dirha/fbank/raw_fbank_tr05_cont.4.ark:22791209
20eo0105 /scratch/ravanelm/exp/dirha/fbank/raw_fbank_tr05_cont.3.ark:18456769
20to0107 /scratch/ravanelm/exp/dirha/fbank/raw_fbank_tr05_cont.3.ark:37558799
01qo030g /scratch/ravanelm/exp/dirha/fbank/raw_fbank_tr05_cont.2.ark:5572879
020o0319 /scratch/ravanelm/exp/dirha/fbank/raw_fbank_tr05_cont.2.ark:27879069
01wc021c /scratch/ravanelm/exp/dirha/fbank/raw_fbank_tr05_cont.2.ark:17884679
018o0301 /scratch/ravanelm/exp/dirha/fbank/raw_fbank_tr05_cont.1.ark:19195229
01io030o /scratch/ravanelm/exp/dirha/fbank/raw_fbank_tr05_cont.1.ark:42052289
01uo030g /scratch/ravanelm/exp/dirha/fbank/raw_fbank_tr05_cont.2.ark:15278889
40po030l /scratch/ravanelm/exp/dirha/fbank/raw_fbank_tr05_cont.4.ark:53302309
01fo030z /scratch/ravanelm/exp/dirha/fbank/raw_fbank_tr05_cont.1.ark:35893829
403o030r /scratch/ravanelm/exp/dirha/fbank/raw_fbank_tr05_cont.3.ark:44884059
204o0104 /scratch/ravanelm/exp/dirha/fbank/raw_fbank_tr05_cont.3.ark:1680559
40co031c /scratch/ravanelm/exp/dirha/fbank/raw_fbank_tr05_cont.4.ark:16297149
014c020o /scratch/ravanelm/exp/dirha/fbank/raw_fbank_tr05_cont.1.ark:7057669
20mo0105 /scratch/ravanelm/exp/dirha/fbank/raw_fbank_tr05_cont.3.ark:27794669
405c0207 /scratch/ravanelm/exp/dirha/fbank/raw_fbank_tr05_cont.3.ark:48408309
02bo030x /scratch/ravanelm/exp/dirha/fbank/raw_fbank_tr05_cont.2.ark:48577049
01ec020p /scratch/ravanelm/exp/dirha/fbank/raw_fbank_tr05_cont.1.ark:31067749
011o0306 /scratch/ravanelm/exp/dirha/fbank/raw_fbank_tr05_cont.1.ark:1645179
024c0203 /scratch/ravanelm/exp/dirha/fbank/raw_fbank_tr05_cont.2.ark:30962699
016o030i /scratch/ravanelm/exp/dirha/fbank/raw_fbank_tr05_cont.1.ark:13874469
40co0316 /scratch/ravanelm/exp/dirha/fbank/raw_fbank_tr05_cont.4.ark:16170289
40ko0314 /scratch/ravanelm/exp/dirha/fbank/raw_fbank_tr05_cont.4.ark:41019799
01jo0313 /scratch/ravanelm/exp/dirha/fbank/raw_fbank_tr05_cont.1.ark:46026909
405c020f /scratch/ravanelm/exp/dirha/fbank/raw_fbank_tr05_cont.3.ark:48620909
02bo030p /scratch/ravanelm/exp/dirha/fbank/raw_fbank_tr05_cont.2.ark:48295209
20ac010j /scratch/ravanelm/exp/dirha/fbank/raw_fbank_tr05_cont.3.ark:11228459
01yo031b /scratch/ravanelm/exp/dirha/fbank/raw_fbank_tr05_cont.2.ark:22500779
401c021d /scratch/ravanelm/exp/dirha/fbank/raw_fbank_tr05_cont.3.ark:41006899
01fo0302 /scratch/ravanelm/exp/dirha/fbank/raw_fbank_tr05_cont.1.ark:34834559
20ic010f /scratch/ravanelm/exp/dirha/fbank/raw_fbank_tr05_cont.3.ark:23780199
408c020l /scratch/ravanelm/exp/dirha/fbank/raw_fbank_tr05_cont.4.ark:2877359
01ro0317 /scratch/ravanelm/exp/dirha/fbank/raw_fbank_tr05_cont.2.ark:9445569
01go0301 /scratch/ravanelm/exp/dirha/fbank/raw_fbank_tr05_cont.1.ark:37800109
01wc0216 /scratch/ravanelm/exp/dirha/fbank/raw_fbank_tr05_cont.2.ark:17764569
20ic010e /scratch/ravanelm/exp/dirha/fbank/raw_fbank_tr05_cont.3.ark:23748969
40pc020p /scratch/ravanelm/exp/dirha/fbank/raw_fbank_tr05_cont.4.ark:51938539
01fc021a /scratch/ravanelm/exp/dirha/fbank/raw_fbank_tr05_cont.1.ark:34594199
01po030o /scratch/ravanelm/exp/dirha/fbank/raw_fbank_tr05_cont.2.ark:2705659
024c020h /scratch/ravanelm/exp/dirha/fbank/raw_fbank_tr05_cont.2.ark:31398479
40fc020s /scratch/ravanelm/exp/dirha/fbank/raw_fbank_tr05_cont.4.ark:22761019
01ro0314 /scratch/ravanelm/exp/dirha/fbank/raw_fbank_tr05_cont.2.ark:9377519
01bc021e /scratch/ravanelm/exp/dirha/fbank/raw_fbank_tr05_cont.1.ark:25367749
01mc020t /scratch/ravanelm/exp/dirha/fbank/raw_fbank_tr05_cont.1.ark:54767519
20ac010d /scratch/ravanelm/exp/dirha/fbank/raw_fbank_tr05_cont.3.ark:11085559
20io0102 /scratch/ravanelm/exp/dirha/fbank/raw_fbank_tr05_cont.3.ark:24082529
01ic021b /scratch/ravanelm/exp/dirha/fbank/raw_fbank_tr05_cont.1.ark:40970049
40ac020y /scratch/ravanelm/exp/dirha/fbank/raw_fbank_tr05_cont.4.ark:8880579
01jc020n /scratch/ravanelm/exp/dirha/fbank/raw_fbank_tr05_cont.1.ark:43658029
01ic020a /scratch/ravanelm/exp/dirha/fbank/raw_fbank_tr05_cont.1.ark:39983179
401c0219 /scratch/ravanelm/exp/dirha/fbank/raw_fbank_tr05_cont.3.ark:40889779
016o0308 /scratch/ravanelm/exp/dirha/fbank/raw_fbank_tr05_cont.1.ark:13608479
40po030n /scratch/ravanelm/exp/dirha/fbank/raw_fbank_tr05_cont.4.ark:53369249
401c0218 /scratch/ravanelm/exp/dirha/fbank/raw_fbank_tr05_cont.3.ark:40847989
01qc020b /scratch/ravanelm/exp/dirha/fbank/raw_fbank_tr05_cont.2.ark:3990549
01jo031a /scratch/ravanelm/exp/dirha/fbank/raw_fbank_tr05_cont.1.ark:46375679
40jo030m /scratch/ravanelm/exp/dirha/fbank/raw_fbank_tr05_cont.4.ark:37266049
405c0204 /scratch/ravanelm/exp/dirha/fbank/raw_fbank_tr05_cont.3.ark:48320619
024c020o /scratch/ravanelm/exp/dirha/fbank/raw_fbank_tr05_cont.2.ark:31591969
40ac0209 /scratch/ravanelm/exp/dirha/fbank/raw_fbank_tr05_cont.4.ark:8073789
01kc020r /scratch/ravanelm/exp/dirha/fbank/raw_fbank_tr05_cont.1.ark:47305079
01fc020z /scratch/ravanelm/exp/dirha/fbank/raw_fbank_tr05_cont.1.ark:34296909
20cc010n /scratch/ravanelm/exp/dirha/fbank/raw_fbank_tr05_cont.3.ark:14865209
01qc020y /scratch/ravanelm/exp/dirha/fbank/raw_fbank_tr05_cont.2.ark:4531239
406c0217 /scratch/ravanelm/exp/dirha/fbank/raw_fbank_tr05_cont.3.ark:52024419
401c020b /scratch/ravanelm/exp/dirha/fbank/raw_fbank_tr05_cont.3.ark:39936679
401c020h /scratch/ravanelm/exp/dirha/fbank/raw_fbank_tr05_cont.3.ark:40085459
019o0318 /scratch/ravanelm/exp/dirha/fbank/raw_fbank_tr05_cont.1.ark:23752509
01qo031g /scratch/ravanelm/exp/dirha/fbank/raw_fbank_tr05_cont.2.ark:6705959
408o0308 /scratch/ravanelm/exp/dirha/fbank/raw_fbank_tr05_cont.4.ark:3798609
01to030f /scratch/ravanelm/exp/dirha/fbank/raw_fbank_tr05_cont.2.ark:11770289
01ec021d /scratch/ravanelm/exp/dirha/fbank/raw_fbank_tr05_cont.1.ark:31774319
026c0219 /scratch/ravanelm/exp/dirha/fbank/raw_fbank_tr05_cont.2.ark:34913749
401o030n /scratch/ravanelm/exp/dirha/fbank/raw_fbank_tr05_cont.3.ark:41925169
405c020w /scratch/ravanelm/exp/dirha/fbank/raw_fbank_tr05_cont.3.ark:48993179
02cc020k /scratch/ravanelm/exp/dirha/fbank/raw_fbank_tr05_cont.2.ark:49744309
20hc0109 /scratch/ravanelm/exp/dirha/fbank/raw_fbank_tr05_cont.3.ark:22256089
017o030w /scratch/ravanelm/exp/dirha/fbank/raw_fbank_tr05_cont.1.ark:17032019
40fc020m /scratch/ravanelm/exp/dirha/fbank/raw_fbank_tr05_cont.4.ark:22583799
40io0309 /scratch/ravanelm/exp/dirha/fbank/raw_fbank_tr05_cont.4.ark:33762929
01wo030a /scratch/ravanelm/exp/dirha/fbank/raw_fbank_tr05_cont.2.ark:18260349
028o031b /scratch/ravanelm/exp/dirha/fbank/raw_fbank_tr05_cont.2.ark:42752659
20oc010h /scratch/ravanelm/exp/dirha/fbank/raw_fbank_tr05_cont.3.ark:30729269
01lo031f /scratch/ravanelm/exp/dirha/fbank/raw_fbank_tr05_cont.1.ark:54070989
01dc021b /scratch/ravanelm/exp/dirha/fbank/raw_fbank_tr05_cont.1.ark:28654889
01pc0217 /scratch/ravanelm/exp/dirha/fbank/raw_fbank_tr05_cont.2.ark:1632659
01wo030q /scratch/ravanelm/exp/dirha/fbank/raw_fbank_tr05_cont.2.ark:18744039
01zc0216 /scratch/ravanelm/exp/dirha/fbank/raw_fbank_tr05_cont.2.ark:23795389
40cc0216 /scratch/ravanelm/exp/dirha/fbank/raw_fbank_tr05_cont.4.ark:14916469
01pc0208 /scratch/ravanelm/exp/dirha/fbank/raw_fbank_tr05_cont.2.ark:601329
20dc010g /scratch/ravanelm/exp/dirha/fbank/raw_fbank_tr05_cont.3.ark:16193779
01rc0201 /scratch/ravanelm/exp/dirha/fbank/raw_fbank_tr05_cont.2.ark:6756669
40dc0212 /scratch/ravanelm/exp/dirha/fbank/raw_fbank_tr05_cont.4.ark:17602049
026o0314 /scratch/ravanelm/exp/dirha/fbank/raw_fbank_tr05_cont.2.ark:36356639
027c021h /scratch/ravanelm/exp/dirha/fbank/raw_fbank_tr05_cont.2.ark:38026509
204o010g /scratch/ravanelm/exp/dirha/fbank/raw_fbank_tr05_cont.3.ark:2039559
208o0108 /scratch/ravanelm/exp/dirha/fbank/raw_fbank_tr05_cont.3.ark:8619229
40co0310 /scratch/ravanelm/exp/dirha/fbank/raw_fbank_tr05_cont.4.ark:16043469
029c020k /scratch/ravanelm/exp/dirha/fbank/raw_fbank_tr05_cont.2.ark:43405039
01fo0305 /scratch/ravanelm/exp/dirha/fbank/raw_fbank_tr05_cont.1.ark:34934489
404c020m /scratch/ravanelm/exp/dirha/fbank/raw_fbank_tr05_cont.3.ark:46104079
40no030s /scratch/ravanelm/exp/dirha/fbank/raw_fbank_tr05_cont.4.ark:50605519
409c020e /scratch/ravanelm/exp/dirha/fbank/raw_fbank_tr05_cont.4.ark:5233389
01dc020y /scratch/ravanelm/exp/dirha/fbank/raw_fbank_tr05_cont.1.ark:28295219
40nc020b /scratch/ravanelm/exp/dirha/fbank/raw_fbank_tr05_cont.4.ark:48332209
407c020t /scratch/ravanelm/exp/dirha/fbank/raw_fbank_tr05_cont.3.ark:54525799
02bc0217 /scratch/ravanelm/exp/dirha/fbank/raw_fbank_tr05_cont.2.ark:47172779
01to0312 /scratch/ravanelm/exp/dirha/fbank/raw_fbank_tr05_cont.2.ark:12576699
01uo030e /scratch/ravanelm/exp/dirha/fbank/raw_fbank_tr05_cont.2.ark:15219509
019o0319 /scratch/ravanelm/exp/dirha/fbank/raw_fbank_tr05_cont.1.ark:23768619
408c0207 /scratch/ravanelm/exp/dirha/fbank/raw_fbank_tr05_cont.4.ark:2549339
01uo030h /scratch/ravanelm/exp/dirha/fbank/raw_fbank_tr05_cont.2.ark:15329879
409c020w /scratch/ravanelm/exp/dirha/fbank/raw_fbank_tr05_cont.4.ark:5774249
020c020q /scratch/ravanelm/exp/dirha/fbank/raw_fbank_tr05_cont.2.ark:26626799
40jc0217 /scratch/ravanelm/exp/dirha/fbank/raw_fbank_tr05_cont.4.ark:36262459
01po030q /scratch/ravanelm/exp/dirha/fbank/raw_fbank_tr05_cont.2.ark:2802719
02eo0306 /scratch/ravanelm/exp/dirha/fbank/raw_fbank_tr05_cont.2.ark:54036929
40cc0202 /scratch/ravanelm/exp/dirha/fbank/raw_fbank_tr05_cont.4.ark:13994189
406c0208 /scratch/ravanelm/exp/dirha/fbank/raw_fbank_tr05_cont.3.ark:51153839
40cc021a /scratch/ravanelm/exp/dirha/fbank/raw_fbank_tr05_cont.4.ark:14998149
407o030h /scratch/ravanelm/exp/dirha/fbank/raw_fbank_tr05_cont.4.ark:1257619
205c010b /scratch/ravanelm/exp/dirha/fbank/raw_fbank_tr05_cont.3.ark:2720669
40ho030w /scratch/ravanelm/exp/dirha/fbank/raw_fbank_tr05_cont.4.ark:31437339
01mc0209 /scratch/ravanelm/exp/dirha/fbank/raw_fbank_tr05_cont.1.ark:54264159
01jo031c /scratch/ravanelm/exp/dirha/fbank/raw_fbank_tr05_cont.1.ark:46435499
20pc010d /scratch/ravanelm/exp/dirha/fbank/raw_fbank_tr05_cont.3.ark:32081799
20gc010b /scratch/ravanelm/exp/dirha/fbank/raw_fbank_tr05_cont.3.ark:20970059
01wo0301 /scratch/ravanelm/exp/dirha/fbank/raw_fbank_tr05_cont.2.ark:18007439
01fc021f /scratch/ravanelm/exp/dirha/fbank/raw_fbank_tr05_cont.1.ark:34740349
40co031g /scratch/ravanelm/exp/dirha/fbank/raw_fbank_tr05_cont.4.ark:16417309
40mo0304 /scratch/ravanelm/exp/dirha/fbank/raw_fbank_tr05_cont.4.ark:46500689
20ro010i /scratch/ravanelm/exp/dirha/fbank/raw_fbank_tr05_cont.3.ark:36327619
40mc020q /scratch/ravanelm/exp/dirha/fbank/raw_fbank_tr05_cont.4.ark:45666749
40gc021a /scratch/ravanelm/exp/dirha/fbank/raw_fbank_tr05_cont.4.ark:26767679
01ko0304 /scratch/ravanelm/exp/dirha/fbank/raw_fbank_tr05_cont.1.ark:48227569
01wc0213 /scratch/ravanelm/exp/dirha/fbank/raw_fbank_tr05_cont.2.ark:17703399
40io0318 /scratch/ravanelm/exp/dirha/fbank/raw_fbank_tr05_cont.4.ark:34945819
20mc0104 /scratch/ravanelm/exp/dirha/fbank/raw_fbank_tr05_cont.3.ark:27075489
017c0208 /scratch/ravanelm/exp/dirha/fbank/raw_fbank_tr05_cont.1.ark:14975099
01jc0204 /scratch/ravanelm/exp/dirha/fbank/raw_fbank_tr05_cont.1.ark:43131659
029o030f /scratch/ravanelm/exp/dirha/fbank/raw_fbank_tr05_cont.2.ark:44730809
01bc020e /scratch/ravanelm/exp/dirha/fbank/raw_fbank_tr05_cont.1.ark:24222759
027o0316 /scratch/ravanelm/exp/dirha/fbank/raw_fbank_tr05_cont.2.ark:39608729
401c020n /scratch/ravanelm/exp/dirha/fbank/raw_fbank_tr05_cont.3.ark:40257799
40do030i /scratch/ravanelm/exp/dirha/fbank/raw_fbank_tr05_cont.4.ark:18451089
011o0307 /scratch/ravanelm/exp/dirha/fbank/raw_fbank_tr05_cont.1.ark:1692769
20fc0103 /scratch/ravanelm/exp/dirha/fbank/raw_fbank_tr05_cont.3.ark:19319329
409o030o /scratch/ravanelm/exp/dirha/fbank/raw_fbank_tr05_cont.4.ark:7012809
028o030w /scratch/ravanelm/exp/dirha/fbank/raw_fbank_tr05_cont.2.ark:42256929
01tc021f /scratch/ravanelm/exp/dirha/fbank/raw_fbank_tr05_cont.2.ark:11266279
40ko030z /scratch/ravanelm/exp/dirha/fbank/raw_fbank_tr05_cont.4.ark:40831969
405c021c /scratch/ravanelm/exp/dirha/fbank/raw_fbank_tr05_cont.3.ark:49390859
40no0311 /scratch/ravanelm/exp/dirha/fbank/raw_fbank_tr05_cont.4.ark:50861989
20ac0102 /scratch/ravanelm/exp/dirha/fbank/raw_fbank_tr05_cont.3.ark:10731549
018o030n /scratch/ravanelm/exp/dirha/fbank/raw_fbank_tr05_cont.1.ark:20031049
01do0303 /scratch/ravanelm/exp/dirha/fbank/raw_fbank_tr05_cont.1.ark:28861459
013o0306 /scratch/ravanelm/exp/dirha/fbank/raw_fbank_tr05_cont.1.ark:5106599
018o030c /scratch/ravanelm/exp/dirha/fbank/raw_fbank_tr05_cont.1.ark:19547279
01ec020n /scratch/ravanelm/exp/dirha/fbank/raw_fbank_tr05_cont.1.ark:31007409
40fc020p /scratch/ravanelm/exp/dirha/fbank/raw_fbank_tr05_cont.4.ark:22671369
01jc020p /scratch/ravanelm/exp/dirha/fbank/raw_fbank_tr05_cont.1.ark:43728529
40fc0214 /scratch/ravanelm/exp/dirha/fbank/raw_fbank_tr05_cont.4.ark:23129499
019o030s /scratch/ravanelm/exp/dirha/fbank/raw_fbank_tr05_cont.1.ark:23254629
40ac0213 /scratch/ravanelm/exp/dirha/fbank/raw_fbank_tr05_cont.4.ark:9006249
024o031b /scratch/ravanelm/exp/dirha/fbank/raw_fbank_tr05_cont.2.ark:33678559
406o0310 /scratch/ravanelm/exp/dirha/fbank/raw_fbank_tr05_cont.3.ark:53295659
40ho0306 /scratch/ravanelm/exp/dirha/fbank/raw_fbank_tr05_cont.4.ark:30576919
02co031e /scratch/ravanelm/exp/dirha/fbank/raw_fbank_tr05_cont.2.ark:52207049
01ro030d /scratch/ravanelm/exp/dirha/fbank/raw_fbank_tr05_cont.2.ark:8474469
404c020u /scratch/ravanelm/exp/dirha/fbank/raw_fbank_tr05_cont.3.ark:46327879
021o030t /scratch/ravanelm/exp/dirha/fbank/raw_fbank_tr05_cont.2.ark:30247709
01fo031a /scratch/ravanelm/exp/dirha/fbank/raw_fbank_tr05_cont.1.ark:36283679
20to0108 /scratch/ravanelm/exp/dirha/fbank/raw_fbank_tr05_cont.3.ark:37576829
01lo0303 /scratch/ravanelm/exp/dirha/fbank/raw_fbank_tr05_cont.1.ark:51979869
01jc020z /scratch/ravanelm/exp/dirha/fbank/raw_fbank_tr05_cont.1.ark:43990149
20ho0102 /scratch/ravanelm/exp/dirha/fbank/raw_fbank_tr05_cont.3.ark:22634659
01jo030a /scratch/ravanelm/exp/dirha/fbank/raw_fbank_tr05_cont.1.ark:44925599
01kc020c /scratch/ravanelm/exp/dirha/fbank/raw_fbank_tr05_cont.1.ark:46857619
40gc020o /scratch/ravanelm/exp/dirha/fbank/raw_fbank_tr05_cont.4.ark:25988459
024c020n /scratch/ravanelm/exp/dirha/fbank/raw_fbank_tr05_cont.2.ark:31559459
01yo030e /scratch/ravanelm/exp/dirha/fbank/raw_fbank_tr05_cont.2.ark:21358509
015o030i /scratch/ravanelm/exp/dirha/fbank/raw_fbank_tr05_cont.1.ark:11308489
20nc0101 /scratch/ravanelm/exp/dirha/fbank/raw_fbank_tr05_cont.3.ark:28460349
01to0305 /scratch/ravanelm/exp/dirha/fbank/raw_fbank_tr05_cont.2.ark:11407029
016o030v /scratch/ravanelm/exp/dirha/fbank/raw_fbank_tr05_cont.1.ark:14188979
205c010d /scratch/ravanelm/exp/dirha/fbank/raw_fbank_tr05_cont.3.ark:2803369
40ic020a /scratch/ravanelm/exp/dirha/fbank/raw_fbank_tr05_cont.4.ark:32316909
40ac020v /scratch/ravanelm/exp/dirha/fbank/raw_fbank_tr05_cont.4.ark:8793969
40ao030t /scratch/ravanelm/exp/dirha/fbank/raw_fbank_tr05_cont.4.ark:10194849
209c0104 /scratch/ravanelm/exp/dirha/fbank/raw_fbank_tr05_cont.3.ark:9343039
024o030j /scratch/ravanelm/exp/dirha/fbank/raw_fbank_tr05_cont.2.ark:32919359
01wo030h /scratch/ravanelm/exp/dirha/fbank/raw_fbank_tr05_cont.2.ark:18498959
027c020z /scratch/ravanelm/exp/dirha/fbank/raw_fbank_tr05_cont.2.ark:37477089
01qo030c /scratch/ravanelm/exp/dirha/fbank/raw_fbank_tr05_cont.2.ark:5431799
024o030f /scratch/ravanelm/exp/dirha/fbank/raw_fbank_tr05_cont.2.ark:32776239
40ec020x /scratch/ravanelm/exp/dirha/fbank/raw_fbank_tr05_cont.4.ark:20134649
207o0102 /scratch/ravanelm/exp/dirha/fbank/raw_fbank_tr05_cont.3.ark:6655399
02bc021f /scratch/ravanelm/exp/dirha/fbank/raw_fbank_tr05_cont.2.ark:47411019
014o0313 /scratch/ravanelm/exp/dirha/fbank/raw_fbank_tr05_cont.1.ark:9110549
011o030x /scratch/ravanelm/exp/dirha/fbank/raw_fbank_tr05_cont.1.ark:2648949
40cc0206 /scratch/ravanelm/exp/dirha/fbank/raw_fbank_tr05_cont.4.ark:14093029
01wc021b /scratch/ravanelm/exp/dirha/fbank/raw_fbank_tr05_cont.2.ark:17866049
019c020y /scratch/ravanelm/exp/dirha/fbank/raw_fbank_tr05_cont.1.ark:21861539
40no030c /scratch/ravanelm/exp/dirha/fbank/raw_fbank_tr05_cont.4.ark:50028759
029c0203 /scratch/ravanelm/exp/dirha/fbank/raw_fbank_tr05_cont.2.ark:42920969
01fc020d /scratch/ravanelm/exp/dirha/fbank/raw_fbank_tr05_cont.1.ark:33752729
40hc020r /scratch/ravanelm/exp/dirha/fbank/raw_fbank_tr05_cont.4.ark:29816939
01to030r /scratch/ravanelm/exp/dirha/fbank/raw_fbank_tr05_cont.2.ark:12214169
015o030n /scratch/ravanelm/exp/dirha/fbank/raw_fbank_tr05_cont.1.ark:11519079
403o030x /scratch/ravanelm/exp/dirha/fbank/raw_fbank_tr05_cont.3.ark:45087039
018c021a /scratch/ravanelm/exp/dirha/fbank/raw_fbank_tr05_cont.1.ark:18953539
40ic020j /scratch/ravanelm/exp/dirha/fbank/raw_fbank_tr05_cont.4.ark:32611819
01ko0302 /scratch/ravanelm/exp/dirha/fbank/raw_fbank_tr05_cont.1.ark:48128349
01pc0207 /scratch/ravanelm/exp/dirha/fbank/raw_fbank_tr05_cont.2.ark:585459
01kc021c /scratch/ravanelm/exp/dirha/fbank/raw_fbank_tr05_cont.1.ark:47964349
01jc020s /scratch/ravanelm/exp/dirha/fbank/raw_fbank_tr05_cont.1.ark:43809419
40ho030x /scratch/ravanelm/exp/dirha/fbank/raw_fbank_tr05_cont.4.ark:31482809
01jc021f /scratch/ravanelm/exp/dirha/fbank/raw_fbank_tr05_cont.1.ark:44513669
20gc010h /scratch/ravanelm/exp/dirha/fbank/raw_fbank_tr05_cont.3.ark:21117919
02bo031b /scratch/ravanelm/exp/dirha/fbank/raw_fbank_tr05_cont.2.ark:49088189
407c0212 /scratch/ravanelm/exp/dirha/fbank/raw_fbank_tr05_cont.4.ark:159909
40gc020i /scratch/ravanelm/exp/dirha/fbank/raw_fbank_tr05_cont.4.ark:25787479
40ec021c /scratch/ravanelm/exp/dirha/fbank/raw_fbank_tr05_cont.4.ark:20449179
027c020p /scratch/ravanelm/exp/dirha/fbank/raw_fbank_tr05_cont.2.ark:37238509
01ec020a /scratch/ravanelm/exp/dirha/fbank/raw_fbank_tr05_cont.1.ark:30684219
40do0314 /scratch/ravanelm/exp/dirha/fbank/raw_fbank_tr05_cont.4.ark:19156309
40ec020w /scratch/ravanelm/exp/dirha/fbank/raw_fbank_tr05_cont.4.ark:20092859
40lc020f /scratch/ravanelm/exp/dirha/fbank/raw_fbank_tr05_cont.4.ark:41757929
20fc010i /scratch/ravanelm/exp/dirha/fbank/raw_fbank_tr05_cont.3.ark:19724739
20ro010r /scratch/ravanelm/exp/dirha/fbank/raw_fbank_tr05_cont.3.ark:36685329
403o030h /scratch/ravanelm/exp/dirha/fbank/raw_fbank_tr05_cont.3.ark:44604959
20dc010e /scratch/ravanelm/exp/dirha/fbank/raw_fbank_tr05_cont.3.ark:16154679
40do030g /scratch/ravanelm/exp/dirha/fbank/raw_fbank_tr05_cont.4.ark:18374909
20mc0106 /scratch/ravanelm/exp/dirha/fbank/raw_fbank_tr05_cont.3.ark:27131709
40hc020i /scratch/ravanelm/exp/dirha/fbank/raw_fbank_tr05_cont.4.ark:29550309
20cc0101 /scratch/ravanelm/exp/dirha/fbank/raw_fbank_tr05_cont.3.ark:14271269
01lc0207 /scratch/ravanelm/exp/dirha/fbank/raw_fbank_tr05_cont.1.ark:50466219
01ec020q /scratch/ravanelm/exp/dirha/fbank/raw_fbank_tr05_cont.1.ark:31089179
40bc020r /scratch/ravanelm/exp/dirha/fbank/raw_fbank_tr05_cont.4.ark:11608719
204o010q /scratch/ravanelm/exp/dirha/fbank/raw_fbank_tr05_cont.3.ark:2409699
409c0202 /scratch/ravanelm/exp/dirha/fbank/raw_fbank_tr05_cont.4.ark:4903429
40dc0210 /scratch/ravanelm/exp/dirha/fbank/raw_fbank_tr05_cont.4.ark:17518789
01ro030z /scratch/ravanelm/exp/dirha/fbank/raw_fbank_tr05_cont.2.ark:9222369
406o030o /scratch/ravanelm/exp/dirha/fbank/raw_fbank_tr05_cont.3.ark:52916819
018o0312 /scratch/ravanelm/exp/dirha/fbank/raw_fbank_tr05_cont.1.ark:20636819
014o0316 /scratch/ravanelm/exp/dirha/fbank/raw_fbank_tr05_cont.1.ark:9192079
40ho031d /scratch/ravanelm/exp/dirha/fbank/raw_fbank_tr05_cont.4.ark:32007369
404o030d /scratch/ravanelm/exp/dirha/fbank/raw_fbank_tr05_cont.3.ark:47171139
409c020v /scratch/ravanelm/exp/dirha/fbank/raw_fbank_tr05_cont.4.ark:5734539
404c0201 /scratch/ravanelm/exp/dirha/fbank/raw_fbank_tr05_cont.3.ark:45573569
013c020t /scratch/ravanelm/exp/dirha/fbank/raw_fbank_tr05_cont.1.ark:4438919
40lc020w /scratch/ravanelm/exp/dirha/fbank/raw_fbank_tr05_cont.4.ark:42226639
02bc020l /scratch/ravanelm/exp/dirha/fbank/raw_fbank_tr05_cont.2.ark:46594679
026c0207 /scratch/ravanelm/exp/dirha/fbank/raw_fbank_tr05_cont.2.ark:34054929
021o0314 /scratch/ravanelm/exp/dirha/fbank/raw_fbank_tr05_cont.2.ark:30560879
40dc020k /scratch/ravanelm/exp/dirha/fbank/raw_fbank_tr05_cont.4.ark:17021549
40kc020o /scratch/ravanelm/exp/dirha/fbank/raw_fbank_tr05_cont.4.ark:38927319
20bo010r /scratch/ravanelm/exp/dirha/fbank/raw_fbank_tr05_cont.3.ark:14226359
40fc0211 /scratch/ravanelm/exp/dirha/fbank/raw_fbank_tr05_cont.4.ark:23044409
026c0210 /scratch/ravanelm/exp/dirha/fbank/raw_fbank_tr05_cont.2.ark:34706279
01rc020y /scratch/ravanelm/exp/dirha/fbank/raw_fbank_tr05_cont.2.ark:7712259
020c0214 /scratch/ravanelm/exp/dirha/fbank/raw_fbank_tr05_cont.2.ark:26881379
40ac020i /scratch/ravanelm/exp/dirha/fbank/raw_fbank_tr05_cont.4.ark:8393859
01do030w /scratch/ravanelm/exp/dirha/fbank/raw_fbank_tr05_cont.1.ark:29757349
01tc020s /scratch/ravanelm/exp/dirha/fbank/raw_fbank_tr05_cont.2.ark:10543749
013c020d /scratch/ravanelm/exp/dirha/fbank/raw_fbank_tr05_cont.1.ark:3915079
40jo0314 /scratch/ravanelm/exp/dirha/fbank/raw_fbank_tr05_cont.4.ark:37846349
01wo0307 /scratch/ravanelm/exp/dirha/fbank/raw_fbank_tr05_cont.2.ark:18148819
01qo031c /scratch/ravanelm/exp/dirha/fbank/raw_fbank_tr05_cont.2.ark:6551199
40dc020i /scratch/ravanelm/exp/dirha/fbank/raw_fbank_tr05_cont.4.ark:16953609
40ic021d /scratch/ravanelm/exp/dirha/fbank/raw_fbank_tr05_cont.4.ark:33451839
40pc0215 /scratch/ravanelm/exp/dirha/fbank/raw_fbank_tr05_cont.4.ark:52356379
404o030g /scratch/ravanelm/exp/dirha/fbank/raw_fbank_tr05_cont.3.ark:47257149
40lo0302 /scratch/ravanelm/exp/dirha/fbank/raw_fbank_tr05_cont.4.ark:42956229
20lc010m /scratch/ravanelm/exp/dirha/fbank/raw_fbank_tr05_cont.3.ark:25659989
01ec0209 /scratch/ravanelm/exp/dirha/fbank/raw_fbank_tr05_cont.1.ark:30654509
01fo030i /scratch/ravanelm/exp/dirha/fbank/raw_fbank_tr05_cont.1.ark:35396919
01uc020j /scratch/ravanelm/exp/dirha/fbank/raw_fbank_tr05_cont.2.ark:13699409
01dc020m /scratch/ravanelm/exp/dirha/fbank/raw_fbank_tr05_cont.1.ark:27986019
40fc0216 /scratch/ravanelm/exp/dirha/fbank/raw_fbank_tr05_cont.4.ark:23191959
20lo0101 /scratch/ravanelm/exp/dirha/fbank/raw_fbank_tr05_cont.3.ark:25832219
40no0315 /scratch/ravanelm/exp/dirha/fbank/raw_fbank_tr05_cont.4.ark:51053509
019c0217 /scratch/ravanelm/exp/dirha/fbank/raw_fbank_tr05_cont.1.ark:22147769
02eo030m /scratch/ravanelm/exp/dirha/fbank/raw_fbank_tr05_cont.3.ark:9
40ec0208 /scratch/ravanelm/exp/dirha/fbank/raw_fbank_tr05_cont.4.ark:19582379
029o030z /scratch/ravanelm/exp/dirha/fbank/raw_fbank_tr05_cont.2.ark:45459329
015o0304 /scratch/ravanelm/exp/dirha/fbank/raw_fbank_tr05_cont.1.ark:10873349
40mo030v /scratch/ravanelm/exp/dirha/fbank/raw_fbank_tr05_cont.4.ark:47474899
40ac020e /scratch/ravanelm/exp/dirha/fbank/raw_fbank_tr05_cont.4.ark:8242739
01bc020r /scratch/ravanelm/exp/dirha/fbank/raw_fbank_tr05_cont.1.ark:24698999
40jo030n /scratch/ravanelm/exp/dirha/fbank/raw_fbank_tr05_cont.4.ark:37294719
40pc020m /scratch/ravanelm/exp/dirha/fbank/raw_fbank_tr05_cont.4.ark:51884089
40eo0317 /scratch/ravanelm/exp/dirha/fbank/raw_fbank_tr05_cont.4.ark:21896259
029o030t /scratch/ravanelm/exp/dirha/fbank/raw_fbank_tr05_cont.2.ark:45252349
40po030f /scratch/ravanelm/exp/dirha/fbank/raw_fbank_tr05_cont.4.ark:53054529
405c020e /scratch/ravanelm/exp/dirha/fbank/raw_fbank_tr05_cont.3.ark:48592639
01zo031a /scratch/ravanelm/exp/dirha/fbank/raw_fbank_tr05_cont.2.ark:25852599
40no0305 /scratch/ravanelm/exp/dirha/fbank/raw_fbank_tr05_cont.4.ark:49759349
20dc010b /scratch/ravanelm/exp/dirha/fbank/raw_fbank_tr05_cont.3.ark:16029389
40eo0301 /scratch/ravanelm/exp/dirha/fbank/raw_fbank_tr05_cont.4.ark:20639799
016c0207 /scratch/ravanelm/exp/dirha/fbank/raw_fbank_tr05_cont.1.ark:12455819
409o0310 /scratch/ravanelm/exp/dirha/fbank/raw_fbank_tr05_cont.4.ark:7347849
40fc0203 /scratch/ravanelm/exp/dirha/fbank/raw_fbank_tr05_cont.4.ark:22076189
01yo030r /scratch/ravanelm/exp/dirha/fbank/raw_fbank_tr05_cont.2.ark:21821419
20qo010p /scratch/ravanelm/exp/dirha/fbank/raw_fbank_tr05_cont.3.ark:34936279
01jo0304 /scratch/ravanelm/exp/dirha/fbank/raw_fbank_tr05_cont.1.ark:44716099
021o031c /scratch/ravanelm/exp/dirha/fbank/raw_fbank_tr05_cont.2.ark:30802319
409o030z /scratch/ravanelm/exp/dirha/fbank/raw_fbank_tr05_cont.4.ark:7307779
20nc0105 /scratch/ravanelm/exp/dirha/fbank/raw_fbank_tr05_cont.3.ark:28585109
406o0309 /scratch/ravanelm/exp/dirha/fbank/raw_fbank_tr05_cont.3.ark:52462889
20eo0104 /scratch/ravanelm/exp/dirha/fbank/raw_fbank_tr05_cont.3.ark:18397939
205o010m /scratch/ravanelm/exp/dirha/fbank/raw_fbank_tr05_cont.3.ark:3977669
01io030d /scratch/ravanelm/exp/dirha/fbank/raw_fbank_tr05_cont.1.ark:41671999
40co030z /scratch/ravanelm/exp/dirha/fbank/raw_fbank_tr05_cont.4.ark:16007679
20fc010j /scratch/ravanelm/exp/dirha/fbank/raw_fbank_tr05_cont.3.ark:19741809
021o0311 /scratch/ravanelm/exp/dirha/fbank/raw_fbank_tr05_cont.2.ark:30470109
01uo0305 /scratch/ravanelm/exp/dirha/fbank/raw_fbank_tr05_cont.2.ark:14936599
017o030z /scratch/ravanelm/exp/dirha/fbank/raw_fbank_tr05_cont.1.ark:17124509
01ro0316 /scratch/ravanelm/exp/dirha/fbank/raw_fbank_tr05_cont.2.ark:9418099
20fo010a /scratch/ravanelm/exp/dirha/fbank/raw_fbank_tr05_cont.3.ark:20293439
02bc0216 /scratch/ravanelm/exp/dirha/fbank/raw_fbank_tr05_cont.2.ark:47142949
40fo030d /scratch/ravanelm/exp/dirha/fbank/raw_fbank_tr05_cont.4.ark:23850809
206c0106 /scratch/ravanelm/exp/dirha/fbank/raw_fbank_tr05_cont.3.ark:4356079
01uc0204 /scratch/ravanelm/exp/dirha/fbank/raw_fbank_tr05_cont.2.ark:13232279
01to0310 /scratch/ravanelm/exp/dirha/fbank/raw_fbank_tr05_cont.2.ark:12487759
01lc020y /scratch/ravanelm/exp/dirha/fbank/raw_fbank_tr05_cont.1.ark:51303109
01zc020x /scratch/ravanelm/exp/dirha/fbank/raw_fbank_tr05_cont.2.ark:23490759
01qo031f /scratch/ravanelm/exp/dirha/fbank/raw_fbank_tr05_cont.2.ark:6675089
01yc020l /scratch/ravanelm/exp/dirha/fbank/raw_fbank_tr05_cont.2.ark:20093079
02eo030r /scratch/ravanelm/exp/dirha/fbank/raw_fbank_tr05_cont.3.ark:172839
40cc020h /scratch/ravanelm/exp/dirha/fbank/raw_fbank_tr05_cont.4.ark:14368359
40ao030l /scratch/ravanelm/exp/dirha/fbank/raw_fbank_tr05_cont.4.ark:9918849
40jc020p /scratch/ravanelm/exp/dirha/fbank/raw_fbank_tr05_cont.4.ark:35745319
021c020s /scratch/ravanelm/exp/dirha/fbank/raw_fbank_tr05_cont.2.ark:28837949
206c010g /scratch/ravanelm/exp/dirha/fbank/raw_fbank_tr05_cont.3.ark:4557899
01eo030k /scratch/ravanelm/exp/dirha/fbank/raw_fbank_tr05_cont.1.ark:32386139
027o0318 /scratch/ravanelm/exp/dirha/fbank/raw_fbank_tr05_cont.2.ark:39710269
01to0304 /scratch/ravanelm/exp/dirha/fbank/raw_fbank_tr05_cont.2.ark:11389599
20pc0104 /scratch/ravanelm/exp/dirha/fbank/raw_fbank_tr05_cont.3.ark:31865289
40cc020w /scratch/ravanelm/exp/dirha/fbank/raw_fbank_tr05_cont.4.ark:14678769
01qc020g /scratch/ravanelm/exp/dirha/fbank/raw_fbank_tr05_cont.2.ark:4157419
20vo010e /scratch/ravanelm/exp/dirha/fbank/raw_fbank_tr05_cont.3.ark:39132269
209c010m /scratch/ravanelm/exp/dirha/fbank/raw_fbank_tr05_cont.3.ark:9779739
01tc020t /scratch/ravanelm/exp/dirha/fbank/raw_fbank_tr05_cont.2.ark:10580019
01qc021a /scratch/ravanelm/exp/dirha/fbank/raw_fbank_tr05_cont.2.ark:4867879
406c0209 /scratch/ravanelm/exp/dirha/fbank/raw_fbank_tr05_cont.3.ark:51192789
017c021e /scratch/ravanelm/exp/dirha/fbank/raw_fbank_tr05_cont.1.ark:15963559
01wc020e /scratch/ravanelm/exp/dirha/fbank/raw_fbank_tr05_cont.2.ark:16996169
01qc020s /scratch/ravanelm/exp/dirha/fbank/raw_fbank_tr05_cont.2.ark:4433479
01uo030u /scratch/ravanelm/exp/dirha/fbank/raw_fbank_tr05_cont.2.ark:15804389
204c010e /scratch/ravanelm/exp/dirha/fbank/raw_fbank_tr05_cont.3.ark:1328109
20ro0102 /scratch/ravanelm/exp/dirha/fbank/raw_fbank_tr05_cont.3.ark:35691859
01lc0213 /scratch/ravanelm/exp/dirha/fbank/raw_fbank_tr05_cont.1.ark:51435659
40fo0315 /scratch/ravanelm/exp/dirha/fbank/raw_fbank_tr05_cont.4.ark:24735089
01kc0201 /scratch/ravanelm/exp/dirha/fbank/raw_fbank_tr05_cont.1.ark:46477529
205c010a /scratch/ravanelm/exp/dirha/fbank/raw_fbank_tr05_cont.3.ark:2674319
01zo031f /scratch/ravanelm/exp/dirha/fbank/raw_fbank_tr05_cont.2.ark:26069829
40mo030g /scratch/ravanelm/exp/dirha/fbank/raw_fbank_tr05_cont.4.ark:46915769
01fc0218 /scratch/ravanelm/exp/dirha/fbank/raw_fbank_tr05_cont.1.ark:34542139
204c0105 /scratch/ravanelm/exp/dirha/fbank/raw_fbank_tr05_cont.3.ark:1153759
20cc010a /scratch/ravanelm/exp/dirha/fbank/raw_fbank_tr05_cont.3.ark:14565219
20ic010m /scratch/ravanelm/exp/dirha/fbank/raw_fbank_tr05_cont.3.ark:23949049
405c020c /scratch/ravanelm/exp/dirha/fbank/raw_fbank_tr05_cont.3.ark:48538739
40io0316 /scratch/ravanelm/exp/dirha/fbank/raw_fbank_tr05_cont.4.ark:34905279
40co0314 /scratch/ravanelm/exp/dirha/fbank/raw_fbank_tr05_cont.4.ark:16140829
403o031c /scratch/ravanelm/exp/dirha/fbank/raw_fbank_tr05_cont.3.ark:45559739
401c0202 /scratch/ravanelm/exp/dirha/fbank/raw_fbank_tr05_cont.3.ark:39629969
20io010b /scratch/ravanelm/exp/dirha/fbank/raw_fbank_tr05_cont.3.ark:24392079
01yo0309 /scratch/ravanelm/exp/dirha/fbank/raw_fbank_tr05_cont.2.ark:21179759
01yc0218 /scratch/ravanelm/exp/dirha/fbank/raw_fbank_tr05_cont.2.ark:20693969
403o0317 /scratch/ravanelm/exp/dirha/fbank/raw_fbank_tr05_cont.3.ark:45429699
401o0304 /scratch/ravanelm/exp/dirha/fbank/raw_fbank_tr05_cont.3.ark:41182279
01io0306 /scratch/ravanelm/exp/dirha/fbank/raw_fbank_tr05_cont.1.ark:41339429
205c010o /scratch/ravanelm/exp/dirha/fbank/raw_fbank_tr05_cont.3.ark:3078419
024o0318 /scratch/ravanelm/exp/dirha/fbank/raw_fbank_tr05_cont.2.ark:33586669
011o0314 /scratch/ravanelm/exp/dirha/fbank/raw_fbank_tr05_cont.1.ark:2977759
20oc010n /scratch/ravanelm/exp/dirha/fbank/raw_fbank_tr05_cont.3.ark:30863769
01bo031d /scratch/ravanelm/exp/dirha/fbank/raw_fbank_tr05_cont.1.ark:27386679
01io0311 /scratch/ravanelm/exp/dirha/fbank/raw_fbank_tr05_cont.1.ark:42539599
011c0218 /scratch/ravanelm/exp/dirha/fbank/raw_fbank_tr05_cont.1.ark:1218179
01pc020c /scratch/ravanelm/exp/dirha/fbank/raw_fbank_tr05_cont.2.ark:731809
40jc0206 /scratch/ravanelm/exp/dirha/fbank/raw_fbank_tr05_cont.4.ark:35288349
019c020g /scratch/ravanelm/exp/dirha/fbank/raw_fbank_tr05_cont.1.ark:21463159
01go030j /scratch/ravanelm/exp/dirha/fbank/raw_fbank_tr05_cont.1.ark:38440769
40ec020d /scratch/ravanelm/exp/dirha/fbank/raw_fbank_tr05_cont.4.ark:19701929
021o0318 /scratch/ravanelm/exp/dirha/fbank/raw_fbank_tr05_cont.2.ark:30694559
01uo0304 /scratch/ravanelm/exp/dirha/fbank/raw_fbank_tr05_cont.2.ark:14895689
013o030z /scratch/ravanelm/exp/dirha/fbank/raw_fbank_tr05_cont.1.ark:6017549
021c0210 /scratch/ravanelm/exp/dirha/fbank/raw_fbank_tr05_cont.2.ark:29020949
40ko030h /scratch/ravanelm/exp/dirha/fbank/raw_fbank_tr05_cont.4.ark:40158709
01yc020g /scratch/ravanelm/exp/dirha/fbank/raw_fbank_tr05_cont.2.ark:19968889
016c0210 /scratch/ravanelm/exp/dirha/fbank/raw_fbank_tr05_cont.1.ark:13128419
01qo0306 /scratch/ravanelm/exp/dirha/fbank/raw_fbank_tr05_cont.2.ark:5204739
021o030k /scratch/ravanelm/exp/dirha/fbank/raw_fbank_tr05_cont.2.ark:29951039
02ec020c /scratch/ravanelm/exp/dirha/fbank/raw_fbank_tr05_cont.2.ark:52605529
011o031a /scratch/ravanelm/exp/dirha/fbank/raw_fbank_tr05_cont.1.ark:3239099
20vc010o /scratch/ravanelm/exp/dirha/fbank/raw_fbank_tr05_cont.3.ark:38718139
01mo0318 /scratch/ravanelm/exp/dirha/fbank/raw_fbank_tr05_cont.2.ark:208109
20cc0104 /scratch/ravanelm/exp/dirha/fbank/raw_fbank_tr05_cont.3.ark:14379279
209o0103 /scratch/ravanelm/exp/dirha/fbank/raw_fbank_tr05_cont.3.ark:9984909
01qc0201 /scratch/ravanelm/exp/dirha/fbank/raw_fbank_tr05_cont.2.ark:3642569
01fo030y /scratch/ravanelm/exp/dirha/fbank/raw_fbank_tr05_cont.1.ark:35864799
01go030y /scratch/ravanelm/exp/dirha/fbank/raw_fbank_tr05_cont.1.ark:38937139
02ec0218 /scratch/ravanelm/exp/dirha/fbank/raw_fbank_tr05_cont.2.ark:53601809
40mc0213 /scratch/ravanelm/exp/dirha/fbank/raw_fbank_tr05_cont.4.ark:45985339
20pc0103 /scratch/ravanelm/exp/dirha/fbank/raw_fbank_tr05_cont.3.ark:31845819
01yo0308 /scratch/ravanelm/exp/dirha/fbank/raw_fbank_tr05_cont.2.ark:21154249
40po0312 /scratch/ravanelm/exp/dirha/fbank/raw_fbank_tr05_cont.4.ark:53873179
40nc020n /scratch/ravanelm/exp/dirha/fbank/raw_fbank_tr05_cont.4.ark:48731729
40hc020n /scratch/ravanelm/exp/dirha/fbank/raw_fbank_tr05_cont.4.ark:29681259
01mc0216 /scratch/ravanelm/exp/dirha/fbank/raw_fbank_tr05_cont.1.ark:55132989
01rc0217 /scratch/ravanelm/exp/dirha/fbank/raw_fbank_tr05_cont.2.ark:7953649
01gc021e /scratch/ravanelm/exp/dirha/fbank/raw_fbank_tr05_cont.1.ark:37763919
20fc0106 /scratch/ravanelm/exp/dirha/fbank/raw_fbank_tr05_cont.3.ark:19425739
40go031c /scratch/ravanelm/exp/dirha/fbank/raw_fbank_tr05_cont.4.ark:29040829
019c021f /scratch/ravanelm/exp/dirha/fbank/raw_fbank_tr05_cont.1.ark:22339409
20bc010a /scratch/ravanelm/exp/dirha/fbank/raw_fbank_tr05_cont.3.ark:12694409
024o0308 /scratch/ravanelm/exp/dirha/fbank/raw_fbank_tr05_cont.2.ark:32566469
01tc0215 /scratch/ravanelm/exp/dirha/fbank/raw_fbank_tr05_cont.2.ark:11016219
20qc010a /scratch/ravanelm/exp/dirha/fbank/raw_fbank_tr05_cont.3.ark:33572439
40ec020i /scratch/ravanelm/exp/dirha/fbank/raw_fbank_tr05_cont.4.ark:19798599
020c020x /scratch/ravanelm/exp/dirha/fbank/raw_fbank_tr05_cont.2.ark:26765729
01fc021g /scratch/ravanelm/exp/dirha/fbank/raw_fbank_tr05_cont.1.ark:34761299
015c0201 /scratch/ravanelm/exp/dirha/fbank/raw_fbank_tr05_cont.1.ark:9457479
40kc020c /scratch/ravanelm/exp/dirha/fbank/raw_fbank_tr05_cont.4.ark:38573679
40go030o /scratch/ravanelm/exp/dirha/fbank/raw_fbank_tr05_cont.4.ark:27920789
404c0210 /scratch/ravanelm/exp/dirha/fbank/raw_fbank_tr05_cont.3.ark:46422099
013o030r /scratch/ravanelm/exp/dirha/fbank/raw_fbank_tr05_cont.1.ark:5791589
40eo0310 /scratch/ravanelm/exp/dirha/fbank/raw_fbank_tr05_cont.4.ark:21682569
40ao030b /scratch/ravanelm/exp/dirha/fbank/raw_fbank_tr05_cont.4.ark:9614469
01jo030x /scratch/ravanelm/exp/dirha/fbank/raw_fbank_tr05_cont.1.ark:45767489
40nc020d /scratch/ravanelm/exp/dirha/fbank/raw_fbank_tr05_cont.4.ark:48386949
40ec021f /scratch/ravanelm/exp/dirha/fbank/raw_fbank_tr05_cont.4.ark:20544269
408c020h /scratch/ravanelm/exp/dirha/fbank/raw_fbank_tr05_cont.4.ark:2799519
403c020a /scratch/ravanelm/exp/dirha/fbank/raw_fbank_tr05_cont.3.ark:43048139
029o030w /scratch/ravanelm/exp/dirha/fbank/raw_fbank_tr05_cont.2.ark:45352079
40nc021a /scratch/ravanelm/exp/dirha/fbank/raw_fbank_tr05_cont.4.ark:49409579
408c021h /scratch/ravanelm/exp/dirha/fbank/raw_fbank_tr05_cont.4.ark:3555569
20oo0109 /scratch/ravanelm/exp/dirha/fbank/raw_fbank_tr05_cont.3.ark:31117989
01bc020u /scratch/ravanelm/exp/dirha/fbank/raw_fbank_tr05_cont.1.ark:24808489
01jc0212 /scratch/ravanelm/exp/dirha/fbank/raw_fbank_tr05_cont.1.ark:44115359
40bo0303 /scratch/ravanelm/exp/dirha/fbank/raw_fbank_tr05_cont.4.ark:12439599
01mc0207 /scratch/ravanelm/exp/dirha/fbank/raw_fbank_tr05_cont.1.ark:54226419
205o0108 /scratch/ravanelm/exp/dirha/fbank/raw_fbank_tr05_cont.3.ark:3380129
01go030g /scratch/ravanelm/exp/dirha/fbank/raw_fbank_tr05_cont.1.ark:38341799
20vo010g /scratch/ravanelm/exp/dirha/fbank/raw_fbank_tr05_cont.3.ark:39178889
021o030x /scratch/ravanelm/exp/dirha/fbank/raw_fbank_tr05_cont.2.ark:30353149
20vc010h /scratch/ravanelm/exp/dirha/fbank/raw_fbank_tr05_cont.3.ark:38545369
029c0209 /scratch/ravanelm/exp/dirha/fbank/raw_fbank_tr05_cont.2.ark:43066429
015c0218 /scratch/ravanelm/exp/dirha/fbank/raw_fbank_tr05_cont.1.ark:10571489
40ao0303 /scratch/ravanelm/exp/dirha/fbank/raw_fbank_tr05_cont.4.ark:9379229
026o030p /scratch/ravanelm/exp/dirha/fbank/raw_fbank_tr05_cont.2.ark:35867829
01wc020z /scratch/ravanelm/exp/dirha/fbank/raw_fbank_tr05_cont.2.ark:17590079
01do0317 /scratch/ravanelm/exp/dirha/fbank/raw_fbank_tr05_cont.1.ark:30141159
01wc0210 /scratch/ravanelm/exp/dirha/fbank/raw_fbank_tr05_cont.2.ark:17628269
01lo030m /scratch/ravanelm/exp/dirha/fbank/raw_fbank_tr05_cont.1.ark:52867879
40io030s /scratch/ravanelm/exp/dirha/fbank/raw_fbank_tr05_cont.4.ark:34377139
40jo0317 /scratch/ravanelm/exp/dirha/fbank/raw_fbank_tr05_cont.4.ark:37951799
014c021f /scratch/ravanelm/exp/dirha/fbank/raw_fbank_tr05_cont.1.ark:7697039
01qc0217 /scratch/ravanelm/exp/dirha/fbank/raw_fbank_tr05_cont.2.ark:4785349
01eo0304 /scratch/ravanelm/exp/dirha/fbank/raw_fbank_tr05_cont.1.ark:31968539
207c0104 /scratch/ravanelm/exp/dirha/fbank/raw_fbank_tr05_cont.3.ark:6022159
409o0303 /scratch/ravanelm/exp/dirha/fbank/raw_fbank_tr05_cont.4.ark:6351019
017o0304 /scratch/ravanelm/exp/dirha/fbank/raw_fbank_tr05_cont.1.ark:16176939
01to0309 /scratch/ravanelm/exp/dirha/fbank/raw_fbank_tr05_cont.2.ark:11585269
40io031c /scratch/ravanelm/exp/dirha/fbank/raw_fbank_tr05_cont.4.ark:35081139
40kc021b /scratch/ravanelm/exp/dirha/fbank/raw_fbank_tr05_cont.4.ark:39513209
01wc0218 /scratch/ravanelm/exp/dirha/fbank/raw_fbank_tr05_cont.2.ark:17783319
40hc020x /scratch/ravanelm/exp/dirha/fbank/raw_fbank_tr05_cont.4.ark:29924879
01to0311 /scratch/ravanelm/exp/dirha/fbank/raw_fbank_tr05_cont.2.ark:12532989
01fc020f /scratch/ravanelm/exp/dirha/fbank/raw_fbank_tr05_cont.1.ark:33826149
028c021e /scratch/ravanelm/exp/dirha/fbank/raw_fbank_tr05_cont.2.ark:41037699
40go030q /scratch/ravanelm/exp/dirha/fbank/raw_fbank_tr05_cont.4.ark:28008969
40mc0206 /scratch/ravanelm/exp/dirha/fbank/raw_fbank_tr05_cont.4.ark:45149229
40fc0212 /scratch/ravanelm/exp/dirha/fbank/raw_fbank_tr05_cont.4.ark:23076679
20po010j /scratch/ravanelm/exp/dirha/fbank/raw_fbank_tr05_cont.3.ark:32963849
20tc010i /scratch/ravanelm/exp/dirha/fbank/raw_fbank_tr05_cont.3.ark:37180989
01go030c /scratch/ravanelm/exp/dirha/fbank/raw_fbank_tr05_cont.1.ark:38194519
027c020u /scratch/ravanelm/exp/dirha/fbank/raw_fbank_tr05_cont.2.ark:37369739
01ko0308 /scratch/ravanelm/exp/dirha/fbank/raw_fbank_tr05_cont.1.ark:48381209
021c020q /scratch/ravanelm/exp/dirha/fbank/raw_fbank_tr05_cont.2.ark:28767169
40co030p /scratch/ravanelm/exp/dirha/fbank/raw_fbank_tr05_cont.4.ark:15798059
20qo0109 /scratch/ravanelm/exp/dirha/fbank/raw_fbank_tr05_cont.3.ark:34352279
029c0216 /scratch/ravanelm/exp/dirha/fbank/raw_fbank_tr05_cont.2.ark:44005139
018o030u /scratch/ravanelm/exp/dirha/fbank/raw_fbank_tr05_cont.1.ark:20289099
017c021b /scratch/ravanelm/exp/dirha/fbank/raw_fbank_tr05_cont.1.ark:15894069
01eo030t /scratch/ravanelm/exp/dirha/fbank/raw_fbank_tr05_cont.1.ark:32669769
01jo030e /scratch/ravanelm/exp/dirha/fbank/raw_fbank_tr05_cont.1.ark:45093639
01to030a /scratch/ravanelm/exp/dirha/fbank/raw_fbank_tr05_cont.2.ark:11624739
40bc0211 /scratch/ravanelm/exp/dirha/fbank/raw_fbank_tr05_cont.4.ark:11874739
20ao010j /scratch/ravanelm/exp/dirha/fbank/raw_fbank_tr05_cont.3.ark:12157099
407o030g /scratch/ravanelm/exp/dirha/fbank/raw_fbank_tr05_cont.4.ark:1233909
01ko030s /scratch/ravanelm/exp/dirha/fbank/raw_fbank_tr05_cont.1.ark:49208249
029c0204 /scratch/ravanelm/exp/dirha/fbank/raw_fbank_tr05_cont.2.ark:42948599
20tc0106 /scratch/ravanelm/exp/dirha/fbank/raw_fbank_tr05_cont.3.ark:36865509
029o0311 /scratch/ravanelm/exp/dirha/fbank/raw_fbank_tr05_cont.2.ark:45537029
026o030w /scratch/ravanelm/exp/dirha/fbank/raw_fbank_tr05_cont.2.ark:36082239
207o0101 /scratch/ravanelm/exp/dirha/fbank/raw_fbank_tr05_cont.3.ark:6594169
40hc021b /scratch/ravanelm/exp/dirha/fbank/raw_fbank_tr05_cont.4.ark:30308099
209c010l /scratch/ravanelm/exp/dirha/fbank/raw_fbank_tr05_cont.3.ark:9743709
20to010f /scratch/ravanelm/exp/dirha/fbank/raw_fbank_tr05_cont.3.ark:37769919
01ec0207 /scratch/ravanelm/exp/dirha/fbank/raw_fbank_tr05_cont.1.ark:30599449
20eo010d /scratch/ravanelm/exp/dirha/fbank/raw_fbank_tr05_cont.3.ark:18778449
011o0305 /scratch/ravanelm/exp/dirha/fbank/raw_fbank_tr05_cont.1.ark:1586229
01zc0209 /scratch/ravanelm/exp/dirha/fbank/raw_fbank_tr05_cont.2.ark:22837799
40io030j /scratch/ravanelm/exp/dirha/fbank/raw_fbank_tr05_cont.4.ark:34120189
02bo030o /scratch/ravanelm/exp/dirha/fbank/raw_fbank_tr05_cont.2.ark:48250099
40io0303 /scratch/ravanelm/exp/dirha/fbank/raw_fbank_tr05_cont.4.ark:33602069
40ec0213 /scratch/ravanelm/exp/dirha/fbank/raw_fbank_tr05_cont.4.ark:20261149
016c0205 /scratch/ravanelm/exp/dirha/fbank/raw_fbank_tr05_cont.1.ark:12392719
01zo030x /scratch/ravanelm/exp/dirha/fbank/raw_fbank_tr05_cont.2.ark:25398489
20gc010f /scratch/ravanelm/exp/dirha/fbank/raw_fbank_tr05_cont.3.ark:21067539
20ro010l /scratch/ravanelm/exp/dirha/fbank/raw_fbank_tr05_cont.3.ark:36449949
021c020u /scratch/ravanelm/exp/dirha/fbank/raw_fbank_tr05_cont.2.ark:28903009
02bc0206 /scratch/ravanelm/exp/dirha/fbank/raw_fbank_tr05_cont.2.ark:46164789
01lo0304 /scratch/ravanelm/exp/dirha/fbank/raw_fbank_tr05_cont.1.ark:52010859
40eo0311 /scratch/ravanelm/exp/dirha/fbank/raw_fbank_tr05_cont.4.ark:21715919
01ro030k /scratch/ravanelm/exp/dirha/fbank/raw_fbank_tr05_cont.2.ark:8745639
01go031b /scratch/ravanelm/exp/dirha/fbank/raw_fbank_tr05_cont.1.ark:39448289
013c020h /scratch/ravanelm/exp/dirha/fbank/raw_fbank_tr05_cont.1.ark:4035119
207o010k /scratch/ravanelm/exp/dirha/fbank/raw_fbank_tr05_cont.3.ark:7292259
40bo0309 /scratch/ravanelm/exp/dirha/fbank/raw_fbank_tr05_cont.4.ark:12658979
406c020b /scratch/ravanelm/exp/dirha/fbank/raw_fbank_tr05_cont.3.ark:51238369
027c020y /scratch/ravanelm/exp/dirha/fbank/raw_fbank_tr05_cont.2.ark:37465619
20rc0102 /scratch/ravanelm/exp/dirha/fbank/raw_fbank_tr05_cont.3.ark:35045889
40mc020d /scratch/ravanelm/exp/dirha/fbank/raw_fbank_tr05_cont.4.ark:45318559
20tc0105 /scratch/ravanelm/exp/dirha/fbank/raw_fbank_tr05_cont.3.ark:36849719
209o010h /scratch/ravanelm/exp/dirha/fbank/raw_fbank_tr05_cont.3.ark:10422449
20ro010d /scratch/ravanelm/exp/dirha/fbank/raw_fbank_tr05_cont.3.ark:36134989
015o030x /scratch/ravanelm/exp/dirha/fbank/raw_fbank_tr05_cont.1.ark:11819979
01yo0304 /scratch/ravanelm/exp/dirha/fbank/raw_fbank_tr05_cont.2.ark:21043969
01kc0203 /scratch/ravanelm/exp/dirha/fbank/raw_fbank_tr05_cont.1.ark:46547069
01uc0211 /scratch/ravanelm/exp/dirha/fbank/raw_fbank_tr05_cont.2.ark:14260909
403o0305 /scratch/ravanelm/exp/dirha/fbank/raw_fbank_tr05_cont.3.ark:44211559
026o0312 /scratch/ravanelm/exp/dirha/fbank/raw_fbank_tr05_cont.2.ark:36283699
40jc0219 /scratch/ravanelm/exp/dirha/fbank/raw_fbank_tr05_cont.4.ark:36327039
20ec010c /scratch/ravanelm/exp/dirha/fbank/raw_fbank_tr05_cont.3.ark:17861379
01bc0217 /scratch/ravanelm/exp/dirha/fbank/raw_fbank_tr05_cont.1.ark:25162649
015o030w /scratch/ravanelm/exp/dirha/fbank/raw_fbank_tr05_cont.1.ark:11793549
20to0101 /scratch/ravanelm/exp/dirha/fbank/raw_fbank_tr05_cont.3.ark:37425099
40mc0215 /scratch/ravanelm/exp/dirha/fbank/raw_fbank_tr05_cont.4.ark:46050719
020o0312 /scratch/ravanelm/exp/dirha/fbank/raw_fbank_tr05_cont.2.ark:27716699
013o0308 /scratch/ravanelm/exp/dirha/fbank/raw_fbank_tr05_cont.1.ark:5166299
20lo0106 /scratch/ravanelm/exp/dirha/fbank/raw_fbank_tr05_cont.3.ark:26022449
40fo030w /scratch/ravanelm/exp/dirha/fbank/raw_fbank_tr05_cont.4.ark:24508539
40do030r /scratch/ravanelm/exp/dirha/fbank/raw_fbank_tr05_cont.4.ark:18764239
01eo030s /scratch/ravanelm/exp/dirha/fbank/raw_fbank_tr05_cont.1.ark:32637379
029o0317 /scratch/ravanelm/exp/dirha/fbank/raw_fbank_tr05_cont.2.ark:45742489
40pc0217 /scratch/ravanelm/exp/dirha/fbank/raw_fbank_tr05_cont.4.ark:52396919
011o0309 /scratch/ravanelm/exp/dirha/fbank/raw_fbank_tr05_cont.1.ark:1760069
015c0219 /scratch/ravanelm/exp/dirha/fbank/raw_fbank_tr05_cont.1.ark:10589799
20pc0101 /scratch/ravanelm/exp/dirha/fbank/raw_fbank_tr05_cont.3.ark:31813679
20lo010d /scratch/ravanelm/exp/dirha/fbank/raw_fbank_tr05_cont.3.ark:26373939
209c010j /scratch/ravanelm/exp/dirha/fbank/raw_fbank_tr05_cont.3.ark:9708849
20ro0105 /scratch/ravanelm/exp/dirha/fbank/raw_fbank_tr05_cont.3.ark:35828429
01kc020u /scratch/ravanelm/exp/dirha/fbank/raw_fbank_tr05_cont.1.ark:47377769
016c020g /scratch/ravanelm/exp/dirha/fbank/raw_fbank_tr05_cont.1.ark:12696889
014c021g /scratch/ravanelm/exp/dirha/fbank/raw_fbank_tr05_cont.1.ark:7725629
20tc0107 /scratch/ravanelm/exp/dirha/fbank/raw_fbank_tr05_cont.3.ark:36893059
40ic020x /scratch/ravanelm/exp/dirha/fbank/raw_fbank_tr05_cont.4.ark:32994919
401c0207 /scratch/ravanelm/exp/dirha/fbank/raw_fbank_tr05_cont.3.ark:39766359
408c0208 /scratch/ravanelm/exp/dirha/fbank/raw_fbank_tr05_cont.4.ark:2572649
01mc020p /scratch/ravanelm/exp/dirha/fbank/raw_fbank_tr05_cont.1.ark:54668599
019c020r /scratch/ravanelm/exp/dirha/fbank/raw_fbank_tr05_cont.1.ark:21695889
209c010h /scratch/ravanelm/exp/dirha/fbank/raw_fbank_tr05_cont.3.ark:9661989
409c020p /scratch/ravanelm/exp/dirha/fbank/raw_fbank_tr05_cont.4.ark:5531799
208o0106 /scratch/ravanelm/exp/dirha/fbank/raw_fbank_tr05_cont.3.ark:8552849
40mo0319 /scratch/ravanelm/exp/dirha/fbank/raw_fbank_tr05_cont.4.ark:47894559
019o030a /scratch/ravanelm/exp/dirha/fbank/raw_fbank_tr05_cont.1.ark:22700649
40nc0202 /scratch/ravanelm/exp/dirha/fbank/raw_fbank_tr05_cont.4.ark:48090939
40eo0316 /scratch/ravanelm/exp/dirha/fbank/raw_fbank_tr05_cont.4.ark:21868229
026c0214 /scratch/ravanelm/exp/dirha/fbank/raw_fbank_tr05_cont.2.ark:34794599
01do0309 /scratch/ravanelm/exp/dirha/fbank/raw_fbank_tr05_cont.1.ark:29077959
40ac0219 /scratch/ravanelm/exp/dirha/fbank/raw_fbank_tr05_cont.4.ark:9147029
024o030c /scratch/ravanelm/exp/dirha/fbank/raw_fbank_tr05_cont.2.ark:32677149
404o030m /scratch/ravanelm/exp/dirha/fbank/raw_fbank_tr05_cont.3.ark:47452649
40fo0317 /scratch/ravanelm/exp/dirha/fbank/raw_fbank_tr05_cont.4.ark:24827869
40eo030p /scratch/ravanelm/exp/dirha/fbank/raw_fbank_tr05_cont.4.ark:21390519
207o010n /scratch/ravanelm/exp/dirha/fbank/raw_fbank_tr05_cont.3.ark:7390029
40mo0316 /scratch/ravanelm/exp/dirha/fbank/raw_fbank_tr05_cont.4.ark:47810669
40co030f /scratch/ravanelm/exp/dirha/fbank/raw_fbank_tr05_cont.4.ark:15509159
40jc0203 /scratch/ravanelm/exp/dirha/fbank/raw_fbank_tr05_cont.4.ark:35193099
01jc020e /scratch/ravanelm/exp/dirha/fbank/raw_fbank_tr05_cont.1.ark:43415479
01tc021e /scratch/ravanelm/exp/dirha/fbank/raw_fbank_tr05_cont.2.ark:11235209
01kc020x /scratch/ravanelm/exp/dirha/fbank/raw_fbank_tr05_cont.1.ark:47487659
20ho0108 /scratch/ravanelm/exp/dirha/fbank/raw_fbank_tr05_cont.3.ark:22862119
01ic020v /scratch/ravanelm/exp/dirha/fbank/raw_fbank_tr05_cont.1.ark:40584409
01lc0201 /scratch/ravanelm/exp/dirha/fbank/raw_fbank_tr05_cont.1.ark:50248399
405o0316 /scratch/ravanelm/exp/dirha/fbank/raw_fbank_tr05_cont.3.ark:50660089
40fo031g /scratch/ravanelm/exp/dirha/fbank/raw_fbank_tr05_cont.4.ark:25157939
40kc020d /scratch/ravanelm/exp/dirha/fbank/raw_fbank_tr05_cont.4.ark:38592589
407c020a /scratch/ravanelm/exp/dirha/fbank/raw_fbank_tr05_cont.3.ark:53969389
01fo030d /scratch/ravanelm/exp/dirha/fbank/raw_fbank_tr05_cont.1.ark:35250569
406o030e /scratch/ravanelm/exp/dirha/fbank/raw_fbank_tr05_cont.3.ark:52569479
027c020m /scratch/ravanelm/exp/dirha/fbank/raw_fbank_tr05_cont.2.ark:37190539
01fo031b /scratch/ravanelm/exp/dirha/fbank/raw_fbank_tr05_cont.1.ark:36301749
027o031b /scratch/ravanelm/exp/dirha/fbank/raw_fbank_tr05_cont.2.ark:39754879
20eo010e /scratch/ravanelm/exp/dirha/fbank/raw_fbank_tr05_cont.3.ark:18800559
01rc020t /scratch/ravanelm/exp/dirha/fbank/raw_fbank_tr05_cont.2.ark:7561669
401o031b /scratch/ravanelm/exp/dirha/fbank/raw_fbank_tr05_cont.3.ark:42776099
02co030v /scratch/ravanelm/exp/dirha/fbank/raw_fbank_tr05_cont.2.ark:51484319
01go0310 /scratch/ravanelm/exp/dirha/fbank/raw_fbank_tr05_cont.1.ark:39020999
01yo0315 /scratch/ravanelm/exp/dirha/fbank/raw_fbank_tr05_cont.2.ark:22321999
40ac0207 /scratch/ravanelm/exp/dirha/fbank/raw_fbank_tr05_cont.4.ark:8003449
018c020z /scratch/ravanelm/exp/dirha/fbank/raw_fbank_tr05_cont.1.ark:18599849
02bc021a /scratch/ravanelm/exp/dirha/fbank/raw_fbank_tr05_cont.2.ark:47269909
01jc0202 /scratch/ravanelm/exp/dirha/fbank/raw_fbank_tr05_cont.1.ark:43054199
01mo030o /scratch/ravanelm/exp/dirha/fbank/raw_fbank_tr05_cont.1.ark:56073579
01yc020y /scratch/ravanelm/exp/dirha/fbank/raw_fbank_tr05_cont.2.ark:20461309
021o0306 /scratch/ravanelm/exp/dirha/fbank/raw_fbank_tr05_cont.2.ark:29519059
01uc020h /scratch/ravanelm/exp/dirha/fbank/raw_fbank_tr05_cont.2.ark:13642749
01lc0208 /scratch/ravanelm/exp/dirha/fbank/raw_fbank_tr05_cont.1.ark:50495089
405c020u /scratch/ravanelm/exp/dirha/fbank/raw_fbank_tr05_cont.3.ark:48971959
408o030w /scratch/ravanelm/exp/dirha/fbank/raw_fbank_tr05_cont.4.ark:4471449
409c0206 /scratch/ravanelm/exp/dirha/fbank/raw_fbank_tr05_cont.4.ark:5016629
20do010k /scratch/ravanelm/exp/dirha/fbank/raw_fbank_tr05_cont.3.ark:17225769
021o030z /scratch/ravanelm/exp/dirha/fbank/raw_fbank_tr05_cont.2.ark:30421009
01wc020j /scratch/ravanelm/exp/dirha/fbank/raw_fbank_tr05_cont.2.ark:17166999
028o0316 /scratch/ravanelm/exp/dirha/fbank/raw_fbank_tr05_cont.2.ark:42580149
20qo010d /scratch/ravanelm/exp/dirha/fbank/raw_fbank_tr05_cont.3.ark:34523199
018o030x /scratch/ravanelm/exp/dirha/fbank/raw_fbank_tr05_cont.1.ark:20427269
40do0305 /scratch/ravanelm/exp/dirha/fbank/raw_fbank_tr05_cont.4.ark:18105099
027o0309 /scratch/ravanelm/exp/dirha/fbank/raw_fbank_tr05_cont.2.ark:38342339
20io010d /scratch/ravanelm/exp/dirha/fbank/raw_fbank_tr05_cont.3.ark:24461899
011o031e /scratch/ravanelm/exp/dirha/fbank/raw_fbank_tr05_cont.1.ark:3452059
021c0208 /scratch/ravanelm/exp/dirha/fbank/raw_fbank_tr05_cont.2.ark:28248029
018o0315 /scratch/ravanelm/exp/dirha/fbank/raw_fbank_tr05_cont.1.ark:20787989
40bo030o /scratch/ravanelm/exp/dirha/fbank/raw_fbank_tr05_cont.4.ark:13161549
01io030l /scratch/ravanelm/exp/dirha/fbank/raw_fbank_tr05_cont.1.ark:41960639
40fc021e /scratch/ravanelm/exp/dirha/fbank/raw_fbank_tr05_cont.4.ark:23400279
02co031b /scratch/ravanelm/exp/dirha/fbank/raw_fbank_tr05_cont.2.ark:52059039
01io031f /scratch/ravanelm/exp/dirha/fbank/raw_fbank_tr05_cont.1.ark:42976059
206c010a /scratch/ravanelm/exp/dirha/fbank/raw_fbank_tr05_cont.3.ark:4443159
40gc021b /scratch/ravanelm/exp/dirha/fbank/raw_fbank_tr05_cont.4.ark:26801589
209c0108 /scratch/ravanelm/exp/dirha/fbank/raw_fbank_tr05_cont.3.ark:9462199
01ic020y /scratch/ravanelm/exp/dirha/fbank/raw_fbank_tr05_cont.1.ark:40657459
027c0215 /scratch/ravanelm/exp/dirha/fbank/raw_fbank_tr05_cont.2.ark:37694949
02eo0310 /scratch/ravanelm/exp/dirha/fbank/raw_fbank_tr05_cont.3.ark:496469
027o030l /scratch/ravanelm/exp/dirha/fbank/raw_fbank_tr05_cont.2.ark:38845779
20oo010g /scratch/ravanelm/exp/dirha/fbank/raw_fbank_tr05_cont.3.ark:31368359
40ao0305 /scratch/ravanelm/exp/dirha/fbank/raw_fbank_tr05_cont.4.ark:9419049
40bo030i /scratch/ravanelm/exp/dirha/fbank/raw_fbank_tr05_cont.4.ark:12966489
01go031a /scratch/ravanelm/exp/dirha/fbank/raw_fbank_tr05_cont.1.ark:39419619
01pc020f /scratch/ravanelm/exp/dirha/fbank/raw_fbank_tr05_cont.2.ark:850459
01go030a /scratch/ravanelm/exp/dirha/fbank/raw_fbank_tr05_cont.1.ark:38130539
01do030i /scratch/ravanelm/exp/dirha/fbank/raw_fbank_tr05_cont.1.ark:29360269
014c020y /scratch/ravanelm/exp/dirha/fbank/raw_fbank_tr05_cont.1.ark:7314809
207c010d /scratch/ravanelm/exp/dirha/fbank/raw_fbank_tr05_cont.3.ark:6272989
404c021a /scratch/ravanelm/exp/dirha/fbank/raw_fbank_tr05_cont.3.ark:46675479
