40do030m /scratch/ravanelm/exp/dirha/fbank/raw_fbank_tr05_cont.4.ark:18620169
01wc0202 /scratch/ravanelm/exp/dirha/fbank/raw_fbank_tr05_cont.2.ark:16668409
02co030w /scratch/ravanelm/exp/dirha/fbank/raw_fbank_tr05_cont.2.ark:51505669
01pc020x /scratch/ravanelm/exp/dirha/fbank/raw_fbank_tr05_cont.2.ark:1312319
40jc020b /scratch/ravanelm/exp/dirha/fbank/raw_fbank_tr05_cont.4.ark:35372979
40jc020t /scratch/ravanelm/exp/dirha/fbank/raw_fbank_tr05_cont.4.ark:35869199
029o030x /scratch/ravanelm/exp/dirha/fbank/raw_fbank_tr05_cont.2.ark:45388189
01lc020t /scratch/ravanelm/exp/dirha/fbank/raw_fbank_tr05_cont.1.ark:51156799
01po0305 /scratch/ravanelm/exp/dirha/fbank/raw_fbank_tr05_cont.2.ark:2098279
40bc020j /scratch/ravanelm/exp/dirha/fbank/raw_fbank_tr05_cont.4.ark:11424359
405o0318 /scratch/ravanelm/exp/dirha/fbank/raw_fbank_tr05_cont.3.ark:50722429
204o010d /scratch/ravanelm/exp/dirha/fbank/raw_fbank_tr05_cont.3.ark:1928509
40gc021d /scratch/ravanelm/exp/dirha/fbank/raw_fbank_tr05_cont.4.ark:26879209
40ac020q /scratch/ravanelm/exp/dirha/fbank/raw_fbank_tr05_cont.4.ark:8606019
01io0308 /scratch/ravanelm/exp/dirha/fbank/raw_fbank_tr05_cont.1.ark:41417889
02cc020x /scratch/ravanelm/exp/dirha/fbank/raw_fbank_tr05_cont.2.ark:50057469
017c0211 /scratch/ravanelm/exp/dirha/fbank/raw_fbank_tr05_cont.1.ark:15667889
40pc020f /scratch/ravanelm/exp/dirha/fbank/raw_fbank_tr05_cont.4.ark:51709439
404o030d /scratch/ravanelm/exp/dirha/fbank/raw_fbank_tr05_cont.3.ark:47171139
028o030o /scratch/ravanelm/exp/dirha/fbank/raw_fbank_tr05_cont.2.ark:41970849
020c021f /scratch/ravanelm/exp/dirha/fbank/raw_fbank_tr05_cont.2.ark:27060789
017o0301 /scratch/ravanelm/exp/dirha/fbank/raw_fbank_tr05_cont.1.ark:16047809
01tc0212 /scratch/ravanelm/exp/dirha/fbank/raw_fbank_tr05_cont.2.ark:10915809
40io0319 /scratch/ravanelm/exp/dirha/fbank/raw_fbank_tr05_cont.4.ark:34973649
01po030t /scratch/ravanelm/exp/dirha/fbank/raw_fbank_tr05_cont.2.ark:2916889
026c020c /scratch/ravanelm/exp/dirha/fbank/raw_fbank_tr05_cont.2.ark:34145199
017o030s /scratch/ravanelm/exp/dirha/fbank/raw_fbank_tr05_cont.1.ark:16929459
40ko0317 /scratch/ravanelm/exp/dirha/fbank/raw_fbank_tr05_cont.4.ark:41091449
018o030b /scratch/ravanelm/exp/dirha/fbank/raw_fbank_tr05_cont.1.ark:19521609
40bo0318 /scratch/ravanelm/exp/dirha/fbank/raw_fbank_tr05_cont.4.ark:13795249
01uo030x /scratch/ravanelm/exp/dirha/fbank/raw_fbank_tr05_cont.2.ark:15947719
01jo030b /scratch/ravanelm/exp/dirha/fbank/raw_fbank_tr05_cont.1.ark:44982029
40ko0305 /scratch/ravanelm/exp/dirha/fbank/raw_fbank_tr05_cont.4.ark:39791789
014c020b /scratch/ravanelm/exp/dirha/fbank/raw_fbank_tr05_cont.1.ark:6775439
029c020z /scratch/ravanelm/exp/dirha/fbank/raw_fbank_tr05_cont.2.ark:43824329
020o030e /scratch/ravanelm/exp/dirha/fbank/raw_fbank_tr05_cont.2.ark:27302169
406o0314 /scratch/ravanelm/exp/dirha/fbank/raw_fbank_tr05_cont.3.ark:53452179
013o0301 /scratch/ravanelm/exp/dirha/fbank/raw_fbank_tr05_cont.1.ark:4965849
026c0217 /scratch/ravanelm/exp/dirha/fbank/raw_fbank_tr05_cont.2.ark:34872169
40jc020m /scratch/ravanelm/exp/dirha/fbank/raw_fbank_tr05_cont.4.ark:35672669
40fo030s /scratch/ravanelm/exp/dirha/fbank/raw_fbank_tr05_cont.4.ark:24354659
01eo030k /scratch/ravanelm/exp/dirha/fbank/raw_fbank_tr05_cont.1.ark:32386139
02co030k /scratch/ravanelm/exp/dirha/fbank/raw_fbank_tr05_cont.2.ark:51113309
401o030y /scratch/ravanelm/exp/dirha/fbank/raw_fbank_tr05_cont.3.ark:42292219
40hc020p /scratch/ravanelm/exp/dirha/fbank/raw_fbank_tr05_cont.4.ark:29758399
01ec020f /scratch/ravanelm/exp/dirha/fbank/raw_fbank_tr05_cont.1.ark:30794729
01lc020w /scratch/ravanelm/exp/dirha/fbank/raw_fbank_tr05_cont.1.ark:51267849
015o030m /scratch/ravanelm/exp/dirha/fbank/raw_fbank_tr05_cont.1.ark:11478409
01fo030l /scratch/ravanelm/exp/dirha/fbank/raw_fbank_tr05_cont.1.ark:35499409
205o0102 /scratch/ravanelm/exp/dirha/fbank/raw_fbank_tr05_cont.3.ark:3149549
40co030c /scratch/ravanelm/exp/dirha/fbank/raw_fbank_tr05_cont.4.ark:15440389
40fc0205 /scratch/ravanelm/exp/dirha/fbank/raw_fbank_tr05_cont.4.ark:22114169
01wo0318 /scratch/ravanelm/exp/dirha/fbank/raw_fbank_tr05_cont.2.ark:19311899
014c0201 /scratch/ravanelm/exp/dirha/fbank/raw_fbank_tr05_cont.1.ark:6526259
40gc0206 /scratch/ravanelm/exp/dirha/fbank/raw_fbank_tr05_cont.4.ark:25359479
40ao031b /scratch/ravanelm/exp/dirha/fbank/raw_fbank_tr05_cont.4.ark:10770509
40io031d /scratch/ravanelm/exp/dirha/fbank/raw_fbank_tr05_cont.4.ark:35102409
20oc010k /scratch/ravanelm/exp/dirha/fbank/raw_fbank_tr05_cont.3.ark:30813119
406c020i /scratch/ravanelm/exp/dirha/fbank/raw_fbank_tr05_cont.3.ark:51428619
40kc0217 /scratch/ravanelm/exp/dirha/fbank/raw_fbank_tr05_cont.4.ark:39431689
40no030u /scratch/ravanelm/exp/dirha/fbank/raw_fbank_tr05_cont.4.ark:50654939
409o0303 /scratch/ravanelm/exp/dirha/fbank/raw_fbank_tr05_cont.4.ark:6351019
20fo010b /scratch/ravanelm/exp/dirha/fbank/raw_fbank_tr05_cont.3.ark:20316509
01tc020l /scratch/ravanelm/exp/dirha/fbank/raw_fbank_tr05_cont.2.ark:10303259
01tc020q /scratch/ravanelm/exp/dirha/fbank/raw_fbank_tr05_cont.2.ark:10486889
40co0307 /scratch/ravanelm/exp/dirha/fbank/raw_fbank_tr05_cont.4.ark:15282959
01eo030t /scratch/ravanelm/exp/dirha/fbank/raw_fbank_tr05_cont.1.ark:32669769
40ec020u /scratch/ravanelm/exp/dirha/fbank/raw_fbank_tr05_cont.4.ark:20043039
405o0319 /scratch/ravanelm/exp/dirha/fbank/raw_fbank_tr05_cont.3.ark:50750659
40do030w /scratch/ravanelm/exp/dirha/fbank/raw_fbank_tr05_cont.4.ark:18904069
01jc020r /scratch/ravanelm/exp/dirha/fbank/raw_fbank_tr05_cont.1.ark:43786989
407o030l /scratch/ravanelm/exp/dirha/fbank/raw_fbank_tr05_cont.4.ark:1411179
40jo0319 /scratch/ravanelm/exp/dirha/fbank/raw_fbank_tr05_cont.4.ark:38004499
02bc0214 /scratch/ravanelm/exp/dirha/fbank/raw_fbank_tr05_cont.2.ark:47077009
018o0316 /scratch/ravanelm/exp/dirha/fbank/raw_fbank_tr05_cont.1.ark:20816339
01bo030r /scratch/ravanelm/exp/dirha/fbank/raw_fbank_tr05_cont.1.ark:26532769
029c020a /scratch/ravanelm/exp/dirha/fbank/raw_fbank_tr05_cont.2.ark:43101059
404o030q /scratch/ravanelm/exp/dirha/fbank/raw_fbank_tr05_cont.3.ark:47585809
01jc020s /scratch/ravanelm/exp/dirha/fbank/raw_fbank_tr05_cont.1.ark:43809419
02bc0205 /scratch/ravanelm/exp/dirha/fbank/raw_fbank_tr05_cont.2.ark:46150079
40jo030n /scratch/ravanelm/exp/dirha/fbank/raw_fbank_tr05_cont.4.ark:37294719
01go031b /scratch/ravanelm/exp/dirha/fbank/raw_fbank_tr05_cont.1.ark:39448289
401c020u /scratch/ravanelm/exp/dirha/fbank/raw_fbank_tr05_cont.3.ark:40415409
011o0303 /scratch/ravanelm/exp/dirha/fbank/raw_fbank_tr05_cont.1.ark:1496369
011c020b /scratch/ravanelm/exp/dirha/fbank/raw_fbank_tr05_cont.1.ark:254949
01jc020a /scratch/ravanelm/exp/dirha/fbank/raw_fbank_tr05_cont.1.ark:43307199
20dc010h /scratch/ravanelm/exp/dirha/fbank/raw_fbank_tr05_cont.3.ark:16221649
029c0202 /scratch/ravanelm/exp/dirha/fbank/raw_fbank_tr05_cont.2.ark:42883619
40eo030y /scratch/ravanelm/exp/dirha/fbank/raw_fbank_tr05_cont.4.ark:21612229
20lo010q /scratch/ravanelm/exp/dirha/fbank/raw_fbank_tr05_cont.3.ark:26969529
208c0104 /scratch/ravanelm/exp/dirha/fbank/raw_fbank_tr05_cont.3.ark:7703559
409o0318 /scratch/ravanelm/exp/dirha/fbank/raw_fbank_tr05_cont.4.ark:7563929
024c021c /scratch/ravanelm/exp/dirha/fbank/raw_fbank_tr05_cont.2.ark:32232409
404c0216 /scratch/ravanelm/exp/dirha/fbank/raw_fbank_tr05_cont.3.ark:46570719
01yo030u /scratch/ravanelm/exp/dirha/fbank/raw_fbank_tr05_cont.2.ark:21923029
021o0301 /scratch/ravanelm/exp/dirha/fbank/raw_fbank_tr05_cont.2.ark:29384229
40dc0206 /scratch/ravanelm/exp/dirha/fbank/raw_fbank_tr05_cont.4.ark:16597649
40jc020v /scratch/ravanelm/exp/dirha/fbank/raw_fbank_tr05_cont.4.ark:35940419
40dc020w /scratch/ravanelm/exp/dirha/fbank/raw_fbank_tr05_cont.4.ark:17406029
40gc020b /scratch/ravanelm/exp/dirha/fbank/raw_fbank_tr05_cont.4.ark:25566309
013c021d /scratch/ravanelm/exp/dirha/fbank/raw_fbank_tr05_cont.1.ark:4881479
40ec0216 /scratch/ravanelm/exp/dirha/fbank/raw_fbank_tr05_cont.4.ark:20329959
01rc020j /scratch/ravanelm/exp/dirha/fbank/raw_fbank_tr05_cont.2.ark:7268249
01kc021a /scratch/ravanelm/exp/dirha/fbank/raw_fbank_tr05_cont.1.ark:47900769
404o0311 /scratch/ravanelm/exp/dirha/fbank/raw_fbank_tr05_cont.3.ark:47903259
02ec020a /scratch/ravanelm/exp/dirha/fbank/raw_fbank_tr05_cont.2.ark:52529629
20vc0103 /scratch/ravanelm/exp/dirha/fbank/raw_fbank_tr05_cont.3.ark:38141269
019o030v /scratch/ravanelm/exp/dirha/fbank/raw_fbank_tr05_cont.1.ark:23365039
01gc020z /scratch/ravanelm/exp/dirha/fbank/raw_fbank_tr05_cont.1.ark:37340189
01dc021f /scratch/ravanelm/exp/dirha/fbank/raw_fbank_tr05_cont.1.ark:28760089
20io010e /scratch/ravanelm/exp/dirha/fbank/raw_fbank_tr05_cont.3.ark:24484089
40fc020u /scratch/ravanelm/exp/dirha/fbank/raw_fbank_tr05_cont.4.ark:22834999
40go030n /scratch/ravanelm/exp/dirha/fbank/raw_fbank_tr05_cont.4.ark:27902199
40dc020m /scratch/ravanelm/exp/dirha/fbank/raw_fbank_tr05_cont.4.ark:17063089
20mo010p /scratch/ravanelm/exp/dirha/fbank/raw_fbank_tr05_cont.3.ark:28334469
20pc010g /scratch/ravanelm/exp/dirha/fbank/raw_fbank_tr05_cont.3.ark:32175169
40go030b /scratch/ravanelm/exp/dirha/fbank/raw_fbank_tr05_cont.4.ark:27437599
011o030l /scratch/ravanelm/exp/dirha/fbank/raw_fbank_tr05_cont.1.ark:2218669
40ac0212 /scratch/ravanelm/exp/dirha/fbank/raw_fbank_tr05_cont.4.ark:8981139
40mo0314 /scratch/ravanelm/exp/dirha/fbank/raw_fbank_tr05_cont.4.ark:47764569
20oc0106 /scratch/ravanelm/exp/dirha/fbank/raw_fbank_tr05_cont.3.ark:30467819
01rc020p /scratch/ravanelm/exp/dirha/fbank/raw_fbank_tr05_cont.2.ark:7427709
01ec020q /scratch/ravanelm/exp/dirha/fbank/raw_fbank_tr05_cont.1.ark:31089179
20no010m /scratch/ravanelm/exp/dirha/fbank/raw_fbank_tr05_cont.3.ark:30119409
20tc010q /scratch/ravanelm/exp/dirha/fbank/raw_fbank_tr05_cont.3.ark:37396989
404o030m /scratch/ravanelm/exp/dirha/fbank/raw_fbank_tr05_cont.3.ark:47452649
026o0304 /scratch/ravanelm/exp/dirha/fbank/raw_fbank_tr05_cont.2.ark:35241319
408o030c /scratch/ravanelm/exp/dirha/fbank/raw_fbank_tr05_cont.4.ark:3917129
40nc0205 /scratch/ravanelm/exp/dirha/fbank/raw_fbank_tr05_cont.4.ark:48164949
209c010j /scratch/ravanelm/exp/dirha/fbank/raw_fbank_tr05_cont.3.ark:9708849
01wo030s /scratch/ravanelm/exp/dirha/fbank/raw_fbank_tr05_cont.2.ark:18792059
404c0212 /scratch/ravanelm/exp/dirha/fbank/raw_fbank_tr05_cont.3.ark:46475879
408o0305 /scratch/ravanelm/exp/dirha/fbank/raw_fbank_tr05_cont.4.ark:3699399
01yc0218 /scratch/ravanelm/exp/dirha/fbank/raw_fbank_tr05_cont.2.ark:20693969
20mc010o /scratch/ravanelm/exp/dirha/fbank/raw_fbank_tr05_cont.3.ark:27607129
014c020j /scratch/ravanelm/exp/dirha/fbank/raw_fbank_tr05_cont.1.ark:6967159
40cc020e /scratch/ravanelm/exp/dirha/fbank/raw_fbank_tr05_cont.4.ark:14297749
024o0304 /scratch/ravanelm/exp/dirha/fbank/raw_fbank_tr05_cont.2.ark:32419429
01gc0211 /scratch/ravanelm/exp/dirha/fbank/raw_fbank_tr05_cont.1.ark:37395649
403c020b /scratch/ravanelm/exp/dirha/fbank/raw_fbank_tr05_cont.3.ark:43061049
01ic020k /scratch/ravanelm/exp/dirha/fbank/raw_fbank_tr05_cont.1.ark:40282759
404o0316 /scratch/ravanelm/exp/dirha/fbank/raw_fbank_tr05_cont.3.ark:48060209
20lo010m /scratch/ravanelm/exp/dirha/fbank/raw_fbank_tr05_cont.3.ark:26839969
20ao010q /scratch/ravanelm/exp/dirha/fbank/raw_fbank_tr05_cont.3.ark:12441069
015o030i /scratch/ravanelm/exp/dirha/fbank/raw_fbank_tr05_cont.1.ark:11308489
015o0314 /scratch/ravanelm/exp/dirha/fbank/raw_fbank_tr05_cont.1.ark:12081429
405c021c /scratch/ravanelm/exp/dirha/fbank/raw_fbank_tr05_cont.3.ark:49390859
40hc0204 /scratch/ravanelm/exp/dirha/fbank/raw_fbank_tr05_cont.4.ark:29204889
407c021g /scratch/ravanelm/exp/dirha/fbank/raw_fbank_tr05_cont.4.ark:576329
40ic020l /scratch/ravanelm/exp/dirha/fbank/raw_fbank_tr05_cont.4.ark:32673159
02cc0211 /scratch/ravanelm/exp/dirha/fbank/raw_fbank_tr05_cont.2.ark:50181989
206o010l /scratch/ravanelm/exp/dirha/fbank/raw_fbank_tr05_cont.3.ark:5613509
01wo030b /scratch/ravanelm/exp/dirha/fbank/raw_fbank_tr05_cont.2.ark:18277539
20dc010f /scratch/ravanelm/exp/dirha/fbank/raw_fbank_tr05_cont.3.ark:16178629
021c021b /scratch/ravanelm/exp/dirha/fbank/raw_fbank_tr05_cont.2.ark:29281119
407o030j /scratch/ravanelm/exp/dirha/fbank/raw_fbank_tr05_cont.4.ark:1317639
20ec0102 /scratch/ravanelm/exp/dirha/fbank/raw_fbank_tr05_cont.3.ark:17590919
40co0310 /scratch/ravanelm/exp/dirha/fbank/raw_fbank_tr05_cont.4.ark:16043469
01yo031c /scratch/ravanelm/exp/dirha/fbank/raw_fbank_tr05_cont.2.ark:22527609
01tc020u /scratch/ravanelm/exp/dirha/fbank/raw_fbank_tr05_cont.2.ark:10634169
40bc021g /scratch/ravanelm/exp/dirha/fbank/raw_fbank_tr05_cont.4.ark:12320349
017o0317 /scratch/ravanelm/exp/dirha/fbank/raw_fbank_tr05_cont.1.ark:17377869
40dc0202 /scratch/ravanelm/exp/dirha/fbank/raw_fbank_tr05_cont.4.ark:16485529
01tc0215 /scratch/ravanelm/exp/dirha/fbank/raw_fbank_tr05_cont.2.ark:11016219
40pc021d /scratch/ravanelm/exp/dirha/fbank/raw_fbank_tr05_cont.4.ark:52516299
205o010a /scratch/ravanelm/exp/dirha/fbank/raw_fbank_tr05_cont.3.ark:3464909
01pc020q /scratch/ravanelm/exp/dirha/fbank/raw_fbank_tr05_cont.2.ark:1107789
016o030e /scratch/ravanelm/exp/dirha/fbank/raw_fbank_tr05_cont.1.ark:13776979
209c010i /scratch/ravanelm/exp/dirha/fbank/raw_fbank_tr05_cont.3.ark:9683859
01wo030l /scratch/ravanelm/exp/dirha/fbank/raw_fbank_tr05_cont.2.ark:18626999
027o0304 /scratch/ravanelm/exp/dirha/fbank/raw_fbank_tr05_cont.2.ark:38141029
20rc010b /scratch/ravanelm/exp/dirha/fbank/raw_fbank_tr05_cont.3.ark:35273999
02bo031b /scratch/ravanelm/exp/dirha/fbank/raw_fbank_tr05_cont.2.ark:49088189
40bo031c /scratch/ravanelm/exp/dirha/fbank/raw_fbank_tr05_cont.4.ark:13932609
408c0209 /scratch/ravanelm/exp/dirha/fbank/raw_fbank_tr05_cont.4.ark:2596079
029c0218 /scratch/ravanelm/exp/dirha/fbank/raw_fbank_tr05_cont.2.ark:44051599
40ho031b /scratch/ravanelm/exp/dirha/fbank/raw_fbank_tr05_cont.4.ark:31947429
40co030v /scratch/ravanelm/exp/dirha/fbank/raw_fbank_tr05_cont.4.ark:15939399
018c021f /scratch/ravanelm/exp/dirha/fbank/raw_fbank_tr05_cont.1.ark:19119329
01qc0215 /scratch/ravanelm/exp/dirha/fbank/raw_fbank_tr05_cont.2.ark:4742569
405c0210 /scratch/ravanelm/exp/dirha/fbank/raw_fbank_tr05_cont.3.ark:49057019
011c0211 /scratch/ravanelm/exp/dirha/fbank/raw_fbank_tr05_cont.1.ark:1001329
407c020l /scratch/ravanelm/exp/dirha/fbank/raw_fbank_tr05_cont.3.ark:54285679
014o030t /scratch/ravanelm/exp/dirha/fbank/raw_fbank_tr05_cont.1.ark:8749089
40ec020l /scratch/ravanelm/exp/dirha/fbank/raw_fbank_tr05_cont.4.ark:19869449
017o0314 /scratch/ravanelm/exp/dirha/fbank/raw_fbank_tr05_cont.1.ark:17302579
40ho030b /scratch/ravanelm/exp/dirha/fbank/raw_fbank_tr05_cont.4.ark:30741469
40ec020j /scratch/ravanelm/exp/dirha/fbank/raw_fbank_tr05_cont.4.ark:19831589
20lc010j /scratch/ravanelm/exp/dirha/fbank/raw_fbank_tr05_cont.3.ark:25549499
020c0216 /scratch/ravanelm/exp/dirha/fbank/raw_fbank_tr05_cont.2.ark:26908639
01pc020f /scratch/ravanelm/exp/dirha/fbank/raw_fbank_tr05_cont.2.ark:850459
01eo030e /scratch/ravanelm/exp/dirha/fbank/raw_fbank_tr05_cont.1.ark:32216759
40dc0210 /scratch/ravanelm/exp/dirha/fbank/raw_fbank_tr05_cont.4.ark:17518789
20hc010c /scratch/ravanelm/exp/dirha/fbank/raw_fbank_tr05_cont.3.ark:22312499
015c020y /scratch/ravanelm/exp/dirha/fbank/raw_fbank_tr05_cont.1.ark:10336189
01yc0204 /scratch/ravanelm/exp/dirha/fbank/raw_fbank_tr05_cont.2.ark:19591529
017o0303 /scratch/ravanelm/exp/dirha/fbank/raw_fbank_tr05_cont.1.ark:16132589
40dc0217 /scratch/ravanelm/exp/dirha/fbank/raw_fbank_tr05_cont.4.ark:17722559
204c010o /scratch/ravanelm/exp/dirha/fbank/raw_fbank_tr05_cont.3.ark:1547049
01po030a /scratch/ravanelm/exp/dirha/fbank/raw_fbank_tr05_cont.2.ark:2265429
20io010m /scratch/ravanelm/exp/dirha/fbank/raw_fbank_tr05_cont.3.ark:24796249
01ko030p /scratch/ravanelm/exp/dirha/fbank/raw_fbank_tr05_cont.1.ark:49100279
40bc020f /scratch/ravanelm/exp/dirha/fbank/raw_fbank_tr05_cont.4.ark:11335039
01qc020c /scratch/ravanelm/exp/dirha/fbank/raw_fbank_tr05_cont.2.ark:4009979
20lc0107 /scratch/ravanelm/exp/dirha/fbank/raw_fbank_tr05_cont.3.ark:25156899
209o0101 /scratch/ravanelm/exp/dirha/fbank/raw_fbank_tr05_cont.3.ark:9915009
40jo031d /scratch/ravanelm/exp/dirha/fbank/raw_fbank_tr05_cont.4.ark:38171099
20bo010k /scratch/ravanelm/exp/dirha/fbank/raw_fbank_tr05_cont.3.ark:13938229
01uc020p /scratch/ravanelm/exp/dirha/fbank/raw_fbank_tr05_cont.2.ark:13894349
406c020j /scratch/ravanelm/exp/dirha/fbank/raw_fbank_tr05_cont.3.ark:51444169
401o030g /scratch/ravanelm/exp/dirha/fbank/raw_fbank_tr05_cont.3.ark:41589559
01gc020y /scratch/ravanelm/exp/dirha/fbank/raw_fbank_tr05_cont.1.ark:37317919
207o0103 /scratch/ravanelm/exp/dirha/fbank/raw_fbank_tr05_cont.3.ark:6685669
40hc0202 /scratch/ravanelm/exp/dirha/fbank/raw_fbank_tr05_cont.4.ark:29155509
40hc021c /scratch/ravanelm/exp/dirha/fbank/raw_fbank_tr05_cont.4.ark:30319009
40cc020u /scratch/ravanelm/exp/dirha/fbank/raw_fbank_tr05_cont.4.ark:14637029
20qo010b /scratch/ravanelm/exp/dirha/fbank/raw_fbank_tr05_cont.3.ark:34432019
026o030w /scratch/ravanelm/exp/dirha/fbank/raw_fbank_tr05_cont.2.ark:36082239
40pc0219 /scratch/ravanelm/exp/dirha/fbank/raw_fbank_tr05_cont.4.ark:52450619
01fc020f /scratch/ravanelm/exp/dirha/fbank/raw_fbank_tr05_cont.1.ark:33826149
026o0310 /scratch/ravanelm/exp/dirha/fbank/raw_fbank_tr05_cont.2.ark:36215839
40po030q /scratch/ravanelm/exp/dirha/fbank/raw_fbank_tr05_cont.4.ark:53467859
407c0217 /scratch/ravanelm/exp/dirha/fbank/raw_fbank_tr05_cont.4.ark:292139
01jc020f /scratch/ravanelm/exp/dirha/fbank/raw_fbank_tr05_cont.1.ark:43439989
20hc0103 /scratch/ravanelm/exp/dirha/fbank/raw_fbank_tr05_cont.3.ark:22134789
019o0315 /scratch/ravanelm/exp/dirha/fbank/raw_fbank_tr05_cont.1.ark:23648499
026o0303 /scratch/ravanelm/exp/dirha/fbank/raw_fbank_tr05_cont.2.ark:35208049
015o030v /scratch/ravanelm/exp/dirha/fbank/raw_fbank_tr05_cont.1.ark:11782199
01bo0311 /scratch/ravanelm/exp/dirha/fbank/raw_fbank_tr05_cont.1.ark:26930069
018c020k /scratch/ravanelm/exp/dirha/fbank/raw_fbank_tr05_cont.1.ark:18199319
01lo0305 /scratch/ravanelm/exp/dirha/fbank/raw_fbank_tr05_cont.1.ark:52060969
40jc0217 /scratch/ravanelm/exp/dirha/fbank/raw_fbank_tr05_cont.4.ark:36262459
40hc020z /scratch/ravanelm/exp/dirha/fbank/raw_fbank_tr05_cont.4.ark:29989859
206c0101 /scratch/ravanelm/exp/dirha/fbank/raw_fbank_tr05_cont.3.ark:4235449
20mc010n /scratch/ravanelm/exp/dirha/fbank/raw_fbank_tr05_cont.3.ark:27572859
01uo0309 /scratch/ravanelm/exp/dirha/fbank/raw_fbank_tr05_cont.2.ark:15036359
209o010b /scratch/ravanelm/exp/dirha/fbank/raw_fbank_tr05_cont.3.ark:10234349
01do0310 /scratch/ravanelm/exp/dirha/fbank/raw_fbank_tr05_cont.1.ark:29899229
01zc0205 /scratch/ravanelm/exp/dirha/fbank/raw_fbank_tr05_cont.2.ark:22732959
40bo030j /scratch/ravanelm/exp/dirha/fbank/raw_fbank_tr05_cont.4.ark:13000039
409o0309 /scratch/ravanelm/exp/dirha/fbank/raw_fbank_tr05_cont.4.ark:6535799
01jo030g /scratch/ravanelm/exp/dirha/fbank/raw_fbank_tr05_cont.1.ark:45165259
20do010m /scratch/ravanelm/exp/dirha/fbank/raw_fbank_tr05_cont.3.ark:17311349
204o010g /scratch/ravanelm/exp/dirha/fbank/raw_fbank_tr05_cont.3.ark:2039559
01kc020w /scratch/ravanelm/exp/dirha/fbank/raw_fbank_tr05_cont.1.ark:47461989
01wo0301 /scratch/ravanelm/exp/dirha/fbank/raw_fbank_tr05_cont.2.ark:18007439
401c0217 /scratch/ravanelm/exp/dirha/fbank/raw_fbank_tr05_cont.3.ark:40822119
20vo0103 /scratch/ravanelm/exp/dirha/fbank/raw_fbank_tr05_cont.3.ark:38795219
20gc0106 /scratch/ravanelm/exp/dirha/fbank/raw_fbank_tr05_cont.3.ark:20844869
40mc0211 /scratch/ravanelm/exp/dirha/fbank/raw_fbank_tr05_cont.4.ark:45942719
02cc020k /scratch/ravanelm/exp/dirha/fbank/raw_fbank_tr05_cont.2.ark:49744309
02ec0216 /scratch/ravanelm/exp/dirha/fbank/raw_fbank_tr05_cont.2.ark:53540709
404o030s /scratch/ravanelm/exp/dirha/fbank/raw_fbank_tr05_cont.3.ark:47642429
02eo030b /scratch/ravanelm/exp/dirha/fbank/raw_fbank_tr05_cont.2.ark:54205959
01jc0204 /scratch/ravanelm/exp/dirha/fbank/raw_fbank_tr05_cont.1.ark:43131659
20bc0109 /scratch/ravanelm/exp/dirha/fbank/raw_fbank_tr05_cont.3.ark:12681179
024c0203 /scratch/ravanelm/exp/dirha/fbank/raw_fbank_tr05_cont.2.ark:30962699
408o031a /scratch/ravanelm/exp/dirha/fbank/raw_fbank_tr05_cont.4.ark:4823669
02eo0309 /scratch/ravanelm/exp/dirha/fbank/raw_fbank_tr05_cont.2.ark:54150499
024o030w /scratch/ravanelm/exp/dirha/fbank/raw_fbank_tr05_cont.2.ark:33227749
019o0301 /scratch/ravanelm/exp/dirha/fbank/raw_fbank_tr05_cont.1.ark:22391619
01qc020d /scratch/ravanelm/exp/dirha/fbank/raw_fbank_tr05_cont.2.ark:4056609
01fo0304 /scratch/ravanelm/exp/dirha/fbank/raw_fbank_tr05_cont.1.ark:34914539
01lc020d /scratch/ravanelm/exp/dirha/fbank/raw_fbank_tr05_cont.1.ark:50701759
40ic020c /scratch/ravanelm/exp/dirha/fbank/raw_fbank_tr05_cont.4.ark:32375849
021c0208 /scratch/ravanelm/exp/dirha/fbank/raw_fbank_tr05_cont.2.ark:28248029
20co010l /scratch/ravanelm/exp/dirha/fbank/raw_fbank_tr05_cont.3.ark:15588989
40eo030l /scratch/ravanelm/exp/dirha/fbank/raw_fbank_tr05_cont.4.ark:21283159
40jo0302 /scratch/ravanelm/exp/dirha/fbank/raw_fbank_tr05_cont.4.ark:36519409
40mc020l /scratch/ravanelm/exp/dirha/fbank/raw_fbank_tr05_cont.4.ark:45547759
019o0316 /scratch/ravanelm/exp/dirha/fbank/raw_fbank_tr05_cont.1.ark:23672889
01qo030o /scratch/ravanelm/exp/dirha/fbank/raw_fbank_tr05_cont.2.ark:5853319
01gc0210 /scratch/ravanelm/exp/dirha/fbank/raw_fbank_tr05_cont.1.ark:37364499
01qc0208 /scratch/ravanelm/exp/dirha/fbank/raw_fbank_tr05_cont.2.ark:3902539
405c021b /scratch/ravanelm/exp/dirha/fbank/raw_fbank_tr05_cont.3.ark:49356629
01ic020h /scratch/ravanelm/exp/dirha/fbank/raw_fbank_tr05_cont.1.ark:40190309
40jo0313 /scratch/ravanelm/exp/dirha/fbank/raw_fbank_tr05_cont.4.ark:37804239
40no030b /scratch/ravanelm/exp/dirha/fbank/raw_fbank_tr05_cont.4.ark:49995329
017o030w /scratch/ravanelm/exp/dirha/fbank/raw_fbank_tr05_cont.1.ark:17032019
208c010o /scratch/ravanelm/exp/dirha/fbank/raw_fbank_tr05_cont.3.ark:8297039
015o0315 /scratch/ravanelm/exp/dirha/fbank/raw_fbank_tr05_cont.1.ark:12121259
01mo0302 /scratch/ravanelm/exp/dirha/fbank/raw_fbank_tr05_cont.1.ark:55437159
40lc020h /scratch/ravanelm/exp/dirha/fbank/raw_fbank_tr05_cont.4.ark:41829069
406c0214 /scratch/ravanelm/exp/dirha/fbank/raw_fbank_tr05_cont.3.ark:51921449
404o0317 /scratch/ravanelm/exp/dirha/fbank/raw_fbank_tr05_cont.3.ark:48078959
02co030z /scratch/ravanelm/exp/dirha/fbank/raw_fbank_tr05_cont.2.ark:51632879
01yo030s /scratch/ravanelm/exp/dirha/fbank/raw_fbank_tr05_cont.2.ark:21873609
40cc0204 /scratch/ravanelm/exp/dirha/fbank/raw_fbank_tr05_cont.4.ark:14044489
01ko030u /scratch/ravanelm/exp/dirha/fbank/raw_fbank_tr05_cont.1.ark:49286749
01bo030m /scratch/ravanelm/exp/dirha/fbank/raw_fbank_tr05_cont.1.ark:26342979
205o010l /scratch/ravanelm/exp/dirha/fbank/raw_fbank_tr05_cont.3.ark:3946279
029c020t /scratch/ravanelm/exp/dirha/fbank/raw_fbank_tr05_cont.2.ark:43660629
404c020w /scratch/ravanelm/exp/dirha/fbank/raw_fbank_tr05_cont.3.ark:46342819
01lo031d /scratch/ravanelm/exp/dirha/fbank/raw_fbank_tr05_cont.1.ark:53998209
205c0105 /scratch/ravanelm/exp/dirha/fbank/raw_fbank_tr05_cont.3.ark:2533049
01lo0313 /scratch/ravanelm/exp/dirha/fbank/raw_fbank_tr05_cont.1.ark:53557429
40eo030w /scratch/ravanelm/exp/dirha/fbank/raw_fbank_tr05_cont.4.ark:21547449
20mo0103 /scratch/ravanelm/exp/dirha/fbank/raw_fbank_tr05_cont.3.ark:27747409
027c0202 /scratch/ravanelm/exp/dirha/fbank/raw_fbank_tr05_cont.2.ark:36661099
01ko031e /scratch/ravanelm/exp/dirha/fbank/raw_fbank_tr05_cont.1.ark:50079109
409o030z /scratch/ravanelm/exp/dirha/fbank/raw_fbank_tr05_cont.4.ark:7307779
40pc020q /scratch/ravanelm/exp/dirha/fbank/raw_fbank_tr05_cont.4.ark:51953169
40dc020b /scratch/ravanelm/exp/dirha/fbank/raw_fbank_tr05_cont.4.ark:16728839
01mo0301 /scratch/ravanelm/exp/dirha/fbank/raw_fbank_tr05_cont.1.ark:55392569
40jc021c /scratch/ravanelm/exp/dirha/fbank/raw_fbank_tr05_cont.4.ark:36397049
20to010k /scratch/ravanelm/exp/dirha/fbank/raw_fbank_tr05_cont.3.ark:37935909
408c0208 /scratch/ravanelm/exp/dirha/fbank/raw_fbank_tr05_cont.4.ark:2572649
01fc0206 /scratch/ravanelm/exp/dirha/fbank/raw_fbank_tr05_cont.1.ark:33546479
40ho0302 /scratch/ravanelm/exp/dirha/fbank/raw_fbank_tr05_cont.4.ark:30465799
205o010o /scratch/ravanelm/exp/dirha/fbank/raw_fbank_tr05_cont.3.ark:4026849
01ro031a /scratch/ravanelm/exp/dirha/fbank/raw_fbank_tr05_cont.2.ark:9511019
016c0206 /scratch/ravanelm/exp/dirha/fbank/raw_fbank_tr05_cont.1.ark:12428189
01yc0213 /scratch/ravanelm/exp/dirha/fbank/raw_fbank_tr05_cont.2.ark:20585059
01yc020x /scratch/ravanelm/exp/dirha/fbank/raw_fbank_tr05_cont.2.ark:20416279
40ic0208 /scratch/ravanelm/exp/dirha/fbank/raw_fbank_tr05_cont.4.ark:32255569
406o030o /scratch/ravanelm/exp/dirha/fbank/raw_fbank_tr05_cont.3.ark:52916819
01ro030b /scratch/ravanelm/exp/dirha/fbank/raw_fbank_tr05_cont.2.ark:8407409
405c021d /scratch/ravanelm/exp/dirha/fbank/raw_fbank_tr05_cont.3.ark:49422249
018c020v /scratch/ravanelm/exp/dirha/fbank/raw_fbank_tr05_cont.1.ark:18478449
20go0103 /scratch/ravanelm/exp/dirha/fbank/raw_fbank_tr05_cont.3.ark:21387469
40gc021b /scratch/ravanelm/exp/dirha/fbank/raw_fbank_tr05_cont.4.ark:26801589
01pc020p /scratch/ravanelm/exp/dirha/fbank/raw_fbank_tr05_cont.2.ark:1082679
20no010l /scratch/ravanelm/exp/dirha/fbank/raw_fbank_tr05_cont.3.ark:30093699
20to0105 /scratch/ravanelm/exp/dirha/fbank/raw_fbank_tr05_cont.3.ark:37516979
40io0302 /scratch/ravanelm/exp/dirha/fbank/raw_fbank_tr05_cont.4.ark:33581959
40hc021d /scratch/ravanelm/exp/dirha/fbank/raw_fbank_tr05_cont.4.ark:30338319
01ko030b /scratch/ravanelm/exp/dirha/fbank/raw_fbank_tr05_cont.1.ark:48514459
404c020n /scratch/ravanelm/exp/dirha/fbank/raw_fbank_tr05_cont.3.ark:46140109
015c0207 /scratch/ravanelm/exp/dirha/fbank/raw_fbank_tr05_cont.1.ark:9630539
01zo0315 /scratch/ravanelm/exp/dirha/fbank/raw_fbank_tr05_cont.2.ark:25730649
20cc010l /scratch/ravanelm/exp/dirha/fbank/raw_fbank_tr05_cont.3.ark:14821229
01uc020j /scratch/ravanelm/exp/dirha/fbank/raw_fbank_tr05_cont.2.ark:13699409
027c0213 /scratch/ravanelm/exp/dirha/fbank/raw_fbank_tr05_cont.2.ark:37633929
40hc0212 /scratch/ravanelm/exp/dirha/fbank/raw_fbank_tr05_cont.4.ark:30054309
40eo030z /scratch/ravanelm/exp/dirha/fbank/raw_fbank_tr05_cont.4.ark:21643859
20do010b /scratch/ravanelm/exp/dirha/fbank/raw_fbank_tr05_cont.3.ark:16873419
40fc021c /scratch/ravanelm/exp/dirha/fbank/raw_fbank_tr05_cont.4.ark:23352859
02bo030b /scratch/ravanelm/exp/dirha/fbank/raw_fbank_tr05_cont.2.ark:47807949
01zo0302 /scratch/ravanelm/exp/dirha/fbank/raw_fbank_tr05_cont.2.ark:24145479
02co030h /scratch/ravanelm/exp/dirha/fbank/raw_fbank_tr05_cont.2.ark:51020899
02ec020h /scratch/ravanelm/exp/dirha/fbank/raw_fbank_tr05_cont.2.ark:52789239
011c020p /scratch/ravanelm/exp/dirha/fbank/raw_fbank_tr05_cont.1.ark:664729
019c020a /scratch/ravanelm/exp/dirha/fbank/raw_fbank_tr05_cont.1.ark:21313979
40po0311 /scratch/ravanelm/exp/dirha/fbank/raw_fbank_tr05_cont.4.ark:53857789
011c0205 /scratch/ravanelm/exp/dirha/fbank/raw_fbank_tr05_cont.1.ark:115929
01zc0216 /scratch/ravanelm/exp/dirha/fbank/raw_fbank_tr05_cont.2.ark:23795389
20bc010j /scratch/ravanelm/exp/dirha/fbank/raw_fbank_tr05_cont.3.ark:12958599
407c020g /scratch/ravanelm/exp/dirha/fbank/raw_fbank_tr05_cont.3.ark:54144729
020c020n /scratch/ravanelm/exp/dirha/fbank/raw_fbank_tr05_cont.2.ark:26572709
206o010i /scratch/ravanelm/exp/dirha/fbank/raw_fbank_tr05_cont.3.ark:5468779
01tc020w /scratch/ravanelm/exp/dirha/fbank/raw_fbank_tr05_cont.2.ark:10716709
20vo010g /scratch/ravanelm/exp/dirha/fbank/raw_fbank_tr05_cont.3.ark:39178889
40mc020i /scratch/ravanelm/exp/dirha/fbank/raw_fbank_tr05_cont.4.ark:45441149
208o0105 /scratch/ravanelm/exp/dirha/fbank/raw_fbank_tr05_cont.3.ark:8538339
020o0316 /scratch/ravanelm/exp/dirha/fbank/raw_fbank_tr05_cont.2.ark:27806059
028o0314 /scratch/ravanelm/exp/dirha/fbank/raw_fbank_tr05_cont.2.ark:42520809
20ho010b /scratch/ravanelm/exp/dirha/fbank/raw_fbank_tr05_cont.3.ark:22946209
206o0108 /scratch/ravanelm/exp/dirha/fbank/raw_fbank_tr05_cont.3.ark:5026959
01pc020h /scratch/ravanelm/exp/dirha/fbank/raw_fbank_tr05_cont.2.ark:893959
021o030v /scratch/ravanelm/exp/dirha/fbank/raw_fbank_tr05_cont.2.ark:30287089
01wo0304 /scratch/ravanelm/exp/dirha/fbank/raw_fbank_tr05_cont.2.ark:18073769
20fo010g /scratch/ravanelm/exp/dirha/fbank/raw_fbank_tr05_cont.3.ark:20439779
407o0306 /scratch/ravanelm/exp/dirha/fbank/raw_fbank_tr05_cont.4.ark:833569
40fo030t /scratch/ravanelm/exp/dirha/fbank/raw_fbank_tr05_cont.4.ark:24400249
40pc021c /scratch/ravanelm/exp/dirha/fbank/raw_fbank_tr05_cont.4.ark:52495469
20pc010i /scratch/ravanelm/exp/dirha/fbank/raw_fbank_tr05_cont.3.ark:32223709
01qc020s /scratch/ravanelm/exp/dirha/fbank/raw_fbank_tr05_cont.2.ark:4433479
40eo030o /scratch/ravanelm/exp/dirha/fbank/raw_fbank_tr05_cont.4.ark:21351209
013o0307 /scratch/ravanelm/exp/dirha/fbank/raw_fbank_tr05_cont.1.ark:5150149
01dc020s /scratch/ravanelm/exp/dirha/fbank/raw_fbank_tr05_cont.1.ark:28114759
027o030s /scratch/ravanelm/exp/dirha/fbank/raw_fbank_tr05_cont.2.ark:39060909
01fo0314 /scratch/ravanelm/exp/dirha/fbank/raw_fbank_tr05_cont.1.ark:36054019
028o030d /scratch/ravanelm/exp/dirha/fbank/raw_fbank_tr05_cont.2.ark:41544959
01wo030q /scratch/ravanelm/exp/dirha/fbank/raw_fbank_tr05_cont.2.ark:18744039
20ao0107 /scratch/ravanelm/exp/dirha/fbank/raw_fbank_tr05_cont.3.ark:11618659
20mc0104 /scratch/ravanelm/exp/dirha/fbank/raw_fbank_tr05_cont.3.ark:27075489
409o0302 /scratch/ravanelm/exp/dirha/fbank/raw_fbank_tr05_cont.4.ark:6327949
20bo010f /scratch/ravanelm/exp/dirha/fbank/raw_fbank_tr05_cont.3.ark:13722879
20ro010d /scratch/ravanelm/exp/dirha/fbank/raw_fbank_tr05_cont.3.ark:36134989
01do0319 /scratch/ravanelm/exp/dirha/fbank/raw_fbank_tr05_cont.1.ark:30204219
02cc021d /scratch/ravanelm/exp/dirha/fbank/raw_fbank_tr05_cont.2.ark:50448729
20rc0106 /scratch/ravanelm/exp/dirha/fbank/raw_fbank_tr05_cont.3.ark:35180969
02eo030y /scratch/ravanelm/exp/dirha/fbank/raw_fbank_tr05_cont.3.ark:416809
40lc020a /scratch/ravanelm/exp/dirha/fbank/raw_fbank_tr05_cont.4.ark:41595539
01zc020p /scratch/ravanelm/exp/dirha/fbank/raw_fbank_tr05_cont.2.ark:23280879
20vo010m /scratch/ravanelm/exp/dirha/fbank/raw_fbank_tr05_cont.3.ark:39377869
407o0308 /scratch/ravanelm/exp/dirha/fbank/raw_fbank_tr05_cont.4.ark:902509
401c0209 /scratch/ravanelm/exp/dirha/fbank/raw_fbank_tr05_cont.3.ark:39844899
40lc0204 /scratch/ravanelm/exp/dirha/fbank/raw_fbank_tr05_cont.4.ark:41433319
405o030q /scratch/ravanelm/exp/dirha/fbank/raw_fbank_tr05_cont.3.ark:50187689
01go0303 /scratch/ravanelm/exp/dirha/fbank/raw_fbank_tr05_cont.1.ark:37879209
019c0212 /scratch/ravanelm/exp/dirha/fbank/raw_fbank_tr05_cont.1.ark:21975939
406o030r /scratch/ravanelm/exp/dirha/fbank/raw_fbank_tr05_cont.3.ark:53009549
205c010o /scratch/ravanelm/exp/dirha/fbank/raw_fbank_tr05_cont.3.ark:3078419
40ho030v /scratch/ravanelm/exp/dirha/fbank/raw_fbank_tr05_cont.4.ark:31398309
406c0219 /scratch/ravanelm/exp/dirha/fbank/raw_fbank_tr05_cont.3.ark:52062479
01qc020v /scratch/ravanelm/exp/dirha/fbank/raw_fbank_tr05_cont.2.ark:4507929
40ec0218 /scratch/ravanelm/exp/dirha/fbank/raw_fbank_tr05_cont.4.ark:20380579
40no0310 /scratch/ravanelm/exp/dirha/fbank/raw_fbank_tr05_cont.4.ark:50823359
01zc0213 /scratch/ravanelm/exp/dirha/fbank/raw_fbank_tr05_cont.2.ark:23694339
028c020v /scratch/ravanelm/exp/dirha/fbank/raw_fbank_tr05_cont.2.ark:40519169
014o0319 /scratch/ravanelm/exp/dirha/fbank/raw_fbank_tr05_cont.1.ark:9276409
01io030f /scratch/ravanelm/exp/dirha/fbank/raw_fbank_tr05_cont.1.ark:41723659
01ko030s /scratch/ravanelm/exp/dirha/fbank/raw_fbank_tr05_cont.1.ark:49208249
40nc020j /scratch/ravanelm/exp/dirha/fbank/raw_fbank_tr05_cont.4.ark:48591529
026o030j /scratch/ravanelm/exp/dirha/fbank/raw_fbank_tr05_cont.2.ark:35691329
206c0109 /scratch/ravanelm/exp/dirha/fbank/raw_fbank_tr05_cont.3.ark:4414889
407c020q /scratch/ravanelm/exp/dirha/fbank/raw_fbank_tr05_cont.3.ark:54453549
20qc010l /scratch/ravanelm/exp/dirha/fbank/raw_fbank_tr05_cont.3.ark:33852769
20ro010k /scratch/ravanelm/exp/dirha/fbank/raw_fbank_tr05_cont.3.ark:36420239
407c020n /scratch/ravanelm/exp/dirha/fbank/raw_fbank_tr05_cont.3.ark:54341859
01ko030x /scratch/ravanelm/exp/dirha/fbank/raw_fbank_tr05_cont.1.ark:49395719
20ro010m /scratch/ravanelm/exp/dirha/fbank/raw_fbank_tr05_cont.3.ark:36504059
01lo0301 /scratch/ravanelm/exp/dirha/fbank/raw_fbank_tr05_cont.1.ark:51888129
40go030g /scratch/ravanelm/exp/dirha/fbank/raw_fbank_tr05_cont.4.ark:27587349
40lo0312 /scratch/ravanelm/exp/dirha/fbank/raw_fbank_tr05_cont.4.ark:44525629
404c020r /scratch/ravanelm/exp/dirha/fbank/raw_fbank_tr05_cont.3.ark:46258709
409c020k /scratch/ravanelm/exp/dirha/fbank/raw_fbank_tr05_cont.4.ark:5390769
40bo0308 /scratch/ravanelm/exp/dirha/fbank/raw_fbank_tr05_cont.4.ark:12609029
40io0311 /scratch/ravanelm/exp/dirha/fbank/raw_fbank_tr05_cont.4.ark:34699209
40co0316 /scratch/ravanelm/exp/dirha/fbank/raw_fbank_tr05_cont.4.ark:16170289
40kc021a /scratch/ravanelm/exp/dirha/fbank/raw_fbank_tr05_cont.4.ark:39500419
016c021d /scratch/ravanelm/exp/dirha/fbank/raw_fbank_tr05_cont.1.ark:13375629
40jc020h /scratch/ravanelm/exp/dirha/fbank/raw_fbank_tr05_cont.4.ark:35539359
01lc020y /scratch/ravanelm/exp/dirha/fbank/raw_fbank_tr05_cont.1.ark:51303109
20hc010k /scratch/ravanelm/exp/dirha/fbank/raw_fbank_tr05_cont.3.ark:22466739
027o0310 /scratch/ravanelm/exp/dirha/fbank/raw_fbank_tr05_cont.2.ark:39403909
01yo030v /scratch/ravanelm/exp/dirha/fbank/raw_fbank_tr05_cont.2.ark:21952299
40fc0201 /scratch/ravanelm/exp/dirha/fbank/raw_fbank_tr05_cont.4.ark:22023649
405c020w /scratch/ravanelm/exp/dirha/fbank/raw_fbank_tr05_cont.3.ark:48993179
20hc010i /scratch/ravanelm/exp/dirha/fbank/raw_fbank_tr05_cont.3.ark:22446519
020c0209 /scratch/ravanelm/exp/dirha/fbank/raw_fbank_tr05_cont.2.ark:26259689
01uc020x /scratch/ravanelm/exp/dirha/fbank/raw_fbank_tr05_cont.2.ark:14123789
407c0211 /scratch/ravanelm/exp/dirha/fbank/raw_fbank_tr05_cont.4.ark:122839
02cc0206 /scratch/ravanelm/exp/dirha/fbank/raw_fbank_tr05_cont.2.ark:49404129
40eo030c /scratch/ravanelm/exp/dirha/fbank/raw_fbank_tr05_cont.4.ark:20993569
028c020g /scratch/ravanelm/exp/dirha/fbank/raw_fbank_tr05_cont.2.ark:40124799
209o010e /scratch/ravanelm/exp/dirha/fbank/raw_fbank_tr05_cont.3.ark:10338839
02bc020i /scratch/ravanelm/exp/dirha/fbank/raw_fbank_tr05_cont.2.ark:46522829
026o030s /scratch/ravanelm/exp/dirha/fbank/raw_fbank_tr05_cont.2.ark:35961799
40nc020b /scratch/ravanelm/exp/dirha/fbank/raw_fbank_tr05_cont.4.ark:48332209
01jc0207 /scratch/ravanelm/exp/dirha/fbank/raw_fbank_tr05_cont.1.ark:43206269
40jc020s /scratch/ravanelm/exp/dirha/fbank/raw_fbank_tr05_cont.4.ark:35851729
018o030u /scratch/ravanelm/exp/dirha/fbank/raw_fbank_tr05_cont.1.ark:20289099
016c020c /scratch/ravanelm/exp/dirha/fbank/raw_fbank_tr05_cont.1.ark:12583009
40ko030u /scratch/ravanelm/exp/dirha/fbank/raw_fbank_tr05_cont.4.ark:40634259
409o030n /scratch/ravanelm/exp/dirha/fbank/raw_fbank_tr05_cont.4.ark:6973539
40do031a /scratch/ravanelm/exp/dirha/fbank/raw_fbank_tr05_cont.4.ark:19303729
401o0316 /scratch/ravanelm/exp/dirha/fbank/raw_fbank_tr05_cont.3.ark:42567309
409c020e /scratch/ravanelm/exp/dirha/fbank/raw_fbank_tr05_cont.4.ark:5233389
01lc020v /scratch/ravanelm/exp/dirha/fbank/raw_fbank_tr05_cont.1.ark:51231539
207o010d /scratch/ravanelm/exp/dirha/fbank/raw_fbank_tr05_cont.3.ark:7082289
20no010b /scratch/ravanelm/exp/dirha/fbank/raw_fbank_tr05_cont.3.ark:29631159
408o030g /scratch/ravanelm/exp/dirha/fbank/raw_fbank_tr05_cont.4.ark:4009369
404c0210 /scratch/ravanelm/exp/dirha/fbank/raw_fbank_tr05_cont.3.ark:46422099
20fc0101 /scratch/ravanelm/exp/dirha/fbank/raw_fbank_tr05_cont.3.ark:19274709
40pc020l /scratch/ravanelm/exp/dirha/fbank/raw_fbank_tr05_cont.4.ark:51848899
01uo0302 /scratch/ravanelm/exp/dirha/fbank/raw_fbank_tr05_cont.2.ark:14798949
015o0306 /scratch/ravanelm/exp/dirha/fbank/raw_fbank_tr05_cont.1.ark:10952009
40gc020z /scratch/ravanelm/exp/dirha/fbank/raw_fbank_tr05_cont.4.ark:26317949
01lc021a /scratch/ravanelm/exp/dirha/fbank/raw_fbank_tr05_cont.1.ark:51693309
20nc0104 /scratch/ravanelm/exp/dirha/fbank/raw_fbank_tr05_cont.3.ark:28539959
02eo0301 /scratch/ravanelm/exp/dirha/fbank/raw_fbank_tr05_cont.2.ark:53847739
027c0207 /scratch/ravanelm/exp/dirha/fbank/raw_fbank_tr05_cont.2.ark:36817289
40co030s /scratch/ravanelm/exp/dirha/fbank/raw_fbank_tr05_cont.4.ark:15876669
026c021b /scratch/ravanelm/exp/dirha/fbank/raw_fbank_tr05_cont.2.ark:34974569
01fc021e /scratch/ravanelm/exp/dirha/fbank/raw_fbank_tr05_cont.1.ark:34726519
403o030j /scratch/ravanelm/exp/dirha/fbank/raw_fbank_tr05_cont.3.ark:44664299
027o030l /scratch/ravanelm/exp/dirha/fbank/raw_fbank_tr05_cont.2.ark:38845779
40gc020i /scratch/ravanelm/exp/dirha/fbank/raw_fbank_tr05_cont.4.ark:25787479
40kc0204 /scratch/ravanelm/exp/dirha/fbank/raw_fbank_tr05_cont.4.ark:38343279
40ec0209 /scratch/ravanelm/exp/dirha/fbank/raw_fbank_tr05_cont.4.ark:19601889
40do030v /scratch/ravanelm/exp/dirha/fbank/raw_fbank_tr05_cont.4.ark:18859599
40hc020c /scratch/ravanelm/exp/dirha/fbank/raw_fbank_tr05_cont.4.ark:29436889
20ho0104 /scratch/ravanelm/exp/dirha/fbank/raw_fbank_tr05_cont.3.ark:22690319
408c020m /scratch/ravanelm/exp/dirha/fbank/raw_fbank_tr05_cont.4.ark:2907709
01mo030d /scratch/ravanelm/exp/dirha/fbank/raw_fbank_tr05_cont.1.ark:55798929
209o010m /scratch/ravanelm/exp/dirha/fbank/raw_fbank_tr05_cont.3.ark:10582359
01bo0312 /scratch/ravanelm/exp/dirha/fbank/raw_fbank_tr05_cont.1.ark:26985259
01ec0213 /scratch/ravanelm/exp/dirha/fbank/raw_fbank_tr05_cont.1.ark:31471529
016c020i /scratch/ravanelm/exp/dirha/fbank/raw_fbank_tr05_cont.1.ark:12752629
20bo0108 /scratch/ravanelm/exp/dirha/fbank/raw_fbank_tr05_cont.3.ark:13413709
20ic0104 /scratch/ravanelm/exp/dirha/fbank/raw_fbank_tr05_cont.3.ark:23461709
40lc020k /scratch/ravanelm/exp/dirha/fbank/raw_fbank_tr05_cont.4.ark:41900719
019o0302 /scratch/ravanelm/exp/dirha/fbank/raw_fbank_tr05_cont.1.ark:22419009
01uo030l /scratch/ravanelm/exp/dirha/fbank/raw_fbank_tr05_cont.2.ark:15460479
02cc0217 /scratch/ravanelm/exp/dirha/fbank/raw_fbank_tr05_cont.2.ark:50305069
01dc020x /scratch/ravanelm/exp/dirha/fbank/raw_fbank_tr05_cont.1.ark:28272309
406o0308 /scratch/ravanelm/exp/dirha/fbank/raw_fbank_tr05_cont.3.ark:52452819
01go0315 /scratch/ravanelm/exp/dirha/fbank/raw_fbank_tr05_cont.1.ark:39199109
40bc0208 /scratch/ravanelm/exp/dirha/fbank/raw_fbank_tr05_cont.4.ark:11089069
019c0203 /scratch/ravanelm/exp/dirha/fbank/raw_fbank_tr05_cont.1.ark:21130249
019c021e /scratch/ravanelm/exp/dirha/fbank/raw_fbank_tr05_cont.1.ark:22324299
01zo030y /scratch/ravanelm/exp/dirha/fbank/raw_fbank_tr05_cont.2.ark:25457199
01io030e /scratch/ravanelm/exp/dirha/fbank/raw_fbank_tr05_cont.1.ark:41693229
026o0306 /scratch/ravanelm/exp/dirha/fbank/raw_fbank_tr05_cont.2.ark:35300259
40gc0214 /scratch/ravanelm/exp/dirha/fbank/raw_fbank_tr05_cont.4.ark:26570379
40no031b /scratch/ravanelm/exp/dirha/fbank/raw_fbank_tr05_cont.4.ark:51298489
406o0302 /scratch/ravanelm/exp/dirha/fbank/raw_fbank_tr05_cont.3.ark:52255759
40gc021c /scratch/ravanelm/exp/dirha/fbank/raw_fbank_tr05_cont.4.ark:26841659
01zo030g /scratch/ravanelm/exp/dirha/fbank/raw_fbank_tr05_cont.2.ark:24620259
01eo030x /scratch/ravanelm/exp/dirha/fbank/raw_fbank_tr05_cont.1.ark:32781129
02co0310 /scratch/ravanelm/exp/dirha/fbank/raw_fbank_tr05_cont.2.ark:51662669
40io0303 /scratch/ravanelm/exp/dirha/fbank/raw_fbank_tr05_cont.4.ark:33602069
01po0313 /scratch/ravanelm/exp/dirha/fbank/raw_fbank_tr05_cont.2.ark:3308669
01ec020w /scratch/ravanelm/exp/dirha/fbank/raw_fbank_tr05_cont.1.ark:31248879
20mc0107 /scratch/ravanelm/exp/dirha/fbank/raw_fbank_tr05_cont.3.ark:27149419
403o030e /scratch/ravanelm/exp/dirha/fbank/raw_fbank_tr05_cont.3.ark:44536549
40ac020r /scratch/ravanelm/exp/dirha/fbank/raw_fbank_tr05_cont.4.ark:8650009
40jc020e /scratch/ravanelm/exp/dirha/fbank/raw_fbank_tr05_cont.4.ark:35449069
20hc010a /scratch/ravanelm/exp/dirha/fbank/raw_fbank_tr05_cont.3.ark:22266119
01bo030u /scratch/ravanelm/exp/dirha/fbank/raw_fbank_tr05_cont.1.ark:26660579
01jc020p /scratch/ravanelm/exp/dirha/fbank/raw_fbank_tr05_cont.1.ark:43728529
016c0201 /scratch/ravanelm/exp/dirha/fbank/raw_fbank_tr05_cont.1.ark:12305679
01qc020f /scratch/ravanelm/exp/dirha/fbank/raw_fbank_tr05_cont.2.ark:4115469
20pc010n /scratch/ravanelm/exp/dirha/fbank/raw_fbank_tr05_cont.3.ark:32340579
40fo0310 /scratch/ravanelm/exp/dirha/fbank/raw_fbank_tr05_cont.4.ark:24581859
20cc0106 /scratch/ravanelm/exp/dirha/fbank/raw_fbank_tr05_cont.3.ark:14408699
20nc0102 /scratch/ravanelm/exp/dirha/fbank/raw_fbank_tr05_cont.3.ark:28483259
40io030p /scratch/ravanelm/exp/dirha/fbank/raw_fbank_tr05_cont.4.ark:34293729
408c021g /scratch/ravanelm/exp/dirha/fbank/raw_fbank_tr05_cont.4.ark:3534659
20ao010g /scratch/ravanelm/exp/dirha/fbank/raw_fbank_tr05_cont.3.ark:12024609
40cc020w /scratch/ravanelm/exp/dirha/fbank/raw_fbank_tr05_cont.4.ark:14678769
027c020n /scratch/ravanelm/exp/dirha/fbank/raw_fbank_tr05_cont.2.ark:37201449
40nc0202 /scratch/ravanelm/exp/dirha/fbank/raw_fbank_tr05_cont.4.ark:48090939
20eo010i /scratch/ravanelm/exp/dirha/fbank/raw_fbank_tr05_cont.3.ark:18927879
20hc010b /scratch/ravanelm/exp/dirha/fbank/raw_fbank_tr05_cont.3.ark:22299749
021o030o /scratch/ravanelm/exp/dirha/fbank/raw_fbank_tr05_cont.2.ark:30091559
409c0210 /scratch/ravanelm/exp/dirha/fbank/raw_fbank_tr05_cont.4.ark:5850289
408o030u /scratch/ravanelm/exp/dirha/fbank/raw_fbank_tr05_cont.4.ark:4421189
40ac0214 /scratch/ravanelm/exp/dirha/fbank/raw_fbank_tr05_cont.4.ark:9032999
01wc0205 /scratch/ravanelm/exp/dirha/fbank/raw_fbank_tr05_cont.2.ark:16741339
40bo0313 /scratch/ravanelm/exp/dirha/fbank/raw_fbank_tr05_cont.4.ark:13645939
01kc021e /scratch/ravanelm/exp/dirha/fbank/raw_fbank_tr05_cont.1.ark:48017369
013c0213 /scratch/ravanelm/exp/dirha/fbank/raw_fbank_tr05_cont.1.ark:4667099
406c021a /scratch/ravanelm/exp/dirha/fbank/raw_fbank_tr05_cont.3.ark:52095589
40bc021e /scratch/ravanelm/exp/dirha/fbank/raw_fbank_tr05_cont.4.ark:12263449
01kc020g /scratch/ravanelm/exp/dirha/fbank/raw_fbank_tr05_cont.1.ark:47012979
20no010p /scratch/ravanelm/exp/dirha/fbank/raw_fbank_tr05_cont.3.ark:30219499
40mc020e /scratch/ravanelm/exp/dirha/fbank/raw_fbank_tr05_cont.4.ark:45330949
40lc021b /scratch/ravanelm/exp/dirha/fbank/raw_fbank_tr05_cont.4.ark:42752409
40cc0210 /scratch/ravanelm/exp/dirha/fbank/raw_fbank_tr05_cont.4.ark:14772849
407o0312 /scratch/ravanelm/exp/dirha/fbank/raw_fbank_tr05_cont.4.ark:2099129
40kc020b /scratch/ravanelm/exp/dirha/fbank/raw_fbank_tr05_cont.4.ark:38547289
20oc0108 /scratch/ravanelm/exp/dirha/fbank/raw_fbank_tr05_cont.3.ark:30542599
40eo030g /scratch/ravanelm/exp/dirha/fbank/raw_fbank_tr05_cont.4.ark:21120689
40fo0318 /scratch/ravanelm/exp/dirha/fbank/raw_fbank_tr05_cont.4.ark:24859579
015c021h /scratch/ravanelm/exp/dirha/fbank/raw_fbank_tr05_cont.1.ark:10763719
021c020y /scratch/ravanelm/exp/dirha/fbank/raw_fbank_tr05_cont.2.ark:28981489
01io030h /scratch/ravanelm/exp/dirha/fbank/raw_fbank_tr05_cont.1.ark:41783679
01zo030m /scratch/ravanelm/exp/dirha/fbank/raw_fbank_tr05_cont.2.ark:24893159
20vo010f /scratch/ravanelm/exp/dirha/fbank/raw_fbank_tr05_cont.3.ark:39168379
20nc010o /scratch/ravanelm/exp/dirha/fbank/raw_fbank_tr05_cont.3.ark:29199039
015c020f /scratch/ravanelm/exp/dirha/fbank/raw_fbank_tr05_cont.1.ark:9862939
028o030r /scratch/ravanelm/exp/dirha/fbank/raw_fbank_tr05_cont.2.ark:42066579
028o0315 /scratch/ravanelm/exp/dirha/fbank/raw_fbank_tr05_cont.2.ark:42541799
40io0317 /scratch/ravanelm/exp/dirha/fbank/raw_fbank_tr05_cont.4.ark:34923389
408o0318 /scratch/ravanelm/exp/dirha/fbank/raw_fbank_tr05_cont.4.ark:4774409
40ho030r /scratch/ravanelm/exp/dirha/fbank/raw_fbank_tr05_cont.4.ark:31263709
01to030y /scratch/ravanelm/exp/dirha/fbank/raw_fbank_tr05_cont.2.ark:12444059
208o0101 /scratch/ravanelm/exp/dirha/fbank/raw_fbank_tr05_cont.3.ark:8351579
01do0305 /scratch/ravanelm/exp/dirha/fbank/raw_fbank_tr05_cont.1.ark:28938919
02eo030v /scratch/ravanelm/exp/dirha/fbank/raw_fbank_tr05_cont.3.ark:328639
02bc020p /scratch/ravanelm/exp/dirha/fbank/raw_fbank_tr05_cont.2.ark:46701479
403c0210 /scratch/ravanelm/exp/dirha/fbank/raw_fbank_tr05_cont.3.ark:43638119
01dc020o /scratch/ravanelm/exp/dirha/fbank/raw_fbank_tr05_cont.1.ark:28046079
40lo0310 /scratch/ravanelm/exp/dirha/fbank/raw_fbank_tr05_cont.4.ark:44438969
01uo030q /scratch/ravanelm/exp/dirha/fbank/raw_fbank_tr05_cont.2.ark:15646709
40ao030u /scratch/ravanelm/exp/dirha/fbank/raw_fbank_tr05_cont.4.ark:10237799
20ic010b /scratch/ravanelm/exp/dirha/fbank/raw_fbank_tr05_cont.3.ark:23678639
40nc021a /scratch/ravanelm/exp/dirha/fbank/raw_fbank_tr05_cont.4.ark:49409579
027o030x /scratch/ravanelm/exp/dirha/fbank/raw_fbank_tr05_cont.2.ark:39271219
015c020s /scratch/ravanelm/exp/dirha/fbank/raw_fbank_tr05_cont.1.ark:10193609
01qo030f /scratch/ravanelm/exp/dirha/fbank/raw_fbank_tr05_cont.2.ark:5523529
01ko0301 /scratch/ravanelm/exp/dirha/fbank/raw_fbank_tr05_cont.1.ark:48055839
01eo031b /scratch/ravanelm/exp/dirha/fbank/raw_fbank_tr05_cont.1.ark:33262349
01qc021a /scratch/ravanelm/exp/dirha/fbank/raw_fbank_tr05_cont.2.ark:4867879
20vo0107 /scratch/ravanelm/exp/dirha/fbank/raw_fbank_tr05_cont.3.ark:38924539
20fo010n /scratch/ravanelm/exp/dirha/fbank/raw_fbank_tr05_cont.3.ark:20648629
026o030f /scratch/ravanelm/exp/dirha/fbank/raw_fbank_tr05_cont.2.ark:35548809
20bo0107 /scratch/ravanelm/exp/dirha/fbank/raw_fbank_tr05_cont.3.ark:13353359
01rc0202 /scratch/ravanelm/exp/dirha/fbank/raw_fbank_tr05_cont.2.ark:6782379
01uo030j /scratch/ravanelm/exp/dirha/fbank/raw_fbank_tr05_cont.2.ark:15387379
01ec0218 /scratch/ravanelm/exp/dirha/fbank/raw_fbank_tr05_cont.1.ark:31670959
40co0312 /scratch/ravanelm/exp/dirha/fbank/raw_fbank_tr05_cont.4.ark:16098409
20gc010k /scratch/ravanelm/exp/dirha/fbank/raw_fbank_tr05_cont.3.ark:21201049
011o030o /scratch/ravanelm/exp/dirha/fbank/raw_fbank_tr05_cont.1.ark:2326599
408o030y /scratch/ravanelm/exp/dirha/fbank/raw_fbank_tr05_cont.4.ark:4512869
01ro030m /scratch/ravanelm/exp/dirha/fbank/raw_fbank_tr05_cont.2.ark:8842499
01fo0317 /scratch/ravanelm/exp/dirha/fbank/raw_fbank_tr05_cont.1.ark:36149429
405c0204 /scratch/ravanelm/exp/dirha/fbank/raw_fbank_tr05_cont.3.ark:48320619
403c020r /scratch/ravanelm/exp/dirha/fbank/raw_fbank_tr05_cont.3.ark:43452329
01eo0310 /scratch/ravanelm/exp/dirha/fbank/raw_fbank_tr05_cont.1.ark:32892139
403o0316 /scratch/ravanelm/exp/dirha/fbank/raw_fbank_tr05_cont.3.ark:45385229
01to030d /scratch/ravanelm/exp/dirha/fbank/raw_fbank_tr05_cont.2.ark:11706109
20rc0107 /scratch/ravanelm/exp/dirha/fbank/raw_fbank_tr05_cont.3.ark:35200279
014c021h /scratch/ravanelm/exp/dirha/fbank/raw_fbank_tr05_cont.1.ark:7754339
017o0310 /scratch/ravanelm/exp/dirha/fbank/raw_fbank_tr05_cont.1.ark:17162219
024o0301 /scratch/ravanelm/exp/dirha/fbank/raw_fbank_tr05_cont.2.ark:32298459
01ic020w /scratch/ravanelm/exp/dirha/fbank/raw_fbank_tr05_cont.1.ark:40617319
205o0107 /scratch/ravanelm/exp/dirha/fbank/raw_fbank_tr05_cont.3.ark:3343859
01qc0210 /scratch/ravanelm/exp/dirha/fbank/raw_fbank_tr05_cont.2.ark:4591499
024c021b /scratch/ravanelm/exp/dirha/fbank/raw_fbank_tr05_cont.2.ark:32213579
01po030i /scratch/ravanelm/exp/dirha/fbank/raw_fbank_tr05_cont.2.ark:2496759
01jc020i /scratch/ravanelm/exp/dirha/fbank/raw_fbank_tr05_cont.1.ark:43535039
40pc020s /scratch/ravanelm/exp/dirha/fbank/raw_fbank_tr05_cont.4.ark:51996949
407o0307 /scratch/ravanelm/exp/dirha/fbank/raw_fbank_tr05_cont.4.ark:871519
20oo0105 /scratch/ravanelm/exp/dirha/fbank/raw_fbank_tr05_cont.3.ark:31029949
20pc010b /scratch/ravanelm/exp/dirha/fbank/raw_fbank_tr05_cont.3.ark:32043979
404o030v /scratch/ravanelm/exp/dirha/fbank/raw_fbank_tr05_cont.3.ark:47741519
027o0315 /scratch/ravanelm/exp/dirha/fbank/raw_fbank_tr05_cont.2.ark:39578419
013o0314 /scratch/ravanelm/exp/dirha/fbank/raw_fbank_tr05_cont.1.ark:6166179
029o0302 /scratch/ravanelm/exp/dirha/fbank/raw_fbank_tr05_cont.2.ark:44317459
01zc021c /scratch/ravanelm/exp/dirha/fbank/raw_fbank_tr05_cont.2.ark:23975689
01mc0204 /scratch/ravanelm/exp/dirha/fbank/raw_fbank_tr05_cont.1.ark:54163599
401c0208 /scratch/ravanelm/exp/dirha/fbank/raw_fbank_tr05_cont.3.ark:39801429
20hc010l /scratch/ravanelm/exp/dirha/fbank/raw_fbank_tr05_cont.3.ark:22473169
20tc010b /scratch/ravanelm/exp/dirha/fbank/raw_fbank_tr05_cont.3.ark:36968939
20hc0102 /scratch/ravanelm/exp/dirha/fbank/raw_fbank_tr05_cont.3.ark:22118759
408c020n /scratch/ravanelm/exp/dirha/fbank/raw_fbank_tr05_cont.4.ark:2926459
027o030q /scratch/ravanelm/exp/dirha/fbank/raw_fbank_tr05_cont.2.ark:39001529
20rc010i /scratch/ravanelm/exp/dirha/fbank/raw_fbank_tr05_cont.3.ark:35509009
40ic020q /scratch/ravanelm/exp/dirha/fbank/raw_fbank_tr05_cont.4.ark:32829869
40go030h /scratch/ravanelm/exp/dirha/fbank/raw_fbank_tr05_cont.4.ark:27649859
40lc020m /scratch/ravanelm/exp/dirha/fbank/raw_fbank_tr05_cont.4.ark:41978899
01bc020s /scratch/ravanelm/exp/dirha/fbank/raw_fbank_tr05_cont.1.ark:24734309
015c0217 /scratch/ravanelm/exp/dirha/fbank/raw_fbank_tr05_cont.1.ark:10537859
017o0308 /scratch/ravanelm/exp/dirha/fbank/raw_fbank_tr05_cont.1.ark:16297139
028c0218 /scratch/ravanelm/exp/dirha/fbank/raw_fbank_tr05_cont.2.ark:40859679
40po030g /scratch/ravanelm/exp/dirha/fbank/raw_fbank_tr05_cont.4.ark:53095039
018c020t /scratch/ravanelm/exp/dirha/fbank/raw_fbank_tr05_cont.1.ark:18426109
01gc020t /scratch/ravanelm/exp/dirha/fbank/raw_fbank_tr05_cont.1.ark:37184689
018c020q /scratch/ravanelm/exp/dirha/fbank/raw_fbank_tr05_cont.1.ark:18345939
20ao010b /scratch/ravanelm/exp/dirha/fbank/raw_fbank_tr05_cont.3.ark:11812939
01ec0209 /scratch/ravanelm/exp/dirha/fbank/raw_fbank_tr05_cont.1.ark:30654509
029c021d /scratch/ravanelm/exp/dirha/fbank/raw_fbank_tr05_cont.2.ark:44162909
40ho030u /scratch/ravanelm/exp/dirha/fbank/raw_fbank_tr05_cont.4.ark:31358439
40jo030r /scratch/ravanelm/exp/dirha/fbank/raw_fbank_tr05_cont.4.ark:37437199
01gc0209 /scratch/ravanelm/exp/dirha/fbank/raw_fbank_tr05_cont.1.ark:36623249
40bc0216 /scratch/ravanelm/exp/dirha/fbank/raw_fbank_tr05_cont.4.ark:12020889
40cc020c /scratch/ravanelm/exp/dirha/fbank/raw_fbank_tr05_cont.4.ark:14236089
401c021d /scratch/ravanelm/exp/dirha/fbank/raw_fbank_tr05_cont.3.ark:41006899
024o030g /scratch/ravanelm/exp/dirha/fbank/raw_fbank_tr05_cont.2.ark:32799549
021o0316 /scratch/ravanelm/exp/dirha/fbank/raw_fbank_tr05_cont.2.ark:30646419
027c020z /scratch/ravanelm/exp/dirha/fbank/raw_fbank_tr05_cont.2.ark:37477089
02cc0202 /scratch/ravanelm/exp/dirha/fbank/raw_fbank_tr05_cont.2.ark:49266009
029o031b /scratch/ravanelm/exp/dirha/fbank/raw_fbank_tr05_cont.2.ark:45890409
20lo010k /scratch/ravanelm/exp/dirha/fbank/raw_fbank_tr05_cont.3.ark:26713909
028c0213 /scratch/ravanelm/exp/dirha/fbank/raw_fbank_tr05_cont.2.ark:40712369
40fc021b /scratch/ravanelm/exp/dirha/fbank/raw_fbank_tr05_cont.4.ark:23333549
20ao010e /scratch/ravanelm/exp/dirha/fbank/raw_fbank_tr05_cont.3.ark:11943509
029o031d /scratch/ravanelm/exp/dirha/fbank/raw_fbank_tr05_cont.2.ark:45929389
20gc010j /scratch/ravanelm/exp/dirha/fbank/raw_fbank_tr05_cont.3.ark:21162779
01lo030f /scratch/ravanelm/exp/dirha/fbank/raw_fbank_tr05_cont.1.ark:52538309
01gc020b /scratch/ravanelm/exp/dirha/fbank/raw_fbank_tr05_cont.1.ark:36667509
028c020s /scratch/ravanelm/exp/dirha/fbank/raw_fbank_tr05_cont.2.ark:40441759
40lc0205 /scratch/ravanelm/exp/dirha/fbank/raw_fbank_tr05_cont.4.ark:41458549
20oo010j /scratch/ravanelm/exp/dirha/fbank/raw_fbank_tr05_cont.3.ark:31472529
207o0106 /scratch/ravanelm/exp/dirha/fbank/raw_fbank_tr05_cont.3.ark:6817999
02bo0302 /scratch/ravanelm/exp/dirha/fbank/raw_fbank_tr05_cont.2.ark:47477559
40jc020q /scratch/ravanelm/exp/dirha/fbank/raw_fbank_tr05_cont.4.ark:35780549
028o031c /scratch/ravanelm/exp/dirha/fbank/raw_fbank_tr05_cont.2.ark:42794929
02co030c /scratch/ravanelm/exp/dirha/fbank/raw_fbank_tr05_cont.2.ark:50867029
021o030f /scratch/ravanelm/exp/dirha/fbank/raw_fbank_tr05_cont.2.ark:29782729
40gc021a /scratch/ravanelm/exp/dirha/fbank/raw_fbank_tr05_cont.4.ark:26767679
208c010l /scratch/ravanelm/exp/dirha/fbank/raw_fbank_tr05_cont.3.ark:8209109
01yo0316 /scratch/ravanelm/exp/dirha/fbank/raw_fbank_tr05_cont.2.ark:22350509
01io030n /scratch/ravanelm/exp/dirha/fbank/raw_fbank_tr05_cont.1.ark:42016339
40bo030s /scratch/ravanelm/exp/dirha/fbank/raw_fbank_tr05_cont.4.ark:13320429
01wc020u /scratch/ravanelm/exp/dirha/fbank/raw_fbank_tr05_cont.2.ark:17461169
01to031d /scratch/ravanelm/exp/dirha/fbank/raw_fbank_tr05_cont.2.ark:12960029
01bc0207 /scratch/ravanelm/exp/dirha/fbank/raw_fbank_tr05_cont.1.ark:23972069
209o0104 /scratch/ravanelm/exp/dirha/fbank/raw_fbank_tr05_cont.3.ark:10019259
20mc010g /scratch/ravanelm/exp/dirha/fbank/raw_fbank_tr05_cont.3.ark:27395369
018c0204 /scratch/ravanelm/exp/dirha/fbank/raw_fbank_tr05_cont.1.ark:17731479
01eo0305 /scratch/ravanelm/exp/dirha/fbank/raw_fbank_tr05_cont.1.ark:31985849
01uo030e /scratch/ravanelm/exp/dirha/fbank/raw_fbank_tr05_cont.2.ark:15219509
026c020n /scratch/ravanelm/exp/dirha/fbank/raw_fbank_tr05_cont.2.ark:34419689
40lo030n /scratch/ravanelm/exp/dirha/fbank/raw_fbank_tr05_cont.4.ark:43770579
028o030q /scratch/ravanelm/exp/dirha/fbank/raw_fbank_tr05_cont.2.ark:42029749
20ho010h /scratch/ravanelm/exp/dirha/fbank/raw_fbank_tr05_cont.3.ark:23108629
021c020l /scratch/ravanelm/exp/dirha/fbank/raw_fbank_tr05_cont.2.ark:28611459
40ec020v /scratch/ravanelm/exp/dirha/fbank/raw_fbank_tr05_cont.4.ark:20075429
40gc020s /scratch/ravanelm/exp/dirha/fbank/raw_fbank_tr05_cont.4.ark:26062619
01tc020c /scratch/ravanelm/exp/dirha/fbank/raw_fbank_tr05_cont.2.ark:9997109
406c021c /scratch/ravanelm/exp/dirha/fbank/raw_fbank_tr05_cont.3.ark:52127849
20bo010m /scratch/ravanelm/exp/dirha/fbank/raw_fbank_tr05_cont.3.ark:14016369
20do010a /scratch/ravanelm/exp/dirha/fbank/raw_fbank_tr05_cont.3.ark:16857229
01wo030j /scratch/ravanelm/exp/dirha/fbank/raw_fbank_tr05_cont.2.ark:18563339
40io030c /scratch/ravanelm/exp/dirha/fbank/raw_fbank_tr05_cont.4.ark:33865019
017o0305 /scratch/ravanelm/exp/dirha/fbank/raw_fbank_tr05_cont.1.ark:16214249
403c020i /scratch/ravanelm/exp/dirha/fbank/raw_fbank_tr05_cont.3.ark:43230859
204o0103 /scratch/ravanelm/exp/dirha/fbank/raw_fbank_tr05_cont.3.ark:1641969
40no0312 /scratch/ravanelm/exp/dirha/fbank/raw_fbank_tr05_cont.4.ark:50910899
40no0314 /scratch/ravanelm/exp/dirha/fbank/raw_fbank_tr05_cont.4.ark:50998919
40hc020i /scratch/ravanelm/exp/dirha/fbank/raw_fbank_tr05_cont.4.ark:29550309
016o030c /scratch/ravanelm/exp/dirha/fbank/raw_fbank_tr05_cont.1.ark:13711719
40jo030o /scratch/ravanelm/exp/dirha/fbank/raw_fbank_tr05_cont.4.ark:37339429
01jo0316 /scratch/ravanelm/exp/dirha/fbank/raw_fbank_tr05_cont.1.ark:46200439
01mo0318 /scratch/ravanelm/exp/dirha/fbank/raw_fbank_tr05_cont.2.ark:208109
01mc020s /scratch/ravanelm/exp/dirha/fbank/raw_fbank_tr05_cont.1.ark:54742449
01jo0302 /scratch/ravanelm/exp/dirha/fbank/raw_fbank_tr05_cont.1.ark:44627399
01ro030e /scratch/ravanelm/exp/dirha/fbank/raw_fbank_tr05_cont.2.ark:8513979
011c0217 /scratch/ravanelm/exp/dirha/fbank/raw_fbank_tr05_cont.1.ark:1185709
01dc021e /scratch/ravanelm/exp/dirha/fbank/raw_fbank_tr05_cont.1.ark:28731059
404c020z /scratch/ravanelm/exp/dirha/fbank/raw_fbank_tr05_cont.3.ark:46390829
40do0309 /scratch/ravanelm/exp/dirha/fbank/raw_fbank_tr05_cont.4.ark:18168739
01ro0313 /scratch/ravanelm/exp/dirha/fbank/raw_fbank_tr05_cont.2.ark:9362489
013o030a /scratch/ravanelm/exp/dirha/fbank/raw_fbank_tr05_cont.1.ark:5226119
01kc020f /scratch/ravanelm/exp/dirha/fbank/raw_fbank_tr05_cont.1.ark:46968869
018o0302 /scratch/ravanelm/exp/dirha/fbank/raw_fbank_tr05_cont.1.ark:19229539
01kc0219 /scratch/ravanelm/exp/dirha/fbank/raw_fbank_tr05_cont.1.ark:47858779
01gc0203 /scratch/ravanelm/exp/dirha/fbank/raw_fbank_tr05_cont.1.ark:36450669
01yo030g /scratch/ravanelm/exp/dirha/fbank/raw_fbank_tr05_cont.2.ark:21416689
