406o030c /scratch/ravanelm/exp/dirha/fbank/raw_fbank_tr05_cont.3.ark:52523579
206o0101 /scratch/ravanelm/exp/dirha/fbank/raw_fbank_tr05_cont.3.ark:4777869
01wc0214 /scratch/ravanelm/exp/dirha/fbank/raw_fbank_tr05_cont.2.ark:17718349
01rc0214 /scratch/ravanelm/exp/dirha/fbank/raw_fbank_tr05_cont.2.ark:7891359
01ec020q /scratch/ravanelm/exp/dirha/fbank/raw_fbank_tr05_cont.1.ark:31089179
20fo0105 /scratch/ravanelm/exp/dirha/fbank/raw_fbank_tr05_cont.3.ark:20094889
20ac010f /scratch/ravanelm/exp/dirha/fbank/raw_fbank_tr05_cont.3.ark:11145699
014c020p /scratch/ravanelm/exp/dirha/fbank/raw_fbank_tr05_cont.1.ark:7081659
401o031b /scratch/ravanelm/exp/dirha/fbank/raw_fbank_tr05_cont.3.ark:42776099
01do0311 /scratch/ravanelm/exp/dirha/fbank/raw_fbank_tr05_cont.1.ark:29928739
020c020e /scratch/ravanelm/exp/dirha/fbank/raw_fbank_tr05_cont.2.ark:26372639
01qo0314 /scratch/ravanelm/exp/dirha/fbank/raw_fbank_tr05_cont.2.ark:6351999
204o010d /scratch/ravanelm/exp/dirha/fbank/raw_fbank_tr05_cont.3.ark:1928509
40jc020b /scratch/ravanelm/exp/dirha/fbank/raw_fbank_tr05_cont.4.ark:35372979
01mo031c /scratch/ravanelm/exp/dirha/fbank/raw_fbank_tr05_cont.2.ark:331949
40gc020m /scratch/ravanelm/exp/dirha/fbank/raw_fbank_tr05_cont.4.ark:25924319
01wo030p /scratch/ravanelm/exp/dirha/fbank/raw_fbank_tr05_cont.2.ark:18713489
206o0103 /scratch/ravanelm/exp/dirha/fbank/raw_fbank_tr05_cont.3.ark:4869369
013c020r /scratch/ravanelm/exp/dirha/fbank/raw_fbank_tr05_cont.1.ark:4374899
01bc0208 /scratch/ravanelm/exp/dirha/fbank/raw_fbank_tr05_cont.1.ark:24023539
021o030n /scratch/ravanelm/exp/dirha/fbank/raw_fbank_tr05_cont.2.ark:30048369
401o030m /scratch/ravanelm/exp/dirha/fbank/raw_fbank_tr05_cont.3.ark:41879819
01jc0207 /scratch/ravanelm/exp/dirha/fbank/raw_fbank_tr05_cont.1.ark:43206269
204c010k /scratch/ravanelm/exp/dirha/fbank/raw_fbank_tr05_cont.3.ark:1459729
409c020o /scratch/ravanelm/exp/dirha/fbank/raw_fbank_tr05_cont.4.ark:5512089
01qo031g /scratch/ravanelm/exp/dirha/fbank/raw_fbank_tr05_cont.2.ark:6705959
029o030p /scratch/ravanelm/exp/dirha/fbank/raw_fbank_tr05_cont.2.ark:45098029
40pc021e /scratch/ravanelm/exp/dirha/fbank/raw_fbank_tr05_cont.4.ark:52542449
01yc020c /scratch/ravanelm/exp/dirha/fbank/raw_fbank_tr05_cont.2.ark:19833449
01mo030p /scratch/ravanelm/exp/dirha/fbank/raw_fbank_tr05_cont.1.ark:56112369
40eo0302 /scratch/ravanelm/exp/dirha/fbank/raw_fbank_tr05_cont.4.ark:20675229
01rc0219 /scratch/ravanelm/exp/dirha/fbank/raw_fbank_tr05_cont.2.ark:7982589
20fc010o /scratch/ravanelm/exp/dirha/fbank/raw_fbank_tr05_cont.3.ark:19885799
016c0210 /scratch/ravanelm/exp/dirha/fbank/raw_fbank_tr05_cont.1.ark:13128419
01go0309 /scratch/ravanelm/exp/dirha/fbank/raw_fbank_tr05_cont.1.ark:38107189
011o0310 /scratch/ravanelm/exp/dirha/fbank/raw_fbank_tr05_cont.1.ark:2759239
017c0214 /scratch/ravanelm/exp/dirha/fbank/raw_fbank_tr05_cont.1.ark:15723099
40jc020s /scratch/ravanelm/exp/dirha/fbank/raw_fbank_tr05_cont.4.ark:35851729
01eo0301 /scratch/ravanelm/exp/dirha/fbank/raw_fbank_tr05_cont.1.ark:31875969
404o031d /scratch/ravanelm/exp/dirha/fbank/raw_fbank_tr05_cont.3.ark:48216419
401o0316 /scratch/ravanelm/exp/dirha/fbank/raw_fbank_tr05_cont.3.ark:42567309
01zc0202 /scratch/ravanelm/exp/dirha/fbank/raw_fbank_tr05_cont.2.ark:22615229
40do0310 /scratch/ravanelm/exp/dirha/fbank/raw_fbank_tr05_cont.4.ark:19034869
01ko0304 /scratch/ravanelm/exp/dirha/fbank/raw_fbank_tr05_cont.1.ark:48227569
40cc020e /scratch/ravanelm/exp/dirha/fbank/raw_fbank_tr05_cont.4.ark:14297749
40lc020x /scratch/ravanelm/exp/dirha/fbank/raw_fbank_tr05_cont.4.ark:42263549
018o0316 /scratch/ravanelm/exp/dirha/fbank/raw_fbank_tr05_cont.1.ark:20816339
40po030v /scratch/ravanelm/exp/dirha/fbank/raw_fbank_tr05_cont.4.ark:53626209
01yo030a /scratch/ravanelm/exp/dirha/fbank/raw_fbank_tr05_cont.2.ark:21229149
20tc010n /scratch/ravanelm/exp/dirha/fbank/raw_fbank_tr05_cont.3.ark:37322499
405c0207 /scratch/ravanelm/exp/dirha/fbank/raw_fbank_tr05_cont.3.ark:48408309
028c020x /scratch/ravanelm/exp/dirha/fbank/raw_fbank_tr05_cont.2.ark:40554149
40ho030i /scratch/ravanelm/exp/dirha/fbank/raw_fbank_tr05_cont.4.ark:30984039
01yo030h /scratch/ravanelm/exp/dirha/fbank/raw_fbank_tr05_cont.2.ark:21452319
01qc020l /scratch/ravanelm/exp/dirha/fbank/raw_fbank_tr05_cont.2.ark:4315339
018o0309 /scratch/ravanelm/exp/dirha/fbank/raw_fbank_tr05_cont.1.ark:19461149
01eo030i /scratch/ravanelm/exp/dirha/fbank/raw_fbank_tr05_cont.1.ark:32317359
01ko031e /scratch/ravanelm/exp/dirha/fbank/raw_fbank_tr05_cont.1.ark:50079109
01jo0310 /scratch/ravanelm/exp/dirha/fbank/raw_fbank_tr05_cont.1.ark:45916339
01tc020m /scratch/ravanelm/exp/dirha/fbank/raw_fbank_tr05_cont.2.ark:10346649
401o0313 /scratch/ravanelm/exp/dirha/fbank/raw_fbank_tr05_cont.3.ark:42416179
027o030z /scratch/ravanelm/exp/dirha/fbank/raw_fbank_tr05_cont.2.ark:39360359
01yc0208 /scratch/ravanelm/exp/dirha/fbank/raw_fbank_tr05_cont.2.ark:19708929
209o010j /scratch/ravanelm/exp/dirha/fbank/raw_fbank_tr05_cont.3.ark:10486829
406c020v /scratch/ravanelm/exp/dirha/fbank/raw_fbank_tr05_cont.3.ark:51677979
40nc021e /scratch/ravanelm/exp/dirha/fbank/raw_fbank_tr05_cont.4.ark:49502139
209c010j /scratch/ravanelm/exp/dirha/fbank/raw_fbank_tr05_cont.3.ark:9708849
207o0106 /scratch/ravanelm/exp/dirha/fbank/raw_fbank_tr05_cont.3.ark:6817999
018o0317 /scratch/ravanelm/exp/dirha/fbank/raw_fbank_tr05_cont.1.ark:20839609
01gc0210 /scratch/ravanelm/exp/dirha/fbank/raw_fbank_tr05_cont.1.ark:37364499
017o030s /scratch/ravanelm/exp/dirha/fbank/raw_fbank_tr05_cont.1.ark:16929459
40fc020r /scratch/ravanelm/exp/dirha/fbank/raw_fbank_tr05_cont.4.ark:22738469
01ko0313 /scratch/ravanelm/exp/dirha/fbank/raw_fbank_tr05_cont.1.ark:49642779
20rc010d /scratch/ravanelm/exp/dirha/fbank/raw_fbank_tr05_cont.3.ark:35336379
407o030u /scratch/ravanelm/exp/dirha/fbank/raw_fbank_tr05_cont.4.ark:1796049
01mc020d /scratch/ravanelm/exp/dirha/fbank/raw_fbank_tr05_cont.1.ark:54347679
40po030y /scratch/ravanelm/exp/dirha/fbank/raw_fbank_tr05_cont.4.ark:53756459
029c0203 /scratch/ravanelm/exp/dirha/fbank/raw_fbank_tr05_cont.2.ark:42920969
01uc020d /scratch/ravanelm/exp/dirha/fbank/raw_fbank_tr05_cont.2.ark:13530189
02bc0218 /scratch/ravanelm/exp/dirha/fbank/raw_fbank_tr05_cont.2.ark:47200369
01zc0218 /scratch/ravanelm/exp/dirha/fbank/raw_fbank_tr05_cont.2.ark:23867609
20vo0107 /scratch/ravanelm/exp/dirha/fbank/raw_fbank_tr05_cont.3.ark:38924539
01ro030l /scratch/ravanelm/exp/dirha/fbank/raw_fbank_tr05_cont.2.ark:8795989
401o030c /scratch/ravanelm/exp/dirha/fbank/raw_fbank_tr05_cont.3.ark:41459519
40bo0302 /scratch/ravanelm/exp/dirha/fbank/raw_fbank_tr05_cont.4.ark:12390929
01gc0205 /scratch/ravanelm/exp/dirha/fbank/raw_fbank_tr05_cont.1.ark:36507729
01bc021e /scratch/ravanelm/exp/dirha/fbank/raw_fbank_tr05_cont.1.ark:25367749
01fc020z /scratch/ravanelm/exp/dirha/fbank/raw_fbank_tr05_cont.1.ark:34296909
01uo0304 /scratch/ravanelm/exp/dirha/fbank/raw_fbank_tr05_cont.2.ark:14895689
20gc010h /scratch/ravanelm/exp/dirha/fbank/raw_fbank_tr05_cont.3.ark:21117919
40ac020a /scratch/ravanelm/exp/dirha/fbank/raw_fbank_tr05_cont.4.ark:8108259
40io030t /scratch/ravanelm/exp/dirha/fbank/raw_fbank_tr05_cont.4.ark:34403169
02bo0316 /scratch/ravanelm/exp/dirha/fbank/raw_fbank_tr05_cont.2.ark:48920479
40io0304 /scratch/ravanelm/exp/dirha/fbank/raw_fbank_tr05_cont.4.ark:33622099
40nc020j /scratch/ravanelm/exp/dirha/fbank/raw_fbank_tr05_cont.4.ark:48591529
027o0305 /scratch/ravanelm/exp/dirha/fbank/raw_fbank_tr05_cont.2.ark:38164899
024c0217 /scratch/ravanelm/exp/dirha/fbank/raw_fbank_tr05_cont.2.ark:32093259
404c0215 /scratch/ravanelm/exp/dirha/fbank/raw_fbank_tr05_cont.3.ark:46561049
207c0101 /scratch/ravanelm/exp/dirha/fbank/raw_fbank_tr05_cont.3.ark:5955109
407c021i /scratch/ravanelm/exp/dirha/fbank/raw_fbank_tr05_cont.4.ark:615549
40ec020k /scratch/ravanelm/exp/dirha/fbank/raw_fbank_tr05_cont.4.ark:19842979
40bo0319 /scratch/ravanelm/exp/dirha/fbank/raw_fbank_tr05_cont.4.ark:13830559
016c020o /scratch/ravanelm/exp/dirha/fbank/raw_fbank_tr05_cont.1.ark:12888609
01zc0210 /scratch/ravanelm/exp/dirha/fbank/raw_fbank_tr05_cont.2.ark:23604609
409o0304 /scratch/ravanelm/exp/dirha/fbank/raw_fbank_tr05_cont.4.ark:6390249
01ro030f /scratch/ravanelm/exp/dirha/fbank/raw_fbank_tr05_cont.2.ark:8547409
014c020r /scratch/ravanelm/exp/dirha/fbank/raw_fbank_tr05_cont.1.ark:7130319
01ec020o /scratch/ravanelm/exp/dirha/fbank/raw_fbank_tr05_cont.1.ark:31032559
20eo0108 /scratch/ravanelm/exp/dirha/fbank/raw_fbank_tr05_cont.3.ark:18559259
40kc0216 /scratch/ravanelm/exp/dirha/fbank/raw_fbank_tr05_cont.4.ark:39407259
01fo030e /scratch/ravanelm/exp/dirha/fbank/raw_fbank_tr05_cont.1.ark:35285639
01rc0201 /scratch/ravanelm/exp/dirha/fbank/raw_fbank_tr05_cont.2.ark:6756669
013c0210 /scratch/ravanelm/exp/dirha/fbank/raw_fbank_tr05_cont.1.ark:4582689
024o030f /scratch/ravanelm/exp/dirha/fbank/raw_fbank_tr05_cont.2.ark:32776239
207o010o /scratch/ravanelm/exp/dirha/fbank/raw_fbank_tr05_cont.3.ark:7423899
01tc0216 /scratch/ravanelm/exp/dirha/fbank/raw_fbank_tr05_cont.2.ark:11039489
40fc020y /scratch/ravanelm/exp/dirha/fbank/raw_fbank_tr05_cont.4.ark:22959599
027c020k /scratch/ravanelm/exp/dirha/fbank/raw_fbank_tr05_cont.2.ark:37146079
20rc0106 /scratch/ravanelm/exp/dirha/fbank/raw_fbank_tr05_cont.3.ark:35180969
20go0103 /scratch/ravanelm/exp/dirha/fbank/raw_fbank_tr05_cont.3.ark:21387469
208o010h /scratch/ravanelm/exp/dirha/fbank/raw_fbank_tr05_cont.3.ark:8886539
204o010a /scratch/ravanelm/exp/dirha/fbank/raw_fbank_tr05_cont.3.ark:1828339
015c020t /scratch/ravanelm/exp/dirha/fbank/raw_fbank_tr05_cont.1.ark:10208439
027c021d /scratch/ravanelm/exp/dirha/fbank/raw_fbank_tr05_cont.2.ark:37963149
019o030v /scratch/ravanelm/exp/dirha/fbank/raw_fbank_tr05_cont.1.ark:23365039
20ao010c /scratch/ravanelm/exp/dirha/fbank/raw_fbank_tr05_cont.3.ark:11869849
01to0310 /scratch/ravanelm/exp/dirha/fbank/raw_fbank_tr05_cont.2.ark:12487759
40pc0217 /scratch/ravanelm/exp/dirha/fbank/raw_fbank_tr05_cont.4.ark:52396919
02bc0210 /scratch/ravanelm/exp/dirha/fbank/raw_fbank_tr05_cont.2.ark:46977689
016o030s /scratch/ravanelm/exp/dirha/fbank/raw_fbank_tr05_cont.1.ark:14109089
01do030v /scratch/ravanelm/exp/dirha/fbank/raw_fbank_tr05_cont.1.ark:29740479
01po0302 /scratch/ravanelm/exp/dirha/fbank/raw_fbank_tr05_cont.2.ark:1985669
401c0218 /scratch/ravanelm/exp/dirha/fbank/raw_fbank_tr05_cont.3.ark:40847989
01dc020s /scratch/ravanelm/exp/dirha/fbank/raw_fbank_tr05_cont.1.ark:28114759
026c0206 /scratch/ravanelm/exp/dirha/fbank/raw_fbank_tr05_cont.2.ark:34033379
408o030e /scratch/ravanelm/exp/dirha/fbank/raw_fbank_tr05_cont.4.ark:3945869
40gc020q /scratch/ravanelm/exp/dirha/fbank/raw_fbank_tr05_cont.4.ark:26014519
01bo031a /scratch/ravanelm/exp/dirha/fbank/raw_fbank_tr05_cont.1.ark:27235549
02cc0212 /scratch/ravanelm/exp/dirha/fbank/raw_fbank_tr05_cont.2.ark:50219499
013c020t /scratch/ravanelm/exp/dirha/fbank/raw_fbank_tr05_cont.1.ark:4438919
024o0313 /scratch/ravanelm/exp/dirha/fbank/raw_fbank_tr05_cont.2.ark:33489879
20cc010m /scratch/ravanelm/exp/dirha/fbank/raw_fbank_tr05_cont.3.ark:14842539
20vo0105 /scratch/ravanelm/exp/dirha/fbank/raw_fbank_tr05_cont.3.ark:38842079
01ko0316 /scratch/ravanelm/exp/dirha/fbank/raw_fbank_tr05_cont.1.ark:49740949
40no030j /scratch/ravanelm/exp/dirha/fbank/raw_fbank_tr05_cont.4.ark:50280369
017c020y /scratch/ravanelm/exp/dirha/fbank/raw_fbank_tr05_cont.1.ark:15573879
024c020z /scratch/ravanelm/exp/dirha/fbank/raw_fbank_tr05_cont.2.ark:31874339
401o0303 /scratch/ravanelm/exp/dirha/fbank/raw_fbank_tr05_cont.3.ark:41150129
01lc021e /scratch/ravanelm/exp/dirha/fbank/raw_fbank_tr05_cont.1.ark:51845669
011o031f /scratch/ravanelm/exp/dirha/fbank/raw_fbank_tr05_cont.1.ark:3490329
028c0206 /scratch/ravanelm/exp/dirha/fbank/raw_fbank_tr05_cont.2.ark:39900379
403c0211 /scratch/ravanelm/exp/dirha/fbank/raw_fbank_tr05_cont.3.ark:43650469
01jc0209 /scratch/ravanelm/exp/dirha/fbank/raw_fbank_tr05_cont.1.ark:43268849
40fo030h /scratch/ravanelm/exp/dirha/fbank/raw_fbank_tr05_cont.4.ark:23991409
01qc0205 /scratch/ravanelm/exp/dirha/fbank/raw_fbank_tr05_cont.2.ark:3764609
40ic020m /scratch/ravanelm/exp/dirha/fbank/raw_fbank_tr05_cont.4.ark:32712269
02bo030c /scratch/ravanelm/exp/dirha/fbank/raw_fbank_tr05_cont.2.ark:47850699
01tc021b /scratch/ravanelm/exp/dirha/fbank/raw_fbank_tr05_cont.2.ark:11170999
01jo0315 /scratch/ravanelm/exp/dirha/fbank/raw_fbank_tr05_cont.1.ark:46144449
028o030z /scratch/ravanelm/exp/dirha/fbank/raw_fbank_tr05_cont.2.ark:42317899
01zo030s /scratch/ravanelm/exp/dirha/fbank/raw_fbank_tr05_cont.2.ark:25171619
20no010a /scratch/ravanelm/exp/dirha/fbank/raw_fbank_tr05_cont.3.ark:29580809
40mc020p /scratch/ravanelm/exp/dirha/fbank/raw_fbank_tr05_cont.4.ark:45653039
40ic0219 /scratch/ravanelm/exp/dirha/fbank/raw_fbank_tr05_cont.4.ark:33344199
20mc010f /scratch/ravanelm/exp/dirha/fbank/raw_fbank_tr05_cont.3.ark:27363819
015c021h /scratch/ravanelm/exp/dirha/fbank/raw_fbank_tr05_cont.1.ark:10763719
20mc010l /scratch/ravanelm/exp/dirha/fbank/raw_fbank_tr05_cont.3.ark:27523679
01to0315 /scratch/ravanelm/exp/dirha/fbank/raw_fbank_tr05_cont.2.ark:12657509
028c020t /scratch/ravanelm/exp/dirha/fbank/raw_fbank_tr05_cont.2.ark:40463789
403o030d /scratch/ravanelm/exp/dirha/fbank/raw_fbank_tr05_cont.3.ark:44506079
20hc010o /scratch/ravanelm/exp/dirha/fbank/raw_fbank_tr05_cont.3.ark:22540619
01uo030q /scratch/ravanelm/exp/dirha/fbank/raw_fbank_tr05_cont.2.ark:15646709
408c0215 /scratch/ravanelm/exp/dirha/fbank/raw_fbank_tr05_cont.4.ark:3299049
40jc0215 /scratch/ravanelm/exp/dirha/fbank/raw_fbank_tr05_cont.4.ark:36209359
01zo031g /scratch/ravanelm/exp/dirha/fbank/raw_fbank_tr05_cont.2.ark:26100419
01ic020x /scratch/ravanelm/exp/dirha/fbank/raw_fbank_tr05_cont.1.ark:40635749
40dc020h /scratch/ravanelm/exp/dirha/fbank/raw_fbank_tr05_cont.4.ark:16918899
40ao0311 /scratch/ravanelm/exp/dirha/fbank/raw_fbank_tr05_cont.4.ark:10448929
024c0211 /scratch/ravanelm/exp/dirha/fbank/raw_fbank_tr05_cont.2.ark:31928399
20do010m /scratch/ravanelm/exp/dirha/fbank/raw_fbank_tr05_cont.3.ark:17311349
20lo010e /scratch/ravanelm/exp/dirha/fbank/raw_fbank_tr05_cont.3.ark:26438209
02bo0317 /scratch/ravanelm/exp/dirha/fbank/raw_fbank_tr05_cont.2.ark:48960389
014c021g /scratch/ravanelm/exp/dirha/fbank/raw_fbank_tr05_cont.1.ark:7725629
40bo0309 /scratch/ravanelm/exp/dirha/fbank/raw_fbank_tr05_cont.4.ark:12658979
404o0305 /scratch/ravanelm/exp/dirha/fbank/raw_fbank_tr05_cont.3.ark:46940299
01fo0315 /scratch/ravanelm/exp/dirha/fbank/raw_fbank_tr05_cont.1.ark:36102009
40io030r /scratch/ravanelm/exp/dirha/fbank/raw_fbank_tr05_cont.4.ark:34341389
01po0306 /scratch/ravanelm/exp/dirha/fbank/raw_fbank_tr05_cont.2.ark:2125509
20lc010f /scratch/ravanelm/exp/dirha/fbank/raw_fbank_tr05_cont.3.ark:25424579
02bc020m /scratch/ravanelm/exp/dirha/fbank/raw_fbank_tr05_cont.2.ark:46624389
01uo030p /scratch/ravanelm/exp/dirha/fbank/raw_fbank_tr05_cont.2.ark:15613839
01jo0312 /scratch/ravanelm/exp/dirha/fbank/raw_fbank_tr05_cont.1.ark:45987759
40ho030g /scratch/ravanelm/exp/dirha/fbank/raw_fbank_tr05_cont.4.ark:30891419
403c0204 /scratch/ravanelm/exp/dirha/fbank/raw_fbank_tr05_cont.3.ark:42968039
20oc0102 /scratch/ravanelm/exp/dirha/fbank/raw_fbank_tr05_cont.3.ark:30359459
40ho030w /scratch/ravanelm/exp/dirha/fbank/raw_fbank_tr05_cont.4.ark:31437339
01po030u /scratch/ravanelm/exp/dirha/fbank/raw_fbank_tr05_cont.2.ark:2962999
019c0202 /scratch/ravanelm/exp/dirha/fbank/raw_fbank_tr05_cont.1.ark:21111339
02bo030d /scratch/ravanelm/exp/dirha/fbank/raw_fbank_tr05_cont.2.ark:47886689
02bc021e /scratch/ravanelm/exp/dirha/fbank/raw_fbank_tr05_cont.2.ark:47378789
01fo0319 /scratch/ravanelm/exp/dirha/fbank/raw_fbank_tr05_cont.1.ark:36260769
01ec0206 /scratch/ravanelm/exp/dirha/fbank/raw_fbank_tr05_cont.1.ark:30564819
01io030z /scratch/ravanelm/exp/dirha/fbank/raw_fbank_tr05_cont.1.ark:42478779
40pc020v /scratch/ravanelm/exp/dirha/fbank/raw_fbank_tr05_cont.4.ark:52097119
40po030t /scratch/ravanelm/exp/dirha/fbank/raw_fbank_tr05_cont.4.ark:53555789
016o0319 /scratch/ravanelm/exp/dirha/fbank/raw_fbank_tr05_cont.1.ark:14576919
40fc0213 /scratch/ravanelm/exp/dirha/fbank/raw_fbank_tr05_cont.4.ark:23107669
01lc020k /scratch/ravanelm/exp/dirha/fbank/raw_fbank_tr05_cont.1.ark:50932169
40ec020n /scratch/ravanelm/exp/dirha/fbank/raw_fbank_tr05_cont.4.ark:19908909
401o030e /scratch/ravanelm/exp/dirha/fbank/raw_fbank_tr05_cont.3.ark:41525859
01lo030s /scratch/ravanelm/exp/dirha/fbank/raw_fbank_tr05_cont.1.ark:53030819
40gc020n /scratch/ravanelm/exp/dirha/fbank/raw_fbank_tr05_cont.4.ark:25951149
20nc010o /scratch/ravanelm/exp/dirha/fbank/raw_fbank_tr05_cont.3.ark:29199039
01jo031c /scratch/ravanelm/exp/dirha/fbank/raw_fbank_tr05_cont.1.ark:46435499
02ec021d /scratch/ravanelm/exp/dirha/fbank/raw_fbank_tr05_cont.2.ark:53758679
028o030f /scratch/ravanelm/exp/dirha/fbank/raw_fbank_tr05_cont.2.ark:41647339
40go0302 /scratch/ravanelm/exp/dirha/fbank/raw_fbank_tr05_cont.4.ark:27051129
40fo031g /scratch/ravanelm/exp/dirha/fbank/raw_fbank_tr05_cont.4.ark:25157939
401o030p /scratch/ravanelm/exp/dirha/fbank/raw_fbank_tr05_cont.3.ark:41991549
01wc0208 /scratch/ravanelm/exp/dirha/fbank/raw_fbank_tr05_cont.2.ark:16827549
028o030h /scratch/ravanelm/exp/dirha/fbank/raw_fbank_tr05_cont.2.ark:41724079
40go030v /scratch/ravanelm/exp/dirha/fbank/raw_fbank_tr05_cont.4.ark:28255319
40pc020f /scratch/ravanelm/exp/dirha/fbank/raw_fbank_tr05_cont.4.ark:51709439
02eo030i /scratch/ravanelm/exp/dirha/fbank/raw_fbank_tr05_cont.2.ark:54443009
40go031a /scratch/ravanelm/exp/dirha/fbank/raw_fbank_tr05_cont.4.ark:28980049
20no010b /scratch/ravanelm/exp/dirha/fbank/raw_fbank_tr05_cont.3.ark:29631159
01ko0303 /scratch/ravanelm/exp/dirha/fbank/raw_fbank_tr05_cont.1.ark:48188819
01rc0202 /scratch/ravanelm/exp/dirha/fbank/raw_fbank_tr05_cont.2.ark:6782379
40co0317 /scratch/ravanelm/exp/dirha/fbank/raw_fbank_tr05_cont.4.ark:16208559
40cc020p /scratch/ravanelm/exp/dirha/fbank/raw_fbank_tr05_cont.4.ark:14539519
028c0219 /scratch/ravanelm/exp/dirha/fbank/raw_fbank_tr05_cont.2.ark:40885669
403c020n /scratch/ravanelm/exp/dirha/fbank/raw_fbank_tr05_cont.3.ark:43390769
017c020h /scratch/ravanelm/exp/dirha/fbank/raw_fbank_tr05_cont.1.ark:15197609
20hc0103 /scratch/ravanelm/exp/dirha/fbank/raw_fbank_tr05_cont.3.ark:22134789
020c020a /scratch/ravanelm/exp/dirha/fbank/raw_fbank_tr05_cont.2.ark:26281399
01go030d /scratch/ravanelm/exp/dirha/fbank/raw_fbank_tr05_cont.1.ark:38240549
015o030o /scratch/ravanelm/exp/dirha/fbank/raw_fbank_tr05_cont.1.ark:11579309
40lc020o /scratch/ravanelm/exp/dirha/fbank/raw_fbank_tr05_cont.4.ark:42028319
406c0211 /scratch/ravanelm/exp/dirha/fbank/raw_fbank_tr05_cont.3.ark:51845559
40jo030l /scratch/ravanelm/exp/dirha/fbank/raw_fbank_tr05_cont.4.ark:37202899
01yc020u /scratch/ravanelm/exp/dirha/fbank/raw_fbank_tr05_cont.2.ark:20332149
01zc0205 /scratch/ravanelm/exp/dirha/fbank/raw_fbank_tr05_cont.2.ark:22732959
01pc0207 /scratch/ravanelm/exp/dirha/fbank/raw_fbank_tr05_cont.2.ark:585459
20mc0106 /scratch/ravanelm/exp/dirha/fbank/raw_fbank_tr05_cont.3.ark:27131709
408c020o /scratch/ravanelm/exp/dirha/fbank/raw_fbank_tr05_cont.4.ark:2954849
01bc021c /scratch/ravanelm/exp/dirha/fbank/raw_fbank_tr05_cont.1.ark:25335039
401c0217 /scratch/ravanelm/exp/dirha/fbank/raw_fbank_tr05_cont.3.ark:40822119
013c020u /scratch/ravanelm/exp/dirha/fbank/raw_fbank_tr05_cont.1.ark:4461869
40mc020k /scratch/ravanelm/exp/dirha/fbank/raw_fbank_tr05_cont.4.ark:45512889
406c020i /scratch/ravanelm/exp/dirha/fbank/raw_fbank_tr05_cont.3.ark:51428619
018o030d /scratch/ravanelm/exp/dirha/fbank/raw_fbank_tr05_cont.1.ark:19624749
01fo0317 /scratch/ravanelm/exp/dirha/fbank/raw_fbank_tr05_cont.1.ark:36149429
027o0304 /scratch/ravanelm/exp/dirha/fbank/raw_fbank_tr05_cont.2.ark:38141029
024c0216 /scratch/ravanelm/exp/dirha/fbank/raw_fbank_tr05_cont.2.ark:32070789
01dc0202 /scratch/ravanelm/exp/dirha/fbank/raw_fbank_tr05_cont.1.ark:27460139
40jc021b /scratch/ravanelm/exp/dirha/fbank/raw_fbank_tr05_cont.4.ark:36380819
20ro0107 /scratch/ravanelm/exp/dirha/fbank/raw_fbank_tr05_cont.3.ark:35892729
20qc0109 /scratch/ravanelm/exp/dirha/fbank/raw_fbank_tr05_cont.3.ark:33529049
408o030w /scratch/ravanelm/exp/dirha/fbank/raw_fbank_tr05_cont.4.ark:4471449
026c020e /scratch/ravanelm/exp/dirha/fbank/raw_fbank_tr05_cont.2.ark:34196419
01yc0212 /scratch/ravanelm/exp/dirha/fbank/raw_fbank_tr05_cont.2.ark:20546829
20ic010i /scratch/ravanelm/exp/dirha/fbank/raw_fbank_tr05_cont.3.ark:23842449
028c020p /scratch/ravanelm/exp/dirha/fbank/raw_fbank_tr05_cont.2.ark:40331589
40ko030b /scratch/ravanelm/exp/dirha/fbank/raw_fbank_tr05_cont.4.ark:39989049
20bo010l /scratch/ravanelm/exp/dirha/fbank/raw_fbank_tr05_cont.3.ark:13973139
40bo030e /scratch/ravanelm/exp/dirha/fbank/raw_fbank_tr05_cont.4.ark:12819609
40fc021g /scratch/ravanelm/exp/dirha/fbank/raw_fbank_tr05_cont.4.ark:23448499
01lo030f /scratch/ravanelm/exp/dirha/fbank/raw_fbank_tr05_cont.1.ark:52538309
01pc0204 /scratch/ravanelm/exp/dirha/fbank/raw_fbank_tr05_cont.2.ark:497009
20lo010m /scratch/ravanelm/exp/dirha/fbank/raw_fbank_tr05_cont.3.ark:26839969
407c020t /scratch/ravanelm/exp/dirha/fbank/raw_fbank_tr05_cont.3.ark:54525799
207o0103 /scratch/ravanelm/exp/dirha/fbank/raw_fbank_tr05_cont.3.ark:6685669
01kc021c /scratch/ravanelm/exp/dirha/fbank/raw_fbank_tr05_cont.1.ark:47964349
013o0306 /scratch/ravanelm/exp/dirha/fbank/raw_fbank_tr05_cont.1.ark:5106599
20mo0109 /scratch/ravanelm/exp/dirha/fbank/raw_fbank_tr05_cont.3.ark:27922229
409o031d /scratch/ravanelm/exp/dirha/fbank/raw_fbank_tr05_cont.4.ark:7741919
20qo010a /scratch/ravanelm/exp/dirha/fbank/raw_fbank_tr05_cont.3.ark:34395909
01go0312 /scratch/ravanelm/exp/dirha/fbank/raw_fbank_tr05_cont.1.ark:39083779
40ko030n /scratch/ravanelm/exp/dirha/fbank/raw_fbank_tr05_cont.4.ark:40392969
20gc0101 /scratch/ravanelm/exp/dirha/fbank/raw_fbank_tr05_cont.3.ark:20742559
01fo0316 /scratch/ravanelm/exp/dirha/fbank/raw_fbank_tr05_cont.1.ark:36114399
40nc020g /scratch/ravanelm/exp/dirha/fbank/raw_fbank_tr05_cont.4.ark:48495999
016c020r /scratch/ravanelm/exp/dirha/fbank/raw_fbank_tr05_cont.1.ark:12919949
40cc020v /scratch/ravanelm/exp/dirha/fbank/raw_fbank_tr05_cont.4.ark:14657579
024c020k /scratch/ravanelm/exp/dirha/fbank/raw_fbank_tr05_cont.2.ark:31506689
01lc020r /scratch/ravanelm/exp/dirha/fbank/raw_fbank_tr05_cont.1.ark:51101899
20bo010e /scratch/ravanelm/exp/dirha/fbank/raw_fbank_tr05_cont.3.ark:13702369
40bo030i /scratch/ravanelm/exp/dirha/fbank/raw_fbank_tr05_cont.4.ark:12966489
02co0311 /scratch/ravanelm/exp/dirha/fbank/raw_fbank_tr05_cont.2.ark:51704139
020c020z /scratch/ravanelm/exp/dirha/fbank/raw_fbank_tr05_cont.2.ark:26783749
40hc0210 /scratch/ravanelm/exp/dirha/fbank/raw_fbank_tr05_cont.4.ark:30009249
01bc020m /scratch/ravanelm/exp/dirha/fbank/raw_fbank_tr05_cont.1.ark:24475369
019c020p /scratch/ravanelm/exp/dirha/fbank/raw_fbank_tr05_cont.1.ark:21645149
208o010f /scratch/ravanelm/exp/dirha/fbank/raw_fbank_tr05_cont.3.ark:8839199
40bc020b /scratch/ravanelm/exp/dirha/fbank/raw_fbank_tr05_cont.4.ark:11197199
20tc010a /scratch/ravanelm/exp/dirha/fbank/raw_fbank_tr05_cont.3.ark:36949549
028o030q /scratch/ravanelm/exp/dirha/fbank/raw_fbank_tr05_cont.2.ark:42029749
205c010l /scratch/ravanelm/exp/dirha/fbank/raw_fbank_tr05_cont.3.ark:2988809
019o030w /scratch/ravanelm/exp/dirha/fbank/raw_fbank_tr05_cont.1.ark:23389989
401c0205 /scratch/ravanelm/exp/dirha/fbank/raw_fbank_tr05_cont.3.ark:39700579
205c010e /scratch/ravanelm/exp/dirha/fbank/raw_fbank_tr05_cont.3.ark:2832279
20bc0106 /scratch/ravanelm/exp/dirha/fbank/raw_fbank_tr05_cont.3.ark:12596929
01mo0303 /scratch/ravanelm/exp/dirha/fbank/raw_fbank_tr05_cont.1.ark:55457949
01rc0203 /scratch/ravanelm/exp/dirha/fbank/raw_fbank_tr05_cont.2.ark:6815529
20ro0106 /scratch/ravanelm/exp/dirha/fbank/raw_fbank_tr05_cont.3.ark:35839979
01lo0301 /scratch/ravanelm/exp/dirha/fbank/raw_fbank_tr05_cont.1.ark:51888129
401o030x /scratch/ravanelm/exp/dirha/fbank/raw_fbank_tr05_cont.3.ark:42256829
02cc020j /scratch/ravanelm/exp/dirha/fbank/raw_fbank_tr05_cont.2.ark:49720999
20oc010o /scratch/ravanelm/exp/dirha/fbank/raw_fbank_tr05_cont.3.ark:30881639
020o031d /scratch/ravanelm/exp/dirha/fbank/raw_fbank_tr05_cont.2.ark:27980199
016c0207 /scratch/ravanelm/exp/dirha/fbank/raw_fbank_tr05_cont.1.ark:12455819
406c0216 /scratch/ravanelm/exp/dirha/fbank/raw_fbank_tr05_cont.3.ark:51986709
01jc020e /scratch/ravanelm/exp/dirha/fbank/raw_fbank_tr05_cont.1.ark:43415479
01yc020x /scratch/ravanelm/exp/dirha/fbank/raw_fbank_tr05_cont.2.ark:20416279
40co030s /scratch/ravanelm/exp/dirha/fbank/raw_fbank_tr05_cont.4.ark:15876669
01mo031e /scratch/ravanelm/exp/dirha/fbank/raw_fbank_tr05_cont.2.ark:397369
405c020e /scratch/ravanelm/exp/dirha/fbank/raw_fbank_tr05_cont.3.ark:48592639
015o030z /scratch/ravanelm/exp/dirha/fbank/raw_fbank_tr05_cont.1.ark:11894719
20to010p /scratch/ravanelm/exp/dirha/fbank/raw_fbank_tr05_cont.3.ark:38083899
01to030h /scratch/ravanelm/exp/dirha/fbank/raw_fbank_tr05_cont.2.ark:11855109
01fo030x /scratch/ravanelm/exp/dirha/fbank/raw_fbank_tr05_cont.1.ark:35848729
01fc0205 /scratch/ravanelm/exp/dirha/fbank/raw_fbank_tr05_cont.1.ark:33514929
40ho030n /scratch/ravanelm/exp/dirha/fbank/raw_fbank_tr05_cont.4.ark:31145549
20ac010b /scratch/ravanelm/exp/dirha/fbank/raw_fbank_tr05_cont.3.ark:11018219
20nc0103 /scratch/ravanelm/exp/dirha/fbank/raw_fbank_tr05_cont.3.ark:28501769
020c0212 /scratch/ravanelm/exp/dirha/fbank/raw_fbank_tr05_cont.2.ark:26836199
209o010n /scratch/ravanelm/exp/dirha/fbank/raw_fbank_tr05_cont.3.ark:10621349
20fo010g /scratch/ravanelm/exp/dirha/fbank/raw_fbank_tr05_cont.3.ark:20439779
01do0316 /scratch/ravanelm/exp/dirha/fbank/raw_fbank_tr05_cont.1.ark:30099969
20qo0109 /scratch/ravanelm/exp/dirha/fbank/raw_fbank_tr05_cont.3.ark:34352279
01zo030n /scratch/ravanelm/exp/dirha/fbank/raw_fbank_tr05_cont.2.ark:24941909
01ec0218 /scratch/ravanelm/exp/dirha/fbank/raw_fbank_tr05_cont.1.ark:31670959
40pc0212 /scratch/ravanelm/exp/dirha/fbank/raw_fbank_tr05_cont.4.ark:52275529
01uo0319 /scratch/ravanelm/exp/dirha/fbank/raw_fbank_tr05_cont.2.ark:16458279
01go030k /scratch/ravanelm/exp/dirha/fbank/raw_fbank_tr05_cont.1.ark:38467119
01fc020n /scratch/ravanelm/exp/dirha/fbank/raw_fbank_tr05_cont.1.ark:33980509
021c020v /scratch/ravanelm/exp/dirha/fbank/raw_fbank_tr05_cont.2.ark:28920359
018o0319 /scratch/ravanelm/exp/dirha/fbank/raw_fbank_tr05_cont.1.ark:20932869
01pc020w /scratch/ravanelm/exp/dirha/fbank/raw_fbank_tr05_cont.2.ark:1294329
027o0307 /scratch/ravanelm/exp/dirha/fbank/raw_fbank_tr05_cont.2.ark:38285479
20go010n /scratch/ravanelm/exp/dirha/fbank/raw_fbank_tr05_cont.3.ark:21955989
20vo010l /scratch/ravanelm/exp/dirha/fbank/raw_fbank_tr05_cont.3.ark:39330159
021c020h /scratch/ravanelm/exp/dirha/fbank/raw_fbank_tr05_cont.2.ark:28485739
20lc010g /scratch/ravanelm/exp/dirha/fbank/raw_fbank_tr05_cont.3.ark:25454129
01jo0304 /scratch/ravanelm/exp/dirha/fbank/raw_fbank_tr05_cont.1.ark:44716099
40ao0319 /scratch/ravanelm/exp/dirha/fbank/raw_fbank_tr05_cont.4.ark:10734129
01jc021a /scratch/ravanelm/exp/dirha/fbank/raw_fbank_tr05_cont.1.ark:44377999
02bo030r /scratch/ravanelm/exp/dirha/fbank/raw_fbank_tr05_cont.2.ark:48387629
01go030b /scratch/ravanelm/exp/dirha/fbank/raw_fbank_tr05_cont.1.ark:38165609
01io031c /scratch/ravanelm/exp/dirha/fbank/raw_fbank_tr05_cont.1.ark:42890609
40lc020p /scratch/ravanelm/exp/dirha/fbank/raw_fbank_tr05_cont.4.ark:42036549
40jo031a /scratch/ravanelm/exp/dirha/fbank/raw_fbank_tr05_cont.4.ark:38062489
02bo030t /scratch/ravanelm/exp/dirha/fbank/raw_fbank_tr05_cont.2.ark:48442889
40cc0201 /scratch/ravanelm/exp/dirha/fbank/raw_fbank_tr05_cont.4.ark:13961519
01jo030t /scratch/ravanelm/exp/dirha/fbank/raw_fbank_tr05_cont.1.ark:45609969
014o030f /scratch/ravanelm/exp/dirha/fbank/raw_fbank_tr05_cont.1.ark:8238349
40jc0201 /scratch/ravanelm/exp/dirha/fbank/raw_fbank_tr05_cont.4.ark:35147279
401o030j /scratch/ravanelm/exp/dirha/fbank/raw_fbank_tr05_cont.3.ark:41735929
206o0108 /scratch/ravanelm/exp/dirha/fbank/raw_fbank_tr05_cont.3.ark:5026959
01qo031b /scratch/ravanelm/exp/dirha/fbank/raw_fbank_tr05_cont.2.ark:6536409
01mo0313 /scratch/ravanelm/exp/dirha/fbank/raw_fbank_tr05_cont.2.ark:32679
01lo031c /scratch/ravanelm/exp/dirha/fbank/raw_fbank_tr05_cont.1.ark:53984259
02co0309 /scratch/ravanelm/exp/dirha/fbank/raw_fbank_tr05_cont.2.ark:50762579
20dc010k /scratch/ravanelm/exp/dirha/fbank/raw_fbank_tr05_cont.3.ark:16339179
403c0218 /scratch/ravanelm/exp/dirha/fbank/raw_fbank_tr05_cont.3.ark:43848399
406o0305 /scratch/ravanelm/exp/dirha/fbank/raw_fbank_tr05_cont.3.ark:52350369
01bc020q /scratch/ravanelm/exp/dirha/fbank/raw_fbank_tr05_cont.1.ark:24642809
20mc0104 /scratch/ravanelm/exp/dirha/fbank/raw_fbank_tr05_cont.3.ark:27075489
02ec021e /scratch/ravanelm/exp/dirha/fbank/raw_fbank_tr05_cont.2.ark:53799189
40ac021b /scratch/ravanelm/exp/dirha/fbank/raw_fbank_tr05_cont.4.ark:9217329
016o030y /scratch/ravanelm/exp/dirha/fbank/raw_fbank_tr05_cont.1.ark:14266989
407c020e /scratch/ravanelm/exp/dirha/fbank/raw_fbank_tr05_cont.3.ark:54074469
01rc020o /scratch/ravanelm/exp/dirha/fbank/raw_fbank_tr05_cont.2.ark:7396719
205c010c /scratch/ravanelm/exp/dirha/fbank/raw_fbank_tr05_cont.3.ark:2755819
20to0103 /scratch/ravanelm/exp/dirha/fbank/raw_fbank_tr05_cont.3.ark:37465879
01zc020t /scratch/ravanelm/exp/dirha/fbank/raw_fbank_tr05_cont.2.ark:23349959
405o030z /scratch/ravanelm/exp/dirha/fbank/raw_fbank_tr05_cont.3.ark:50438279
02eo0303 /scratch/ravanelm/exp/dirha/fbank/raw_fbank_tr05_cont.2.ark:53931079
20bo0105 /scratch/ravanelm/exp/dirha/fbank/raw_fbank_tr05_cont.3.ark:13255939
40mo0319 /scratch/ravanelm/exp/dirha/fbank/raw_fbank_tr05_cont.4.ark:47894559
01qo030w /scratch/ravanelm/exp/dirha/fbank/raw_fbank_tr05_cont.2.ark:6097679
406c020h /scratch/ravanelm/exp/dirha/fbank/raw_fbank_tr05_cont.3.ark:51393869
018c0210 /scratch/ravanelm/exp/dirha/fbank/raw_fbank_tr05_cont.1.ark:18641999
40lc020d /scratch/ravanelm/exp/dirha/fbank/raw_fbank_tr05_cont.4.ark:41686669
20ac010a /scratch/ravanelm/exp/dirha/fbank/raw_fbank_tr05_cont.3.ark:10998989
20go0104 /scratch/ravanelm/exp/dirha/fbank/raw_fbank_tr05_cont.3.ark:21402699
20qc0106 /scratch/ravanelm/exp/dirha/fbank/raw_fbank_tr05_cont.3.ark:33419999
014c0201 /scratch/ravanelm/exp/dirha/fbank/raw_fbank_tr05_cont.1.ark:6526259
205c0109 /scratch/ravanelm/exp/dirha/fbank/raw_fbank_tr05_cont.3.ark:2662609
404o030g /scratch/ravanelm/exp/dirha/fbank/raw_fbank_tr05_cont.3.ark:47257149
40fo0307 /scratch/ravanelm/exp/dirha/fbank/raw_fbank_tr05_cont.4.ark:23648669
01zo0306 /scratch/ravanelm/exp/dirha/fbank/raw_fbank_tr05_cont.2.ark:24284919
40ho030v /scratch/ravanelm/exp/dirha/fbank/raw_fbank_tr05_cont.4.ark:31398309
209o010k /scratch/ravanelm/exp/dirha/fbank/raw_fbank_tr05_cont.3.ark:10526299
40fc020m /scratch/ravanelm/exp/dirha/fbank/raw_fbank_tr05_cont.4.ark:22583799
40dc021f /scratch/ravanelm/exp/dirha/fbank/raw_fbank_tr05_cont.4.ark:17920879
409o030k /scratch/ravanelm/exp/dirha/fbank/raw_fbank_tr05_cont.4.ark:6858369
40fo030j /scratch/ravanelm/exp/dirha/fbank/raw_fbank_tr05_cont.4.ark:24072389
01ic021d /scratch/ravanelm/exp/dirha/fbank/raw_fbank_tr05_cont.1.ark:41009909
019c021f /scratch/ravanelm/exp/dirha/fbank/raw_fbank_tr05_cont.1.ark:22339409
017o0308 /scratch/ravanelm/exp/dirha/fbank/raw_fbank_tr05_cont.1.ark:16297139
020c021d /scratch/ravanelm/exp/dirha/fbank/raw_fbank_tr05_cont.2.ark:27030369
01mc020f /scratch/ravanelm/exp/dirha/fbank/raw_fbank_tr05_cont.1.ark:54387419
01dc020e /scratch/ravanelm/exp/dirha/fbank/raw_fbank_tr05_cont.1.ark:27758499
014c020s /scratch/ravanelm/exp/dirha/fbank/raw_fbank_tr05_cont.1.ark:7157189
02bc020h /scratch/ravanelm/exp/dirha/fbank/raw_fbank_tr05_cont.2.ark:46489159
403c020z /scratch/ravanelm/exp/dirha/fbank/raw_fbank_tr05_cont.3.ark:43617049
01wo031c /scratch/ravanelm/exp/dirha/fbank/raw_fbank_tr05_cont.2.ark:19438139
40pc020p /scratch/ravanelm/exp/dirha/fbank/raw_fbank_tr05_cont.4.ark:51938539
016o030p /scratch/ravanelm/exp/dirha/fbank/raw_fbank_tr05_cont.1.ark:14057559
013c0201 /scratch/ravanelm/exp/dirha/fbank/raw_fbank_tr05_cont.1.ark:3528959
01po030l /scratch/ravanelm/exp/dirha/fbank/raw_fbank_tr05_cont.2.ark:2594369
403c020x /scratch/ravanelm/exp/dirha/fbank/raw_fbank_tr05_cont.3.ark:43563789
028o0311 /scratch/ravanelm/exp/dirha/fbank/raw_fbank_tr05_cont.2.ark:42373599
401c020z /scratch/ravanelm/exp/dirha/fbank/raw_fbank_tr05_cont.3.ark:40575679
026o030x /scratch/ravanelm/exp/dirha/fbank/raw_fbank_tr05_cont.2.ark:36127789
40no030m /scratch/ravanelm/exp/dirha/fbank/raw_fbank_tr05_cont.4.ark:50389899
01qc0214 /scratch/ravanelm/exp/dirha/fbank/raw_fbank_tr05_cont.2.ark:4724819
01qo030d /scratch/ravanelm/exp/dirha/fbank/raw_fbank_tr05_cont.2.ark:5451989
01io031b /scratch/ravanelm/exp/dirha/fbank/raw_fbank_tr05_cont.1.ark:42874059
01po0315 /scratch/ravanelm/exp/dirha/fbank/raw_fbank_tr05_cont.2.ark:3388169
014o030k /scratch/ravanelm/exp/dirha/fbank/raw_fbank_tr05_cont.1.ark:8378899
40kc0201 /scratch/ravanelm/exp/dirha/fbank/raw_fbank_tr05_cont.4.ark:38248949
40gc0211 /scratch/ravanelm/exp/dirha/fbank/raw_fbank_tr05_cont.4.ark:26409169
027c021g /scratch/ravanelm/exp/dirha/fbank/raw_fbank_tr05_cont.2.ark:38009039
401o030y /scratch/ravanelm/exp/dirha/fbank/raw_fbank_tr05_cont.3.ark:42292219
40cc0214 /scratch/ravanelm/exp/dirha/fbank/raw_fbank_tr05_cont.4.ark:14881209
403o030z /scratch/ravanelm/exp/dirha/fbank/raw_fbank_tr05_cont.3.ark:45150379
209o0105 /scratch/ravanelm/exp/dirha/fbank/raw_fbank_tr05_cont.3.ark:10074889
408c021h /scratch/ravanelm/exp/dirha/fbank/raw_fbank_tr05_cont.4.ark:3555569
01yc020h /scratch/ravanelm/exp/dirha/fbank/raw_fbank_tr05_cont.2.ark:19987039
01eo0305 /scratch/ravanelm/exp/dirha/fbank/raw_fbank_tr05_cont.1.ark:31985849
40do030j /scratch/ravanelm/exp/dirha/fbank/raw_fbank_tr05_cont.4.ark:18488999
02cc021d /scratch/ravanelm/exp/dirha/fbank/raw_fbank_tr05_cont.2.ark:50448729
207o0105 /scratch/ravanelm/exp/dirha/fbank/raw_fbank_tr05_cont.3.ark:6778449
20ho010g /scratch/ravanelm/exp/dirha/fbank/raw_fbank_tr05_cont.3.ark:23074999
40lc020k /scratch/ravanelm/exp/dirha/fbank/raw_fbank_tr05_cont.4.ark:41900719
01lo0318 /scratch/ravanelm/exp/dirha/fbank/raw_fbank_tr05_cont.1.ark:53766819
026c020t /scratch/ravanelm/exp/dirha/fbank/raw_fbank_tr05_cont.2.ark:34538429
021c020y /scratch/ravanelm/exp/dirha/fbank/raw_fbank_tr05_cont.2.ark:28981489
01ec0213 /scratch/ravanelm/exp/dirha/fbank/raw_fbank_tr05_cont.1.ark:31471529
028o030m /scratch/ravanelm/exp/dirha/fbank/raw_fbank_tr05_cont.2.ark:41912149
40bc020c /scratch/ravanelm/exp/dirha/fbank/raw_fbank_tr05_cont.4.ark:11216749
026c020p /scratch/ravanelm/exp/dirha/fbank/raw_fbank_tr05_cont.2.ark:34459109
01qc0217 /scratch/ravanelm/exp/dirha/fbank/raw_fbank_tr05_cont.2.ark:4785349
40co0308 /scratch/ravanelm/exp/dirha/fbank/raw_fbank_tr05_cont.4.ark:15311749
027o0318 /scratch/ravanelm/exp/dirha/fbank/raw_fbank_tr05_cont.2.ark:39710269
20ac0104 /scratch/ravanelm/exp/dirha/fbank/raw_fbank_tr05_cont.3.ark:10798009
40gc020e /scratch/ravanelm/exp/dirha/fbank/raw_fbank_tr05_cont.4.ark:25657039
40do030k /scratch/ravanelm/exp/dirha/fbank/raw_fbank_tr05_cont.4.ark:18529069
01wo030h /scratch/ravanelm/exp/dirha/fbank/raw_fbank_tr05_cont.2.ark:18498959
01eo0317 /scratch/ravanelm/exp/dirha/fbank/raw_fbank_tr05_cont.1.ark:33104189
01ic020n /scratch/ravanelm/exp/dirha/fbank/raw_fbank_tr05_cont.1.ark:40367289
01eo030x /scratch/ravanelm/exp/dirha/fbank/raw_fbank_tr05_cont.1.ark:32781129
407c0207 /scratch/ravanelm/exp/dirha/fbank/raw_fbank_tr05_cont.3.ark:53901979
01mc020h /scratch/ravanelm/exp/dirha/fbank/raw_fbank_tr05_cont.1.ark:54467359
408c021a /scratch/ravanelm/exp/dirha/fbank/raw_fbank_tr05_cont.4.ark:3422839
026c0218 /scratch/ravanelm/exp/dirha/fbank/raw_fbank_tr05_cont.2.ark:34884839
20go010f /scratch/ravanelm/exp/dirha/fbank/raw_fbank_tr05_cont.3.ark:21720949
40cc0218 /scratch/ravanelm/exp/dirha/fbank/raw_fbank_tr05_cont.4.ark:14954809
013o030z /scratch/ravanelm/exp/dirha/fbank/raw_fbank_tr05_cont.1.ark:6017549
40bo030d /scratch/ravanelm/exp/dirha/fbank/raw_fbank_tr05_cont.4.ark:12758979
01kc021d /scratch/ravanelm/exp/dirha/fbank/raw_fbank_tr05_cont.1.ark:47980939
015o030b /scratch/ravanelm/exp/dirha/fbank/raw_fbank_tr05_cont.1.ark:11102119
02ec020z /scratch/ravanelm/exp/dirha/fbank/raw_fbank_tr05_cont.2.ark:53303019
029o0318 /scratch/ravanelm/exp/dirha/fbank/raw_fbank_tr05_cont.2.ark:45776479
209o010f /scratch/ravanelm/exp/dirha/fbank/raw_fbank_tr05_cont.3.ark:10371989
407o030x /scratch/ravanelm/exp/dirha/fbank/raw_fbank_tr05_cont.4.ark:1936219
017o030e /scratch/ravanelm/exp/dirha/fbank/raw_fbank_tr05_cont.1.ark:16478159
020c020b /scratch/ravanelm/exp/dirha/fbank/raw_fbank_tr05_cont.2.ark:26313989
017o030i /scratch/ravanelm/exp/dirha/fbank/raw_fbank_tr05_cont.1.ark:16612519
40co0304 /scratch/ravanelm/exp/dirha/fbank/raw_fbank_tr05_cont.4.ark:15213189
01po030p /scratch/ravanelm/exp/dirha/fbank/raw_fbank_tr05_cont.2.ark:2757689
40fc0219 /scratch/ravanelm/exp/dirha/fbank/raw_fbank_tr05_cont.4.ark:23257209
015c0214 /scratch/ravanelm/exp/dirha/fbank/raw_fbank_tr05_cont.1.ark:10473529
20bc010a /scratch/ravanelm/exp/dirha/fbank/raw_fbank_tr05_cont.3.ark:12694409
40po031d /scratch/ravanelm/exp/dirha/fbank/raw_fbank_tr05_cont.4.ark:54194269
015o0301 /scratch/ravanelm/exp/dirha/fbank/raw_fbank_tr05_cont.1.ark:10803419
019o0315 /scratch/ravanelm/exp/dirha/fbank/raw_fbank_tr05_cont.1.ark:23648499
015o030h /scratch/ravanelm/exp/dirha/fbank/raw_fbank_tr05_cont.1.ark:11294979
20mo010e /scratch/ravanelm/exp/dirha/fbank/raw_fbank_tr05_cont.3.ark:28064299
024o0312 /scratch/ravanelm/exp/dirha/fbank/raw_fbank_tr05_cont.2.ark:33466529
40eo0318 /scratch/ravanelm/exp/dirha/fbank/raw_fbank_tr05_cont.4.ark:21925129
40do030m /scratch/ravanelm/exp/dirha/fbank/raw_fbank_tr05_cont.4.ark:18620169
02cc021a /scratch/ravanelm/exp/dirha/fbank/raw_fbank_tr05_cont.2.ark:50390119
40io030e /scratch/ravanelm/exp/dirha/fbank/raw_fbank_tr05_cont.4.ark:33941959
40fc020d /scratch/ravanelm/exp/dirha/fbank/raw_fbank_tr05_cont.4.ark:22344849
014o0308 /scratch/ravanelm/exp/dirha/fbank/raw_fbank_tr05_cont.1.ark:8015139
204c010e /scratch/ravanelm/exp/dirha/fbank/raw_fbank_tr05_cont.3.ark:1328109
20rc010e /scratch/ravanelm/exp/dirha/fbank/raw_fbank_tr05_cont.3.ark:35368569
026o0308 /scratch/ravanelm/exp/dirha/fbank/raw_fbank_tr05_cont.2.ark:35345799
015o030q /scratch/ravanelm/exp/dirha/fbank/raw_fbank_tr05_cont.1.ark:11642089
01yc0206 /scratch/ravanelm/exp/dirha/fbank/raw_fbank_tr05_cont.2.ark:19641109
404c020d /scratch/ravanelm/exp/dirha/fbank/raw_fbank_tr05_cont.3.ark:45855449
40lo0309 /scratch/ravanelm/exp/dirha/fbank/raw_fbank_tr05_cont.4.ark:43180919
20bc010l /scratch/ravanelm/exp/dirha/fbank/raw_fbank_tr05_cont.3.ark:13018019
20ho010n /scratch/ravanelm/exp/dirha/fbank/raw_fbank_tr05_cont.3.ark:23297209
01mo0302 /scratch/ravanelm/exp/dirha/fbank/raw_fbank_tr05_cont.1.ark:55437159
01jo0317 /scratch/ravanelm/exp/dirha/fbank/raw_fbank_tr05_cont.1.ark:46241509
02bc020b /scratch/ravanelm/exp/dirha/fbank/raw_fbank_tr05_cont.2.ark:46285099
40ko030d /scratch/ravanelm/exp/dirha/fbank/raw_fbank_tr05_cont.4.ark:40048709
02eo0313 /scratch/ravanelm/exp/dirha/fbank/raw_fbank_tr05_cont.3.ark:569809
20co010l /scratch/ravanelm/exp/dirha/fbank/raw_fbank_tr05_cont.3.ark:15588989
404c0211 /scratch/ravanelm/exp/dirha/fbank/raw_fbank_tr05_cont.3.ark:46448369
01rc0210 /scratch/ravanelm/exp/dirha/fbank/raw_fbank_tr05_cont.2.ark:7762639
40jo030y /scratch/ravanelm/exp/dirha/fbank/raw_fbank_tr05_cont.4.ark:37682489
019c020i /scratch/ravanelm/exp/dirha/fbank/raw_fbank_tr05_cont.1.ark:21513219
407o0304 /scratch/ravanelm/exp/dirha/fbank/raw_fbank_tr05_cont.4.ark:746989
01wc020q /scratch/ravanelm/exp/dirha/fbank/raw_fbank_tr05_cont.2.ark:17383089
01ec0209 /scratch/ravanelm/exp/dirha/fbank/raw_fbank_tr05_cont.1.ark:30654509
20to010m /scratch/ravanelm/exp/dirha/fbank/raw_fbank_tr05_cont.3.ark:38001169
40no030i /scratch/ravanelm/exp/dirha/fbank/raw_fbank_tr05_cont.4.ark:50239139
01mc021e /scratch/ravanelm/exp/dirha/fbank/raw_fbank_tr05_cont.1.ark:55318469
018c021g /scratch/ravanelm/exp/dirha/fbank/raw_fbank_tr05_cont.1.ark:19162519
206c010a /scratch/ravanelm/exp/dirha/fbank/raw_fbank_tr05_cont.3.ark:4443159
011o0309 /scratch/ravanelm/exp/dirha/fbank/raw_fbank_tr05_cont.1.ark:1760069
01bo0311 /scratch/ravanelm/exp/dirha/fbank/raw_fbank_tr05_cont.1.ark:26930069
029o030n /scratch/ravanelm/exp/dirha/fbank/raw_fbank_tr05_cont.2.ark:45020849
01ic021a /scratch/ravanelm/exp/dirha/fbank/raw_fbank_tr05_cont.1.ark:40952459
40ic020q /scratch/ravanelm/exp/dirha/fbank/raw_fbank_tr05_cont.4.ark:32829869
01eo030h /scratch/ravanelm/exp/dirha/fbank/raw_fbank_tr05_cont.1.ark:32300929
02ec020q /scratch/ravanelm/exp/dirha/fbank/raw_fbank_tr05_cont.2.ark:53077749
20vo010r /scratch/ravanelm/exp/dirha/fbank/raw_fbank_tr05_cont.3.ark:39605379
01fc0218 /scratch/ravanelm/exp/dirha/fbank/raw_fbank_tr05_cont.1.ark:34542139
40io030a /scratch/ravanelm/exp/dirha/fbank/raw_fbank_tr05_cont.4.ark:33813319
20bo010q /scratch/ravanelm/exp/dirha/fbank/raw_fbank_tr05_cont.3.ark:14168729
01lc020t /scratch/ravanelm/exp/dirha/fbank/raw_fbank_tr05_cont.1.ark:51156799
014c0218 /scratch/ravanelm/exp/dirha/fbank/raw_fbank_tr05_cont.1.ark:7517829
40gc020k /scratch/ravanelm/exp/dirha/fbank/raw_fbank_tr05_cont.4.ark:25855539
40co031f /scratch/ravanelm/exp/dirha/fbank/raw_fbank_tr05_cont.4.ark:16393719
017o030g /scratch/ravanelm/exp/dirha/fbank/raw_fbank_tr05_cont.1.ark:16521379
40kc020m /scratch/ravanelm/exp/dirha/fbank/raw_fbank_tr05_cont.4.ark:38872459
20mc0103 /scratch/ravanelm/exp/dirha/fbank/raw_fbank_tr05_cont.3.ark:27053379
40hc020b /scratch/ravanelm/exp/dirha/fbank/raw_fbank_tr05_cont.4.ark:29421659
018c0217 /scratch/ravanelm/exp/dirha/fbank/raw_fbank_tr05_cont.1.ark:18851169
40do030q /scratch/ravanelm/exp/dirha/fbank/raw_fbank_tr05_cont.4.ark:18719409
403c0207 /scratch/ravanelm/exp/dirha/fbank/raw_fbank_tr05_cont.3.ark:43010769
026c0217 /scratch/ravanelm/exp/dirha/fbank/raw_fbank_tr05_cont.2.ark:34872169
206o0105 /scratch/ravanelm/exp/dirha/fbank/raw_fbank_tr05_cont.3.ark:4915109
01jc020y /scratch/ravanelm/exp/dirha/fbank/raw_fbank_tr05_cont.1.ark:43969079
205o010g /scratch/ravanelm/exp/dirha/fbank/raw_fbank_tr05_cont.3.ark:3724689
016c0216 /scratch/ravanelm/exp/dirha/fbank/raw_fbank_tr05_cont.1.ark:13215899
40dc0209 /scratch/ravanelm/exp/dirha/fbank/raw_fbank_tr05_cont.4.ark:16671779
40do0311 /scratch/ravanelm/exp/dirha/fbank/raw_fbank_tr05_cont.4.ark:19070819
028o030c /scratch/ravanelm/exp/dirha/fbank/raw_fbank_tr05_cont.2.ark:41488289
01to031d /scratch/ravanelm/exp/dirha/fbank/raw_fbank_tr05_cont.2.ark:12960029
40bc020s /scratch/ravanelm/exp/dirha/fbank/raw_fbank_tr05_cont.4.ark:11640829
40bo0313 /scratch/ravanelm/exp/dirha/fbank/raw_fbank_tr05_cont.4.ark:13645939
011c020d /scratch/ravanelm/exp/dirha/fbank/raw_fbank_tr05_cont.1.ark:311929
011c020t /scratch/ravanelm/exp/dirha/fbank/raw_fbank_tr05_cont.1.ark:784409
01wo0304 /scratch/ravanelm/exp/dirha/fbank/raw_fbank_tr05_cont.2.ark:18073769
02ec0211 /scratch/ravanelm/exp/dirha/fbank/raw_fbank_tr05_cont.2.ark:53375879
01fc020e /scratch/ravanelm/exp/dirha/fbank/raw_fbank_tr05_cont.1.ark:33787079
404o031c /scratch/ravanelm/exp/dirha/fbank/raw_fbank_tr05_cont.3.ark:48176309
40hc020l /scratch/ravanelm/exp/dirha/fbank/raw_fbank_tr05_cont.4.ark:29641719
02ec0208 /scratch/ravanelm/exp/dirha/fbank/raw_fbank_tr05_cont.2.ark:52479369
016c0219 /scratch/ravanelm/exp/dirha/fbank/raw_fbank_tr05_cont.1.ark:13283989
40pc0218 /scratch/ravanelm/exp/dirha/fbank/raw_fbank_tr05_cont.4.ark:52425429
021c020f /scratch/ravanelm/exp/dirha/fbank/raw_fbank_tr05_cont.2.ark:28437599
01jo030f /scratch/ravanelm/exp/dirha/fbank/raw_fbank_tr05_cont.1.ark:45134949
207o010q /scratch/ravanelm/exp/dirha/fbank/raw_fbank_tr05_cont.3.ark:7480439
40eo0312 /scratch/ravanelm/exp/dirha/fbank/raw_fbank_tr05_cont.4.ark:21748189
20fc0104 /scratch/ravanelm/exp/dirha/fbank/raw_fbank_tr05_cont.3.ark:19345119
40ko030u /scratch/ravanelm/exp/dirha/fbank/raw_fbank_tr05_cont.4.ark:40634259
01qo0315 /scratch/ravanelm/exp/dirha/fbank/raw_fbank_tr05_cont.2.ark:6369029
40mc021e /scratch/ravanelm/exp/dirha/fbank/raw_fbank_tr05_cont.4.ark:46283589
20lc0105 /scratch/ravanelm/exp/dirha/fbank/raw_fbank_tr05_cont.3.ark:25101719
20nc010b /scratch/ravanelm/exp/dirha/fbank/raw_fbank_tr05_cont.3.ark:28739849
20qc0101 /scratch/ravanelm/exp/dirha/fbank/raw_fbank_tr05_cont.3.ark:33220489
20go010o /scratch/ravanelm/exp/dirha/fbank/raw_fbank_tr05_cont.3.ark:21972339
01wo030u /scratch/ravanelm/exp/dirha/fbank/raw_fbank_tr05_cont.2.ark:18842079
40io030c /scratch/ravanelm/exp/dirha/fbank/raw_fbank_tr05_cont.4.ark:33865019
027c020t /scratch/ravanelm/exp/dirha/fbank/raw_fbank_tr05_cont.2.ark:37345429
40gc020l /scratch/ravanelm/exp/dirha/fbank/raw_fbank_tr05_cont.4.ark:25881009
014o030b /scratch/ravanelm/exp/dirha/fbank/raw_fbank_tr05_cont.1.ark:8132749
405c020d /scratch/ravanelm/exp/dirha/fbank/raw_fbank_tr05_cont.3.ark:48566409
404o0302 /scratch/ravanelm/exp/dirha/fbank/raw_fbank_tr05_cont.3.ark:46841729
013o0301 /scratch/ravanelm/exp/dirha/fbank/raw_fbank_tr05_cont.1.ark:4965849
408o030b /scratch/ravanelm/exp/dirha/fbank/raw_fbank_tr05_cont.4.ark:3894099
013c0209 /scratch/ravanelm/exp/dirha/fbank/raw_fbank_tr05_cont.1.ark:3797559
20qc0103 /scratch/ravanelm/exp/dirha/fbank/raw_fbank_tr05_cont.3.ark:33297429
20eo010c /scratch/ravanelm/exp/dirha/fbank/raw_fbank_tr05_cont.3.ark:18719459
20co0106 /scratch/ravanelm/exp/dirha/fbank/raw_fbank_tr05_cont.3.ark:15124859
027c0218 /scratch/ravanelm/exp/dirha/fbank/raw_fbank_tr05_cont.2.ark:37812759
024o030k /scratch/ravanelm/exp/dirha/fbank/raw_fbank_tr05_cont.2.ark:32952949
01do030q /scratch/ravanelm/exp/dirha/fbank/raw_fbank_tr05_cont.1.ark:29565449
40ao030k /scratch/ravanelm/exp/dirha/fbank/raw_fbank_tr05_cont.4.ark:9904099
40mo030d /scratch/ravanelm/exp/dirha/fbank/raw_fbank_tr05_cont.4.ark:46838079
409c0211 /scratch/ravanelm/exp/dirha/fbank/raw_fbank_tr05_cont.4.ark:5893759
011o030u /scratch/ravanelm/exp/dirha/fbank/raw_fbank_tr05_cont.1.ark:2515419
404c0203 /scratch/ravanelm/exp/dirha/fbank/raw_fbank_tr05_cont.3.ark:45624469
01qo030g /scratch/ravanelm/exp/dirha/fbank/raw_fbank_tr05_cont.2.ark:5572879
01mc020x /scratch/ravanelm/exp/dirha/fbank/raw_fbank_tr05_cont.1.ark:54866119
01mc0207 /scratch/ravanelm/exp/dirha/fbank/raw_fbank_tr05_cont.1.ark:54226419
204o010g /scratch/ravanelm/exp/dirha/fbank/raw_fbank_tr05_cont.3.ark:2039559
026o0301 /scratch/ravanelm/exp/dirha/fbank/raw_fbank_tr05_cont.2.ark:35157109
20tc0104 /scratch/ravanelm/exp/dirha/fbank/raw_fbank_tr05_cont.3.ark:36831689
01gc0215 /scratch/ravanelm/exp/dirha/fbank/raw_fbank_tr05_cont.1.ark:37511129
40lc020s /scratch/ravanelm/exp/dirha/fbank/raw_fbank_tr05_cont.4.ark:42100319
02co030j /scratch/ravanelm/exp/dirha/fbank/raw_fbank_tr05_cont.2.ark:51070479
027c0213 /scratch/ravanelm/exp/dirha/fbank/raw_fbank_tr05_cont.2.ark:37633929
40fo030u /scratch/ravanelm/exp/dirha/fbank/raw_fbank_tr05_cont.4.ark:24453239
01po030z /scratch/ravanelm/exp/dirha/fbank/raw_fbank_tr05_cont.2.ark:3158549
403o0305 /scratch/ravanelm/exp/dirha/fbank/raw_fbank_tr05_cont.3.ark:44211559
014c020j /scratch/ravanelm/exp/dirha/fbank/raw_fbank_tr05_cont.1.ark:6967159
40nc020u /scratch/ravanelm/exp/dirha/fbank/raw_fbank_tr05_cont.4.ark:48938019
409o0305 /scratch/ravanelm/exp/dirha/fbank/raw_fbank_tr05_cont.4.ark:6434719
026o030e /scratch/ravanelm/exp/dirha/fbank/raw_fbank_tr05_cont.2.ark:35523539
20rc010k /scratch/ravanelm/exp/dirha/fbank/raw_fbank_tr05_cont.3.ark:35555869
01kc020v /scratch/ravanelm/exp/dirha/fbank/raw_fbank_tr05_cont.1.ark:47422679
20vc0101 /scratch/ravanelm/exp/dirha/fbank/raw_fbank_tr05_cont.3.ark:38108729
024c020c /scratch/ravanelm/exp/dirha/fbank/raw_fbank_tr05_cont.2.ark:31224809
407o0318 /scratch/ravanelm/exp/dirha/fbank/raw_fbank_tr05_cont.4.ark:2310469
40ho030e /scratch/ravanelm/exp/dirha/fbank/raw_fbank_tr05_cont.4.ark:30825319
018c020v /scratch/ravanelm/exp/dirha/fbank/raw_fbank_tr05_cont.1.ark:18478449
01yo030v /scratch/ravanelm/exp/dirha/fbank/raw_fbank_tr05_cont.2.ark:21952299
20ac0108 /scratch/ravanelm/exp/dirha/fbank/raw_fbank_tr05_cont.3.ark:10924849
014c020i /scratch/ravanelm/exp/dirha/fbank/raw_fbank_tr05_cont.1.ark:6950809
20co010c /scratch/ravanelm/exp/dirha/fbank/raw_fbank_tr05_cont.3.ark:15351279
404o0309 /scratch/ravanelm/exp/dirha/fbank/raw_fbank_tr05_cont.3.ark:47063979
20go010g /scratch/ravanelm/exp/dirha/fbank/raw_fbank_tr05_cont.3.ark:21754739
40hc0208 /scratch/ravanelm/exp/dirha/fbank/raw_fbank_tr05_cont.4.ark:29321209
01fc020i /scratch/ravanelm/exp/dirha/fbank/raw_fbank_tr05_cont.1.ark:33905079
01jo030e /scratch/ravanelm/exp/dirha/fbank/raw_fbank_tr05_cont.1.ark:45093639
014c020m /scratch/ravanelm/exp/dirha/fbank/raw_fbank_tr05_cont.1.ark:7023809
20lo0109 /scratch/ravanelm/exp/dirha/fbank/raw_fbank_tr05_cont.3.ark:26148699
40fo030g /scratch/ravanelm/exp/dirha/fbank/raw_fbank_tr05_cont.4.ark:23935939
404c020a /scratch/ravanelm/exp/dirha/fbank/raw_fbank_tr05_cont.3.ark:45791959
019o0318 /scratch/ravanelm/exp/dirha/fbank/raw_fbank_tr05_cont.1.ark:23752509
40bc020u /scratch/ravanelm/exp/dirha/fbank/raw_fbank_tr05_cont.4.ark:11687369
20go010q /scratch/ravanelm/exp/dirha/fbank/raw_fbank_tr05_cont.3.ark:21995919
40jo030w /scratch/ravanelm/exp/dirha/fbank/raw_fbank_tr05_cont.4.ark:37607349
40ho030m /scratch/ravanelm/exp/dirha/fbank/raw_fbank_tr05_cont.4.ark:31121119
208c010k /scratch/ravanelm/exp/dirha/fbank/raw_fbank_tr05_cont.3.ark:8167639
40ic021f /scratch/ravanelm/exp/dirha/fbank/raw_fbank_tr05_cont.4.ark:33514699
40dc0216 /scratch/ravanelm/exp/dirha/fbank/raw_fbank_tr05_cont.4.ark:17695369
40dc020a /scratch/ravanelm/exp/dirha/fbank/raw_fbank_tr05_cont.4.ark:16710209
404o0306 /scratch/ravanelm/exp/dirha/fbank/raw_fbank_tr05_cont.3.ark:46981569
01uc020l /scratch/ravanelm/exp/dirha/fbank/raw_fbank_tr05_cont.2.ark:13769109
019o0307 /scratch/ravanelm/exp/dirha/fbank/raw_fbank_tr05_cont.1.ark:22609599
20rc010a /scratch/ravanelm/exp/dirha/fbank/raw_fbank_tr05_cont.3.ark:35251889
01fc0214 /scratch/ravanelm/exp/dirha/fbank/raw_fbank_tr05_cont.1.ark:34452019
01gc0213 /scratch/ravanelm/exp/dirha/fbank/raw_fbank_tr05_cont.1.ark:37463749
01bo030f /scratch/ravanelm/exp/dirha/fbank/raw_fbank_tr05_cont.1.ark:26027849
029o0317 /scratch/ravanelm/exp/dirha/fbank/raw_fbank_tr05_cont.2.ark:45742489
40fc020e /scratch/ravanelm/exp/dirha/fbank/raw_fbank_tr05_cont.4.ark:22358399
020c0203 /scratch/ravanelm/exp/dirha/fbank/raw_fbank_tr05_cont.2.ark:26157989
406c021c /scratch/ravanelm/exp/dirha/fbank/raw_fbank_tr05_cont.3.ark:52127849
01io030a /scratch/ravanelm/exp/dirha/fbank/raw_fbank_tr05_cont.1.ark:41516629
40do030d /scratch/ravanelm/exp/dirha/fbank/raw_fbank_tr05_cont.4.ark:18278579
01yo0318 /scratch/ravanelm/exp/dirha/fbank/raw_fbank_tr05_cont.2.ark:22398249
405o0301 /scratch/ravanelm/exp/dirha/fbank/raw_fbank_tr05_cont.3.ark:49492779
01yc020l /scratch/ravanelm/exp/dirha/fbank/raw_fbank_tr05_cont.2.ark:20093079
027o030g /scratch/ravanelm/exp/dirha/fbank/raw_fbank_tr05_cont.2.ark:38614949
40ao031f /scratch/ravanelm/exp/dirha/fbank/raw_fbank_tr05_cont.4.ark:10878309
20to0108 /scratch/ravanelm/exp/dirha/fbank/raw_fbank_tr05_cont.3.ark:37576829
019c0205 /scratch/ravanelm/exp/dirha/fbank/raw_fbank_tr05_cont.1.ark:21194029
02eo030g /scratch/ravanelm/exp/dirha/fbank/raw_fbank_tr05_cont.2.ark:54392469
019o030c /scratch/ravanelm/exp/dirha/fbank/raw_fbank_tr05_cont.1.ark:22769429
20eo010l /scratch/ravanelm/exp/dirha/fbank/raw_fbank_tr05_cont.3.ark:19024209
01lc0215 /scratch/ravanelm/exp/dirha/fbank/raw_fbank_tr05_cont.1.ark:51515199
408o030o /scratch/ravanelm/exp/dirha/fbank/raw_fbank_tr05_cont.4.ark:4288169
024o030c /scratch/ravanelm/exp/dirha/fbank/raw_fbank_tr05_cont.2.ark:32677149
401o030l /scratch/ravanelm/exp/dirha/fbank/raw_fbank_tr05_cont.3.ark:41856309
027c020z /scratch/ravanelm/exp/dirha/fbank/raw_fbank_tr05_cont.2.ark:37477089
014o030y /scratch/ravanelm/exp/dirha/fbank/raw_fbank_tr05_cont.1.ark:8934119
40lc020b /scratch/ravanelm/exp/dirha/fbank/raw_fbank_tr05_cont.4.ark:41618929
40mc0211 /scratch/ravanelm/exp/dirha/fbank/raw_fbank_tr05_cont.4.ark:45942719
01ro0306 /scratch/ravanelm/exp/dirha/fbank/raw_fbank_tr05_cont.2.ark:8324419
207o010s /scratch/ravanelm/exp/dirha/fbank/raw_fbank_tr05_cont.3.ark:7521379
40po0315 /scratch/ravanelm/exp/dirha/fbank/raw_fbank_tr05_cont.4.ark:53969229
028c0204 /scratch/ravanelm/exp/dirha/fbank/raw_fbank_tr05_cont.2.ark:39856359
01qc0211 /scratch/ravanelm/exp/dirha/fbank/raw_fbank_tr05_cont.2.ark:4617369
40ko030p /scratch/ravanelm/exp/dirha/fbank/raw_fbank_tr05_cont.4.ark:40473389
01uc020s /scratch/ravanelm/exp/dirha/fbank/raw_fbank_tr05_cont.2.ark:13953239
20nc010d /scratch/ravanelm/exp/dirha/fbank/raw_fbank_tr05_cont.3.ark:28808149
015c0212 /scratch/ravanelm/exp/dirha/fbank/raw_fbank_tr05_cont.1.ark:10438989
011c0211 /scratch/ravanelm/exp/dirha/fbank/raw_fbank_tr05_cont.1.ark:1001329
01lo030v /scratch/ravanelm/exp/dirha/fbank/raw_fbank_tr05_cont.1.ark:53120029
017o031a /scratch/ravanelm/exp/dirha/fbank/raw_fbank_tr05_cont.1.ark:17469679
404c020l /scratch/ravanelm/exp/dirha/fbank/raw_fbank_tr05_cont.3.ark:46069129
027o031b /scratch/ravanelm/exp/dirha/fbank/raw_fbank_tr05_cont.2.ark:39754879
01qc020c /scratch/ravanelm/exp/dirha/fbank/raw_fbank_tr05_cont.2.ark:4009979
205o010o /scratch/ravanelm/exp/dirha/fbank/raw_fbank_tr05_cont.3.ark:4026849
40bo030a /scratch/ravanelm/exp/dirha/fbank/raw_fbank_tr05_cont.4.ark:12688369
01zo0316 /scratch/ravanelm/exp/dirha/fbank/raw_fbank_tr05_cont.2.ark:25751799
01wc021b /scratch/ravanelm/exp/dirha/fbank/raw_fbank_tr05_cont.2.ark:17866049
016o030j /scratch/ravanelm/exp/dirha/fbank/raw_fbank_tr05_cont.1.ark:13913099
205c010b /scratch/ravanelm/exp/dirha/fbank/raw_fbank_tr05_cont.3.ark:2720669
01pc0212 /scratch/ravanelm/exp/dirha/fbank/raw_fbank_tr05_cont.2.ark:1461189
40do030o /scratch/ravanelm/exp/dirha/fbank/raw_fbank_tr05_cont.4.ark:18668389
01dc020x /scratch/ravanelm/exp/dirha/fbank/raw_fbank_tr05_cont.1.ark:28272309
01ec020j /scratch/ravanelm/exp/dirha/fbank/raw_fbank_tr05_cont.1.ark:30901689
401o0307 /scratch/ravanelm/exp/dirha/fbank/raw_fbank_tr05_cont.3.ark:41289849
40kc020b /scratch/ravanelm/exp/dirha/fbank/raw_fbank_tr05_cont.4.ark:38547289
01ec0201 /scratch/ravanelm/exp/dirha/fbank/raw_fbank_tr05_cont.1.ark:30406189
40dc020f /scratch/ravanelm/exp/dirha/fbank/raw_fbank_tr05_cont.4.ark:16846559
014c020l /scratch/ravanelm/exp/dirha/fbank/raw_fbank_tr05_cont.1.ark:6995219
20go010c /scratch/ravanelm/exp/dirha/fbank/raw_fbank_tr05_cont.3.ark:21630699
01lc021b /scratch/ravanelm/exp/dirha/fbank/raw_fbank_tr05_cont.1.ark:51739459
20ic0106 /scratch/ravanelm/exp/dirha/fbank/raw_fbank_tr05_cont.3.ark:23530489
20pc0104 /scratch/ravanelm/exp/dirha/fbank/raw_fbank_tr05_cont.3.ark:31865289
40po030f /scratch/ravanelm/exp/dirha/fbank/raw_fbank_tr05_cont.4.ark:53054529
01jc0203 /scratch/ravanelm/exp/dirha/fbank/raw_fbank_tr05_cont.1.ark:43093389
017o030a /scratch/ravanelm/exp/dirha/fbank/raw_fbank_tr05_cont.1.ark:16353199
206o010k /scratch/ravanelm/exp/dirha/fbank/raw_fbank_tr05_cont.3.ark:5543639
20rc0107 /scratch/ravanelm/exp/dirha/fbank/raw_fbank_tr05_cont.3.ark:35200279
407o030e /scratch/ravanelm/exp/dirha/fbank/raw_fbank_tr05_cont.4.ark:1151609
01qo031f /scratch/ravanelm/exp/dirha/fbank/raw_fbank_tr05_cont.2.ark:6675089
016o030i /scratch/ravanelm/exp/dirha/fbank/raw_fbank_tr05_cont.1.ark:13874469
02cc0209 /scratch/ravanelm/exp/dirha/fbank/raw_fbank_tr05_cont.2.ark:49491339
403o0316 /scratch/ravanelm/exp/dirha/fbank/raw_fbank_tr05_cont.3.ark:45385229
409o0311 /scratch/ravanelm/exp/dirha/fbank/raw_fbank_tr05_cont.4.ark:7367039
016c021b /scratch/ravanelm/exp/dirha/fbank/raw_fbank_tr05_cont.1.ark:13340849
