016c021d /scratch/ravanelm/exp/dirha/fbank/raw_fbank_tr05_cont.1.ark:13375629
02co0311 /scratch/ravanelm/exp/dirha/fbank/raw_fbank_tr05_cont.2.ark:51704139
019o030n /scratch/ravanelm/exp/dirha/fbank/raw_fbank_tr05_cont.1.ark:23129239
020o030i /scratch/ravanelm/exp/dirha/fbank/raw_fbank_tr05_cont.2.ark:27334869
40lo0318 /scratch/ravanelm/exp/dirha/fbank/raw_fbank_tr05_cont.4.ark:44700169
01go0319 /scratch/ravanelm/exp/dirha/fbank/raw_fbank_tr05_cont.1.ark:39377949
029c021c /scratch/ravanelm/exp/dirha/fbank/raw_fbank_tr05_cont.2.ark:44146959
01io0302 /scratch/ravanelm/exp/dirha/fbank/raw_fbank_tr05_cont.1.ark:41163229
408c020p /scratch/ravanelm/exp/dirha/fbank/raw_fbank_tr05_cont.4.ark:2984879
40pc020g /scratch/ravanelm/exp/dirha/fbank/raw_fbank_tr05_cont.4.ark:51737429
407o0309 /scratch/ravanelm/exp/dirha/fbank/raw_fbank_tr05_cont.4.ark:949099
015o030p /scratch/ravanelm/exp/dirha/fbank/raw_fbank_tr05_cont.1.ark:11629059
408o030r /scratch/ravanelm/exp/dirha/fbank/raw_fbank_tr05_cont.4.ark:4351579
01ko031g /scratch/ravanelm/exp/dirha/fbank/raw_fbank_tr05_cont.1.ark:50201289
20vc010l /scratch/ravanelm/exp/dirha/fbank/raw_fbank_tr05_cont.3.ark:38656929
20hc0107 /scratch/ravanelm/exp/dirha/fbank/raw_fbank_tr05_cont.3.ark:22211389
01lc020o /scratch/ravanelm/exp/dirha/fbank/raw_fbank_tr05_cont.1.ark:51033369
015c020t /scratch/ravanelm/exp/dirha/fbank/raw_fbank_tr05_cont.1.ark:10208439
20qo0104 /scratch/ravanelm/exp/dirha/fbank/raw_fbank_tr05_cont.3.ark:34170209
407c020k /scratch/ravanelm/exp/dirha/fbank/raw_fbank_tr05_cont.3.ark:54272289
407c020i /scratch/ravanelm/exp/dirha/fbank/raw_fbank_tr05_cont.3.ark:54206909
40pc0206 /scratch/ravanelm/exp/dirha/fbank/raw_fbank_tr05_cont.4.ark:51547849
016o030l /scratch/ravanelm/exp/dirha/fbank/raw_fbank_tr05_cont.1.ark:13957319
403o0318 /scratch/ravanelm/exp/dirha/fbank/raw_fbank_tr05_cont.3.ark:45451009
013o030a /scratch/ravanelm/exp/dirha/fbank/raw_fbank_tr05_cont.1.ark:5226119
20eo010c /scratch/ravanelm/exp/dirha/fbank/raw_fbank_tr05_cont.3.ark:18719459
02cc0202 /scratch/ravanelm/exp/dirha/fbank/raw_fbank_tr05_cont.2.ark:49266009
20mo0106 /scratch/ravanelm/exp/dirha/fbank/raw_fbank_tr05_cont.3.ark:27819739
20bo010m /scratch/ravanelm/exp/dirha/fbank/raw_fbank_tr05_cont.3.ark:14016369
01dc0204 /scratch/ravanelm/exp/dirha/fbank/raw_fbank_tr05_cont.1.ark:27515439
40ko031a /scratch/ravanelm/exp/dirha/fbank/raw_fbank_tr05_cont.4.ark:41187939
403o0319 /scratch/ravanelm/exp/dirha/fbank/raw_fbank_tr05_cont.3.ark:45474039
026c0207 /scratch/ravanelm/exp/dirha/fbank/raw_fbank_tr05_cont.2.ark:34054929
029c0208 /scratch/ravanelm/exp/dirha/fbank/raw_fbank_tr05_cont.2.ark:43046399
40eo0316 /scratch/ravanelm/exp/dirha/fbank/raw_fbank_tr05_cont.4.ark:21868229
01yc0204 /scratch/ravanelm/exp/dirha/fbank/raw_fbank_tr05_cont.2.ark:19591529
40bc0219 /scratch/ravanelm/exp/dirha/fbank/raw_fbank_tr05_cont.4.ark:12090779
01jo0303 /scratch/ravanelm/exp/dirha/fbank/raw_fbank_tr05_cont.1.ark:44691029
029c021e /scratch/ravanelm/exp/dirha/fbank/raw_fbank_tr05_cont.2.ark:44185819
20tc0109 /scratch/ravanelm/exp/dirha/fbank/raw_fbank_tr05_cont.3.ark:36930879
01jc020m /scratch/ravanelm/exp/dirha/fbank/raw_fbank_tr05_cont.1.ark:43643919
408c020y /scratch/ravanelm/exp/dirha/fbank/raw_fbank_tr05_cont.4.ark:3173039
024c0217 /scratch/ravanelm/exp/dirha/fbank/raw_fbank_tr05_cont.2.ark:32093259
011o031a /scratch/ravanelm/exp/dirha/fbank/raw_fbank_tr05_cont.1.ark:3239099
20fc010f /scratch/ravanelm/exp/dirha/fbank/raw_fbank_tr05_cont.3.ark:19635289
016c0219 /scratch/ravanelm/exp/dirha/fbank/raw_fbank_tr05_cont.1.ark:13283989
20tc0106 /scratch/ravanelm/exp/dirha/fbank/raw_fbank_tr05_cont.3.ark:36865509
20po010a /scratch/ravanelm/exp/dirha/fbank/raw_fbank_tr05_cont.3.ark:32704619
029c0209 /scratch/ravanelm/exp/dirha/fbank/raw_fbank_tr05_cont.2.ark:43066429
019o030j /scratch/ravanelm/exp/dirha/fbank/raw_fbank_tr05_cont.1.ark:23021519
40ec020i /scratch/ravanelm/exp/dirha/fbank/raw_fbank_tr05_cont.4.ark:19798599
020o030t /scratch/ravanelm/exp/dirha/fbank/raw_fbank_tr05_cont.2.ark:27557129
01mo030y /scratch/ravanelm/exp/dirha/fbank/raw_fbank_tr05_cont.1.ark:56437359
409c020l /scratch/ravanelm/exp/dirha/fbank/raw_fbank_tr05_cont.4.ark:5421599
404c020d /scratch/ravanelm/exp/dirha/fbank/raw_fbank_tr05_cont.3.ark:45855449
40bc0209 /scratch/ravanelm/exp/dirha/fbank/raw_fbank_tr05_cont.4.ark:11116059
403o0304 /scratch/ravanelm/exp/dirha/fbank/raw_fbank_tr05_cont.3.ark:44169209
20hc0103 /scratch/ravanelm/exp/dirha/fbank/raw_fbank_tr05_cont.3.ark:22134789
01mo0314 /scratch/ravanelm/exp/dirha/fbank/raw_fbank_tr05_cont.2.ark:57149
01mo030e /scratch/ravanelm/exp/dirha/fbank/raw_fbank_tr05_cont.1.ark:55834319
20vc010k /scratch/ravanelm/exp/dirha/fbank/raw_fbank_tr05_cont.3.ark:38635459
016c0202 /scratch/ravanelm/exp/dirha/fbank/raw_fbank_tr05_cont.1.ark:12338949
01qc0216 /scratch/ravanelm/exp/dirha/fbank/raw_fbank_tr05_cont.2.ark:4768479
017o030g /scratch/ravanelm/exp/dirha/fbank/raw_fbank_tr05_cont.1.ark:16521379
40hc020k /scratch/ravanelm/exp/dirha/fbank/raw_fbank_tr05_cont.4.ark:29603649
01ec0207 /scratch/ravanelm/exp/dirha/fbank/raw_fbank_tr05_cont.1.ark:30599449
407o030e /scratch/ravanelm/exp/dirha/fbank/raw_fbank_tr05_cont.4.ark:1151609
02co030i /scratch/ravanelm/exp/dirha/fbank/raw_fbank_tr05_cont.2.ark:51039929
01io031c /scratch/ravanelm/exp/dirha/fbank/raw_fbank_tr05_cont.1.ark:42890609
018o030q /scratch/ravanelm/exp/dirha/fbank/raw_fbank_tr05_cont.1.ark:20138259
207c010h /scratch/ravanelm/exp/dirha/fbank/raw_fbank_tr05_cont.3.ark:6410309
017c021b /scratch/ravanelm/exp/dirha/fbank/raw_fbank_tr05_cont.1.ark:15894069
401c020a /scratch/ravanelm/exp/dirha/fbank/raw_fbank_tr05_cont.3.ark:39887369
406c020i /scratch/ravanelm/exp/dirha/fbank/raw_fbank_tr05_cont.3.ark:51428619
018c020l /scratch/ravanelm/exp/dirha/fbank/raw_fbank_tr05_cont.1.ark:18219069
01bo030j /scratch/ravanelm/exp/dirha/fbank/raw_fbank_tr05_cont.1.ark:26182289
013o030h /scratch/ravanelm/exp/dirha/fbank/raw_fbank_tr05_cont.1.ark:5440369
207c010i /scratch/ravanelm/exp/dirha/fbank/raw_fbank_tr05_cont.3.ark:6455299
01uc020x /scratch/ravanelm/exp/dirha/fbank/raw_fbank_tr05_cont.2.ark:14123789
40ao030q /scratch/ravanelm/exp/dirha/fbank/raw_fbank_tr05_cont.4.ark:10095239
40lo0304 /scratch/ravanelm/exp/dirha/fbank/raw_fbank_tr05_cont.4.ark:43025209
02eo030x /scratch/ravanelm/exp/dirha/fbank/raw_fbank_tr05_cont.3.ark:376059
020o0310 /scratch/ravanelm/exp/dirha/fbank/raw_fbank_tr05_cont.2.ark:27674399
029o031a /scratch/ravanelm/exp/dirha/fbank/raw_fbank_tr05_cont.2.ark:45853419
028c021e /scratch/ravanelm/exp/dirha/fbank/raw_fbank_tr05_cont.2.ark:41037699
02bo030u /scratch/ravanelm/exp/dirha/fbank/raw_fbank_tr05_cont.2.ark:48482799
01ro0301 /scratch/ravanelm/exp/dirha/fbank/raw_fbank_tr05_cont.2.ark:8190469
01ro030u /scratch/ravanelm/exp/dirha/fbank/raw_fbank_tr05_cont.2.ark:9055179
01lo0315 /scratch/ravanelm/exp/dirha/fbank/raw_fbank_tr05_cont.1.ark:53654209
01to030l /scratch/ravanelm/exp/dirha/fbank/raw_fbank_tr05_cont.2.ark:12005309
20ao010p /scratch/ravanelm/exp/dirha/fbank/raw_fbank_tr05_cont.3.ark:12394879
401c020w /scratch/ravanelm/exp/dirha/fbank/raw_fbank_tr05_cont.3.ark:40508549
405o030m /scratch/ravanelm/exp/dirha/fbank/raw_fbank_tr05_cont.3.ark:50089689
01bo030f /scratch/ravanelm/exp/dirha/fbank/raw_fbank_tr05_cont.1.ark:26027849
40ic020u /scratch/ravanelm/exp/dirha/fbank/raw_fbank_tr05_cont.4.ark:32919629
01uo030x /scratch/ravanelm/exp/dirha/fbank/raw_fbank_tr05_cont.2.ark:15947719
01bc020u /scratch/ravanelm/exp/dirha/fbank/raw_fbank_tr05_cont.1.ark:24808489
01wo030v /scratch/ravanelm/exp/dirha/fbank/raw_fbank_tr05_cont.2.ark:18878869
40ko030v /scratch/ravanelm/exp/dirha/fbank/raw_fbank_tr05_cont.4.ark:40667529
206o010a /scratch/ravanelm/exp/dirha/fbank/raw_fbank_tr05_cont.3.ark:5081019
01ic0209 /scratch/ravanelm/exp/dirha/fbank/raw_fbank_tr05_cont.1.ark:39939589
02bc021b /scratch/ravanelm/exp/dirha/fbank/raw_fbank_tr05_cont.2.ark:47303739
01tc0211 /scratch/ravanelm/exp/dirha/fbank/raw_fbank_tr05_cont.2.ark:10878099
40kc021d /scratch/ravanelm/exp/dirha/fbank/raw_fbank_tr05_cont.4.ark:39601189
40co030i /scratch/ravanelm/exp/dirha/fbank/raw_fbank_tr05_cont.4.ark:15602209
01eo030h /scratch/ravanelm/exp/dirha/fbank/raw_fbank_tr05_cont.1.ark:32300929
40lc020i /scratch/ravanelm/exp/dirha/fbank/raw_fbank_tr05_cont.4.ark:41845899
017c020g /scratch/ravanelm/exp/dirha/fbank/raw_fbank_tr05_cont.1.ark:15172139
20fc010n /scratch/ravanelm/exp/dirha/fbank/raw_fbank_tr05_cont.3.ark:19852889
016o030v /scratch/ravanelm/exp/dirha/fbank/raw_fbank_tr05_cont.1.ark:14188979
027c021g /scratch/ravanelm/exp/dirha/fbank/raw_fbank_tr05_cont.2.ark:38009039
026o030n /scratch/ravanelm/exp/dirha/fbank/raw_fbank_tr05_cont.2.ark:35820929
20no010f /scratch/ravanelm/exp/dirha/fbank/raw_fbank_tr05_cont.3.ark:29818959
406c0203 /scratch/ravanelm/exp/dirha/fbank/raw_fbank_tr05_cont.3.ark:51018009
029c021d /scratch/ravanelm/exp/dirha/fbank/raw_fbank_tr05_cont.2.ark:44162909
02co030h /scratch/ravanelm/exp/dirha/fbank/raw_fbank_tr05_cont.2.ark:51020899
20bo0107 /scratch/ravanelm/exp/dirha/fbank/raw_fbank_tr05_cont.3.ark:13353359
017c020w /scratch/ravanelm/exp/dirha/fbank/raw_fbank_tr05_cont.1.ark:15531659
01qc0203 /scratch/ravanelm/exp/dirha/fbank/raw_fbank_tr05_cont.2.ark:3713229
20ao010b /scratch/ravanelm/exp/dirha/fbank/raw_fbank_tr05_cont.3.ark:11812939
401o030v /scratch/ravanelm/exp/dirha/fbank/raw_fbank_tr05_cont.3.ark:42183369
20lo010p /scratch/ravanelm/exp/dirha/fbank/raw_fbank_tr05_cont.3.ark:26928459
018o030s /scratch/ravanelm/exp/dirha/fbank/raw_fbank_tr05_cont.1.ark:20208039
20eo0104 /scratch/ravanelm/exp/dirha/fbank/raw_fbank_tr05_cont.3.ark:18397939
20lc010m /scratch/ravanelm/exp/dirha/fbank/raw_fbank_tr05_cont.3.ark:25659989
40ic020r /scratch/ravanelm/exp/dirha/fbank/raw_fbank_tr05_cont.4.ark:32863099
40lc0213 /scratch/ravanelm/exp/dirha/fbank/raw_fbank_tr05_cont.4.ark:42479289
20pc010c /scratch/ravanelm/exp/dirha/fbank/raw_fbank_tr05_cont.3.ark:32065529
405c0217 /scratch/ravanelm/exp/dirha/fbank/raw_fbank_tr05_cont.3.ark:49257549
40ec020y /scratch/ravanelm/exp/dirha/fbank/raw_fbank_tr05_cont.4.ark:20151599
028o0301 /scratch/ravanelm/exp/dirha/fbank/raw_fbank_tr05_cont.2.ark:41095519
021c0207 /scratch/ravanelm/exp/dirha/fbank/raw_fbank_tr05_cont.2.ark:28204479
016c021c /scratch/ravanelm/exp/dirha/fbank/raw_fbank_tr05_cont.1.ark:13358959
20tc010i /scratch/ravanelm/exp/dirha/fbank/raw_fbank_tr05_cont.3.ark:37180989
018o0311 /scratch/ravanelm/exp/dirha/fbank/raw_fbank_tr05_cont.1.ark:20588549
026o0315 /scratch/ravanelm/exp/dirha/fbank/raw_fbank_tr05_cont.2.ark:36402629
20bc010c /scratch/ravanelm/exp/dirha/fbank/raw_fbank_tr05_cont.3.ark:12732149
403o030t /scratch/ravanelm/exp/dirha/fbank/raw_fbank_tr05_cont.3.ark:44976759
407o030p /scratch/ravanelm/exp/dirha/fbank/raw_fbank_tr05_cont.4.ark:1597219
01uo030y /scratch/ravanelm/exp/dirha/fbank/raw_fbank_tr05_cont.2.ark:15991469
01ro030d /scratch/ravanelm/exp/dirha/fbank/raw_fbank_tr05_cont.2.ark:8474469
204o0102 /scratch/ravanelm/exp/dirha/fbank/raw_fbank_tr05_cont.3.ark:1619379
20lc0102 /scratch/ravanelm/exp/dirha/fbank/raw_fbank_tr05_cont.3.ark:24985309
01tc021b /scratch/ravanelm/exp/dirha/fbank/raw_fbank_tr05_cont.2.ark:11170999
40pc020d /scratch/ravanelm/exp/dirha/fbank/raw_fbank_tr05_cont.4.ark:51666419
405c021d /scratch/ravanelm/exp/dirha/fbank/raw_fbank_tr05_cont.3.ark:49422249
01go0302 /scratch/ravanelm/exp/dirha/fbank/raw_fbank_tr05_cont.1.ark:37821859
01ic020k /scratch/ravanelm/exp/dirha/fbank/raw_fbank_tr05_cont.1.ark:40282759
40po0309 /scratch/ravanelm/exp/dirha/fbank/raw_fbank_tr05_cont.4.ark:52815949
20do010j /scratch/ravanelm/exp/dirha/fbank/raw_fbank_tr05_cont.3.ark:17205579
020c020m /scratch/ravanelm/exp/dirha/fbank/raw_fbank_tr05_cont.2.ark:26547479
40bc020o /scratch/ravanelm/exp/dirha/fbank/raw_fbank_tr05_cont.4.ark:11513669
01pc020o /scratch/ravanelm/exp/dirha/fbank/raw_fbank_tr05_cont.2.ark:1050409
01uo031c /scratch/ravanelm/exp/dirha/fbank/raw_fbank_tr05_cont.2.ark:16537649
01ko031f /scratch/ravanelm/exp/dirha/fbank/raw_fbank_tr05_cont.1.ark:50144379
01ec0202 /scratch/ravanelm/exp/dirha/fbank/raw_fbank_tr05_cont.1.ark:30435939
01wc020z /scratch/ravanelm/exp/dirha/fbank/raw_fbank_tr05_cont.2.ark:17590079
01pc020s /scratch/ravanelm/exp/dirha/fbank/raw_fbank_tr05_cont.2.ark:1185569
01uc020b /scratch/ravanelm/exp/dirha/fbank/raw_fbank_tr05_cont.2.ark:13483329
026c0216 /scratch/ravanelm/exp/dirha/fbank/raw_fbank_tr05_cont.2.ark:34842139
204c010j /scratch/ravanelm/exp/dirha/fbank/raw_fbank_tr05_cont.3.ark:1432659
01yo030h /scratch/ravanelm/exp/dirha/fbank/raw_fbank_tr05_cont.2.ark:21452319
20gc010d /scratch/ravanelm/exp/dirha/fbank/raw_fbank_tr05_cont.3.ark:21023159
20ho010a /scratch/ravanelm/exp/dirha/fbank/raw_fbank_tr05_cont.3.ark:22933859
021c021e /scratch/ravanelm/exp/dirha/fbank/raw_fbank_tr05_cont.2.ark:29335729
40ec021c /scratch/ravanelm/exp/dirha/fbank/raw_fbank_tr05_cont.4.ark:20449179
20ac010n /scratch/ravanelm/exp/dirha/fbank/raw_fbank_tr05_cont.3.ark:11324259
01lc020i /scratch/ravanelm/exp/dirha/fbank/raw_fbank_tr05_cont.1.ark:50862509
01tc020h /scratch/ravanelm/exp/dirha/fbank/raw_fbank_tr05_cont.2.ark:10178139
40nc0211 /scratch/ravanelm/exp/dirha/fbank/raw_fbank_tr05_cont.4.ark:49131869
40cc020h /scratch/ravanelm/exp/dirha/fbank/raw_fbank_tr05_cont.4.ark:14368359
404o030j /scratch/ravanelm/exp/dirha/fbank/raw_fbank_tr05_cont.3.ark:47369159
01rc0211 /scratch/ravanelm/exp/dirha/fbank/raw_fbank_tr05_cont.2.ark:7800269
406c020k /scratch/ravanelm/exp/dirha/fbank/raw_fbank_tr05_cont.3.ark:51466359
20ro010g /scratch/ravanelm/exp/dirha/fbank/raw_fbank_tr05_cont.3.ark:36255319
40hc021f /scratch/ravanelm/exp/dirha/fbank/raw_fbank_tr05_cont.4.ark:30393899
024c020i /scratch/ravanelm/exp/dirha/fbank/raw_fbank_tr05_cont.2.ark:31425389
20gc0106 /scratch/ravanelm/exp/dirha/fbank/raw_fbank_tr05_cont.3.ark:20844869
209c010k /scratch/ravanelm/exp/dirha/fbank/raw_fbank_tr05_cont.3.ark:9724399
40jc020n /scratch/ravanelm/exp/dirha/fbank/raw_fbank_tr05_cont.4.ark:35698299
40cc020a /scratch/ravanelm/exp/dirha/fbank/raw_fbank_tr05_cont.4.ark:14199789
020c020o /scratch/ravanelm/exp/dirha/fbank/raw_fbank_tr05_cont.2.ark:26590019
20bo010a /scratch/ravanelm/exp/dirha/fbank/raw_fbank_tr05_cont.3.ark:13504169
40kc020g /scratch/ravanelm/exp/dirha/fbank/raw_fbank_tr05_cont.4.ark:38703479
20nc0105 /scratch/ravanelm/exp/dirha/fbank/raw_fbank_tr05_cont.3.ark:28585109
01io030k /scratch/ravanelm/exp/dirha/fbank/raw_fbank_tr05_cont.1.ark:41916809
01go030v /scratch/ravanelm/exp/dirha/fbank/raw_fbank_tr05_cont.1.ark:38851049
40no0302 /scratch/ravanelm/exp/dirha/fbank/raw_fbank_tr05_cont.4.ark:49598539
019c0203 /scratch/ravanelm/exp/dirha/fbank/raw_fbank_tr05_cont.1.ark:21130249
01qo031f /scratch/ravanelm/exp/dirha/fbank/raw_fbank_tr05_cont.2.ark:6675089
20nc0109 /scratch/ravanelm/exp/dirha/fbank/raw_fbank_tr05_cont.3.ark:28701629
01kc020k /scratch/ravanelm/exp/dirha/fbank/raw_fbank_tr05_cont.1.ark:47099509
40do030h /scratch/ravanelm/exp/dirha/fbank/raw_fbank_tr05_cont.4.ark:18401019
028o0314 /scratch/ravanelm/exp/dirha/fbank/raw_fbank_tr05_cont.2.ark:42520809
40fo030b /scratch/ravanelm/exp/dirha/fbank/raw_fbank_tr05_cont.4.ark:23802949
01yc020v /scratch/ravanelm/exp/dirha/fbank/raw_fbank_tr05_cont.2.ark:20365499
405o030n /scratch/ravanelm/exp/dirha/fbank/raw_fbank_tr05_cont.3.ark:50115839
02ec0210 /scratch/ravanelm/exp/dirha/fbank/raw_fbank_tr05_cont.2.ark:53331849
017o030z /scratch/ravanelm/exp/dirha/fbank/raw_fbank_tr05_cont.1.ark:17124509
40ho0312 /scratch/ravanelm/exp/dirha/fbank/raw_fbank_tr05_cont.4.ark:31634039
028c0205 /scratch/ravanelm/exp/dirha/fbank/raw_fbank_tr05_cont.2.ark:39878229
01do0308 /scratch/ravanelm/exp/dirha/fbank/raw_fbank_tr05_cont.1.ark:29030409
017c020k /scratch/ravanelm/exp/dirha/fbank/raw_fbank_tr05_cont.1.ark:15262419
01ro0306 /scratch/ravanelm/exp/dirha/fbank/raw_fbank_tr05_cont.2.ark:8324419
20tc010p /scratch/ravanelm/exp/dirha/fbank/raw_fbank_tr05_cont.3.ark:37382639
01pc020a /scratch/ravanelm/exp/dirha/fbank/raw_fbank_tr05_cont.2.ark:670469
01ec0212 /scratch/ravanelm/exp/dirha/fbank/raw_fbank_tr05_cont.1.ark:31457219
026o0313 /scratch/ravanelm/exp/dirha/fbank/raw_fbank_tr05_cont.2.ark:36326609
40nc0218 /scratch/ravanelm/exp/dirha/fbank/raw_fbank_tr05_cont.4.ark:49347759
01mc020j /scratch/ravanelm/exp/dirha/fbank/raw_fbank_tr05_cont.1.ark:54516299
406o030x /scratch/ravanelm/exp/dirha/fbank/raw_fbank_tr05_cont.3.ark:53203729
20qc010c /scratch/ravanelm/exp/dirha/fbank/raw_fbank_tr05_cont.3.ark:33623059
20do010i /scratch/ravanelm/exp/dirha/fbank/raw_fbank_tr05_cont.3.ark:17154269
209o010l /scratch/ravanelm/exp/dirha/fbank/raw_fbank_tr05_cont.3.ark:10556649
01rc020p /scratch/ravanelm/exp/dirha/fbank/raw_fbank_tr05_cont.2.ark:7427709
020c020u /scratch/ravanelm/exp/dirha/fbank/raw_fbank_tr05_cont.2.ark:26693199
20ro010o /scratch/ravanelm/exp/dirha/fbank/raw_fbank_tr05_cont.3.ark:36586119
40kc021a /scratch/ravanelm/exp/dirha/fbank/raw_fbank_tr05_cont.4.ark:39500419
01ec0216 /scratch/ravanelm/exp/dirha/fbank/raw_fbank_tr05_cont.1.ark:31596019
20fo010m /scratch/ravanelm/exp/dirha/fbank/raw_fbank_tr05_cont.3.ark:20632039
018o030x /scratch/ravanelm/exp/dirha/fbank/raw_fbank_tr05_cont.1.ark:20427269
018o0314 /scratch/ravanelm/exp/dirha/fbank/raw_fbank_tr05_cont.1.ark:20731159
20ao010k /scratch/ravanelm/exp/dirha/fbank/raw_fbank_tr05_cont.3.ark:12196089
208o010k /scratch/ravanelm/exp/dirha/fbank/raw_fbank_tr05_cont.3.ark:9013749
40mc0212 /scratch/ravanelm/exp/dirha/fbank/raw_fbank_tr05_cont.4.ark:45958349
016o0315 /scratch/ravanelm/exp/dirha/fbank/raw_fbank_tr05_cont.1.ark:14487799
405c021c /scratch/ravanelm/exp/dirha/fbank/raw_fbank_tr05_cont.3.ark:49390859
206o010n /scratch/ravanelm/exp/dirha/fbank/raw_fbank_tr05_cont.3.ark:5712609
013o0318 /scratch/ravanelm/exp/dirha/fbank/raw_fbank_tr05_cont.1.ark:6303219
026o0307 /scratch/ravanelm/exp/dirha/fbank/raw_fbank_tr05_cont.2.ark:35333249
40cc0218 /scratch/ravanelm/exp/dirha/fbank/raw_fbank_tr05_cont.4.ark:14954809
401o030p /scratch/ravanelm/exp/dirha/fbank/raw_fbank_tr05_cont.3.ark:41991549
01fc0213 /scratch/ravanelm/exp/dirha/fbank/raw_fbank_tr05_cont.1.ark:34421589
011c020p /scratch/ravanelm/exp/dirha/fbank/raw_fbank_tr05_cont.1.ark:664729
405o0317 /scratch/ravanelm/exp/dirha/fbank/raw_fbank_tr05_cont.3.ark:50688519
209c0103 /scratch/ravanelm/exp/dirha/fbank/raw_fbank_tr05_cont.3.ark:9328769
20mc010a /scratch/ravanelm/exp/dirha/fbank/raw_fbank_tr05_cont.3.ark:27227429
01yc021a /scratch/ravanelm/exp/dirha/fbank/raw_fbank_tr05_cont.2.ark:20750349
01lo031c /scratch/ravanelm/exp/dirha/fbank/raw_fbank_tr05_cont.1.ark:53984259
01io0318 /scratch/ravanelm/exp/dirha/fbank/raw_fbank_tr05_cont.1.ark:42783609
207o0105 /scratch/ravanelm/exp/dirha/fbank/raw_fbank_tr05_cont.3.ark:6778449
01ec020k /scratch/ravanelm/exp/dirha/fbank/raw_fbank_tr05_cont.1.ark:30926079
02bo030m /scratch/ravanelm/exp/dirha/fbank/raw_fbank_tr05_cont.2.ark:48162799
01jo030j /scratch/ravanelm/exp/dirha/fbank/raw_fbank_tr05_cont.1.ark:45296589
405c020k /scratch/ravanelm/exp/dirha/fbank/raw_fbank_tr05_cont.3.ark:48747419
207o010k /scratch/ravanelm/exp/dirha/fbank/raw_fbank_tr05_cont.3.ark:7292259
20qo010i /scratch/ravanelm/exp/dirha/fbank/raw_fbank_tr05_cont.3.ark:34707669
20no010n /scratch/ravanelm/exp/dirha/fbank/raw_fbank_tr05_cont.3.ark:30150959
207o010q /scratch/ravanelm/exp/dirha/fbank/raw_fbank_tr05_cont.3.ark:7480439
017c020z /scratch/ravanelm/exp/dirha/fbank/raw_fbank_tr05_cont.1.ark:15607349
01yc0211 /scratch/ravanelm/exp/dirha/fbank/raw_fbank_tr05_cont.2.ark:20524519
027o0311 /scratch/ravanelm/exp/dirha/fbank/raw_fbank_tr05_cont.2.ark:39439939
01tc020u /scratch/ravanelm/exp/dirha/fbank/raw_fbank_tr05_cont.2.ark:10634169
40dc020p /scratch/ravanelm/exp/dirha/fbank/raw_fbank_tr05_cont.4.ark:17156699
01wo0303 /scratch/ravanelm/exp/dirha/fbank/raw_fbank_tr05_cont.2.ark:18058379
01eo0312 /scratch/ravanelm/exp/dirha/fbank/raw_fbank_tr05_cont.1.ark:32957719
40ko030l /scratch/ravanelm/exp/dirha/fbank/raw_fbank_tr05_cont.4.ark:40303549
01to030h /scratch/ravanelm/exp/dirha/fbank/raw_fbank_tr05_cont.2.ark:11855109
20cc0101 /scratch/ravanelm/exp/dirha/fbank/raw_fbank_tr05_cont.3.ark:14271269
40ac0219 /scratch/ravanelm/exp/dirha/fbank/raw_fbank_tr05_cont.4.ark:9147029
020o0306 /scratch/ravanelm/exp/dirha/fbank/raw_fbank_tr05_cont.2.ark:27180019
017c020h /scratch/ravanelm/exp/dirha/fbank/raw_fbank_tr05_cont.1.ark:15197609
024o030r /scratch/ravanelm/exp/dirha/fbank/raw_fbank_tr05_cont.2.ark:33111159
403o030r /scratch/ravanelm/exp/dirha/fbank/raw_fbank_tr05_cont.3.ark:44884059
01pc020d /scratch/ravanelm/exp/dirha/fbank/raw_fbank_tr05_cont.2.ark:770999
024o030m /scratch/ravanelm/exp/dirha/fbank/raw_fbank_tr05_cont.2.ark:33010529
01tc021g /scratch/ravanelm/exp/dirha/fbank/raw_fbank_tr05_cont.2.ark:11294989
40jc0207 /scratch/ravanelm/exp/dirha/fbank/raw_fbank_tr05_cont.4.ark:35307299
207c010f /scratch/ravanelm/exp/dirha/fbank/raw_fbank_tr05_cont.3.ark:6333689
013o031d /scratch/ravanelm/exp/dirha/fbank/raw_fbank_tr05_cont.1.ark:6434329
01yc020i /scratch/ravanelm/exp/dirha/fbank/raw_fbank_tr05_cont.2.ark:20023269
026o030t /scratch/ravanelm/exp/dirha/fbank/raw_fbank_tr05_cont.2.ark:35984429
40mo030i /scratch/ravanelm/exp/dirha/fbank/raw_fbank_tr05_cont.4.ark:47016269
40fc020k /scratch/ravanelm/exp/dirha/fbank/raw_fbank_tr05_cont.4.ark:22519739
20dc010j /scratch/ravanelm/exp/dirha/fbank/raw_fbank_tr05_cont.3.ark:16292349
20fc0107 /scratch/ravanelm/exp/dirha/fbank/raw_fbank_tr05_cont.3.ark:19454009
40ko030t /scratch/ravanelm/exp/dirha/fbank/raw_fbank_tr05_cont.4.ark:40619709
028c020y /scratch/ravanelm/exp/dirha/fbank/raw_fbank_tr05_cont.2.ark:40577259
20oo010r /scratch/ravanelm/exp/dirha/fbank/raw_fbank_tr05_cont.3.ark:31780529
40fc020f /scratch/ravanelm/exp/dirha/fbank/raw_fbank_tr05_cont.4.ark:22385829
01qc021c /scratch/ravanelm/exp/dirha/fbank/raw_fbank_tr05_cont.2.ark:4924419
40bo030u /scratch/ravanelm/exp/dirha/fbank/raw_fbank_tr05_cont.4.ark:13398609
01ko030v /scratch/ravanelm/exp/dirha/fbank/raw_fbank_tr05_cont.1.ark:49308299
207c0108 /scratch/ravanelm/exp/dirha/fbank/raw_fbank_tr05_cont.3.ark:6104039
01qo030d /scratch/ravanelm/exp/dirha/fbank/raw_fbank_tr05_cont.2.ark:5451989
01dc020h /scratch/ravanelm/exp/dirha/fbank/raw_fbank_tr05_cont.1.ark:27855109
018c020y /scratch/ravanelm/exp/dirha/fbank/raw_fbank_tr05_cont.1.ark:18573659
40jo030k /scratch/ravanelm/exp/dirha/fbank/raw_fbank_tr05_cont.4.ark:37162149
40hc0211 /scratch/ravanelm/exp/dirha/fbank/raw_fbank_tr05_cont.4.ark:30030439
40gc0219 /scratch/ravanelm/exp/dirha/fbank/raw_fbank_tr05_cont.4.ark:26743849
027o030z /scratch/ravanelm/exp/dirha/fbank/raw_fbank_tr05_cont.2.ark:39360359
40jc0201 /scratch/ravanelm/exp/dirha/fbank/raw_fbank_tr05_cont.4.ark:35147279
408o0303 /scratch/ravanelm/exp/dirha/fbank/raw_fbank_tr05_cont.4.ark:3625979
40io030t /scratch/ravanelm/exp/dirha/fbank/raw_fbank_tr05_cont.4.ark:34403169
011o031d /scratch/ravanelm/exp/dirha/fbank/raw_fbank_tr05_cont.1.ark:3389789
40lc0218 /scratch/ravanelm/exp/dirha/fbank/raw_fbank_tr05_cont.4.ark:42665639
021o030l /scratch/ravanelm/exp/dirha/fbank/raw_fbank_tr05_cont.2.ark:29986469
20rc0101 /scratch/ravanelm/exp/dirha/fbank/raw_fbank_tr05_cont.3.ark:35016979
401o030s /scratch/ravanelm/exp/dirha/fbank/raw_fbank_tr05_cont.3.ark:42127279
01uo030j /scratch/ravanelm/exp/dirha/fbank/raw_fbank_tr05_cont.2.ark:15387379
403c020m /scratch/ravanelm/exp/dirha/fbank/raw_fbank_tr05_cont.3.ark:43355619
013o0317 /scratch/ravanelm/exp/dirha/fbank/raw_fbank_tr05_cont.1.ark:6274069
206o010d /scratch/ravanelm/exp/dirha/fbank/raw_fbank_tr05_cont.3.ark:5261029
01lc021d /scratch/ravanelm/exp/dirha/fbank/raw_fbank_tr05_cont.1.ark:51812959
20mc0109 /scratch/ravanelm/exp/dirha/fbank/raw_fbank_tr05_cont.3.ark:27211719
407o030o /scratch/ravanelm/exp/dirha/fbank/raw_fbank_tr05_cont.4.ark:1550269
40ho030e /scratch/ravanelm/exp/dirha/fbank/raw_fbank_tr05_cont.4.ark:30825319
40kc0217 /scratch/ravanelm/exp/dirha/fbank/raw_fbank_tr05_cont.4.ark:39431689
01uo030q /scratch/ravanelm/exp/dirha/fbank/raw_fbank_tr05_cont.2.ark:15646709
20to010o /scratch/ravanelm/exp/dirha/fbank/raw_fbank_tr05_cont.3.ark:38040589
01do030k /scratch/ravanelm/exp/dirha/fbank/raw_fbank_tr05_cont.1.ark:29440049
405o0311 /scratch/ravanelm/exp/dirha/fbank/raw_fbank_tr05_cont.3.ark:50487219
206o010s /scratch/ravanelm/exp/dirha/fbank/raw_fbank_tr05_cont.3.ark:5908519
20ro010l /scratch/ravanelm/exp/dirha/fbank/raw_fbank_tr05_cont.3.ark:36449949
01dc020w /scratch/ravanelm/exp/dirha/fbank/raw_fbank_tr05_cont.1.ark:28235839
029o030s /scratch/ravanelm/exp/dirha/fbank/raw_fbank_tr05_cont.2.ark:45227759
404c020x /scratch/ravanelm/exp/dirha/fbank/raw_fbank_tr05_cont.3.ark:46349649
406c020t /scratch/ravanelm/exp/dirha/fbank/raw_fbank_tr05_cont.3.ark:51627399
409c020c /scratch/ravanelm/exp/dirha/fbank/raw_fbank_tr05_cont.4.ark:5171449
029c020i /scratch/ravanelm/exp/dirha/fbank/raw_fbank_tr05_cont.2.ark:43329019
20po010o /scratch/ravanelm/exp/dirha/fbank/raw_fbank_tr05_cont.3.ark:33140959
40ec020o /scratch/ravanelm/exp/dirha/fbank/raw_fbank_tr05_cont.4.ark:19927819
026o0310 /scratch/ravanelm/exp/dirha/fbank/raw_fbank_tr05_cont.2.ark:36215839
026c021e /scratch/ravanelm/exp/dirha/fbank/raw_fbank_tr05_cont.2.ark:35063939
405o031a /scratch/ravanelm/exp/dirha/fbank/raw_fbank_tr05_cont.3.ark:50781009
209o010d /scratch/ravanelm/exp/dirha/fbank/raw_fbank_tr05_cont.3.ark:10296649
40io0305 /scratch/ravanelm/exp/dirha/fbank/raw_fbank_tr05_cont.4.ark:33642769
01bo0319 /scratch/ravanelm/exp/dirha/fbank/raw_fbank_tr05_cont.1.ark:27184199
02cc021a /scratch/ravanelm/exp/dirha/fbank/raw_fbank_tr05_cont.2.ark:50390119
01do0306 /scratch/ravanelm/exp/dirha/fbank/raw_fbank_tr05_cont.1.ark:28962589
01qo030l /scratch/ravanelm/exp/dirha/fbank/raw_fbank_tr05_cont.2.ark:5756629
20ic010g /scratch/ravanelm/exp/dirha/fbank/raw_fbank_tr05_cont.3.ark:23794789
40jc0206 /scratch/ravanelm/exp/dirha/fbank/raw_fbank_tr05_cont.4.ark:35288349
016o0305 /scratch/ravanelm/exp/dirha/fbank/raw_fbank_tr05_cont.1.ark:13535659
40dc020m /scratch/ravanelm/exp/dirha/fbank/raw_fbank_tr05_cont.4.ark:17063089
208o0103 /scratch/ravanelm/exp/dirha/fbank/raw_fbank_tr05_cont.3.ark:8451879
40ko030r /scratch/ravanelm/exp/dirha/fbank/raw_fbank_tr05_cont.4.ark:40529329
20to010e /scratch/ravanelm/exp/dirha/fbank/raw_fbank_tr05_cont.3.ark:37754689
021o0308 /scratch/ravanelm/exp/dirha/fbank/raw_fbank_tr05_cont.2.ark:29579319
20fo010o /scratch/ravanelm/exp/dirha/fbank/raw_fbank_tr05_cont.3.ark:20680579
014o030j /scratch/ravanelm/exp/dirha/fbank/raw_fbank_tr05_cont.1.ark:8340349
01yo0312 /scratch/ravanelm/exp/dirha/fbank/raw_fbank_tr05_cont.2.ark:22243109
014o0318 /scratch/ravanelm/exp/dirha/fbank/raw_fbank_tr05_cont.1.ark:9226739
40cc0215 /scratch/ravanelm/exp/dirha/fbank/raw_fbank_tr05_cont.4.ark:14894879
40no030w /scratch/ravanelm/exp/dirha/fbank/raw_fbank_tr05_cont.4.ark:50701639
019c0213 /scratch/ravanelm/exp/dirha/fbank/raw_fbank_tr05_cont.1.ark:22017169
407o0310 /scratch/ravanelm/exp/dirha/fbank/raw_fbank_tr05_cont.4.ark:2038869
02ec020i /scratch/ravanelm/exp/dirha/fbank/raw_fbank_tr05_cont.2.ark:52823909
20fc010q /scratch/ravanelm/exp/dirha/fbank/raw_fbank_tr05_cont.3.ark:19923459
406o0310 /scratch/ravanelm/exp/dirha/fbank/raw_fbank_tr05_cont.3.ark:53295659
01eo030u /scratch/ravanelm/exp/dirha/fbank/raw_fbank_tr05_cont.1.ark:32687199
024o030e /scratch/ravanelm/exp/dirha/fbank/raw_fbank_tr05_cont.2.ark:32749569
207o010l /scratch/ravanelm/exp/dirha/fbank/raw_fbank_tr05_cont.3.ark:7311729
01yc020z /scratch/ravanelm/exp/dirha/fbank/raw_fbank_tr05_cont.2.ark:20493539
01uc0218 /scratch/ravanelm/exp/dirha/fbank/raw_fbank_tr05_cont.2.ark:14520079
029o030f /scratch/ravanelm/exp/dirha/fbank/raw_fbank_tr05_cont.2.ark:44730809
017c0218 /scratch/ravanelm/exp/dirha/fbank/raw_fbank_tr05_cont.1.ark:15843539
409o0318 /scratch/ravanelm/exp/dirha/fbank/raw_fbank_tr05_cont.4.ark:7563929
01uo030b /scratch/ravanelm/exp/dirha/fbank/raw_fbank_tr05_cont.2.ark:15135059
01mc0207 /scratch/ravanelm/exp/dirha/fbank/raw_fbank_tr05_cont.1.ark:54226419
207c0105 /scratch/ravanelm/exp/dirha/fbank/raw_fbank_tr05_cont.3.ark:6039309
01eo0313 /scratch/ravanelm/exp/dirha/fbank/raw_fbank_tr05_cont.1.ark:32988069
40gc0211 /scratch/ravanelm/exp/dirha/fbank/raw_fbank_tr05_cont.4.ark:26409169
403o030o /scratch/ravanelm/exp/dirha/fbank/raw_fbank_tr05_cont.3.ark:44796729
405c020w /scratch/ravanelm/exp/dirha/fbank/raw_fbank_tr05_cont.3.ark:48993179
01ko030l /scratch/ravanelm/exp/dirha/fbank/raw_fbank_tr05_cont.1.ark:48928439
20bc0106 /scratch/ravanelm/exp/dirha/fbank/raw_fbank_tr05_cont.3.ark:12596929
013o030y /scratch/ravanelm/exp/dirha/fbank/raw_fbank_tr05_cont.1.ark:5971279
01fo0310 /scratch/ravanelm/exp/dirha/fbank/raw_fbank_tr05_cont.1.ark:35924779
403o030d /scratch/ravanelm/exp/dirha/fbank/raw_fbank_tr05_cont.3.ark:44506079
40bo030w /scratch/ravanelm/exp/dirha/fbank/raw_fbank_tr05_cont.4.ark:13463389
209o0106 /scratch/ravanelm/exp/dirha/fbank/raw_fbank_tr05_cont.3.ark:10103559
40fo030i /scratch/ravanelm/exp/dirha/fbank/raw_fbank_tr05_cont.4.ark:24026599
40ec0208 /scratch/ravanelm/exp/dirha/fbank/raw_fbank_tr05_cont.4.ark:19582379
02cc020u /scratch/ravanelm/exp/dirha/fbank/raw_fbank_tr05_cont.2.ark:49976979
018c0217 /scratch/ravanelm/exp/dirha/fbank/raw_fbank_tr05_cont.1.ark:18851169
40nc0204 /scratch/ravanelm/exp/dirha/fbank/raw_fbank_tr05_cont.4.ark:48132119
024c0212 /scratch/ravanelm/exp/dirha/fbank/raw_fbank_tr05_cont.2.ark:31952829
20oo0108 /scratch/ravanelm/exp/dirha/fbank/raw_fbank_tr05_cont.3.ark:31088999
401c020g /scratch/ravanelm/exp/dirha/fbank/raw_fbank_tr05_cont.3.ark:40067549
403c0209 /scratch/ravanelm/exp/dirha/fbank/raw_fbank_tr05_cont.3.ark:43033669
40hc020a /scratch/ravanelm/exp/dirha/fbank/raw_fbank_tr05_cont.4.ark:29384109
01ec020s /scratch/ravanelm/exp/dirha/fbank/raw_fbank_tr05_cont.1.ark:31141959
40ao0318 /scratch/ravanelm/exp/dirha/fbank/raw_fbank_tr05_cont.4.ark:10699899
029o030v /scratch/ravanelm/exp/dirha/fbank/raw_fbank_tr05_cont.2.ark:45306049
40eo030b /scratch/ravanelm/exp/dirha/fbank/raw_fbank_tr05_cont.4.ark:20953579
40bo030i /scratch/ravanelm/exp/dirha/fbank/raw_fbank_tr05_cont.4.ark:12966489
01eo030s /scratch/ravanelm/exp/dirha/fbank/raw_fbank_tr05_cont.1.ark:32637379
20pc010e /scratch/ravanelm/exp/dirha/fbank/raw_fbank_tr05_cont.3.ark:32097989
403c021b /scratch/ravanelm/exp/dirha/fbank/raw_fbank_tr05_cont.3.ark:43921689
028o030q /scratch/ravanelm/exp/dirha/fbank/raw_fbank_tr05_cont.2.ark:42029749
40do030b /scratch/ravanelm/exp/dirha/fbank/raw_fbank_tr05_cont.4.ark:18214919
014o030f /scratch/ravanelm/exp/dirha/fbank/raw_fbank_tr05_cont.1.ark:8238349
20ec0101 /scratch/ravanelm/exp/dirha/fbank/raw_fbank_tr05_cont.3.ark:17553289
40ko0317 /scratch/ravanelm/exp/dirha/fbank/raw_fbank_tr05_cont.4.ark:41091449
01do0318 /scratch/ravanelm/exp/dirha/fbank/raw_fbank_tr05_cont.1.ark:30162829
20to010j /scratch/ravanelm/exp/dirha/fbank/raw_fbank_tr05_cont.3.ark:37898679
01wc0205 /scratch/ravanelm/exp/dirha/fbank/raw_fbank_tr05_cont.2.ark:16741339
027o030d /scratch/ravanelm/exp/dirha/fbank/raw_fbank_tr05_cont.2.ark:38488299
20ec010n /scratch/ravanelm/exp/dirha/fbank/raw_fbank_tr05_cont.3.ark:18189789
01po030v /scratch/ravanelm/exp/dirha/fbank/raw_fbank_tr05_cont.2.ark:3011869
40bc0210 /scratch/ravanelm/exp/dirha/fbank/raw_fbank_tr05_cont.4.ark:11853389
02eo0313 /scratch/ravanelm/exp/dirha/fbank/raw_fbank_tr05_cont.3.ark:569809
01kc020a /scratch/ravanelm/exp/dirha/fbank/raw_fbank_tr05_cont.1.ark:46787719
028c020k /scratch/ravanelm/exp/dirha/fbank/raw_fbank_tr05_cont.2.ark:40207879
40gc021a /scratch/ravanelm/exp/dirha/fbank/raw_fbank_tr05_cont.4.ark:26767679
018o0307 /scratch/ravanelm/exp/dirha/fbank/raw_fbank_tr05_cont.1.ark:19418769
40ic020p /scratch/ravanelm/exp/dirha/fbank/raw_fbank_tr05_cont.4.ark:32811759
016c021a /scratch/ravanelm/exp/dirha/fbank/raw_fbank_tr05_cont.1.ark:13316779
207o0104 /scratch/ravanelm/exp/dirha/fbank/raw_fbank_tr05_cont.3.ark:6732259
014o031a /scratch/ravanelm/exp/dirha/fbank/raw_fbank_tr05_cont.1.ark:9290519
01kc0208 /scratch/ravanelm/exp/dirha/fbank/raw_fbank_tr05_cont.1.ark:46738779
20oo010i /scratch/ravanelm/exp/dirha/fbank/raw_fbank_tr05_cont.3.ark:31455139
409c0219 /scratch/ravanelm/exp/dirha/fbank/raw_fbank_tr05_cont.4.ark:6110359
20fo010p /scratch/ravanelm/exp/dirha/fbank/raw_fbank_tr05_cont.3.ark:20702209
01jo0307 /scratch/ravanelm/exp/dirha/fbank/raw_fbank_tr05_cont.1.ark:44846629
01fo0309 /scratch/ravanelm/exp/dirha/fbank/raw_fbank_tr05_cont.1.ark:35110969
405o031d /scratch/ravanelm/exp/dirha/fbank/raw_fbank_tr05_cont.3.ark:50887819
20rc010l /scratch/ravanelm/exp/dirha/fbank/raw_fbank_tr05_cont.3.ark:35597979
027o030o /scratch/ravanelm/exp/dirha/fbank/raw_fbank_tr05_cont.2.ark:38926269
01bc0219 /scratch/ravanelm/exp/dirha/fbank/raw_fbank_tr05_cont.1.ark:25230069
40ao030t /scratch/ravanelm/exp/dirha/fbank/raw_fbank_tr05_cont.4.ark:10194849
40fo0307 /scratch/ravanelm/exp/dirha/fbank/raw_fbank_tr05_cont.4.ark:23648669
01qc020h /scratch/ravanelm/exp/dirha/fbank/raw_fbank_tr05_cont.2.ark:4191129
40no030n /scratch/ravanelm/exp/dirha/fbank/raw_fbank_tr05_cont.4.ark:50422009
028c020v /scratch/ravanelm/exp/dirha/fbank/raw_fbank_tr05_cont.2.ark:40519169
01yo0318 /scratch/ravanelm/exp/dirha/fbank/raw_fbank_tr05_cont.2.ark:22398249
01to0308 /scratch/ravanelm/exp/dirha/fbank/raw_fbank_tr05_cont.2.ark:11518559
40bc020p /scratch/ravanelm/exp/dirha/fbank/raw_fbank_tr05_cont.4.ark:11545499
40po030p /scratch/ravanelm/exp/dirha/fbank/raw_fbank_tr05_cont.4.ark:53445829
40do030s /scratch/ravanelm/exp/dirha/fbank/raw_fbank_tr05_cont.4.ark:18791229
01fo0306 /scratch/ravanelm/exp/dirha/fbank/raw_fbank_tr05_cont.1.ark:34966999
40io030m /scratch/ravanelm/exp/dirha/fbank/raw_fbank_tr05_cont.4.ark:34206519
01kc020t /scratch/ravanelm/exp/dirha/fbank/raw_fbank_tr05_cont.1.ark:47360259
01po0303 /scratch/ravanelm/exp/dirha/fbank/raw_fbank_tr05_cont.2.ark:2030299
01ko031b /scratch/ravanelm/exp/dirha/fbank/raw_fbank_tr05_cont.1.ark:49957979
01rc021a /scratch/ravanelm/exp/dirha/fbank/raw_fbank_tr05_cont.2.ark:8002379
408o0309 /scratch/ravanelm/exp/dirha/fbank/raw_fbank_tr05_cont.4.ark:3841399
029o030o /scratch/ravanelm/exp/dirha/fbank/raw_fbank_tr05_cont.2.ark:45077879
014c020r /scratch/ravanelm/exp/dirha/fbank/raw_fbank_tr05_cont.1.ark:7130319
20co0106 /scratch/ravanelm/exp/dirha/fbank/raw_fbank_tr05_cont.3.ark:15124859
40go030u /scratch/ravanelm/exp/dirha/fbank/raw_fbank_tr05_cont.4.ark:28194969
01ic0211 /scratch/ravanelm/exp/dirha/fbank/raw_fbank_tr05_cont.1.ark:40735589
20ic010k /scratch/ravanelm/exp/dirha/fbank/raw_fbank_tr05_cont.3.ark:23886909
40gc0214 /scratch/ravanelm/exp/dirha/fbank/raw_fbank_tr05_cont.4.ark:26570379
204o0104 /scratch/ravanelm/exp/dirha/fbank/raw_fbank_tr05_cont.3.ark:1680559
02bc020s /scratch/ravanelm/exp/dirha/fbank/raw_fbank_tr05_cont.2.ark:46751849
20mc010g /scratch/ravanelm/exp/dirha/fbank/raw_fbank_tr05_cont.3.ark:27395369
20vc0104 /scratch/ravanelm/exp/dirha/fbank/raw_fbank_tr05_cont.3.ark:38164179
40cc021a /scratch/ravanelm/exp/dirha/fbank/raw_fbank_tr05_cont.4.ark:14998149
011c020r /scratch/ravanelm/exp/dirha/fbank/raw_fbank_tr05_cont.1.ark:740029
209o010p /scratch/ravanelm/exp/dirha/fbank/raw_fbank_tr05_cont.3.ark:10667329
01jo030a /scratch/ravanelm/exp/dirha/fbank/raw_fbank_tr05_cont.1.ark:44925599
02eo0312 /scratch/ravanelm/exp/dirha/fbank/raw_fbank_tr05_cont.3.ark:523219
019o0314 /scratch/ravanelm/exp/dirha/fbank/raw_fbank_tr05_cont.1.ark:23613149
015c020v /scratch/ravanelm/exp/dirha/fbank/raw_fbank_tr05_cont.1.ark:10266739
403c0213 /scratch/ravanelm/exp/dirha/fbank/raw_fbank_tr05_cont.3.ark:43723089
40io031c /scratch/ravanelm/exp/dirha/fbank/raw_fbank_tr05_cont.4.ark:35081139
029o0312 /scratch/ravanelm/exp/dirha/fbank/raw_fbank_tr05_cont.2.ark:45567059
015o030x /scratch/ravanelm/exp/dirha/fbank/raw_fbank_tr05_cont.1.ark:11819979
204c010h /scratch/ravanelm/exp/dirha/fbank/raw_fbank_tr05_cont.3.ark:1379079
019c020g /scratch/ravanelm/exp/dirha/fbank/raw_fbank_tr05_cont.1.ark:21463159
204o010n /scratch/ravanelm/exp/dirha/fbank/raw_fbank_tr05_cont.3.ark:2290809
01jc021f /scratch/ravanelm/exp/dirha/fbank/raw_fbank_tr05_cont.1.ark:44513669
017c020y /scratch/ravanelm/exp/dirha/fbank/raw_fbank_tr05_cont.1.ark:15573879
406o030w /scratch/ravanelm/exp/dirha/fbank/raw_fbank_tr05_cont.3.ark:53179059
019c0215 /scratch/ravanelm/exp/dirha/fbank/raw_fbank_tr05_cont.1.ark:22072949
406c020s /scratch/ravanelm/exp/dirha/fbank/raw_fbank_tr05_cont.3.ark:51602929
408c020m /scratch/ravanelm/exp/dirha/fbank/raw_fbank_tr05_cont.4.ark:2907709
02bc020a /scratch/ravanelm/exp/dirha/fbank/raw_fbank_tr05_cont.2.ark:46253949
01zo0308 /scratch/ravanelm/exp/dirha/fbank/raw_fbank_tr05_cont.2.ark:24320779
40mc020j /scratch/ravanelm/exp/dirha/fbank/raw_fbank_tr05_cont.4.ark:45472259
02co0303 /scratch/ravanelm/exp/dirha/fbank/raw_fbank_tr05_cont.2.ark:50615919
01uo0311 /scratch/ravanelm/exp/dirha/fbank/raw_fbank_tr05_cont.2.ark:16138719
20ic0103 /scratch/ravanelm/exp/dirha/fbank/raw_fbank_tr05_cont.3.ark:23434479
40gc020b /scratch/ravanelm/exp/dirha/fbank/raw_fbank_tr05_cont.4.ark:25566309
40dc020e /scratch/ravanelm/exp/dirha/fbank/raw_fbank_tr05_cont.4.ark:16815649
01bo0316 /scratch/ravanelm/exp/dirha/fbank/raw_fbank_tr05_cont.1.ark:27078789
01zc020j /scratch/ravanelm/exp/dirha/fbank/raw_fbank_tr05_cont.2.ark:23122659
403c0206 /scratch/ravanelm/exp/dirha/fbank/raw_fbank_tr05_cont.3.ark:43002019
40ac020i /scratch/ravanelm/exp/dirha/fbank/raw_fbank_tr05_cont.4.ark:8393859
20ec0107 /scratch/ravanelm/exp/dirha/fbank/raw_fbank_tr05_cont.3.ark:17743869
40lo030t /scratch/ravanelm/exp/dirha/fbank/raw_fbank_tr05_cont.4.ark:44060439
206o0107 /scratch/ravanelm/exp/dirha/fbank/raw_fbank_tr05_cont.3.ark:4997409
01qo030y /scratch/ravanelm/exp/dirha/fbank/raw_fbank_tr05_cont.2.ark:6146339
20eo010n /scratch/ravanelm/exp/dirha/fbank/raw_fbank_tr05_cont.3.ark:19113949
020c020l /scratch/ravanelm/exp/dirha/fbank/raw_fbank_tr05_cont.2.ark:26519849
208o0105 /scratch/ravanelm/exp/dirha/fbank/raw_fbank_tr05_cont.3.ark:8538339
40ec0216 /scratch/ravanelm/exp/dirha/fbank/raw_fbank_tr05_cont.4.ark:20329959
40go0313 /scratch/ravanelm/exp/dirha/fbank/raw_fbank_tr05_cont.4.ark:28679839
40bc021a /scratch/ravanelm/exp/dirha/fbank/raw_fbank_tr05_cont.4.ark:12122889
20go0109 /scratch/ravanelm/exp/dirha/fbank/raw_fbank_tr05_cont.3.ark:21522689
027o030w /scratch/ravanelm/exp/dirha/fbank/raw_fbank_tr05_cont.2.ark:39237749
017o0317 /scratch/ravanelm/exp/dirha/fbank/raw_fbank_tr05_cont.1.ark:17377869
20dc010e /scratch/ravanelm/exp/dirha/fbank/raw_fbank_tr05_cont.3.ark:16154679
01ko030z /scratch/ravanelm/exp/dirha/fbank/raw_fbank_tr05_cont.1.ark:49481659
01mo0302 /scratch/ravanelm/exp/dirha/fbank/raw_fbank_tr05_cont.1.ark:55437159
40fo031f /scratch/ravanelm/exp/dirha/fbank/raw_fbank_tr05_cont.4.ark:25104189
404o0314 /scratch/ravanelm/exp/dirha/fbank/raw_fbank_tr05_cont.3.ark:48000909
40ec021h /scratch/ravanelm/exp/dirha/fbank/raw_fbank_tr05_cont.4.ark:20608689
40nc0213 /scratch/ravanelm/exp/dirha/fbank/raw_fbank_tr05_cont.4.ark:49180049
20to010c /scratch/ravanelm/exp/dirha/fbank/raw_fbank_tr05_cont.3.ark:37674069
01ic020a /scratch/ravanelm/exp/dirha/fbank/raw_fbank_tr05_cont.1.ark:39983179
40nc020b /scratch/ravanelm/exp/dirha/fbank/raw_fbank_tr05_cont.4.ark:48332209
20mo010f /scratch/ravanelm/exp/dirha/fbank/raw_fbank_tr05_cont.3.ark:28085209
018c020z /scratch/ravanelm/exp/dirha/fbank/raw_fbank_tr05_cont.1.ark:18599849
01po0301 /scratch/ravanelm/exp/dirha/fbank/raw_fbank_tr05_cont.2.ark:1944199
20fo0102 /scratch/ravanelm/exp/dirha/fbank/raw_fbank_tr05_cont.3.ark:19972639
20do0108 /scratch/ravanelm/exp/dirha/fbank/raw_fbank_tr05_cont.3.ark:16791569
20lc010n /scratch/ravanelm/exp/dirha/fbank/raw_fbank_tr05_cont.3.ark:25681539
40kc020t /scratch/ravanelm/exp/dirha/fbank/raw_fbank_tr05_cont.4.ark:39067429
40gc020m /scratch/ravanelm/exp/dirha/fbank/raw_fbank_tr05_cont.4.ark:25924319
20lo0101 /scratch/ravanelm/exp/dirha/fbank/raw_fbank_tr05_cont.3.ark:25832219
01mc020o /scratch/ravanelm/exp/dirha/fbank/raw_fbank_tr05_cont.1.ark:54633129
40go030t /scratch/ravanelm/exp/dirha/fbank/raw_fbank_tr05_cont.4.ark:28127379
205c0104 /scratch/ravanelm/exp/dirha/fbank/raw_fbank_tr05_cont.3.ark:2512619
409c0215 /scratch/ravanelm/exp/dirha/fbank/raw_fbank_tr05_cont.4.ark:5976159
01dc0209 /scratch/ravanelm/exp/dirha/fbank/raw_fbank_tr05_cont.1.ark:27598389
01ro0302 /scratch/ravanelm/exp/dirha/fbank/raw_fbank_tr05_cont.2.ark:8226259
02cc0210 /scratch/ravanelm/exp/dirha/fbank/raw_fbank_tr05_cont.2.ark:50147079
021o0303 /scratch/ravanelm/exp/dirha/fbank/raw_fbank_tr05_cont.2.ark:29450689
011o0306 /scratch/ravanelm/exp/dirha/fbank/raw_fbank_tr05_cont.1.ark:1645179
02eo0314 /scratch/ravanelm/exp/dirha/fbank/raw_fbank_tr05_cont.3.ark:602519
01ro0317 /scratch/ravanelm/exp/dirha/fbank/raw_fbank_tr05_cont.2.ark:9445569
407c0206 /scratch/ravanelm/exp/dirha/fbank/raw_fbank_tr05_cont.3.ark:53884629
02bc0206 /scratch/ravanelm/exp/dirha/fbank/raw_fbank_tr05_cont.2.ark:46164789
01jc020e /scratch/ravanelm/exp/dirha/fbank/raw_fbank_tr05_cont.1.ark:43415479
206o010j /scratch/ravanelm/exp/dirha/fbank/raw_fbank_tr05_cont.3.ark:5510409
20po010e /scratch/ravanelm/exp/dirha/fbank/raw_fbank_tr05_cont.3.ark:32803059
01lc0209 /scratch/ravanelm/exp/dirha/fbank/raw_fbank_tr05_cont.1.ark:50528399
20do0109 /scratch/ravanelm/exp/dirha/fbank/raw_fbank_tr05_cont.3.ark:16812879
20eo0103 /scratch/ravanelm/exp/dirha/fbank/raw_fbank_tr05_cont.3.ark:18339749
01fc020y /scratch/ravanelm/exp/dirha/fbank/raw_fbank_tr05_cont.1.ark:34272519
01gc020d /scratch/ravanelm/exp/dirha/fbank/raw_fbank_tr05_cont.1.ark:36731489
016c020u /scratch/ravanelm/exp/dirha/fbank/raw_fbank_tr05_cont.1.ark:12977799
011c0213 /scratch/ravanelm/exp/dirha/fbank/raw_fbank_tr05_cont.1.ark:1073389
01yc0209 /scratch/ravanelm/exp/dirha/fbank/raw_fbank_tr05_cont.2.ark:19746959
40hc0207 /scratch/ravanelm/exp/dirha/fbank/raw_fbank_tr05_cont.4.ark:29302499
021c0204 /scratch/ravanelm/exp/dirha/fbank/raw_fbank_tr05_cont.2.ark:28130549
028c020u /scratch/ravanelm/exp/dirha/fbank/raw_fbank_tr05_cont.2.ark:40494859
40cc020k /scratch/ravanelm/exp/dirha/fbank/raw_fbank_tr05_cont.4.ark:14454089
011o0304 /scratch/ravanelm/exp/dirha/fbank/raw_fbank_tr05_cont.1.ark:1534319
40hc020q /scratch/ravanelm/exp/dirha/fbank/raw_fbank_tr05_cont.4.ark:29784389
01ic020b /scratch/ravanelm/exp/dirha/fbank/raw_fbank_tr05_cont.1.ark:40024169
408c020v /scratch/ravanelm/exp/dirha/fbank/raw_fbank_tr05_cont.4.ark:3118059
40ac0210 /scratch/ravanelm/exp/dirha/fbank/raw_fbank_tr05_cont.4.ark:8919319
20lc010k /scratch/ravanelm/exp/dirha/fbank/raw_fbank_tr05_cont.3.ark:25579369
403c020f /scratch/ravanelm/exp/dirha/fbank/raw_fbank_tr05_cont.3.ark:43143849
01gc021b /scratch/ravanelm/exp/dirha/fbank/raw_fbank_tr05_cont.1.ark:37691149
01ic020v /scratch/ravanelm/exp/dirha/fbank/raw_fbank_tr05_cont.1.ark:40584409
40lc0217 /scratch/ravanelm/exp/dirha/fbank/raw_fbank_tr05_cont.4.ark:42623609
40ho030v /scratch/ravanelm/exp/dirha/fbank/raw_fbank_tr05_cont.4.ark:31398309
01lo0305 /scratch/ravanelm/exp/dirha/fbank/raw_fbank_tr05_cont.1.ark:52060969
02co030f /scratch/ravanelm/exp/dirha/fbank/raw_fbank_tr05_cont.2.ark:50956119
40kc020x /scratch/ravanelm/exp/dirha/fbank/raw_fbank_tr05_cont.4.ark:39156909
01fo030b /scratch/ravanelm/exp/dirha/fbank/raw_fbank_tr05_cont.1.ark:35195029
40po0319 /scratch/ravanelm/exp/dirha/fbank/raw_fbank_tr05_cont.4.ark:54077669
20pc0105 /scratch/ravanelm/exp/dirha/fbank/raw_fbank_tr05_cont.3.ark:31887239
02ec0216 /scratch/ravanelm/exp/dirha/fbank/raw_fbank_tr05_cont.2.ark:53540709
403o030b /scratch/ravanelm/exp/dirha/fbank/raw_fbank_tr05_cont.3.ark:44417859
404c020b /scratch/ravanelm/exp/dirha/fbank/raw_fbank_tr05_cont.3.ark:45824349
01lo030y /scratch/ravanelm/exp/dirha/fbank/raw_fbank_tr05_cont.1.ark:53279239
015c0205 /scratch/ravanelm/exp/dirha/fbank/raw_fbank_tr05_cont.1.ark:9576479
404c020t /scratch/ravanelm/exp/dirha/fbank/raw_fbank_tr05_cont.3.ark:46306969
40hc020n /scratch/ravanelm/exp/dirha/fbank/raw_fbank_tr05_cont.4.ark:29681259
027c021f /scratch/ravanelm/exp/dirha/fbank/raw_fbank_tr05_cont.2.ark:37994769
01wo0301 /scratch/ravanelm/exp/dirha/fbank/raw_fbank_tr05_cont.2.ark:18007439
409o030j /scratch/ravanelm/exp/dirha/fbank/raw_fbank_tr05_cont.4.ark:6814859
01lo030b /scratch/ravanelm/exp/dirha/fbank/raw_fbank_tr05_cont.1.ark:52325549
403o0301 /scratch/ravanelm/exp/dirha/fbank/raw_fbank_tr05_cont.3.ark:44050199
407c021d /scratch/ravanelm/exp/dirha/fbank/raw_fbank_tr05_cont.4.ark:488279
013c020x /scratch/ravanelm/exp/dirha/fbank/raw_fbank_tr05_cont.1.ark:4528679
20fc010d /scratch/ravanelm/exp/dirha/fbank/raw_fbank_tr05_cont.3.ark:19585389
408c020h /scratch/ravanelm/exp/dirha/fbank/raw_fbank_tr05_cont.4.ark:2799519
40ao0307 /scratch/ravanelm/exp/dirha/fbank/raw_fbank_tr05_cont.4.ark:9470669
40mo0316 /scratch/ravanelm/exp/dirha/fbank/raw_fbank_tr05_cont.4.ark:47810669
01uc020j /scratch/ravanelm/exp/dirha/fbank/raw_fbank_tr05_cont.2.ark:13699409
406o0305 /scratch/ravanelm/exp/dirha/fbank/raw_fbank_tr05_cont.3.ark:52350369
01ec020e /scratch/ravanelm/exp/dirha/fbank/raw_fbank_tr05_cont.1.ark:30777659
01wc0210 /scratch/ravanelm/exp/dirha/fbank/raw_fbank_tr05_cont.2.ark:17628269
027c0205 /scratch/ravanelm/exp/dirha/fbank/raw_fbank_tr05_cont.2.ark:36773269
40ko030z /scratch/ravanelm/exp/dirha/fbank/raw_fbank_tr05_cont.4.ark:40831969
015o030o /scratch/ravanelm/exp/dirha/fbank/raw_fbank_tr05_cont.1.ark:11579309
20to0108 /scratch/ravanelm/exp/dirha/fbank/raw_fbank_tr05_cont.3.ark:37576829
20oo0103 /scratch/ravanelm/exp/dirha/fbank/raw_fbank_tr05_cont.3.ark:30969009
01qc0205 /scratch/ravanelm/exp/dirha/fbank/raw_fbank_tr05_cont.2.ark:3764609
40kc020d /scratch/ravanelm/exp/dirha/fbank/raw_fbank_tr05_cont.4.ark:38592589
02bc020e /scratch/ravanelm/exp/dirha/fbank/raw_fbank_tr05_cont.2.ark:46392869
028c0207 /scratch/ravanelm/exp/dirha/fbank/raw_fbank_tr05_cont.2.ark:39915929
027c020n /scratch/ravanelm/exp/dirha/fbank/raw_fbank_tr05_cont.2.ark:37201449
40ec020n /scratch/ravanelm/exp/dirha/fbank/raw_fbank_tr05_cont.4.ark:19908909
015o0309 /scratch/ravanelm/exp/dirha/fbank/raw_fbank_tr05_cont.1.ark:11045419
40fc0212 /scratch/ravanelm/exp/dirha/fbank/raw_fbank_tr05_cont.4.ark:23076679
409o030t /scratch/ravanelm/exp/dirha/fbank/raw_fbank_tr05_cont.4.ark:7170679
01gc020x /scratch/ravanelm/exp/dirha/fbank/raw_fbank_tr05_cont.1.ark:37285969
01ec021a /scratch/ravanelm/exp/dirha/fbank/raw_fbank_tr05_cont.1.ark:31722899
01zo030g /scratch/ravanelm/exp/dirha/fbank/raw_fbank_tr05_cont.2.ark:24620259
20hc010m /scratch/ravanelm/exp/dirha/fbank/raw_fbank_tr05_cont.3.ark:22503359
01lo030h /scratch/ravanelm/exp/dirha/fbank/raw_fbank_tr05_cont.1.ark:52625289
024c020x /scratch/ravanelm/exp/dirha/fbank/raw_fbank_tr05_cont.2.ark:31813519
01fo030m /scratch/ravanelm/exp/dirha/fbank/raw_fbank_tr05_cont.1.ark:35517239
01dc0203 /scratch/ravanelm/exp/dirha/fbank/raw_fbank_tr05_cont.1.ark:27496289
40fc020l /scratch/ravanelm/exp/dirha/fbank/raw_fbank_tr05_cont.4.ark:22547489
407o0317 /scratch/ravanelm/exp/dirha/fbank/raw_fbank_tr05_cont.4.ark:2272199
011c0201 /scratch/ravanelm/exp/dirha/fbank/raw_fbank_tr05_cont.1.ark:9
209c010e /scratch/ravanelm/exp/dirha/fbank/raw_fbank_tr05_cont.3.ark:9611339
40mo0305 /scratch/ravanelm/exp/dirha/fbank/raw_fbank_tr05_cont.4.ark:46554199
01go0313 /scratch/ravanelm/exp/dirha/fbank/raw_fbank_tr05_cont.1.ark:39123609
01yc0216 /scratch/ravanelm/exp/dirha/fbank/raw_fbank_tr05_cont.2.ark:20662069
40no0305 /scratch/ravanelm/exp/dirha/fbank/raw_fbank_tr05_cont.4.ark:49759349
029o030a /scratch/ravanelm/exp/dirha/fbank/raw_fbank_tr05_cont.2.ark:44595499
01yc0219 /scratch/ravanelm/exp/dirha/fbank/raw_fbank_tr05_cont.2.ark:20723119
01do031e /scratch/ravanelm/exp/dirha/fbank/raw_fbank_tr05_cont.1.ark:30332609
40jc0202 /scratch/ravanelm/exp/dirha/fbank/raw_fbank_tr05_cont.4.ark:35175029
026c0203 /scratch/ravanelm/exp/dirha/fbank/raw_fbank_tr05_cont.2.ark:33949209
014o030s /scratch/ravanelm/exp/dirha/fbank/raw_fbank_tr05_cont.1.ark:8702219
029o0303 /scratch/ravanelm/exp/dirha/fbank/raw_fbank_tr05_cont.2.ark:44351969
20bc010a /scratch/ravanelm/exp/dirha/fbank/raw_fbank_tr05_cont.3.ark:12694409
014c0203 /scratch/ravanelm/exp/dirha/fbank/raw_fbank_tr05_cont.1.ark:6581279
20qc010k /scratch/ravanelm/exp/dirha/fbank/raw_fbank_tr05_cont.3.ark:33831619
01tc021e /scratch/ravanelm/exp/dirha/fbank/raw_fbank_tr05_cont.2.ark:11235209
01lo030m /scratch/ravanelm/exp/dirha/fbank/raw_fbank_tr05_cont.1.ark:52867879
018c020n /scratch/ravanelm/exp/dirha/fbank/raw_fbank_tr05_cont.1.ark:18261929
01ic020y /scratch/ravanelm/exp/dirha/fbank/raw_fbank_tr05_cont.1.ark:40657459
01tc0216 /scratch/ravanelm/exp/dirha/fbank/raw_fbank_tr05_cont.2.ark:11039489
015o030k /scratch/ravanelm/exp/dirha/fbank/raw_fbank_tr05_cont.1.ark:11403509
027c0203 /scratch/ravanelm/exp/dirha/fbank/raw_fbank_tr05_cont.2.ark:36678889
40jo0319 /scratch/ravanelm/exp/dirha/fbank/raw_fbank_tr05_cont.4.ark:38004499
014c020q /scratch/ravanelm/exp/dirha/fbank/raw_fbank_tr05_cont.1.ark:7099129
20oc0107 /scratch/ravanelm/exp/dirha/fbank/raw_fbank_tr05_cont.3.ark:30509529
403c0201 /scratch/ravanelm/exp/dirha/fbank/raw_fbank_tr05_cont.3.ark:42876069
40lc0215 /scratch/ravanelm/exp/dirha/fbank/raw_fbank_tr05_cont.4.ark:42551829
20fo0107 /scratch/ravanelm/exp/dirha/fbank/raw_fbank_tr05_cont.3.ark:20177029
40hc020d /scratch/ravanelm/exp/dirha/fbank/raw_fbank_tr05_cont.4.ark:29448839
020o030r /scratch/ravanelm/exp/dirha/fbank/raw_fbank_tr05_cont.2.ark:27525859
20qc0102 /scratch/ravanelm/exp/dirha/fbank/raw_fbank_tr05_cont.3.ark:33264279
015c020u /scratch/ravanelm/exp/dirha/fbank/raw_fbank_tr05_cont.1.ark:10240669
027o0319 /scratch/ravanelm/exp/dirha/fbank/raw_fbank_tr05_cont.2.ark:39728059
40co0305 /scratch/ravanelm/exp/dirha/fbank/raw_fbank_tr05_cont.4.ark:15247099
02eo0301 /scratch/ravanelm/exp/dirha/fbank/raw_fbank_tr05_cont.2.ark:53847739
20lo0107 /scratch/ravanelm/exp/dirha/fbank/raw_fbank_tr05_cont.3.ark:26064879
014o0315 /scratch/ravanelm/exp/dirha/fbank/raw_fbank_tr05_cont.1.ark:9170329
01tc0219 /scratch/ravanelm/exp/dirha/fbank/raw_fbank_tr05_cont.2.ark:11099859
02co030a /scratch/ravanelm/exp/dirha/fbank/raw_fbank_tr05_cont.2.ark:50788849
01pc021c /scratch/ravanelm/exp/dirha/fbank/raw_fbank_tr05_cont.2.ark:1781129
014c020v /scratch/ravanelm/exp/dirha/fbank/raw_fbank_tr05_cont.1.ark:7230239
405c020u /scratch/ravanelm/exp/dirha/fbank/raw_fbank_tr05_cont.3.ark:48971959
01lo0310 /scratch/ravanelm/exp/dirha/fbank/raw_fbank_tr05_cont.1.ark:53400139
01jo030f /scratch/ravanelm/exp/dirha/fbank/raw_fbank_tr05_cont.1.ark:45134949
40ko0301 /scratch/ravanelm/exp/dirha/fbank/raw_fbank_tr05_cont.4.ark:39703349
40ac020a /scratch/ravanelm/exp/dirha/fbank/raw_fbank_tr05_cont.4.ark:8108259
40do0306 /scratch/ravanelm/exp/dirha/fbank/raw_fbank_tr05_cont.4.ark:18125249
205c010c /scratch/ravanelm/exp/dirha/fbank/raw_fbank_tr05_cont.3.ark:2755819
40eo030g /scratch/ravanelm/exp/dirha/fbank/raw_fbank_tr05_cont.4.ark:21120689
01fo0318 /scratch/ravanelm/exp/dirha/fbank/raw_fbank_tr05_cont.1.ark:36223419
409c021b /scratch/ravanelm/exp/dirha/fbank/raw_fbank_tr05_cont.4.ark:6171179
408o030f /scratch/ravanelm/exp/dirha/fbank/raw_fbank_tr05_cont.4.ark:3981979
027o0314 /scratch/ravanelm/exp/dirha/fbank/raw_fbank_tr05_cont.2.ark:39529549
40fo030j /scratch/ravanelm/exp/dirha/fbank/raw_fbank_tr05_cont.4.ark:24072389
01dc020j /scratch/ravanelm/exp/dirha/fbank/raw_fbank_tr05_cont.1.ark:27910049
024o030j /scratch/ravanelm/exp/dirha/fbank/raw_fbank_tr05_cont.2.ark:32919359
027c0206 /scratch/ravanelm/exp/dirha/fbank/raw_fbank_tr05_cont.2.ark:36796139
019c0202 /scratch/ravanelm/exp/dirha/fbank/raw_fbank_tr05_cont.1.ark:21111339
01gc020h /scratch/ravanelm/exp/dirha/fbank/raw_fbank_tr05_cont.1.ark:36869289
403c0203 /scratch/ravanelm/exp/dirha/fbank/raw_fbank_tr05_cont.3.ark:42959249
019o0308 /scratch/ravanelm/exp/dirha/fbank/raw_fbank_tr05_cont.1.ark:22638069
029c0210 /scratch/ravanelm/exp/dirha/fbank/raw_fbank_tr05_cont.2.ark:43851799
40ec0202 /scratch/ravanelm/exp/dirha/fbank/raw_fbank_tr05_cont.4.ark:19467919
015c021d /scratch/ravanelm/exp/dirha/fbank/raw_fbank_tr05_cont.1.ark:10668959
40eo0309 /scratch/ravanelm/exp/dirha/fbank/raw_fbank_tr05_cont.4.ark:20876279
018o030t /scratch/ravanelm/exp/dirha/fbank/raw_fbank_tr05_cont.1.ark:20238749
208o0108 /scratch/ravanelm/exp/dirha/fbank/raw_fbank_tr05_cont.3.ark:8619229
020o0309 /scratch/ravanelm/exp/dirha/fbank/raw_fbank_tr05_cont.2.ark:27251149
40pc020i /scratch/ravanelm/exp/dirha/fbank/raw_fbank_tr05_cont.4.ark:51783329
01lc0218 /scratch/ravanelm/exp/dirha/fbank/raw_fbank_tr05_cont.1.ark:51624809
026o030r /scratch/ravanelm/exp/dirha/fbank/raw_fbank_tr05_cont.2.ark:35929689
01uo031e /scratch/ravanelm/exp/dirha/fbank/raw_fbank_tr05_cont.2.ark:16594749
01go0310 /scratch/ravanelm/exp/dirha/fbank/raw_fbank_tr05_cont.1.ark:39020999
20to010d /scratch/ravanelm/exp/dirha/fbank/raw_fbank_tr05_cont.3.ark:37715859
407c020w /scratch/ravanelm/exp/dirha/fbank/raw_fbank_tr05_cont.4.ark:9
01wo030f /scratch/ravanelm/exp/dirha/fbank/raw_fbank_tr05_cont.2.ark:18416579
20ao010i /scratch/ravanelm/exp/dirha/fbank/raw_fbank_tr05_cont.3.ark:12105549
40fc020n /scratch/ravanelm/exp/dirha/fbank/raw_fbank_tr05_cont.4.ark:22621669
40fo030w /scratch/ravanelm/exp/dirha/fbank/raw_fbank_tr05_cont.4.ark:24508539
20hc0109 /scratch/ravanelm/exp/dirha/fbank/raw_fbank_tr05_cont.3.ark:22256089
029o031c /scratch/ravanelm/exp/dirha/fbank/raw_fbank_tr05_cont.2.ark:45914239
021o030n /scratch/ravanelm/exp/dirha/fbank/raw_fbank_tr05_cont.2.ark:30048369
02co031e /scratch/ravanelm/exp/dirha/fbank/raw_fbank_tr05_cont.2.ark:52207049
40cc020r /scratch/ravanelm/exp/dirha/fbank/raw_fbank_tr05_cont.4.ark:14586819
013c020m /scratch/ravanelm/exp/dirha/fbank/raw_fbank_tr05_cont.1.ark:4202709
40mc0205 /scratch/ravanelm/exp/dirha/fbank/raw_fbank_tr05_cont.4.ark:45117239
02ec020q /scratch/ravanelm/exp/dirha/fbank/raw_fbank_tr05_cont.2.ark:53077749
01kc0217 /scratch/ravanelm/exp/dirha/fbank/raw_fbank_tr05_cont.1.ark:47796679
409o030g /scratch/ravanelm/exp/dirha/fbank/raw_fbank_tr05_cont.4.ark:6717369
01mo030g /scratch/ravanelm/exp/dirha/fbank/raw_fbank_tr05_cont.1.ark:55877299
209o0103 /scratch/ravanelm/exp/dirha/fbank/raw_fbank_tr05_cont.3.ark:9984909
40ec020t /scratch/ravanelm/exp/dirha/fbank/raw_fbank_tr05_cont.4.ark:20020089
40eo030w /scratch/ravanelm/exp/dirha/fbank/raw_fbank_tr05_cont.4.ark:21547449
01mo031d /scratch/ravanelm/exp/dirha/fbank/raw_fbank_tr05_cont.2.ark:360459
01yc021f /scratch/ravanelm/exp/dirha/fbank/raw_fbank_tr05_cont.2.ark:20905259
40lc020d /scratch/ravanelm/exp/dirha/fbank/raw_fbank_tr05_cont.4.ark:41686669
01zo030u /scratch/ravanelm/exp/dirha/fbank/raw_fbank_tr05_cont.2.ark:25272079
028o0302 /scratch/ravanelm/exp/dirha/fbank/raw_fbank_tr05_cont.2.ark:41122869
40cc0205 /scratch/ravanelm/exp/dirha/fbank/raw_fbank_tr05_cont.4.ark:14056079
019o030d /scratch/ravanelm/exp/dirha/fbank/raw_fbank_tr05_cont.1.ark:22789299
40jo030m /scratch/ravanelm/exp/dirha/fbank/raw_fbank_tr05_cont.4.ark:37266049
403c020p /scratch/ravanelm/exp/dirha/fbank/raw_fbank_tr05_cont.3.ark:43426149
20vo010n /scratch/ravanelm/exp/dirha/fbank/raw_fbank_tr05_cont.3.ark:39426139
024c020y /scratch/ravanelm/exp/dirha/fbank/raw_fbank_tr05_cont.2.ark:31841949
40kc020e /scratch/ravanelm/exp/dirha/fbank/raw_fbank_tr05_cont.4.ark:38631299
01fo031a /scratch/ravanelm/exp/dirha/fbank/raw_fbank_tr05_cont.1.ark:36283679
01wc020c /scratch/ravanelm/exp/dirha/fbank/raw_fbank_tr05_cont.2.ark:16937189
02co030x /scratch/ravanelm/exp/dirha/fbank/raw_fbank_tr05_cont.2.ark:51547099
20bc0102 /scratch/ravanelm/exp/dirha/fbank/raw_fbank_tr05_cont.3.ark:12525609
