408o030r /scratch/ravanelm/exp/dirha/data-fmllr-tri4/tr05_cont/data/feats_fmllr_tr05_cont.8.ark:63520737
01qo030f /scratch/ravanelm/exp/dirha/data-fmllr-tri4/tr05_cont/data/feats_fmllr_tr05_cont.3.ark:46789129
404o031b /scratch/ravanelm/exp/dirha/data-fmllr-tri4/tr05_cont/data/feats_fmllr_tr05_cont.8.ark:20811729
40co030w /scratch/ravanelm/exp/dirha/data-fmllr-tri4/tr05_cont/data/feats_fmllr_tr05_cont.9.ark:32318409
204c0109 /scratch/ravanelm/exp/dirha/data-fmllr-tri4/tr05_cont/data/feats_fmllr_tr05_cont.5.ark:76032593
405c0212 /scratch/ravanelm/exp/dirha/data-fmllr-tri4/tr05_cont/data/feats_fmllr_tr05_cont.8.ark:24626769
01ko030d /scratch/ravanelm/exp/dirha/data-fmllr-tri4/tr05_cont/data/feats_fmllr_tr05_cont.2.ark:97981329
01ec020f /scratch/ravanelm/exp/dirha/data-fmllr-tri4/tr05_cont/data/feats_fmllr_tr05_cont.2.ark:27594233
40nc020l /scratch/ravanelm/exp/dirha/data-fmllr-tri4/tr05_cont/data/feats_fmllr_tr05_cont.10.ark:77203329
40po0317 /scratch/ravanelm/exp/dirha/data-fmllr-tri4/tr05_cont/data/feats_fmllr_tr05_cont.10.ark:98392785
02cc0211 /scratch/ravanelm/exp/dirha/data-fmllr-tri4/tr05_cont/data/feats_fmllr_tr05_cont.5.ark:53641449
20co010k /scratch/ravanelm/exp/dirha/data-fmllr-tri4/tr05_cont/data/feats_fmllr_tr05_cont.6.ark:51915233
01io030l /scratch/ravanelm/exp/dirha/data-fmllr-tri4/tr05_cont/data/feats_fmllr_tr05_cont.2.ark:71766641
20cc010f /scratch/ravanelm/exp/dirha/data-fmllr-tri4/tr05_cont/data/feats_fmllr_tr05_cont.6.ark:48476457
01uc021b /scratch/ravanelm/exp/dirha/data-fmllr-tri4/tr05_cont/data/feats_fmllr_tr05_cont.3.ark:82617801
028o0312 /scratch/ravanelm/exp/dirha/data-fmllr-tri4/tr05_cont/data/feats_fmllr_tr05_cont.5.ark:22928521
20oc0108 /scratch/ravanelm/exp/dirha/data-fmllr-tri4/tr05_cont/data/feats_fmllr_tr05_cont.7.ark:33404769
40kc0205 /scratch/ravanelm/exp/dirha/data-fmllr-tri4/tr05_cont/data/feats_fmllr_tr05_cont.10.ark:36485889
01ko030s /scratch/ravanelm/exp/dirha/data-fmllr-tri4/tr05_cont/data/feats_fmllr_tr05_cont.2.ark:100472249
40ac0210 /scratch/ravanelm/exp/dirha/data-fmllr-tri4/tr05_cont/data/feats_fmllr_tr05_cont.9.ark:4534289
014c020r /scratch/ravanelm/exp/dirha/data-fmllr-tri4/tr05_cont/data/feats_fmllr_tr05_cont.1.ark:28206145
020o030u /scratch/ravanelm/exp/dirha/data-fmllr-tri4/tr05_cont/data/feats_fmllr_tr05_cont.4.ark:43256505
01qc020f /scratch/ravanelm/exp/dirha/data-fmllr-tri4/tr05_cont/data/feats_fmllr_tr05_cont.3.ark:41220185
01lc021a /scratch/ravanelm/exp/dirha/data-fmllr-tri4/tr05_cont/data/feats_fmllr_tr05_cont.3.ark:5717729
015c021d /scratch/ravanelm/exp/dirha/data-fmllr-tri4/tr05_cont/data/feats_fmllr_tr05_cont.1.ark:42190081
020o0316 /scratch/ravanelm/exp/dirha/data-fmllr-tri4/tr05_cont/data/feats_fmllr_tr05_cont.4.ark:44170985
029o0310 /scratch/ravanelm/exp/dirha/data-fmllr-tri4/tr05_cont/data/feats_fmllr_tr05_cont.5.ark:35106897
406c020v /scratch/ravanelm/exp/dirha/data-fmllr-tri4/tr05_cont/data/feats_fmllr_tr05_cont.8.ark:34754945
406c0209 /scratch/ravanelm/exp/dirha/data-fmllr-tri4/tr05_cont/data/feats_fmllr_tr05_cont.8.ark:32843081
013c020l /scratch/ravanelm/exp/dirha/data-fmllr-tri4/tr05_cont/data/feats_fmllr_tr05_cont.1.ark:16494273
40no030n /scratch/ravanelm/exp/dirha/data-fmllr-tri4/tr05_cont/data/feats_fmllr_tr05_cont.10.ark:84163185
029c0216 /scratch/ravanelm/exp/dirha/data-fmllr-tri4/tr05_cont/data/feats_fmllr_tr05_cont.5.ark:29207873
01qc021d /scratch/ravanelm/exp/dirha/data-fmllr-tri4/tr05_cont/data/feats_fmllr_tr05_cont.3.ark:44554505
01yo0304 /scratch/ravanelm/exp/dirha/data-fmllr-tri4/tr05_cont/data/feats_fmllr_tr05_cont.4.ark:17440481
40hc020b /scratch/ravanelm/exp/dirha/data-fmllr-tri4/tr05_cont/data/feats_fmllr_tr05_cont.10.ark:1082329
40bc0207 /scratch/ravanelm/exp/dirha/data-fmllr-tri4/tr05_cont/data/feats_fmllr_tr05_cont.9.ark:13054097
401c0214 /scratch/ravanelm/exp/dirha/data-fmllr-tri4/tr05_cont/data/feats_fmllr_tr05_cont.7.ark:73701017
40ec020a /scratch/ravanelm/exp/dirha/data-fmllr-tri4/tr05_cont/data/feats_fmllr_tr05_cont.9.ark:46867793
405o031b /scratch/ravanelm/exp/dirha/data-fmllr-tri4/tr05_cont/data/feats_fmllr_tr05_cont.8.ark:31357649
01bc0215 /scratch/ravanelm/exp/dirha/data-fmllr-tri4/tr05_cont/data/feats_fmllr_tr05_cont.2.ark:4996873
40go030t /scratch/ravanelm/exp/dirha/data-fmllr-tri4/tr05_cont/data/feats_fmllr_tr05_cont.9.ark:80472129
20eo010l /scratch/ravanelm/exp/dirha/data-fmllr-tri4/tr05_cont/data/feats_fmllr_tr05_cont.6.ark:65659145
029o0304 /scratch/ravanelm/exp/dirha/data-fmllr-tri4/tr05_cont/data/feats_fmllr_tr05_cont.5.ark:30715729
20io010n /scratch/ravanelm/exp/dirha/data-fmllr-tri4/tr05_cont/data/feats_fmllr_tr05_cont.7.ark:10825697
01uc020d /scratch/ravanelm/exp/dirha/data-fmllr-tri4/tr05_cont/data/feats_fmllr_tr05_cont.3.ark:78466265
019c021f /scratch/ravanelm/exp/dirha/data-fmllr-tri4/tr05_cont/data/feats_fmllr_tr05_cont.1.ark:88322857
02eo0301 /scratch/ravanelm/exp/dirha/data-fmllr-tri4/tr05_cont/data/feats_fmllr_tr05_cont.5.ark:68148961
024o030e /scratch/ravanelm/exp/dirha/data-fmllr-tri4/tr05_cont/data/feats_fmllr_tr05_cont.4.ark:63706977
20lc010j /scratch/ravanelm/exp/dirha/data-fmllr-tri4/tr05_cont/data/feats_fmllr_tr05_cont.7.ark:13633265
01yc0214 /scratch/ravanelm/exp/dirha/data-fmllr-tri4/tr05_cont/data/feats_fmllr_tr05_cont.4.ark:15730337
01wc0219 /scratch/ravanelm/exp/dirha/data-fmllr-tri4/tr05_cont/data/feats_fmllr_tr05_cont.4.ark:4706641
205c010k /scratch/ravanelm/exp/dirha/data-fmllr-tri4/tr05_cont/data/feats_fmllr_tr05_cont.6.ark:2068945
02eo0304 /scratch/ravanelm/exp/dirha/data-fmllr-tri4/tr05_cont/data/feats_fmllr_tr05_cont.5.ark:68586473
207c0105 /scratch/ravanelm/exp/dirha/data-fmllr-tri4/tr05_cont/data/feats_fmllr_tr05_cont.6.ark:14267193
01to0311 /scratch/ravanelm/exp/dirha/data-fmllr-tri4/tr05_cont/data/feats_fmllr_tr05_cont.3.ark:74515993
20fo0103 /scratch/ravanelm/exp/dirha/data-fmllr-tri4/tr05_cont/data/feats_fmllr_tr05_cont.6.ark:69494841
208o0102 /scratch/ravanelm/exp/dirha/data-fmllr-tri4/tr05_cont/data/feats_fmllr_tr05_cont.6.ark:23600489
40ic020z /scratch/ravanelm/exp/dirha/data-fmllr-tri4/tr05_cont/data/feats_fmllr_tr05_cont.10.ark:15441945
20gc010e /scratch/ravanelm/exp/dirha/data-fmllr-tri4/tr05_cont/data/feats_fmllr_tr05_cont.6.ark:73596505
01qo030s /scratch/ravanelm/exp/dirha/data-fmllr-tri4/tr05_cont/data/feats_fmllr_tr05_cont.3.ark:48681761
40ao031b /scratch/ravanelm/exp/dirha/data-fmllr-tri4/tr05_cont/data/feats_fmllr_tr05_cont.9.ark:11855113
20eo010k /scratch/ravanelm/exp/dirha/data-fmllr-tri4/tr05_cont/data/feats_fmllr_tr05_cont.6.ark:65565681
40nc0208 /scratch/ravanelm/exp/dirha/data-fmllr-tri4/tr05_cont/data/feats_fmllr_tr05_cont.10.ark:75530217
20fo0105 /scratch/ravanelm/exp/dirha/data-fmllr-tri4/tr05_cont/data/feats_fmllr_tr05_cont.6.ark:69892329
024c020v /scratch/ravanelm/exp/dirha/data-fmllr-tri4/tr05_cont/data/feats_fmllr_tr05_cont.4.ark:59801865
01io0313 /scratch/ravanelm/exp/dirha/data-fmllr-tri4/tr05_cont/data/feats_fmllr_tr05_cont.2.ark:74325633
018c021d /scratch/ravanelm/exp/dirha/data-fmllr-tri4/tr05_cont/data/feats_fmllr_tr05_cont.1.ark:75266329
01zc020s /scratch/ravanelm/exp/dirha/data-fmllr-tri4/tr05_cont/data/feats_fmllr_tr05_cont.4.ark:26518529
40ho0301 /scratch/ravanelm/exp/dirha/data-fmllr-tri4/tr05_cont/data/feats_fmllr_tr05_cont.10.ark:5030033
02bo030j /scratch/ravanelm/exp/dirha/data-fmllr-tri4/tr05_cont/data/feats_fmllr_tr05_cont.5.ark:45383497
021c020r /scratch/ravanelm/exp/dirha/data-fmllr-tri4/tr05_cont/data/feats_fmllr_tr05_cont.4.ark:48155641
20co010c /scratch/ravanelm/exp/dirha/data-fmllr-tri4/tr05_cont/data/feats_fmllr_tr05_cont.6.ark:51120161
020c020w /scratch/ravanelm/exp/dirha/data-fmllr-tri4/tr05_cont/data/feats_fmllr_tr05_cont.4.ark:39963177
02cc020z /scratch/ravanelm/exp/dirha/data-fmllr-tri4/tr05_cont/data/feats_fmllr_tr05_cont.5.ark:53380121
026o030z /scratch/ravanelm/exp/dirha/data-fmllr-tri4/tr05_cont/data/feats_fmllr_tr05_cont.4.ark:77248993
01yo0319 /scratch/ravanelm/exp/dirha/data-fmllr-tri4/tr05_cont/data/feats_fmllr_tr05_cont.4.ark:22877465
40hc020z /scratch/ravanelm/exp/dirha/data-fmllr-tri4/tr05_cont/data/feats_fmllr_tr05_cont.10.ark:3322105
20lo010a /scratch/ravanelm/exp/dirha/data-fmllr-tri4/tr05_cont/data/feats_fmllr_tr05_cont.7.ark:16195913
409c020u /scratch/ravanelm/exp/dirha/data-fmllr-tri4/tr05_cont/data/feats_fmllr_tr05_cont.8.ark:68851081
40ec021h /scratch/ravanelm/exp/dirha/data-fmllr-tri4/tr05_cont/data/feats_fmllr_tr05_cont.9.ark:50715225
01mo030m /scratch/ravanelm/exp/dirha/data-fmllr-tri4/tr05_cont/data/feats_fmllr_tr05_cont.3.ark:22867657
40cc020x /scratch/ravanelm/exp/dirha/data-fmllr-tri4/tr05_cont/data/feats_fmllr_tr05_cont.9.ark:27369233
40pc020i /scratch/ravanelm/exp/dirha/data-fmllr-tri4/tr05_cont/data/feats_fmllr_tr05_cont.10.ark:89547921
401c020y /scratch/ravanelm/exp/dirha/data-fmllr-tri4/tr05_cont/data/feats_fmllr_tr05_cont.7.ark:73020873
026o030k /scratch/ravanelm/exp/dirha/data-fmllr-tri4/tr05_cont/data/feats_fmllr_tr05_cont.4.ark:75469273
01gc0208 /scratch/ravanelm/exp/dirha/data-fmllr-tri4/tr05_cont/data/feats_fmllr_tr05_cont.2.ark:50556737
40co0306 /scratch/ravanelm/exp/dirha/data-fmllr-tri4/tr05_cont/data/feats_fmllr_tr05_cont.9.ark:29598585
20ro010d /scratch/ravanelm/exp/dirha/data-fmllr-tri4/tr05_cont/data/feats_fmllr_tr05_cont.7.ark:55525273
40nc0213 /scratch/ravanelm/exp/dirha/data-fmllr-tri4/tr05_cont/data/feats_fmllr_tr05_cont.10.ark:79244881
01po030x /scratch/ravanelm/exp/dirha/data-fmllr-tri4/tr05_cont/data/feats_fmllr_tr05_cont.3.ark:37123625
021c0218 /scratch/ravanelm/exp/dirha/data-fmllr-tri4/tr05_cont/data/feats_fmllr_tr05_cont.4.ark:49769169
40jo030r /scratch/ravanelm/exp/dirha/data-fmllr-tri4/tr05_cont/data/feats_fmllr_tr05_cont.10.ark:32778473
404o0310 /scratch/ravanelm/exp/dirha/data-fmllr-tri4/tr05_cont/data/feats_fmllr_tr05_cont.8.ark:19662185
013c0217 /scratch/ravanelm/exp/dirha/data-fmllr-tri4/tr05_cont/data/feats_fmllr_tr05_cont.1.ark:18853521
40pc0215 /scratch/ravanelm/exp/dirha/data-fmllr-tri4/tr05_cont/data/feats_fmllr_tr05_cont.10.ark:91808473
206c010e /scratch/ravanelm/exp/dirha/data-fmllr-tri4/tr05_cont/data/feats_fmllr_tr05_cont.6.ark:8224929
408o0311 /scratch/ravanelm/exp/dirha/data-fmllr-tri4/tr05_cont/data/feats_fmllr_tr05_cont.8.ark:64424017
01yc020v /scratch/ravanelm/exp/dirha/data-fmllr-tri4/tr05_cont/data/feats_fmllr_tr05_cont.4.ark:14761001
015o0319 /scratch/ravanelm/exp/dirha/data-fmllr-tri4/tr05_cont/data/feats_fmllr_tr05_cont.1.ark:48423761
014o030v /scratch/ravanelm/exp/dirha/data-fmllr-tri4/tr05_cont/data/feats_fmllr_tr05_cont.1.ark:34960633
20ho0104 /scratch/ravanelm/exp/dirha/data-fmllr-tri4/tr05_cont/data/feats_fmllr_tr05_cont.7.ark:2320385
018o030r /scratch/ravanelm/exp/dirha/data-fmllr-tri4/tr05_cont/data/feats_fmllr_tr05_cont.1.ark:79746889
011o030g /scratch/ravanelm/exp/dirha/data-fmllr-tri4/tr05_cont/data/feats_fmllr_tr05_cont.1.ark:7861569
40go030z /scratch/ravanelm/exp/dirha/data-fmllr-tri4/tr05_cont/data/feats_fmllr_tr05_cont.9.ark:81826353
021o0309 /scratch/ravanelm/exp/dirha/data-fmllr-tri4/tr05_cont/data/feats_fmllr_tr05_cont.4.ark:51289233
40lo030l /scratch/ravanelm/exp/dirha/data-fmllr-tri4/tr05_cont/data/feats_fmllr_tr05_cont.10.ark:57418377
40go0302 /scratch/ravanelm/exp/dirha/data-fmllr-tri4/tr05_cont/data/feats_fmllr_tr05_cont.9.ark:76204281
40eo030z /scratch/ravanelm/exp/dirha/data-fmllr-tri4/tr05_cont/data/feats_fmllr_tr05_cont.9.ark:54807745
021o030j /scratch/ravanelm/exp/dirha/data-fmllr-tri4/tr05_cont/data/feats_fmllr_tr05_cont.4.ark:52486753
01jc020j /scratch/ravanelm/exp/dirha/data-fmllr-tri4/tr05_cont/data/feats_fmllr_tr05_cont.2.ark:78180617
020c020i /scratch/ravanelm/exp/dirha/data-fmllr-tri4/tr05_cont/data/feats_fmllr_tr05_cont.4.ark:38872601
40do030d /scratch/ravanelm/exp/dirha/data-fmllr-tri4/tr05_cont/data/feats_fmllr_tr05_cont.9.ark:41517249
40hc0204 /scratch/ravanelm/exp/dirha/data-fmllr-tri4/tr05_cont/data/feats_fmllr_tr05_cont.10.ark:224881
01mo030f /scratch/ravanelm/exp/dirha/data-fmllr-tri4/tr05_cont/data/feats_fmllr_tr05_cont.3.ark:22235649
40bo030v /scratch/ravanelm/exp/dirha/data-fmllr-tri4/tr05_cont/data/feats_fmllr_tr05_cont.9.ark:22424881
01zc020d /scratch/ravanelm/exp/dirha/data-fmllr-tri4/tr05_cont/data/feats_fmllr_tr05_cont.4.ark:24978169
40jo030q /scratch/ravanelm/exp/dirha/data-fmllr-tri4/tr05_cont/data/feats_fmllr_tr05_cont.10.ark:32649809
01bc020o /scratch/ravanelm/exp/dirha/data-fmllr-tri4/tr05_cont/data/feats_fmllr_tr05_cont.2.ark:2940489
029o030o /scratch/ravanelm/exp/dirha/data-fmllr-tri4/tr05_cont/data/feats_fmllr_tr05_cont.5.ark:33452049
01yc020x /scratch/ravanelm/exp/dirha/data-fmllr-tri4/tr05_cont/data/feats_fmllr_tr05_cont.4.ark:14961369
20fo010p /scratch/ravanelm/exp/dirha/data-fmllr-tri4/tr05_cont/data/feats_fmllr_tr05_cont.6.ark:72294089
208o010q /scratch/ravanelm/exp/dirha/data-fmllr-tri4/tr05_cont/data/feats_fmllr_tr05_cont.6.ark:26932905
01wc020d /scratch/ravanelm/exp/dirha/data-fmllr-tri4/tr05_cont/data/feats_fmllr_tr05_cont.4.ark:1345577
014o0311 /scratch/ravanelm/exp/dirha/data-fmllr-tri4/tr05_cont/data/feats_fmllr_tr05_cont.1.ark:35759817
40no0317 /scratch/ravanelm/exp/dirha/data-fmllr-tri4/tr05_cont/data/feats_fmllr_tr05_cont.10.ark:86880785
011c020q /scratch/ravanelm/exp/dirha/data-fmllr-tri4/tr05_cont/data/feats_fmllr_tr05_cont.1.ark:2756289
017o030y /scratch/ravanelm/exp/dirha/data-fmllr-tri4/tr05_cont/data/feats_fmllr_tr05_cont.1.ark:67554529
40ec020e /scratch/ravanelm/exp/dirha/data-fmllr-tri4/tr05_cont/data/feats_fmllr_tr05_cont.9.ark:47208209
20go010d /scratch/ravanelm/exp/dirha/data-fmllr-tri4/tr05_cont/data/feats_fmllr_tr05_cont.6.ark:76001833
01tc0210 /scratch/ravanelm/exp/dirha/data-fmllr-tri4/tr05_cont/data/feats_fmllr_tr05_cont.3.ark:67852985
407c021h /scratch/ravanelm/exp/dirha/data-fmllr-tri4/tr05_cont/data/feats_fmllr_tr05_cont.8.ark:48698673
013c0208 /scratch/ravanelm/exp/dirha/data-fmllr-tri4/tr05_cont/data/feats_fmllr_tr05_cont.1.ark:14942921
409c020c /scratch/ravanelm/exp/dirha/data-fmllr-tri4/tr05_cont/data/feats_fmllr_tr05_cont.8.ark:66754809
024c0204 /scratch/ravanelm/exp/dirha/data-fmllr-tri4/tr05_cont/data/feats_fmllr_tr05_cont.4.ark:56706657
408o030z /scratch/ravanelm/exp/dirha/data-fmllr-tri4/tr05_cont/data/feats_fmllr_tr05_cont.8.ark:64219969
01yc0217 /scratch/ravanelm/exp/dirha/data-fmllr-tri4/tr05_cont/data/feats_fmllr_tr05_cont.4.ark:16025929
01qo030d /scratch/ravanelm/exp/dirha/data-fmllr-tri4/tr05_cont/data/feats_fmllr_tr05_cont.3.ark:46505721
20no010o /scratch/ravanelm/exp/dirha/data-fmllr-tri4/tr05_cont/data/feats_fmllr_tr05_cont.7.ark:31941145
40bo030h /scratch/ravanelm/exp/dirha/data-fmllr-tri4/tr05_cont/data/feats_fmllr_tr05_cont.9.ark:20413025
019c020j /scratch/ravanelm/exp/dirha/data-fmllr-tri4/tr05_cont/data/feats_fmllr_tr05_cont.1.ark:85109609
40ao031d /scratch/ravanelm/exp/dirha/data-fmllr-tri4/tr05_cont/data/feats_fmllr_tr05_cont.9.ark:12051961
02co030i /scratch/ravanelm/exp/dirha/data-fmllr-tri4/tr05_cont/data/feats_fmllr_tr05_cont.5.ark:57031929
019c0210 /scratch/ravanelm/exp/dirha/data-fmllr-tri4/tr05_cont/data/feats_fmllr_tr05_cont.1.ark:86602177
01lo030c /scratch/ravanelm/exp/dirha/data-fmllr-tri4/tr05_cont/data/feats_fmllr_tr05_cont.3.ark:8469497
01fc020b /scratch/ravanelm/exp/dirha/data-fmllr-tri4/tr05_cont/data/feats_fmllr_tr05_cont.2.ark:39002089
40lc0214 /scratch/ravanelm/exp/dirha/data-fmllr-tri4/tr05_cont/data/feats_fmllr_tr05_cont.10.ark:52861129
20dc0105 /scratch/ravanelm/exp/dirha/data-fmllr-tri4/tr05_cont/data/feats_fmllr_tr05_cont.6.ark:53250857
20ro010o /scratch/ravanelm/exp/dirha/data-fmllr-tri4/tr05_cont/data/feats_fmllr_tr05_cont.7.ark:57314657
01yc0210 /scratch/ravanelm/exp/dirha/data-fmllr-tri4/tr05_cont/data/feats_fmllr_tr05_cont.4.ark:15312481
01gc020i /scratch/ravanelm/exp/dirha/data-fmllr-tri4/tr05_cont/data/feats_fmllr_tr05_cont.2.ark:51757297
01io0309 /scratch/ravanelm/exp/dirha/data-fmllr-tri4/tr05_cont/data/feats_fmllr_tr05_cont.2.ark:69817233
406o030a /scratch/ravanelm/exp/dirha/data-fmllr-tri4/tr05_cont/data/feats_fmllr_tr05_cont.8.ark:37895185
407c0203 /scratch/ravanelm/exp/dirha/data-fmllr-tri4/tr05_cont/data/feats_fmllr_tr05_cont.8.ark:43154593
017o0306 /scratch/ravanelm/exp/dirha/data-fmllr-tri4/tr05_cont/data/feats_fmllr_tr05_cont.1.ark:64215777
20bo010h /scratch/ravanelm/exp/dirha/data-fmllr-tri4/tr05_cont/data/feats_fmllr_tr05_cont.6.ark:45125457
01qc0201 /scratch/ravanelm/exp/dirha/data-fmllr-tri4/tr05_cont/data/feats_fmllr_tr05_cont.3.ark:39347849
40dc0203 /scratch/ravanelm/exp/dirha/data-fmllr-tri4/tr05_cont/data/feats_fmllr_tr05_cont.9.ark:34577681
02bo030i /scratch/ravanelm/exp/dirha/data-fmllr-tri4/tr05_cont/data/feats_fmllr_tr05_cont.5.ark:45164113
40gc020j /scratch/ravanelm/exp/dirha/data-fmllr-tri4/tr05_cont/data/feats_fmllr_tr05_cont.9.ark:71269225
404o030t /scratch/ravanelm/exp/dirha/data-fmllr-tri4/tr05_cont/data/feats_fmllr_tr05_cont.8.ark:18966657
026o030i /scratch/ravanelm/exp/dirha/data-fmllr-tri4/tr05_cont/data/feats_fmllr_tr05_cont.4.ark:75192425
01do0312 /scratch/ravanelm/exp/dirha/data-fmllr-tri4/tr05_cont/data/feats_fmllr_tr05_cont.2.ark:24244281
01ic020k /scratch/ravanelm/exp/dirha/data-fmllr-tri4/tr05_cont/data/feats_fmllr_tr05_cont.2.ark:65126673
028c0218 /scratch/ravanelm/exp/dirha/data-fmllr-tri4/tr05_cont/data/feats_fmllr_tr05_cont.5.ark:16760881
406c0205 /scratch/ravanelm/exp/dirha/data-fmllr-tri4/tr05_cont/data/feats_fmllr_tr05_cont.8.ark:32335785
40hc020a /scratch/ravanelm/exp/dirha/data-fmllr-tri4/tr05_cont/data/feats_fmllr_tr05_cont.10.ark:933505
016c0201 /scratch/ravanelm/exp/dirha/data-fmllr-tri4/tr05_cont/data/feats_fmllr_tr05_cont.1.ark:48665409
016c0211 /scratch/ravanelm/exp/dirha/data-fmllr-tri4/tr05_cont/data/feats_fmllr_tr05_cont.1.ark:51983849
01uo030s /scratch/ravanelm/exp/dirha/data-fmllr-tri4/tr05_cont/data/feats_fmllr_tr05_cont.3.ark:87164169
40ac0202 /scratch/ravanelm/exp/dirha/data-fmllr-tri4/tr05_cont/data/feats_fmllr_tr05_cont.9.ark:216353
018c020e /scratch/ravanelm/exp/dirha/data-fmllr-tri4/tr05_cont/data/feats_fmllr_tr05_cont.1.ark:71115729
20gc010f /scratch/ravanelm/exp/dirha/data-fmllr-tri4/tr05_cont/data/feats_fmllr_tr05_cont.6.ark:73734769
01yo030x /scratch/ravanelm/exp/dirha/data-fmllr-tri4/tr05_cont/data/feats_fmllr_tr05_cont.4.ark:21365497
01ic0215 /scratch/ravanelm/exp/dirha/data-fmllr-tri4/tr05_cont/data/feats_fmllr_tr05_cont.2.ark:67290857
017o0316 /scratch/ravanelm/exp/dirha/data-fmllr-tri4/tr05_cont/data/feats_fmllr_tr05_cont.1.ark:68520321
20cc010l /scratch/ravanelm/exp/dirha/data-fmllr-tri4/tr05_cont/data/feats_fmllr_tr05_cont.6.ark:49020601
029c0217 /scratch/ravanelm/exp/dirha/data-fmllr-tri4/tr05_cont/data/feats_fmllr_tr05_cont.5.ark:29297177
40hc020p /scratch/ravanelm/exp/dirha/data-fmllr-tri4/tr05_cont/data/feats_fmllr_tr05_cont.10.ark:2410025
02cc0218 /scratch/ravanelm/exp/dirha/data-fmllr-tri4/tr05_cont/data/feats_fmllr_tr05_cont.5.ark:54277249
208o010o /scratch/ravanelm/exp/dirha/data-fmllr-tri4/tr05_cont/data/feats_fmllr_tr05_cont.6.ark:26600057
011o030h /scratch/ravanelm/exp/dirha/data-fmllr-tri4/tr05_cont/data/feats_fmllr_tr05_cont.1.ark:7950233
204c010i /scratch/ravanelm/exp/dirha/data-fmllr-tri4/tr05_cont/data/feats_fmllr_tr05_cont.5.ark:76754409
404o030e /scratch/ravanelm/exp/dirha/data-fmllr-tri4/tr05_cont/data/feats_fmllr_tr05_cont.8.ark:17106137
401c021d /scratch/ravanelm/exp/dirha/data-fmllr-tri4/tr05_cont/data/feats_fmllr_tr05_cont.7.ark:74785873
406c020c /scratch/ravanelm/exp/dirha/data-fmllr-tri4/tr05_cont/data/feats_fmllr_tr05_cont.8.ark:33100273
01jc020t /scratch/ravanelm/exp/dirha/data-fmllr-tri4/tr05_cont/data/feats_fmllr_tr05_cont.2.ark:79144057
02bo0308 /scratch/ravanelm/exp/dirha/data-fmllr-tri4/tr05_cont/data/feats_fmllr_tr05_cont.5.ark:43760513
404c020i /scratch/ravanelm/exp/dirha/data-fmllr-tri4/tr05_cont/data/feats_fmllr_tr05_cont.8.ark:12241009
011c0202 /scratch/ravanelm/exp/dirha/data-fmllr-tri4/tr05_cont/data/feats_fmllr_tr05_cont.1.ark:104353
01jo0309 /scratch/ravanelm/exp/dirha/data-fmllr-tri4/tr05_cont/data/feats_fmllr_tr05_cont.2.ark:83315385
204c0108 /scratch/ravanelm/exp/dirha/data-fmllr-tri4/tr05_cont/data/feats_fmllr_tr05_cont.5.ark:75972089
01wo0301 /scratch/ravanelm/exp/dirha/data-fmllr-tri4/tr05_cont/data/feats_fmllr_tr05_cont.4.ark:5436089
01ro0304 /scratch/ravanelm/exp/dirha/data-fmllr-tri4/tr05_cont/data/feats_fmllr_tr05_cont.3.ark:57676961
40po030t /scratch/ravanelm/exp/dirha/data-fmllr-tri4/tr05_cont/data/feats_fmllr_tr05_cont.10.ark:96552449
027c021f /scratch/ravanelm/exp/dirha/data-fmllr-tri4/tr05_cont/data/feats_fmllr_tr05_cont.5.ark:5429209
20dc010n /scratch/ravanelm/exp/dirha/data-fmllr-tri4/tr05_cont/data/feats_fmllr_tr05_cont.6.ark:55468249
40lo0308 /scratch/ravanelm/exp/dirha/data-fmllr-tri4/tr05_cont/data/feats_fmllr_tr05_cont.10.ark:55309265
40bc0202 /scratch/ravanelm/exp/dirha/data-fmllr-tri4/tr05_cont/data/feats_fmllr_tr05_cont.9.ark:12557657
029o030v /scratch/ravanelm/exp/dirha/data-fmllr-tri4/tr05_cont/data/feats_fmllr_tr05_cont.5.ark:34355097
01gc0204 /scratch/ravanelm/exp/dirha/data-fmllr-tri4/tr05_cont/data/feats_fmllr_tr05_cont.2.ark:50038401
208c010o /scratch/ravanelm/exp/dirha/data-fmllr-tri4/tr05_cont/data/feats_fmllr_tr05_cont.6.ark:23200417
20ho0101 /scratch/ravanelm/exp/dirha/data-fmllr-tri4/tr05_cont/data/feats_fmllr_tr05_cont.7.ark:1976313
406c0208 /scratch/ravanelm/exp/dirha/data-fmllr-tri4/tr05_cont/data/feats_fmllr_tr05_cont.8.ark:32688657
405o030r /scratch/ravanelm/exp/dirha/data-fmllr-tri4/tr05_cont/data/feats_fmllr_tr05_cont.8.ark:28959889
40kc020j /scratch/ravanelm/exp/dirha/data-fmllr-tri4/tr05_cont/data/feats_fmllr_tr05_cont.10.ark:38071345
20tc010p /scratch/ravanelm/exp/dirha/data-fmllr-tri4/tr05_cont/data/feats_fmllr_tr05_cont.7.ark:60462209
20ro010g /scratch/ravanelm/exp/dirha/data-fmllr-tri4/tr05_cont/data/feats_fmllr_tr05_cont.7.ark:56002465
01uo030i /scratch/ravanelm/exp/dirha/data-fmllr-tri4/tr05_cont/data/feats_fmllr_tr05_cont.3.ark:85731449
40lo031c /scratch/ravanelm/exp/dirha/data-fmllr-tri4/tr05_cont/data/feats_fmllr_tr05_cont.10.ark:62028945
01po030f /scratch/ravanelm/exp/dirha/data-fmllr-tri4/tr05_cont/data/feats_fmllr_tr05_cont.3.ark:34535537
01ro030d /scratch/ravanelm/exp/dirha/data-fmllr-tri4/tr05_cont/data/feats_fmllr_tr05_cont.3.ark:58452537
014o030q /scratch/ravanelm/exp/dirha/data-fmllr-tri4/tr05_cont/data/feats_fmllr_tr05_cont.1.ark:34158273
01gc020v /scratch/ravanelm/exp/dirha/data-fmllr-tri4/tr05_cont/data/feats_fmllr_tr05_cont.2.ark:53047529
408c0211 /scratch/ravanelm/exp/dirha/data-fmllr-tri4/tr05_cont/data/feats_fmllr_tr05_cont.8.ark:59110265
204o010j /scratch/ravanelm/exp/dirha/data-fmllr-tri4/tr05_cont/data/feats_fmllr_tr05_cont.5.ark:79636633
40jo0318 /scratch/ravanelm/exp/dirha/data-fmllr-tri4/tr05_cont/data/feats_fmllr_tr05_cont.10.ark:34884161
401c0216 /scratch/ravanelm/exp/dirha/data-fmllr-tri4/tr05_cont/data/feats_fmllr_tr05_cont.7.ark:73953545
01go031e /scratch/ravanelm/exp/dirha/data-fmllr-tri4/tr05_cont/data/feats_fmllr_tr05_cont.2.ark:62251425
20vc0106 /scratch/ravanelm/exp/dirha/data-fmllr-tri4/tr05_cont/data/feats_fmllr_tr05_cont.7.ark:63817537
027c021h /scratch/ravanelm/exp/dirha/data-fmllr-tri4/tr05_cont/data/feats_fmllr_tr05_cont.5.ark:5553417
407c021i /scratch/ravanelm/exp/dirha/data-fmllr-tri4/tr05_cont/data/feats_fmllr_tr05_cont.8.ark:48748617
027o0315 /scratch/ravanelm/exp/dirha/data-fmllr-tri4/tr05_cont/data/feats_fmllr_tr05_cont.5.ark:11704641
01dc020j /scratch/ravanelm/exp/dirha/data-fmllr-tri4/tr05_cont/data/feats_fmllr_tr05_cont.2.ark:16187609
40co030l /scratch/ravanelm/exp/dirha/data-fmllr-tri4/tr05_cont/data/feats_fmllr_tr05_cont.9.ark:31257825
024o030d /scratch/ravanelm/exp/dirha/data-fmllr-tri4/tr05_cont/data/feats_fmllr_tr05_cont.4.ark:63576233
01lo0302 /scratch/ravanelm/exp/dirha/data-fmllr-tri4/tr05_cont/data/feats_fmllr_tr05_cont.3.ark:6757577
405o030l /scratch/ravanelm/exp/dirha/data-fmllr-tri4/tr05_cont/data/feats_fmllr_tr05_cont.8.ark:28345345
406c0210 /scratch/ravanelm/exp/dirha/data-fmllr-tri4/tr05_cont/data/feats_fmllr_tr05_cont.8.ark:35286425
028o0307 /scratch/ravanelm/exp/dirha/data-fmllr-tri4/tr05_cont/data/feats_fmllr_tr05_cont.5.ark:18511617
027o030n /scratch/ravanelm/exp/dirha/data-fmllr-tri4/tr05_cont/data/feats_fmllr_tr05_cont.5.ark:9046449
40ho030m /scratch/ravanelm/exp/dirha/data-fmllr-tri4/tr05_cont/data/feats_fmllr_tr05_cont.10.ark:7794857
40mo030x /scratch/ravanelm/exp/dirha/data-fmllr-tri4/tr05_cont/data/feats_fmllr_tr05_cont.10.ark:72753161
40no0307 /scratch/ravanelm/exp/dirha/data-fmllr-tri4/tr05_cont/data/feats_fmllr_tr05_cont.10.ark:81868401
024c020l /scratch/ravanelm/exp/dirha/data-fmllr-tri4/tr05_cont/data/feats_fmllr_tr05_cont.4.ark:58907545
01qo030o /scratch/ravanelm/exp/dirha/data-fmllr-tri4/tr05_cont/data/feats_fmllr_tr05_cont.3.ark:48095905
01bo030y /scratch/ravanelm/exp/dirha/data-fmllr-tri4/tr05_cont/data/feats_fmllr_tr05_cont.2.ark:11918977
20co0108 /scratch/ravanelm/exp/dirha/data-fmllr-tri4/tr05_cont/data/feats_fmllr_tr05_cont.6.ark:50462785
01fc021f /scratch/ravanelm/exp/dirha/data-fmllr-tri4/tr05_cont/data/feats_fmllr_tr05_cont.2.ark:43192329
20mo010g /scratch/ravanelm/exp/dirha/data-fmllr-tri4/tr05_cont/data/feats_fmllr_tr05_cont.7.ark:23808161
01qo0313 /scratch/ravanelm/exp/dirha/data-fmllr-tri4/tr05_cont/data/feats_fmllr_tr05_cont.3.ark:49980105
016c0205 /scratch/ravanelm/exp/dirha/data-fmllr-tri4/tr05_cont/data/feats_fmllr_tr05_cont.1.ark:49008065
40ao031c /scratch/ravanelm/exp/dirha/data-fmllr-tri4/tr05_cont/data/feats_fmllr_tr05_cont.9.ark:11992737
01go0316 /scratch/ravanelm/exp/dirha/data-fmllr-tri4/tr05_cont/data/feats_fmllr_tr05_cont.2.ark:60992033
20mc010a /scratch/ravanelm/exp/dirha/data-fmllr-tri4/tr05_cont/data/feats_fmllr_tr05_cont.7.ark:20285817
20io010i /scratch/ravanelm/exp/dirha/data-fmllr-tri4/tr05_cont/data/feats_fmllr_tr05_cont.7.ark:10200937
40ao030q /scratch/ravanelm/exp/dirha/data-fmllr-tri4/tr05_cont/data/feats_fmllr_tr05_cont.9.ark:9182929
20pc010k /scratch/ravanelm/exp/dirha/data-fmllr-tri4/tr05_cont/data/feats_fmllr_tr05_cont.7.ark:40257161
015o030t /scratch/ravanelm/exp/dirha/data-fmllr-tri4/tr05_cont/data/feats_fmllr_tr05_cont.1.ark:46429297
01fc0214 /scratch/ravanelm/exp/dirha/data-fmllr-tri4/tr05_cont/data/feats_fmllr_tr05_cont.2.ark:42054145
01jc0214 /scratch/ravanelm/exp/dirha/data-fmllr-tri4/tr05_cont/data/feats_fmllr_tr05_cont.2.ark:80649441
02ec020a /scratch/ravanelm/exp/dirha/data-fmllr-tri4/tr05_cont/data/feats_fmllr_tr05_cont.5.ark:62932937
204c010o /scratch/ravanelm/exp/dirha/data-fmllr-tri4/tr05_cont/data/feats_fmllr_tr05_cont.5.ark:77296313
40lc020c /scratch/ravanelm/exp/dirha/data-fmllr-tri4/tr05_cont/data/feats_fmllr_tr05_cont.10.ark:49463977
01ko030n /scratch/ravanelm/exp/dirha/data-fmllr-tri4/tr05_cont/data/feats_fmllr_tr05_cont.2.ark:99692609
40jc0217 /scratch/ravanelm/exp/dirha/data-fmllr-tri4/tr05_cont/data/feats_fmllr_tr05_cont.10.ark:28126297
40co030o /scratch/ravanelm/exp/dirha/data-fmllr-tri4/tr05_cont/data/feats_fmllr_tr05_cont.9.ark:31579017
40dc020v /scratch/ravanelm/exp/dirha/data-fmllr-tri4/tr05_cont/data/feats_fmllr_tr05_cont.9.ark:37894193
016o030l /scratch/ravanelm/exp/dirha/data-fmllr-tri4/tr05_cont/data/feats_fmllr_tr05_cont.1.ark:55183905
029c0212 /scratch/ravanelm/exp/dirha/data-fmllr-tri4/tr05_cont/data/feats_fmllr_tr05_cont.5.ark:28727297
40jc021c /scratch/ravanelm/exp/dirha/data-fmllr-tri4/tr05_cont/data/feats_fmllr_tr05_cont.10.ark:28657777
01po030t /scratch/ravanelm/exp/dirha/data-fmllr-tri4/tr05_cont/data/feats_fmllr_tr05_cont.3.ark:36472649
019o030c /scratch/ravanelm/exp/dirha/data-fmllr-tri4/tr05_cont/data/feats_fmllr_tr05_cont.1.ark:90023673
20vo010a /scratch/ravanelm/exp/dirha/data-fmllr-tri4/tr05_cont/data/feats_fmllr_tr05_cont.7.ark:66852793
021c0213 /scratch/ravanelm/exp/dirha/data-fmllr-tri4/tr05_cont/data/feats_fmllr_tr05_cont.4.ark:49290009
01uo0309 /scratch/ravanelm/exp/dirha/data-fmllr-tri4/tr05_cont/data/feats_fmllr_tr05_cont.3.ark:84426273
028c020k /scratch/ravanelm/exp/dirha/data-fmllr-tri4/tr05_cont/data/feats_fmllr_tr05_cont.5.ark:14186705
20lc010o /scratch/ravanelm/exp/dirha/data-fmllr-tri4/tr05_cont/data/feats_fmllr_tr05_cont.7.ark:14292585
011o0301 /scratch/ravanelm/exp/dirha/data-fmllr-tri4/tr05_cont/data/feats_fmllr_tr05_cont.1.ark:5555609
01qo030y /scratch/ravanelm/exp/dirha/data-fmllr-tri4/tr05_cont/data/feats_fmllr_tr05_cont.3.ark:49254225
408o030a /scratch/ravanelm/exp/dirha/data-fmllr-tri4/tr05_cont/data/feats_fmllr_tr05_cont.8.ark:61618409
026c020y /scratch/ravanelm/exp/dirha/data-fmllr-tri4/tr05_cont/data/feats_fmllr_tr05_cont.4.ark:71220201
40go0319 /scratch/ravanelm/exp/dirha/data-fmllr-tri4/tr05_cont/data/feats_fmllr_tr05_cont.9.ark:83745953
20gc010h /scratch/ravanelm/exp/dirha/data-fmllr-tri4/tr05_cont/data/feats_fmllr_tr05_cont.6.ark:73933537
40ic021b /scratch/ravanelm/exp/dirha/data-fmllr-tri4/tr05_cont/data/feats_fmllr_tr05_cont.10.ark:16811033
01mc020b /scratch/ravanelm/exp/dirha/data-fmllr-tri4/tr05_cont/data/feats_fmllr_tr05_cont.3.ark:16068729
408o030i /scratch/ravanelm/exp/dirha/data-fmllr-tri4/tr05_cont/data/feats_fmllr_tr05_cont.8.ark:62421161
015o030v /scratch/ravanelm/exp/dirha/data-fmllr-tri4/tr05_cont/data/feats_fmllr_tr05_cont.1.ark:46593505
401c021e /scratch/ravanelm/exp/dirha/data-fmllr-tri4/tr05_cont/data/feats_fmllr_tr05_cont.7.ark:74842697
01mo0301 /scratch/ravanelm/exp/dirha/data-fmllr-tri4/tr05_cont/data/feats_fmllr_tr05_cont.3.ark:20368913
01zc020a /scratch/ravanelm/exp/dirha/data-fmllr-tri4/tr05_cont/data/feats_fmllr_tr05_cont.4.ark:24621937
40ic020o /scratch/ravanelm/exp/dirha/data-fmllr-tri4/tr05_cont/data/feats_fmllr_tr05_cont.10.ark:14333681
40cc020j /scratch/ravanelm/exp/dirha/data-fmllr-tri4/tr05_cont/data/feats_fmllr_tr05_cont.9.ark:26337697
40do030f /scratch/ravanelm/exp/dirha/data-fmllr-tri4/tr05_cont/data/feats_fmllr_tr05_cont.9.ark:41786897
40io030r /scratch/ravanelm/exp/dirha/data-fmllr-tri4/tr05_cont/data/feats_fmllr_tr05_cont.10.ark:20531457
01ro0307 /scratch/ravanelm/exp/dirha/data-fmllr-tri4/tr05_cont/data/feats_fmllr_tr05_cont.3.ark:57899593
20qo010c /scratch/ravanelm/exp/dirha/data-fmllr-tri4/tr05_cont/data/feats_fmllr_tr05_cont.7.ark:49028393
01lo030w /scratch/ravanelm/exp/dirha/data-fmllr-tri4/tr05_cont/data/feats_fmllr_tr05_cont.3.ark:11520537
20po0105 /scratch/ravanelm/exp/dirha/data-fmllr-tri4/tr05_cont/data/feats_fmllr_tr05_cont.7.ark:41368121
01to030v /scratch/ravanelm/exp/dirha/data-fmllr-tri4/tr05_cont/data/feats_fmllr_tr05_cont.3.ark:73890569
01lo030l /scratch/ravanelm/exp/dirha/data-fmllr-tri4/tr05_cont/data/feats_fmllr_tr05_cont.3.ark:10106513
021o030u /scratch/ravanelm/exp/dirha/data-fmllr-tri4/tr05_cont/data/feats_fmllr_tr05_cont.4.ark:53889097
40mc0210 /scratch/ravanelm/exp/dirha/data-fmllr-tri4/tr05_cont/data/feats_fmllr_tr05_cont.10.ark:66320945
405o030g /scratch/ravanelm/exp/dirha/data-fmllr-tri4/tr05_cont/data/feats_fmllr_tr05_cont.8.ark:27744585
011c0208 /scratch/ravanelm/exp/dirha/data-fmllr-tri4/tr05_cont/data/feats_fmllr_tr05_cont.1.ark:660977
014c021c /scratch/ravanelm/exp/dirha/data-fmllr-tri4/tr05_cont/data/feats_fmllr_tr05_cont.1.ark:30116089
20mc010g /scratch/ravanelm/exp/dirha/data-fmllr-tri4/tr05_cont/data/feats_fmllr_tr05_cont.7.ark:20949321
40hc0208 /scratch/ravanelm/exp/dirha/data-fmllr-tri4/tr05_cont/data/feats_fmllr_tr05_cont.10.ark:684657
40bo0316 /scratch/ravanelm/exp/dirha/data-fmllr-tri4/tr05_cont/data/feats_fmllr_tr05_cont.9.ark:23611817
40fo030i /scratch/ravanelm/exp/dirha/data-fmllr-tri4/tr05_cont/data/feats_fmllr_tr05_cont.9.ark:64225873
40do030c /scratch/ravanelm/exp/dirha/data-fmllr-tri4/tr05_cont/data/feats_fmllr_tr05_cont.9.ark:41381705
20qc010i /scratch/ravanelm/exp/dirha/data-fmllr-tri4/tr05_cont/data/feats_fmllr_tr05_cont.7.ark:46209697
01mc020x /scratch/ravanelm/exp/dirha/data-fmllr-tri4/tr05_cont/data/feats_fmllr_tr05_cont.3.ark:18289257
40nc020g /scratch/ravanelm/exp/dirha/data-fmllr-tri4/tr05_cont/data/feats_fmllr_tr05_cont.10.ark:76540329
20vc0105 /scratch/ravanelm/exp/dirha/data-fmllr-tri4/tr05_cont/data/feats_fmllr_tr05_cont.7.ark:63656233
205o010m /scratch/ravanelm/exp/dirha/data-fmllr-tri4/tr05_cont/data/feats_fmllr_tr05_cont.6.ark:6103193
01bc020v /scratch/ravanelm/exp/dirha/data-fmllr-tri4/tr05_cont/data/feats_fmllr_tr05_cont.2.ark:3932977
404c0204 /scratch/ravanelm/exp/dirha/data-fmllr-tri4/tr05_cont/data/feats_fmllr_tr05_cont.8.ark:10951713
01ec021f /scratch/ravanelm/exp/dirha/data-fmllr-tri4/tr05_cont/data/feats_fmllr_tr05_cont.2.ark:31749473
40ko0307 /scratch/ravanelm/exp/dirha/data-fmllr-tri4/tr05_cont/data/feats_fmllr_tr05_cont.10.ark:42342545
20cc010g /scratch/ravanelm/exp/dirha/data-fmllr-tri4/tr05_cont/data/feats_fmllr_tr05_cont.6.ark:48525121
404o0313 /scratch/ravanelm/exp/dirha/data-fmllr-tri4/tr05_cont/data/feats_fmllr_tr05_cont.8.ark:20088017
409c0211 /scratch/ravanelm/exp/dirha/data-fmllr-tri4/tr05_cont/data/feats_fmllr_tr05_cont.8.ark:69609649
016c020b /scratch/ravanelm/exp/dirha/data-fmllr-tri4/tr05_cont/data/feats_fmllr_tr05_cont.1.ark:49644689
40cc020o /scratch/ravanelm/exp/dirha/data-fmllr-tri4/tr05_cont/data/feats_fmllr_tr05_cont.9.ark:26658937
40ic021f /scratch/ravanelm/exp/dirha/data-fmllr-tri4/tr05_cont/data/feats_fmllr_tr05_cont.10.ark:17261849
40ic0218 /scratch/ravanelm/exp/dirha/data-fmllr-tri4/tr05_cont/data/feats_fmllr_tr05_cont.10.ark:16416241
01rc020t /scratch/ravanelm/exp/dirha/data-fmllr-tri4/tr05_cont/data/feats_fmllr_tr05_cont.3.ark:54850873
20vc010d /scratch/ravanelm/exp/dirha/data-fmllr-tri4/tr05_cont/data/feats_fmllr_tr05_cont.7.ark:64675305
01io030p /scratch/ravanelm/exp/dirha/data-fmllr-tri4/tr05_cont/data/feats_fmllr_tr05_cont.2.ark:72302577
015c0206 /scratch/ravanelm/exp/dirha/data-fmllr-tri4/tr05_cont/data/feats_fmllr_tr05_cont.1.ark:37992729
013c020k /scratch/ravanelm/exp/dirha/data-fmllr-tri4/tr05_cont/data/feats_fmllr_tr05_cont.1.ark:16375529
40eo0314 /scratch/ravanelm/exp/dirha/data-fmllr-tri4/tr05_cont/data/feats_fmllr_tr05_cont.9.ark:55497145
01uo030b /scratch/ravanelm/exp/dirha/data-fmllr-tri4/tr05_cont/data/feats_fmllr_tr05_cont.3.ark:84818321
01wo030a /scratch/ravanelm/exp/dirha/data-fmllr-tri4/tr05_cont/data/feats_fmllr_tr05_cont.4.ark:6435345
40gc020f /scratch/ravanelm/exp/dirha/data-fmllr-tri4/tr05_cont/data/feats_fmllr_tr05_cont.9.ark:70731849
01uo031b /scratch/ravanelm/exp/dirha/data-fmllr-tri4/tr05_cont/data/feats_fmllr_tr05_cont.3.ark:90292945
20bo0104 /scratch/ravanelm/exp/dirha/data-fmllr-tri4/tr05_cont/data/feats_fmllr_tr05_cont.6.ark:42663385
011o031b /scratch/ravanelm/exp/dirha/data-fmllr-tri4/tr05_cont/data/feats_fmllr_tr05_cont.1.ark:12996873
40fc020j /scratch/ravanelm/exp/dirha/data-fmllr-tri4/tr05_cont/data/feats_fmllr_tr05_cont.9.ark:58148169
016c020a /scratch/ravanelm/exp/dirha/data-fmllr-tri4/tr05_cont/data/feats_fmllr_tr05_cont.1.ark:49588025
024c020f /scratch/ravanelm/exp/dirha/data-fmllr-tri4/tr05_cont/data/feats_fmllr_tr05_cont.4.ark:58120681
024c0211 /scratch/ravanelm/exp/dirha/data-fmllr-tri4/tr05_cont/data/feats_fmllr_tr05_cont.4.ark:60459449
40ic020p /scratch/ravanelm/exp/dirha/data-fmllr-tri4/tr05_cont/data/feats_fmllr_tr05_cont.10.ark:14485865
01to030w /scratch/ravanelm/exp/dirha/data-fmllr-tri4/tr05_cont/data/feats_fmllr_tr05_cont.3.ark:74045633
20fo010g /scratch/ravanelm/exp/dirha/data-fmllr-tri4/tr05_cont/data/feats_fmllr_tr05_cont.6.ark:71256753
205o0105 /scratch/ravanelm/exp/dirha/data-fmllr-tri4/tr05_cont/data/feats_fmllr_tr05_cont.6.ark:3311105
40ko030o /scratch/ravanelm/exp/dirha/data-fmllr-tri4/tr05_cont/data/feats_fmllr_tr05_cont.10.ark:44587273
40eo030g /scratch/ravanelm/exp/dirha/data-fmllr-tri4/tr05_cont/data/feats_fmllr_tr05_cont.9.ark:52741209
01jc020l /scratch/ravanelm/exp/dirha/data-fmllr-tri4/tr05_cont/data/feats_fmllr_tr05_cont.2.ark:78313465
208c010j /scratch/ravanelm/exp/dirha/data-fmllr-tri4/tr05_cont/data/feats_fmllr_tr05_cont.6.ark:22556137
40fc020f /scratch/ravanelm/exp/dirha/data-fmllr-tri4/tr05_cont/data/feats_fmllr_tr05_cont.9.ark:57738473
01pc021b /scratch/ravanelm/exp/dirha/data-fmllr-tri4/tr05_cont/data/feats_fmllr_tr05_cont.3.ark:31799377
01po031c /scratch/ravanelm/exp/dirha/data-fmllr-tri4/tr05_cont/data/feats_fmllr_tr05_cont.3.ark:39235505
01jo0302 /scratch/ravanelm/exp/dirha/data-fmllr-tri4/tr05_cont/data/feats_fmllr_tr05_cont.2.ark:82318097
40ao0316 /scratch/ravanelm/exp/dirha/data-fmllr-tri4/tr05_cont/data/feats_fmllr_tr05_cont.9.ark:11306833
407o030z /scratch/ravanelm/exp/dirha/data-fmllr-tri4/tr05_cont/data/feats_fmllr_tr05_cont.8.ark:54224337
028o0313 /scratch/ravanelm/exp/dirha/data-fmllr-tri4/tr05_cont/data/feats_fmllr_tr05_cont.5.ark:23135265
014c0217 /scratch/ravanelm/exp/dirha/data-fmllr-tri4/tr05_cont/data/feats_fmllr_tr05_cont.1.ark:29662689
20bc010a /scratch/ravanelm/exp/dirha/data-fmllr-tri4/tr05_cont/data/feats_fmllr_tr05_cont.6.ark:40598633
01ko030w /scratch/ravanelm/exp/dirha/data-fmllr-tri4/tr05_cont/data/feats_fmllr_tr05_cont.2.ark:101009305
016c020o /scratch/ravanelm/exp/dirha/data-fmllr-tri4/tr05_cont/data/feats_fmllr_tr05_cont.1.ark:50965481
01to0317 /scratch/ravanelm/exp/dirha/data-fmllr-tri4/tr05_cont/data/feats_fmllr_tr05_cont.3.ark:75442697
40bc020i /scratch/ravanelm/exp/dirha/data-fmllr-tri4/tr05_cont/data/feats_fmllr_tr05_cont.9.ark:14381241
40ic0205 /scratch/ravanelm/exp/dirha/data-fmllr-tri4/tr05_cont/data/feats_fmllr_tr05_cont.10.ark:11894985
01ko030j /scratch/ravanelm/exp/dirha/data-fmllr-tri4/tr05_cont/data/feats_fmllr_tr05_cont.2.ark:98988513
01kc020p /scratch/ravanelm/exp/dirha/data-fmllr-tri4/tr05_cont/data/feats_fmllr_tr05_cont.2.ark:92618977
20po010f /scratch/ravanelm/exp/dirha/data-fmllr-tri4/tr05_cont/data/feats_fmllr_tr05_cont.7.ark:42400681
021c020h /scratch/ravanelm/exp/dirha/data-fmllr-tri4/tr05_cont/data/feats_fmllr_tr05_cont.4.ark:46856681
20pc010l /scratch/ravanelm/exp/dirha/data-fmllr-tri4/tr05_cont/data/feats_fmllr_tr05_cont.7.ark:40382945
406o030x /scratch/ravanelm/exp/dirha/data-fmllr-tri4/tr05_cont/data/feats_fmllr_tr05_cont.8.ark:40785017
40gc020p /scratch/ravanelm/exp/dirha/data-fmllr-tri4/tr05_cont/data/feats_fmllr_tr05_cont.9.ark:72048889
40mo0310 /scratch/ravanelm/exp/dirha/data-fmllr-tri4/tr05_cont/data/feats_fmllr_tr05_cont.10.ark:73139793
018c020m /scratch/ravanelm/exp/dirha/data-fmllr-tri4/tr05_cont/data/feats_fmllr_tr05_cont.1.ark:72100401
024o030x /scratch/ravanelm/exp/dirha/data-fmllr-tri4/tr05_cont/data/feats_fmllr_tr05_cont.4.ark:65710953
01zo030g /scratch/ravanelm/exp/dirha/data-fmllr-tri4/tr05_cont/data/feats_fmllr_tr05_cont.4.ark:31592905
011c020t /scratch/ravanelm/exp/dirha/data-fmllr-tri4/tr05_cont/data/feats_fmllr_tr05_cont.1.ark:3099081
02bo030n /scratch/ravanelm/exp/dirha/data-fmllr-tri4/tr05_cont/data/feats_fmllr_tr05_cont.5.ark:45804873
20do010j /scratch/ravanelm/exp/dirha/data-fmllr-tri4/tr05_cont/data/feats_fmllr_tr05_cont.6.ark:58457553
40lc0209 /scratch/ravanelm/exp/dirha/data-fmllr-tri4/tr05_cont/data/feats_fmllr_tr05_cont.10.ark:49133025
208c0104 /scratch/ravanelm/exp/dirha/data-fmllr-tri4/tr05_cont/data/feats_fmllr_tr05_cont.6.ark:20854017
02ec0205 /scratch/ravanelm/exp/dirha/data-fmllr-tri4/tr05_cont/data/feats_fmllr_tr05_cont.5.ark:62344657
401c020k /scratch/ravanelm/exp/dirha/data-fmllr-tri4/tr05_cont/data/feats_fmllr_tr05_cont.7.ark:71477817
20pc0102 /scratch/ravanelm/exp/dirha/data-fmllr-tri4/tr05_cont/data/feats_fmllr_tr05_cont.7.ark:38451289
01fo030j /scratch/ravanelm/exp/dirha/data-fmllr-tri4/tr05_cont/data/feats_fmllr_tr05_cont.2.ark:45968169
01dc0213 /scratch/ravanelm/exp/dirha/data-fmllr-tri4/tr05_cont/data/feats_fmllr_tr05_cont.2.ark:18133369
403o0317 /scratch/ravanelm/exp/dirha/data-fmllr-tri4/tr05_cont/data/feats_fmllr_tr05_cont.8.ark:10086561
20eo010a /scratch/ravanelm/exp/dirha/data-fmllr-tri4/tr05_cont/data/feats_fmllr_tr05_cont.6.ark:64156801
20mo010m /scratch/ravanelm/exp/dirha/data-fmllr-tri4/tr05_cont/data/feats_fmllr_tr05_cont.7.ark:24374705
01tc020p /scratch/ravanelm/exp/dirha/data-fmllr-tri4/tr05_cont/data/feats_fmllr_tr05_cont.3.ark:66229681
409c0207 /scratch/ravanelm/exp/dirha/data-fmllr-tri4/tr05_cont/data/feats_fmllr_tr05_cont.8.ark:66244289
01uc0201 /scratch/ravanelm/exp/dirha/data-fmllr-tri4/tr05_cont/data/feats_fmllr_tr05_cont.3.ark:76905337
407c0202 /scratch/ravanelm/exp/dirha/data-fmllr-tri4/tr05_cont/data/feats_fmllr_tr05_cont.8.ark:43001449
20no010q /scratch/ravanelm/exp/dirha/data-fmllr-tri4/tr05_cont/data/feats_fmllr_tr05_cont.7.ark:32315913
40gc020w /scratch/ravanelm/exp/dirha/data-fmllr-tri4/tr05_cont/data/feats_fmllr_tr05_cont.9.ark:72834977
409o0312 /scratch/ravanelm/exp/dirha/data-fmllr-tri4/tr05_cont/data/feats_fmllr_tr05_cont.8.ark:75576361
40dc021a /scratch/ravanelm/exp/dirha/data-fmllr-tri4/tr05_cont/data/feats_fmllr_tr05_cont.9.ark:39558073
01eo0303 /scratch/ravanelm/exp/dirha/data-fmllr-tri4/tr05_cont/data/feats_fmllr_tr05_cont.2.ark:32130185
01to0309 /scratch/ravanelm/exp/dirha/data-fmllr-tri4/tr05_cont/data/feats_fmllr_tr05_cont.3.ark:70763641
01jc020v /scratch/ravanelm/exp/dirha/data-fmllr-tri4/tr05_cont/data/feats_fmllr_tr05_cont.2.ark:79349545
01qo031e /scratch/ravanelm/exp/dirha/data-fmllr-tri4/tr05_cont/data/feats_fmllr_tr05_cont.3.ark:51122929
028c020b /scratch/ravanelm/exp/dirha/data-fmllr-tri4/tr05_cont/data/feats_fmllr_tr05_cont.5.ark:13332569
024c020h /scratch/ravanelm/exp/dirha/data-fmllr-tri4/tr05_cont/data/feats_fmllr_tr05_cont.4.ark:58367289
01fo0307 /scratch/ravanelm/exp/dirha/data-fmllr-tri4/tr05_cont/data/feats_fmllr_tr05_cont.2.ark:44227081
209c0101 /scratch/ravanelm/exp/dirha/data-fmllr-tri4/tr05_cont/data/feats_fmllr_tr05_cont.6.ark:27091353
40ao030f /scratch/ravanelm/exp/dirha/data-fmllr-tri4/tr05_cont/data/feats_fmllr_tr05_cont.9.ark:7812425
40bc0216 /scratch/ravanelm/exp/dirha/data-fmllr-tri4/tr05_cont/data/feats_fmllr_tr05_cont.9.ark:16793337
40kc020y /scratch/ravanelm/exp/dirha/data-fmllr-tri4/tr05_cont/data/feats_fmllr_tr05_cont.10.ark:39746585
20nc010g /scratch/ravanelm/exp/dirha/data-fmllr-tri4/tr05_cont/data/feats_fmllr_tr05_cont.7.ark:26991873
026c020b /scratch/ravanelm/exp/dirha/data-fmllr-tri4/tr05_cont/data/feats_fmllr_tr05_cont.4.ark:69095169
20do010r /scratch/ravanelm/exp/dirha/data-fmllr-tri4/tr05_cont/data/feats_fmllr_tr05_cont.6.ark:59645265
40lo0307 /scratch/ravanelm/exp/dirha/data-fmllr-tri4/tr05_cont/data/feats_fmllr_tr05_cont.10.ark:55248761
01gc0205 /scratch/ravanelm/exp/dirha/data-fmllr-tri4/tr05_cont/data/feats_fmllr_tr05_cont.2.ark:50187545
02bo030w /scratch/ravanelm/exp/dirha/data-fmllr-tri4/tr05_cont/data/feats_fmllr_tr05_cont.5.ark:47146049
40eo030h /scratch/ravanelm/exp/dirha/data-fmllr-tri4/tr05_cont/data/feats_fmllr_tr05_cont.9.ark:52876113
01uo031e /scratch/ravanelm/exp/dirha/data-fmllr-tri4/tr05_cont/data/feats_fmllr_tr05_cont.3.ark:90603417
01yc020f /scratch/ravanelm/exp/dirha/data-fmllr-tri4/tr05_cont/data/feats_fmllr_tr05_cont.4.ark:13053417
015o031a /scratch/ravanelm/exp/dirha/data-fmllr-tri4/tr05_cont/data/feats_fmllr_tr05_cont.1.ark:48573705
40no030r /scratch/ravanelm/exp/dirha/data-fmllr-tri4/tr05_cont/data/feats_fmllr_tr05_cont.10.ark:84805841
40lc020r /scratch/ravanelm/exp/dirha/data-fmllr-tri4/tr05_cont/data/feats_fmllr_tr05_cont.10.ark:51174257
027c021e /scratch/ravanelm/exp/dirha/data-fmllr-tri4/tr05_cont/data/feats_fmllr_tr05_cont.5.ark:5381665
01qc020d /scratch/ravanelm/exp/dirha/data-fmllr-tri4/tr05_cont/data/feats_fmllr_tr05_cont.3.ark:40987497
20qc010n /scratch/ravanelm/exp/dirha/data-fmllr-tri4/tr05_cont/data/feats_fmllr_tr05_cont.7.ark:46799897
029o0302 /scratch/ravanelm/exp/dirha/data-fmllr-tri4/tr05_cont/data/feats_fmllr_tr05_cont.5.ark:30440641
206c0106 /scratch/ravanelm/exp/dirha/data-fmllr-tri4/tr05_cont/data/feats_fmllr_tr05_cont.6.ark:7601697
01ec0203 /scratch/ravanelm/exp/dirha/data-fmllr-tri4/tr05_cont/data/feats_fmllr_tr05_cont.2.ark:26339545
016c0217 /scratch/ravanelm/exp/dirha/data-fmllr-tri4/tr05_cont/data/feats_fmllr_tr05_cont.1.ark:52335145
404c0210 /scratch/ravanelm/exp/dirha/data-fmllr-tri4/tr05_cont/data/feats_fmllr_tr05_cont.8.ark:14001121
406o030c /scratch/ravanelm/exp/dirha/data-fmllr-tri4/tr05_cont/data/feats_fmllr_tr05_cont.8.ark:38093313
40fo030m /scratch/ravanelm/exp/dirha/data-fmllr-tri4/tr05_cont/data/feats_fmllr_tr05_cont.9.ark:64687089
01fo030r /scratch/ravanelm/exp/dirha/data-fmllr-tri4/tr05_cont/data/feats_fmllr_tr05_cont.2.ark:46952201
01do0308 /scratch/ravanelm/exp/dirha/data-fmllr-tri4/tr05_cont/data/feats_fmllr_tr05_cont.2.ark:20614009
409o030v /scratch/ravanelm/exp/dirha/data-fmllr-tri4/tr05_cont/data/feats_fmllr_tr05_cont.8.ark:74842753
40dc020d /scratch/ravanelm/exp/dirha/data-fmllr-tri4/tr05_cont/data/feats_fmllr_tr05_cont.9.ark:35615681
02bc020d /scratch/ravanelm/exp/dirha/data-fmllr-tri4/tr05_cont/data/feats_fmllr_tr05_cont.5.ark:38529169
40no030o /scratch/ravanelm/exp/dirha/data-fmllr-tri4/tr05_cont/data/feats_fmllr_tr05_cont.10.ark:84359689
01jo030g /scratch/ravanelm/exp/dirha/data-fmllr-tri4/tr05_cont/data/feats_fmllr_tr05_cont.2.ark:84450273
20gc010l /scratch/ravanelm/exp/dirha/data-fmllr-tri4/tr05_cont/data/feats_fmllr_tr05_cont.6.ark:74340673
01lo030j /scratch/ravanelm/exp/dirha/data-fmllr-tri4/tr05_cont/data/feats_fmllr_tr05_cont.3.ark:9642145
407c020x /scratch/ravanelm/exp/dirha/data-fmllr-tri4/tr05_cont/data/feats_fmllr_tr05_cont.8.ark:46358353
404o0304 /scratch/ravanelm/exp/dirha/data-fmllr-tri4/tr05_cont/data/feats_fmllr_tr05_cont.8.ark:15897257
40jo030m /scratch/ravanelm/exp/dirha/data-fmllr-tri4/tr05_cont/data/feats_fmllr_tr05_cont.10.ark:32100753
020c020j /scratch/ravanelm/exp/dirha/data-fmllr-tri4/tr05_cont/data/feats_fmllr_tr05_cont.4.ark:38937905
20hc0102 /scratch/ravanelm/exp/dirha/data-fmllr-tri4/tr05_cont/data/feats_fmllr_tr05_cont.7.ark:72673
019o0319 /scratch/ravanelm/exp/dirha/data-fmllr-tri4/tr05_cont/data/feats_fmllr_tr05_cont.1.ark:93975025
01uo0308 /scratch/ravanelm/exp/dirha/data-fmllr-tri4/tr05_cont/data/feats_fmllr_tr05_cont.3.ark:84298889
20ac010c /scratch/ravanelm/exp/dirha/data-fmllr-tri4/tr05_cont/data/feats_fmllr_tr05_cont.6.ark:34055081
017c0212 /scratch/ravanelm/exp/dirha/data-fmllr-tri4/tr05_cont/data/feats_fmllr_tr05_cont.1.ark:62020417
016c020s /scratch/ravanelm/exp/dirha/data-fmllr-tri4/tr05_cont/data/feats_fmllr_tr05_cont.1.ark:51175313
01qc0205 /scratch/ravanelm/exp/dirha/data-fmllr-tri4/tr05_cont/data/feats_fmllr_tr05_cont.3.ark:39830505
406o0301 /scratch/ravanelm/exp/dirha/data-fmllr-tri4/tr05_cont/data/feats_fmllr_tr05_cont.8.ark:36858649
014o030h /scratch/ravanelm/exp/dirha/data-fmllr-tri4/tr05_cont/data/feats_fmllr_tr05_cont.1.ark:32821257
01qc020h /scratch/ravanelm/exp/dirha/data-fmllr-tri4/tr05_cont/data/feats_fmllr_tr05_cont.3.ark:41520073
403c0214 /scratch/ravanelm/exp/dirha/data-fmllr-tri4/tr05_cont/data/feats_fmllr_tr05_cont.8.ark:3414865
027o030b /scratch/ravanelm/exp/dirha/data-fmllr-tri4/tr05_cont/data/feats_fmllr_tr05_cont.5.ark:7133841
011o031c /scratch/ravanelm/exp/dirha/data-fmllr-tri4/tr05_cont/data/feats_fmllr_tr05_cont.1.ark:13174017
027o0317 /scratch/ravanelm/exp/dirha/data-fmllr-tri4/tr05_cont/data/feats_fmllr_tr05_cont.5.ark:12043889
40lo031g /scratch/ravanelm/exp/dirha/data-fmllr-tri4/tr05_cont/data/feats_fmllr_tr05_cont.10.ark:62714161
40bc0203 /scratch/ravanelm/exp/dirha/data-fmllr-tri4/tr05_cont/data/feats_fmllr_tr05_cont.9.ark:12684081
40nc020p /scratch/ravanelm/exp/dirha/data-fmllr-tri4/tr05_cont/data/feats_fmllr_tr05_cont.10.ark:77714305
20ec0106 /scratch/ravanelm/exp/dirha/data-fmllr-tri4/tr05_cont/data/feats_fmllr_tr05_cont.6.ark:60511329
01dc0214 /scratch/ravanelm/exp/dirha/data-fmllr-tri4/tr05_cont/data/feats_fmllr_tr05_cont.2.ark:18233553
40co031c /scratch/ravanelm/exp/dirha/data-fmllr-tri4/tr05_cont/data/feats_fmllr_tr05_cont.9.ark:33686473
40bc0201 /scratch/ravanelm/exp/dirha/data-fmllr-tri4/tr05_cont/data/feats_fmllr_tr05_cont.9.ark:12431873
40ic021a /scratch/ravanelm/exp/dirha/data-fmllr-tri4/tr05_cont/data/feats_fmllr_tr05_cont.10.ark:16690529
406o0319 /scratch/ravanelm/exp/dirha/data-fmllr-tri4/tr05_cont/data/feats_fmllr_tr05_cont.8.ark:42418425
40mc020h /scratch/ravanelm/exp/dirha/data-fmllr-tri4/tr05_cont/data/feats_fmllr_tr05_cont.10.ark:64316809
40lc020p /scratch/ravanelm/exp/dirha/data-fmllr-tri4/tr05_cont/data/feats_fmllr_tr05_cont.10.ark:50970849
20eo0102 /scratch/ravanelm/exp/dirha/data-fmllr-tri4/tr05_cont/data/feats_fmllr_tr05_cont.6.ark:62836289
404o0318 /scratch/ravanelm/exp/dirha/data-fmllr-tri4/tr05_cont/data/feats_fmllr_tr05_cont.8.ark:20634217
01go030d /scratch/ravanelm/exp/dirha/data-fmllr-tri4/tr05_cont/data/feats_fmllr_tr05_cont.2.ark:57039017
40bo030l /scratch/ravanelm/exp/dirha/data-fmllr-tri4/tr05_cont/data/feats_fmllr_tr05_cont.9.ark:20905921
20hc010d /scratch/ravanelm/exp/dirha/data-fmllr-tri4/tr05_cont/data/feats_fmllr_tr05_cont.7.ark:885737
408o030b /scratch/ravanelm/exp/dirha/data-fmllr-tri4/tr05_cont/data/feats_fmllr_tr05_cont.8.ark:61712833
401c0213 /scratch/ravanelm/exp/dirha/data-fmllr-tri4/tr05_cont/data/feats_fmllr_tr05_cont.7.ark:73553473
20fc010c /scratch/ravanelm/exp/dirha/data-fmllr-tri4/tr05_cont/data/feats_fmllr_tr05_cont.6.ark:67814753
404o030b /scratch/ravanelm/exp/dirha/data-fmllr-tri4/tr05_cont/data/feats_fmllr_tr05_cont.8.ark:16795345
40jc020h /scratch/ravanelm/exp/dirha/data-fmllr-tri4/tr05_cont/data/feats_fmllr_tr05_cont.10.ark:25269673
027o0302 /scratch/ravanelm/exp/dirha/data-fmllr-tri4/tr05_cont/data/feats_fmllr_tr05_cont.5.ark:5743225
014c0214 /scratch/ravanelm/exp/dirha/data-fmllr-tri4/tr05_cont/data/feats_fmllr_tr05_cont.1.ark:29455417
407o030h /scratch/ravanelm/exp/dirha/data-fmllr-tri4/tr05_cont/data/feats_fmllr_tr05_cont.8.ark:51293505
01zo030w /scratch/ravanelm/exp/dirha/data-fmllr-tri4/tr05_cont/data/feats_fmllr_tr05_cont.4.ark:34517929
40bo030o /scratch/ravanelm/exp/dirha/data-fmllr-tri4/tr05_cont/data/feats_fmllr_tr05_cont.9.ark:21309193
40jc020g /scratch/ravanelm/exp/dirha/data-fmllr-tri4/tr05_cont/data/feats_fmllr_tr05_cont.10.ark:25143569
026c0211 /scratch/ravanelm/exp/dirha/data-fmllr-tri4/tr05_cont/data/feats_fmllr_tr05_cont.4.ark:71562673
021c020v /scratch/ravanelm/exp/dirha/data-fmllr-tri4/tr05_cont/data/feats_fmllr_tr05_cont.4.ark:48575897
409o030p /scratch/ravanelm/exp/dirha/data-fmllr-tri4/tr05_cont/data/feats_fmllr_tr05_cont.8.ark:74191249
028c0201 /scratch/ravanelm/exp/dirha/data-fmllr-tri4/tr05_cont/data/feats_fmllr_tr05_cont.5.ark:12539689
01bc020b /scratch/ravanelm/exp/dirha/data-fmllr-tri4/tr05_cont/data/feats_fmllr_tr05_cont.2.ark:1358601
02ec0215 /scratch/ravanelm/exp/dirha/data-fmllr-tri4/tr05_cont/data/feats_fmllr_tr05_cont.5.ark:66829041
40mc020q /scratch/ravanelm/exp/dirha/data-fmllr-tri4/tr05_cont/data/feats_fmllr_tr05_cont.10.ark:65348545
01io031f /scratch/ravanelm/exp/dirha/data-fmllr-tri4/tr05_cont/data/feats_fmllr_tr05_cont.2.ark:75787041
01pc020b /scratch/ravanelm/exp/dirha/data-fmllr-tri4/tr05_cont/data/feats_fmllr_tr05_cont.3.ark:27750833
027o030q /scratch/ravanelm/exp/dirha/data-fmllr-tri4/tr05_cont/data/feats_fmllr_tr05_cont.5.ark:9417721
20co0104 /scratch/ravanelm/exp/dirha/data-fmllr-tri4/tr05_cont/data/feats_fmllr_tr05_cont.6.ark:49869729
01fo0318 /scratch/ravanelm/exp/dirha/data-fmllr-tri4/tr05_cont/data/feats_fmllr_tr05_cont.2.ark:49062689
01bo030l /scratch/ravanelm/exp/dirha/data-fmllr-tri4/tr05_cont/data/feats_fmllr_tr05_cont.2.ark:9861385
014o0303 /scratch/ravanelm/exp/dirha/data-fmllr-tri4/tr05_cont/data/feats_fmllr_tr05_cont.1.ark:30989241
206c0105 /scratch/ravanelm/exp/dirha/data-fmllr-tri4/tr05_cont/data/feats_fmllr_tr05_cont.6.ark:7441353
02bo031a /scratch/ravanelm/exp/dirha/data-fmllr-tri4/tr05_cont/data/feats_fmllr_tr05_cont.5.ark:49208785
02co0315 /scratch/ravanelm/exp/dirha/data-fmllr-tri4/tr05_cont/data/feats_fmllr_tr05_cont.5.ark:60116321
028c0202 /scratch/ravanelm/exp/dirha/data-fmllr-tri4/tr05_cont/data/feats_fmllr_tr05_cont.5.ark:12604193
01to030o /scratch/ravanelm/exp/dirha/data-fmllr-tri4/tr05_cont/data/feats_fmllr_tr05_cont.3.ark:72800801
20mo0103 /scratch/ravanelm/exp/dirha/data-fmllr-tri4/tr05_cont/data/feats_fmllr_tr05_cont.7.ark:22340969
409c020k /scratch/ravanelm/exp/dirha/data-fmllr-tri4/tr05_cont/data/feats_fmllr_tr05_cont.8.ark:67621081
404c0208 /scratch/ravanelm/exp/dirha/data-fmllr-tri4/tr05_cont/data/feats_fmllr_tr05_cont.8.ark:11301889
40lo030x /scratch/ravanelm/exp/dirha/data-fmllr-tri4/tr05_cont/data/feats_fmllr_tr05_cont.10.ark:59802345
20bo010k /scratch/ravanelm/exp/dirha/data-fmllr-tri4/tr05_cont/data/feats_fmllr_tr05_cont.6.ark:45527129
02bo030m /scratch/ravanelm/exp/dirha/data-fmllr-tri4/tr05_cont/data/feats_fmllr_tr05_cont.5.ark:45654129
20eo010b /scratch/ravanelm/exp/dirha/data-fmllr-tri4/tr05_cont/data/feats_fmllr_tr05_cont.6.ark:64234265
01gc020n /scratch/ravanelm/exp/dirha/data-fmllr-tri4/tr05_cont/data/feats_fmllr_tr05_cont.2.ark:52276137
014o030e /scratch/ravanelm/exp/dirha/data-fmllr-tri4/tr05_cont/data/feats_fmllr_tr05_cont.1.ark:32500225
029o030t /scratch/ravanelm/exp/dirha/data-fmllr-tri4/tr05_cont/data/feats_fmllr_tr05_cont.5.ark:34143049
20bc010c /scratch/ravanelm/exp/dirha/data-fmllr-tri4/tr05_cont/data/feats_fmllr_tr05_cont.6.ark:40746841
20pc0109 /scratch/ravanelm/exp/dirha/data-fmllr-tri4/tr05_cont/data/feats_fmllr_tr05_cont.7.ark:39177537
01yc020p /scratch/ravanelm/exp/dirha/data-fmllr-tri4/tr05_cont/data/feats_fmllr_tr05_cont.4.ark:14090617
401c0205 /scratch/ravanelm/exp/dirha/data-fmllr-tri4/tr05_cont/data/feats_fmllr_tr05_cont.7.ark:69621137
20to0104 /scratch/ravanelm/exp/dirha/data-fmllr-tri4/tr05_cont/data/feats_fmllr_tr05_cont.7.ark:60934969
406o0305 /scratch/ravanelm/exp/dirha/data-fmllr-tri4/tr05_cont/data/feats_fmllr_tr05_cont.8.ark:37410105
209c010d /scratch/ravanelm/exp/dirha/data-fmllr-tri4/tr05_cont/data/feats_fmllr_tr05_cont.6.ark:28306361
40ac020k /scratch/ravanelm/exp/dirha/data-fmllr-tri4/tr05_cont/data/feats_fmllr_tr05_cont.9.ark:2616145
40cc020l /scratch/ravanelm/exp/dirha/data-fmllr-tri4/tr05_cont/data/feats_fmllr_tr05_cont.9.ark:26503665
20dc010d /scratch/ravanelm/exp/dirha/data-fmllr-tri4/tr05_cont/data/feats_fmllr_tr05_cont.6.ark:54163689
01ec0219 /scratch/ravanelm/exp/dirha/data-fmllr-tri4/tr05_cont/data/feats_fmllr_tr05_cont.2.ark:31148553
205o010b /scratch/ravanelm/exp/dirha/data-fmllr-tri4/tr05_cont/data/feats_fmllr_tr05_cont.6.ark:4199889
01io030h /scratch/ravanelm/exp/dirha/data-fmllr-tri4/tr05_cont/data/feats_fmllr_tr05_cont.2.ark:71064305
01lc020e /scratch/ravanelm/exp/dirha/data-fmllr-tri4/tr05_cont/data/feats_fmllr_tr05_cont.3.ark:1874241
20mc010e /scratch/ravanelm/exp/dirha/data-fmllr-tri4/tr05_cont/data/feats_fmllr_tr05_cont.7.ark:20738393
40ic020w /scratch/ravanelm/exp/dirha/data-fmllr-tri4/tr05_cont/data/feats_fmllr_tr05_cont.10.ark:15125873
01io031b /scratch/ravanelm/exp/dirha/data-fmllr-tri4/tr05_cont/data/feats_fmllr_tr05_cont.2.ark:75384545
029o031d /scratch/ravanelm/exp/dirha/data-fmllr-tri4/tr05_cont/data/feats_fmllr_tr05_cont.5.ark:36823689
01zo030y /scratch/ravanelm/exp/dirha/data-fmllr-tri4/tr05_cont/data/feats_fmllr_tr05_cont.4.ark:34915897
407o030i /scratch/ravanelm/exp/dirha/data-fmllr-tri4/tr05_cont/data/feats_fmllr_tr05_cont.8.ark:51421849
01wc021b /scratch/ravanelm/exp/dirha/data-fmllr-tri4/tr05_cont/data/feats_fmllr_tr05_cont.4.ark:4877409
016c021a /scratch/ravanelm/exp/dirha/data-fmllr-tri4/tr05_cont/data/feats_fmllr_tr05_cont.1.ark:52652017
40hc0210 /scratch/ravanelm/exp/dirha/data-fmllr-tri4/tr05_cont/data/feats_fmllr_tr05_cont.10.ark:3398289
02bo030x /scratch/ravanelm/exp/dirha/data-fmllr-tri4/tr05_cont/data/feats_fmllr_tr05_cont.5.ark:47295993
018c0205 /scratch/ravanelm/exp/dirha/data-fmllr-tri4/tr05_cont/data/feats_fmllr_tr05_cont.1.ark:70205593
01mo030d /scratch/ravanelm/exp/dirha/data-fmllr-tri4/tr05_cont/data/feats_fmllr_tr05_cont.3.ark:21977841
40ho030q /scratch/ravanelm/exp/dirha/data-fmllr-tri4/tr05_cont/data/feats_fmllr_tr05_cont.10.ark:8310953
40kc020b /scratch/ravanelm/exp/dirha/data-fmllr-tri4/tr05_cont/data/feats_fmllr_tr05_cont.10.ark:37170673
20vc0103 /scratch/ravanelm/exp/dirha/data-fmllr-tri4/tr05_cont/data/feats_fmllr_tr05_cont.7.ark:63456825
02bo0318 /scratch/ravanelm/exp/dirha/data-fmllr-tri4/tr05_cont/data/feats_fmllr_tr05_cont.5.ark:48910817
01po0309 /scratch/ravanelm/exp/dirha/data-fmllr-tri4/tr05_cont/data/feats_fmllr_tr05_cont.3.ark:33787873
40cc021a /scratch/ravanelm/exp/dirha/data-fmllr-tri4/tr05_cont/data/feats_fmllr_tr05_cont.9.ark:28562025
01tc0214 /scratch/ravanelm/exp/dirha/data-fmllr-tri4/tr05_cont/data/feats_fmllr_tr05_cont.3.ark:68316921
024o030o /scratch/ravanelm/exp/dirha/data-fmllr-tri4/tr05_cont/data/feats_fmllr_tr05_cont.4.ark:64898097
204o010a /scratch/ravanelm/exp/dirha/data-fmllr-tri4/tr05_cont/data/feats_fmllr_tr05_cont.5.ark:78406337
40ac021d /scratch/ravanelm/exp/dirha/data-fmllr-tri4/tr05_cont/data/feats_fmllr_tr05_cont.9.ark:5952681
406c0214 /scratch/ravanelm/exp/dirha/data-fmllr-tri4/tr05_cont/data/feats_fmllr_tr05_cont.8.ark:35716441
404o0305 /scratch/ravanelm/exp/dirha/data-fmllr-tri4/tr05_cont/data/feats_fmllr_tr05_cont.8.ark:16046401
20ac010h /scratch/ravanelm/exp/dirha/data-fmllr-tri4/tr05_cont/data/feats_fmllr_tr05_cont.6.ark:34607201
40po031d /scratch/ravanelm/exp/dirha/data-fmllr-tri4/tr05_cont/data/feats_fmllr_tr05_cont.10.ark:99078849
01yc021e /scratch/ravanelm/exp/dirha/data-fmllr-tri4/tr05_cont/data/feats_fmllr_tr05_cont.4.ark:16799697
01uc020e /scratch/ravanelm/exp/dirha/data-fmllr-tri4/tr05_cont/data/feats_fmllr_tr05_cont.3.ark:78576369
013c021d /scratch/ravanelm/exp/dirha/data-fmllr-tri4/tr05_cont/data/feats_fmllr_tr05_cont.1.ark:19320865
015o0315 /scratch/ravanelm/exp/dirha/data-fmllr-tri4/tr05_cont/data/feats_fmllr_tr05_cont.1.ark:47935985
01yc0219 /scratch/ravanelm/exp/dirha/data-fmllr-tri4/tr05_cont/data/feats_fmllr_tr05_cont.4.ark:16172217
20fc010k /scratch/ravanelm/exp/dirha/data-fmllr-tri4/tr05_cont/data/feats_fmllr_tr05_cont.6.ark:68591265
01qc020j /scratch/ravanelm/exp/dirha/data-fmllr-tri4/tr05_cont/data/feats_fmllr_tr05_cont.3.ark:41898521
40bc020z /scratch/ravanelm/exp/dirha/data-fmllr-tri4/tr05_cont/data/feats_fmllr_tr05_cont.9.ark:16011089
205c010d /scratch/ravanelm/exp/dirha/data-fmllr-tri4/tr05_cont/data/feats_fmllr_tr05_cont.6.ark:1452777
403c020f /scratch/ravanelm/exp/dirha/data-fmllr-tri4/tr05_cont/data/feats_fmllr_tr05_cont.8.ark:1051865
01yo030g /scratch/ravanelm/exp/dirha/data-fmllr-tri4/tr05_cont/data/feats_fmllr_tr05_cont.4.ark:18914849
015o030p /scratch/ravanelm/exp/dirha/data-fmllr-tri4/tr05_cont/data/feats_fmllr_tr05_cont.1.ark:45989201
403o030j /scratch/ravanelm/exp/dirha/data-fmllr-tri4/tr05_cont/data/feats_fmllr_tr05_cont.8.ark:7057985
40ho030h /scratch/ravanelm/exp/dirha/data-fmllr-tri4/tr05_cont/data/feats_fmllr_tr05_cont.10.ark:7075057
20nc0108 /scratch/ravanelm/exp/dirha/data-fmllr-tri4/tr05_cont/data/feats_fmllr_tr05_cont.7.ark:26005761
01do030d /scratch/ravanelm/exp/dirha/data-fmllr-tri4/tr05_cont/data/feats_fmllr_tr05_cont.2.ark:21352209
205c010n /scratch/ravanelm/exp/dirha/data-fmllr-tri4/tr05_cont/data/feats_fmllr_tr05_cont.6.ark:2393817
40co0307 /scratch/ravanelm/exp/dirha/data-fmllr-tri4/tr05_cont/data/feats_fmllr_tr05_cont.9.ark:29686129
016o030z /scratch/ravanelm/exp/dirha/data-fmllr-tri4/tr05_cont/data/feats_fmllr_tr05_cont.1.ark:56586641
20rc010m /scratch/ravanelm/exp/dirha/data-fmllr-tri4/tr05_cont/data/feats_fmllr_tr05_cont.7.ark:53471497
206c010d /scratch/ravanelm/exp/dirha/data-fmllr-tri4/tr05_cont/data/feats_fmllr_tr05_cont.6.ark:8179145
013o030y /scratch/ravanelm/exp/dirha/data-fmllr-tri4/tr05_cont/data/feats_fmllr_tr05_cont.1.ark:23630529
01go030p /scratch/ravanelm/exp/dirha/data-fmllr-tri4/tr05_cont/data/feats_fmllr_tr05_cont.2.ark:58625225
40jo0314 /scratch/ravanelm/exp/dirha/data-fmllr-tri4/tr05_cont/data/feats_fmllr_tr05_cont.10.ark:34397185
401o030f /scratch/ravanelm/exp/dirha/data-fmllr-tri4/tr05_cont/data/feats_fmllr_tr05_cont.7.ark:76907561
40cc020f /scratch/ravanelm/exp/dirha/data-fmllr-tri4/tr05_cont/data/feats_fmllr_tr05_cont.9.ark:25861441
01bo0304 /scratch/ravanelm/exp/dirha/data-fmllr-tri4/tr05_cont/data/feats_fmllr_tr05_cont.2.ark:6820361
016c020w /scratch/ravanelm/exp/dirha/data-fmllr-tri4/tr05_cont/data/feats_fmllr_tr05_cont.1.ark:51523569
40co030i /scratch/ravanelm/exp/dirha/data-fmllr-tri4/tr05_cont/data/feats_fmllr_tr05_cont.9.ark:30947993
01ko031g /scratch/ravanelm/exp/dirha/data-fmllr-tri4/tr05_cont/data/feats_fmllr_tr05_cont.2.ark:104411385
403o030i /scratch/ravanelm/exp/dirha/data-fmllr-tri4/tr05_cont/data/feats_fmllr_tr05_cont.8.ark:6886601
017c021a /scratch/ravanelm/exp/dirha/data-fmllr-tri4/tr05_cont/data/feats_fmllr_tr05_cont.1.ark:62774369
011c0218 /scratch/ravanelm/exp/dirha/data-fmllr-tri4/tr05_cont/data/feats_fmllr_tr05_cont.1.ark:4813521
01zo031c /scratch/ravanelm/exp/dirha/data-fmllr-tri4/tr05_cont/data/feats_fmllr_tr05_cont.4.ark:36779593
019c020a /scratch/ravanelm/exp/dirha/data-fmllr-tri4/tr05_cont/data/feats_fmllr_tr05_cont.1.ark:84277553
207o010g /scratch/ravanelm/exp/dirha/data-fmllr-tri4/tr05_cont/data/feats_fmllr_tr05_cont.6.ark:18638865
40jc0215 /scratch/ravanelm/exp/dirha/data-fmllr-tri4/tr05_cont/data/feats_fmllr_tr05_cont.10.ark:27916649
01wo030j /scratch/ravanelm/exp/dirha/data-fmllr-tri4/tr05_cont/data/feats_fmllr_tr05_cont.4.ark:7634921
01do030t /scratch/ravanelm/exp/dirha/data-fmllr-tri4/tr05_cont/data/feats_fmllr_tr05_cont.2.ark:23125985
40jc020a /scratch/ravanelm/exp/dirha/data-fmllr-tri4/tr05_cont/data/feats_fmllr_tr05_cont.10.ark:24541825
207c010b /scratch/ravanelm/exp/dirha/data-fmllr-tri4/tr05_cont/data/feats_fmllr_tr05_cont.6.ark:14950857
20hc0108 /scratch/ravanelm/exp/dirha/data-fmllr-tri4/tr05_cont/data/feats_fmllr_tr05_cont.7.ark:525937
01po0301 /scratch/ravanelm/exp/dirha/data-fmllr-tri4/tr05_cont/data/feats_fmllr_tr05_cont.3.ark:32619041
408c020m /scratch/ravanelm/exp/dirha/data-fmllr-tri4/tr05_cont/data/feats_fmllr_tr05_cont.8.ark:57823689
206c010c /scratch/ravanelm/exp/dirha/data-fmllr-tri4/tr05_cont/data/feats_fmllr_tr05_cont.6.ark:8027441
40eo0313 /scratch/ravanelm/exp/dirha/data-fmllr-tri4/tr05_cont/data/feats_fmllr_tr05_cont.9.ark:55426081
014o0309 /scratch/ravanelm/exp/dirha/data-fmllr-tri4/tr05_cont/data/feats_fmllr_tr05_cont.1.ark:31782665
020c020s /scratch/ravanelm/exp/dirha/data-fmllr-tri4/tr05_cont/data/feats_fmllr_tr05_cont.4.ark:39625641
408o030o /scratch/ravanelm/exp/dirha/data-fmllr-tri4/tr05_cont/data/feats_fmllr_tr05_cont.8.ark:63271225
020c0213 /scratch/ravanelm/exp/dirha/data-fmllr-tri4/tr05_cont/data/feats_fmllr_tr05_cont.4.ark:40451025
403c0212 /scratch/ravanelm/exp/dirha/data-fmllr-tri4/tr05_cont/data/feats_fmllr_tr05_cont.8.ark:3215137
207o010c /scratch/ravanelm/exp/dirha/data-fmllr-tri4/tr05_cont/data/feats_fmllr_tr05_cont.6.ark:18240049
20bo010g /scratch/ravanelm/exp/dirha/data-fmllr-tri4/tr05_cont/data/feats_fmllr_tr05_cont.6.ark:44895033
20rc0102 /scratch/ravanelm/exp/dirha/data-fmllr-tri4/tr05_cont/data/feats_fmllr_tr05_cont.7.ark:51215657
40lo031e /scratch/ravanelm/exp/dirha/data-fmllr-tri4/tr05_cont/data/feats_fmllr_tr05_cont.10.ark:62332673
403c020y /scratch/ravanelm/exp/dirha/data-fmllr-tri4/tr05_cont/data/feats_fmllr_tr05_cont.8.ark:2774721
01mc020f /scratch/ravanelm/exp/dirha/data-fmllr-tri4/tr05_cont/data/feats_fmllr_tr05_cont.3.ark:16399225
40mc021b /scratch/ravanelm/exp/dirha/data-fmllr-tri4/tr05_cont/data/feats_fmllr_tr05_cont.10.ark:67505049
207c010f /scratch/ravanelm/exp/dirha/data-fmllr-tri4/tr05_cont/data/feats_fmllr_tr05_cont.6.ark:15430953
207o0105 /scratch/ravanelm/exp/dirha/data-fmllr-tri4/tr05_cont/data/feats_fmllr_tr05_cont.6.ark:17193481
02eo030l /scratch/ravanelm/exp/dirha/data-fmllr-tri4/tr05_cont/data/feats_fmllr_tr05_cont.5.ark:71036161
20fo0104 /scratch/ravanelm/exp/dirha/data-fmllr-tri4/tr05_cont/data/feats_fmllr_tr05_cont.6.ark:69696145
40po0309 /scratch/ravanelm/exp/dirha/data-fmllr-tri4/tr05_cont/data/feats_fmllr_tr05_cont.10.ark:93620609
01ic021e /scratch/ravanelm/exp/dirha/data-fmllr-tri4/tr05_cont/data/feats_fmllr_tr05_cont.2.ark:68107713
027c0208 /scratch/ravanelm/exp/dirha/data-fmllr-tri4/tr05_cont/data/feats_fmllr_tr05_cont.5.ark:872177
404o030h /scratch/ravanelm/exp/dirha/data-fmllr-tri4/tr05_cont/data/feats_fmllr_tr05_cont.8.ark:17430689
01fo030e /scratch/ravanelm/exp/dirha/data-fmllr-tri4/tr05_cont/data/feats_fmllr_tr05_cont.2.ark:45352849
01qc020y /scratch/ravanelm/exp/dirha/data-fmllr-tri4/tr05_cont/data/feats_fmllr_tr05_cont.3.ark:42862625
40no030f /scratch/ravanelm/exp/dirha/data-fmllr-tri4/tr05_cont/data/feats_fmllr_tr05_cont.10.ark:82999473
20tc0103 /scratch/ravanelm/exp/dirha/data-fmllr-tri4/tr05_cont/data/feats_fmllr_tr05_cont.7.ark:58128241
01kc020f /scratch/ravanelm/exp/dirha/data-fmllr-tri4/tr05_cont/data/feats_fmllr_tr05_cont.2.ark:91600041
018o0302 /scratch/ravanelm/exp/dirha/data-fmllr-tri4/tr05_cont/data/feats_fmllr_tr05_cont.1.ark:76016849
209o010o /scratch/ravanelm/exp/dirha/data-fmllr-tri4/tr05_cont/data/feats_fmllr_tr05_cont.6.ark:32494769
02ec0210 /scratch/ravanelm/exp/dirha/data-fmllr-tri4/tr05_cont/data/feats_fmllr_tr05_cont.5.ark:66106041
01tc020v /scratch/ravanelm/exp/dirha/data-fmllr-tri4/tr05_cont/data/feats_fmllr_tr05_cont.3.ark:67169505
018o030l /scratch/ravanelm/exp/dirha/data-fmllr-tri4/tr05_cont/data/feats_fmllr_tr05_cont.1.ark:78865945
026o0314 /scratch/ravanelm/exp/dirha/data-fmllr-tri4/tr05_cont/data/feats_fmllr_tr05_cont.4.ark:77957753
024c0218 /scratch/ravanelm/exp/dirha/data-fmllr-tri4/tr05_cont/data/feats_fmllr_tr05_cont.4.ark:61170657
026o030b /scratch/ravanelm/exp/dirha/data-fmllr-tri4/tr05_cont/data/feats_fmllr_tr05_cont.4.ark:74242177
01ic020d /scratch/ravanelm/exp/dirha/data-fmllr-tri4/tr05_cont/data/feats_fmllr_tr05_cont.2.ark:64314185
01lc021d /scratch/ravanelm/exp/dirha/data-fmllr-tri4/tr05_cont/data/feats_fmllr_tr05_cont.3.ark:6192201
026o0312 /scratch/ravanelm/exp/dirha/data-fmllr-tri4/tr05_cont/data/feats_fmllr_tr05_cont.4.ark:77668745
01gc020s /scratch/ravanelm/exp/dirha/data-fmllr-tri4/tr05_cont/data/feats_fmllr_tr05_cont.2.ark:52791617
01bc020k /scratch/ravanelm/exp/dirha/data-fmllr-tri4/tr05_cont/data/feats_fmllr_tr05_cont.2.ark:2468097
019c0209 /scratch/ravanelm/exp/dirha/data-fmllr-tri4/tr05_cont/data/feats_fmllr_tr05_cont.1.ark:84163929
017o0303 /scratch/ravanelm/exp/dirha/data-fmllr-tri4/tr05_cont/data/feats_fmllr_tr05_cont.1.ark:63768025
01go030z /scratch/ravanelm/exp/dirha/data-fmllr-tri4/tr05_cont/data/feats_fmllr_tr05_cont.2.ark:60021465
401c020q /scratch/ravanelm/exp/dirha/data-fmllr-tri4/tr05_cont/data/feats_fmllr_tr05_cont.7.ark:72067881
40hc020c /scratch/ravanelm/exp/dirha/data-fmllr-tri4/tr05_cont/data/feats_fmllr_tr05_cont.10.ark:1141873
021o030y /scratch/ravanelm/exp/dirha/data-fmllr-tri4/tr05_cont/data/feats_fmllr_tr05_cont.4.ark:54337353
40jc020m /scratch/ravanelm/exp/dirha/data-fmllr-tri4/tr05_cont/data/feats_fmllr_tr05_cont.10.ark:25796033
01jc020x /scratch/ravanelm/exp/dirha/data-fmllr-tri4/tr05_cont/data/feats_fmllr_tr05_cont.2.ark:79613753
01jo0308 /scratch/ravanelm/exp/dirha/data-fmllr-tri4/tr05_cont/data/feats_fmllr_tr05_cont.2.ark:83269281
01fc0207 /scratch/ravanelm/exp/dirha/data-fmllr-tri4/tr05_cont/data/feats_fmllr_tr05_cont.2.ark:38578153
204o0103 /scratch/ravanelm/exp/dirha/data-fmllr-tri4/tr05_cont/data/feats_fmllr_tr05_cont.5.ark:77670489
408c0207 /scratch/ravanelm/exp/dirha/data-fmllr-tri4/tr05_cont/data/feats_fmllr_tr05_cont.8.ark:56410849
40pc0212 /scratch/ravanelm/exp/dirha/data-fmllr-tri4/tr05_cont/data/feats_fmllr_tr05_cont.10.ark:91489201
408c021d /scratch/ravanelm/exp/dirha/data-fmllr-tri4/tr05_cont/data/feats_fmllr_tr05_cont.8.ark:60168793
208o010m /scratch/ravanelm/exp/dirha/data-fmllr-tri4/tr05_cont/data/feats_fmllr_tr05_cont.6.ark:26265289
020c020k /scratch/ravanelm/exp/dirha/data-fmllr-tri4/tr05_cont/data/feats_fmllr_tr05_cont.4.ark:39026089
024o030g /scratch/ravanelm/exp/dirha/data-fmllr-tri4/tr05_cont/data/feats_fmllr_tr05_cont.4.ark:63904145
20io010h /scratch/ravanelm/exp/dirha/data-fmllr-tri4/tr05_cont/data/feats_fmllr_tr05_cont.7.ark:9982993
01bo030o /scratch/ravanelm/exp/dirha/data-fmllr-tri4/tr05_cont/data/feats_fmllr_tr05_cont.2.ark:10164497
024c020z /scratch/ravanelm/exp/dirha/data-fmllr-tri4/tr05_cont/data/feats_fmllr_tr05_cont.4.ark:60245961
40go0313 /scratch/ravanelm/exp/dirha/data-fmllr-tri4/tr05_cont/data/feats_fmllr_tr05_cont.9.ark:82668209
40lc020h /scratch/ravanelm/exp/dirha/data-fmllr-tri4/tr05_cont/data/feats_fmllr_tr05_cont.10.ark:50151937
401o0303 /scratch/ravanelm/exp/dirha/data-fmllr-tri4/tr05_cont/data/feats_fmllr_tr05_cont.7.ark:75351913
40eo030t /scratch/ravanelm/exp/dirha/data-fmllr-tri4/tr05_cont/data/feats_fmllr_tr05_cont.9.ark:54140881
01eo030f /scratch/ravanelm/exp/dirha/data-fmllr-tri4/tr05_cont/data/feats_fmllr_tr05_cont.2.ark:33311273
014c020a /scratch/ravanelm/exp/dirha/data-fmllr-tri4/tr05_cont/data/feats_fmllr_tr05_cont.1.ark:26714217
024c020w /scratch/ravanelm/exp/dirha/data-fmllr-tri4/tr05_cont/data/feats_fmllr_tr05_cont.4.ark:59914529
013o030j /scratch/ravanelm/exp/dirha/data-fmllr-tri4/tr05_cont/data/feats_fmllr_tr05_cont.1.ark:21782169
028c020y /scratch/ravanelm/exp/dirha/data-fmllr-tri4/tr05_cont/data/feats_fmllr_tr05_cont.5.ark:15644961
401c0204 /scratch/ravanelm/exp/dirha/data-fmllr-tri4/tr05_cont/data/feats_fmllr_tr05_cont.7.ark:69507673
019c0207 /scratch/ravanelm/exp/dirha/data-fmllr-tri4/tr05_cont/data/feats_fmllr_tr05_cont.1.ark:83987881
01fo030y /scratch/ravanelm/exp/dirha/data-fmllr-tri4/tr05_cont/data/feats_fmllr_tr05_cont.2.ark:47641969
20lo010b /scratch/ravanelm/exp/dirha/data-fmllr-tri4/tr05_cont/data/feats_fmllr_tr05_cont.7.ark:16431457
40bc0214 /scratch/ravanelm/exp/dirha/data-fmllr-tri4/tr05_cont/data/feats_fmllr_tr05_cont.9.ark:16573289
02co0309 /scratch/ravanelm/exp/dirha/data-fmllr-tri4/tr05_cont/data/feats_fmllr_tr05_cont.5.ark:55934913
40eo0301 /scratch/ravanelm/exp/dirha/data-fmllr-tri4/tr05_cont/data/feats_fmllr_tr05_cont.9.ark:50838289
01rc020c /scratch/ravanelm/exp/dirha/data-fmllr-tri4/tr05_cont/data/feats_fmllr_tr05_cont.3.ark:52799905
40ac020o /scratch/ravanelm/exp/dirha/data-fmllr-tri4/tr05_cont/data/feats_fmllr_tr05_cont.9.ark:3093681
028c021c /scratch/ravanelm/exp/dirha/data-fmllr-tri4/tr05_cont/data/feats_fmllr_tr05_cont.5.ark:17195697
014c020c /scratch/ravanelm/exp/dirha/data-fmllr-tri4/tr05_cont/data/feats_fmllr_tr05_cont.1.ark:26919545
02bc020q /scratch/ravanelm/exp/dirha/data-fmllr-tri4/tr05_cont/data/feats_fmllr_tr05_cont.5.ark:39970921
01po0302 /scratch/ravanelm/exp/dirha/data-fmllr-tri4/tr05_cont/data/feats_fmllr_tr05_cont.3.ark:32783545
01zo0308 /scratch/ravanelm/exp/dirha/data-fmllr-tri4/tr05_cont/data/feats_fmllr_tr05_cont.4.ark:30405993
018o0319 /scratch/ravanelm/exp/dirha/data-fmllr-tri4/tr05_cont/data/feats_fmllr_tr05_cont.1.ark:82771001
409c0218 /scratch/ravanelm/exp/dirha/data-fmllr-tri4/tr05_cont/data/feats_fmllr_tr05_cont.8.ark:70357017
027o030h /scratch/ravanelm/exp/dirha/data-fmllr-tri4/tr05_cont/data/feats_fmllr_tr05_cont.5.ark:8142465
40jo0315 /scratch/ravanelm/exp/dirha/data-fmllr-tri4/tr05_cont/data/feats_fmllr_tr05_cont.10.ark:34569529
01fo030p /scratch/ravanelm/exp/dirha/data-fmllr-tri4/tr05_cont/data/feats_fmllr_tr05_cont.2.ark:46729273
20oo010d /scratch/ravanelm/exp/dirha/data-fmllr-tri4/tr05_cont/data/feats_fmllr_tr05_cont.7.ark:36327065
01rc021a /scratch/ravanelm/exp/dirha/data-fmllr-tri4/tr05_cont/data/feats_fmllr_tr05_cont.3.ark:56590321
018o030y /scratch/ravanelm/exp/dirha/data-fmllr-tri4/tr05_cont/data/feats_fmllr_tr05_cont.1.ark:80944177
01jc020s /scratch/ravanelm/exp/dirha/data-fmllr-tri4/tr05_cont/data/feats_fmllr_tr05_cont.2.ark:79081953
01lo0310 /scratch/ravanelm/exp/dirha/data-fmllr-tri4/tr05_cont/data/feats_fmllr_tr05_cont.3.ark:12488633
01tc0209 /scratch/ravanelm/exp/dirha/data-fmllr-tri4/tr05_cont/data/feats_fmllr_tr05_cont.3.ark:64075217
01fc020h /scratch/ravanelm/exp/dirha/data-fmllr-tri4/tr05_cont/data/feats_fmllr_tr05_cont.2.ark:39800793
20vc010h /scratch/ravanelm/exp/dirha/data-fmllr-tri4/tr05_cont/data/feats_fmllr_tr05_cont.7.ark:65053961
20fc010p /scratch/ravanelm/exp/dirha/data-fmllr-tri4/tr05_cont/data/feats_fmllr_tr05_cont.6.ark:69151705
029o031f /scratch/ravanelm/exp/dirha/data-fmllr-tri4/tr05_cont/data/feats_fmllr_tr05_cont.5.ark:37077977
20no010k /scratch/ravanelm/exp/dirha/data-fmllr-tri4/tr05_cont/data/feats_fmllr_tr05_cont.7.ark:31449529
019c0204 /scratch/ravanelm/exp/dirha/data-fmllr-tri4/tr05_cont/data/feats_fmllr_tr05_cont.1.ark:83654689
02bc020n /scratch/ravanelm/exp/dirha/data-fmllr-tri4/tr05_cont/data/feats_fmllr_tr05_cont.5.ark:39688609
024c020p /scratch/ravanelm/exp/dirha/data-fmllr-tri4/tr05_cont/data/feats_fmllr_tr05_cont.4.ark:59217721
40jo031a /scratch/ravanelm/exp/dirha/data-fmllr-tri4/tr05_cont/data/feats_fmllr_tr05_cont.10.ark:35253489
020c0201 /scratch/ravanelm/exp/dirha/data-fmllr-tri4/tr05_cont/data/feats_fmllr_tr05_cont.4.ark:37586273
40co030u /scratch/ravanelm/exp/dirha/data-fmllr-tri4/tr05_cont/data/feats_fmllr_tr05_cont.9.ark:32151801
20qo010g /scratch/ravanelm/exp/dirha/data-fmllr-tri4/tr05_cont/data/feats_fmllr_tr05_cont.7.ark:49620809
013o031a /scratch/ravanelm/exp/dirha/data-fmllr-tri4/tr05_cont/data/feats_fmllr_tr05_cont.1.ark:25165537
40ac020q /scratch/ravanelm/exp/dirha/data-fmllr-tri4/tr05_cont/data/feats_fmllr_tr05_cont.9.ark:3294849
027o030e /scratch/ravanelm/exp/dirha/data-fmllr-tri4/tr05_cont/data/feats_fmllr_tr05_cont.5.ark:7555033
019o0309 /scratch/ravanelm/exp/dirha/data-fmllr-tri4/tr05_cont/data/feats_fmllr_tr05_cont.1.ark:89583121
02co031b /scratch/ravanelm/exp/dirha/data-fmllr-tri4/tr05_cont/data/feats_fmllr_tr05_cont.5.ark:61068465
40ac020i /scratch/ravanelm/exp/dirha/data-fmllr-tri4/tr05_cont/data/feats_fmllr_tr05_cont.9.ark:2457217
20qo0107 /scratch/ravanelm/exp/dirha/data-fmllr-tri4/tr05_cont/data/feats_fmllr_tr05_cont.7.ark:48189233
20tc010o /scratch/ravanelm/exp/dirha/data-fmllr-tri4/tr05_cont/data/feats_fmllr_tr05_cont.7.ark:60376105
20qc010c /scratch/ravanelm/exp/dirha/data-fmllr-tri4/tr05_cont/data/feats_fmllr_tr05_cont.7.ark:45580753
01go030i /scratch/ravanelm/exp/dirha/data-fmllr-tri4/tr05_cont/data/feats_fmllr_tr05_cont.2.ark:57666657
40ec020l /scratch/ravanelm/exp/dirha/data-fmllr-tri4/tr05_cont/data/feats_fmllr_tr05_cont.9.ark:47802297
01rc0217 /scratch/ravanelm/exp/dirha/data-fmllr-tri4/tr05_cont/data/feats_fmllr_tr05_cont.3.ark:56399529
40bc020p /scratch/ravanelm/exp/dirha/data-fmllr-tri4/tr05_cont/data/feats_fmllr_tr05_cont.9.ark:14915169
40fc0217 /scratch/ravanelm/exp/dirha/data-fmllr-tri4/tr05_cont/data/feats_fmllr_tr05_cont.9.ark:61011625
40nc0205 /scratch/ravanelm/exp/dirha/data-fmllr-tri4/tr05_cont/data/feats_fmllr_tr05_cont.10.ark:75231265
01ro0301 /scratch/ravanelm/exp/dirha/data-fmllr-tri4/tr05_cont/data/feats_fmllr_tr05_cont.3.ark:57333049
40lo0309 /scratch/ravanelm/exp/dirha/data-fmllr-tri4/tr05_cont/data/feats_fmllr_tr05_cont.10.ark:55500169
40ic020u /scratch/ravanelm/exp/dirha/data-fmllr-tri4/tr05_cont/data/feats_fmllr_tr05_cont.10.ark:14910465
406o030d /scratch/ravanelm/exp/dirha/data-fmllr-tri4/tr05_cont/data/feats_fmllr_tr05_cont.8.ark:38173337
403c020s /scratch/ravanelm/exp/dirha/data-fmllr-tri4/tr05_cont/data/feats_fmllr_tr05_cont.8.ark:2314897
40lo031b /scratch/ravanelm/exp/dirha/data-fmllr-tri4/tr05_cont/data/feats_fmllr_tr05_cont.10.ark:61893081
01fc021b /scratch/ravanelm/exp/dirha/data-fmllr-tri4/tr05_cont/data/feats_fmllr_tr05_cont.2.ark:42764873
