01mo031b /scratch/ravanelm/exp/dirha/data-fmllr-tri4/tr05_cont/data/feats_fmllr_tr05_cont.3.ark:26097857
40kc020q /scratch/ravanelm/exp/dirha/data-fmllr-tri4/tr05_cont/data/feats_fmllr_tr05_cont.10.ark:38880793
20co0102 /scratch/ravanelm/exp/dirha/data-fmllr-tri4/tr05_cont/data/feats_fmllr_tr05_cont.6.ark:49720265
01do030r /scratch/ravanelm/exp/dirha/data-fmllr-tri4/tr05_cont/data/feats_fmllr_tr05_cont.2.ark:22938897
026o030u /scratch/ravanelm/exp/dirha/data-fmllr-tri4/tr05_cont/data/feats_fmllr_tr05_cont.4.ark:76616873
40ec0217 /scratch/ravanelm/exp/dirha/data-fmllr-tri4/tr05_cont/data/feats_fmllr_tr05_cont.9.ark:49702345
01bc020j /scratch/ravanelm/exp/dirha/data-fmllr-tri4/tr05_cont/data/feats_fmllr_tr05_cont.2.ark:2409673
20oc010k /scratch/ravanelm/exp/dirha/data-fmllr-tri4/tr05_cont/data/feats_fmllr_tr05_cont.7.ark:34470337
209c010a /scratch/ravanelm/exp/dirha/data-fmllr-tri4/tr05_cont/data/feats_fmllr_tr05_cont.6.ark:27998769
40ec0201 /scratch/ravanelm/exp/dirha/data-fmllr-tri4/tr05_cont/data/feats_fmllr_tr05_cont.9.ark:46094297
20nc0101 /scratch/ravanelm/exp/dirha/data-fmllr-tri4/tr05_cont/data/feats_fmllr_tr05_cont.7.ark:25156953
209c0109 /scratch/ravanelm/exp/dirha/data-fmllr-tri4/tr05_cont/data/feats_fmllr_tr05_cont.6.ark:27922265
40jo030k /scratch/ravanelm/exp/dirha/data-fmllr-tri4/tr05_cont/data/feats_fmllr_tr05_cont.10.ark:31687905
01bo0318 /scratch/ravanelm/exp/dirha/data-fmllr-tri4/tr05_cont/data/feats_fmllr_tr05_cont.2.ark:13194553
01jc021d /scratch/ravanelm/exp/dirha/data-fmllr-tri4/tr05_cont/data/feats_fmllr_tr05_cont.2.ark:81619097
40kc020a /scratch/ravanelm/exp/dirha/data-fmllr-tri4/tr05_cont/data/feats_fmllr_tr05_cont.10.ark:37082329
02co0301 /scratch/ravanelm/exp/dirha/data-fmllr-tri4/tr05_cont/data/feats_fmllr_tr05_cont.5.ark:55061441
407o0313 /scratch/ravanelm/exp/dirha/data-fmllr-tri4/tr05_cont/data/feats_fmllr_tr05_cont.8.ark:54744753
406o0319 /scratch/ravanelm/exp/dirha/data-fmllr-tri4/tr05_cont/data/feats_fmllr_tr05_cont.8.ark:42418425
20dc010m /scratch/ravanelm/exp/dirha/data-fmllr-tri4/tr05_cont/data/feats_fmllr_tr05_cont.6.ark:55316545
01uc020v /scratch/ravanelm/exp/dirha/data-fmllr-tri4/tr05_cont/data/feats_fmllr_tr05_cont.3.ark:80498537
20ro010n /scratch/ravanelm/exp/dirha/data-fmllr-tri4/tr05_cont/data/feats_fmllr_tr05_cont.7.ark:57149513
01yo030y /scratch/ravanelm/exp/dirha/data-fmllr-tri4/tr05_cont/data/feats_fmllr_tr05_cont.4.ark:21457361
20ro010i /scratch/ravanelm/exp/dirha/data-fmllr-tri4/tr05_cont/data/feats_fmllr_tr05_cont.7.ark:56288913
40mo0312 /scratch/ravanelm/exp/dirha/data-fmllr-tri4/tr05_cont/data/feats_fmllr_tr05_cont.10.ark:73437601
011c0217 /scratch/ravanelm/exp/dirha/data-fmllr-tri4/tr05_cont/data/feats_fmllr_tr05_cont.1.ark:4685017
02cc020x /scratch/ravanelm/exp/dirha/data-fmllr-tri4/tr05_cont/data/feats_fmllr_tr05_cont.5.ark:53148873
020o030o /scratch/ravanelm/exp/dirha/data-fmllr-tri4/tr05_cont/data/feats_fmllr_tr05_cont.4.ark:42742625
014c021b /scratch/ravanelm/exp/dirha/data-fmllr-tri4/tr05_cont/data/feats_fmllr_tr05_cont.1.ark:30011905
40fc0205 /scratch/ravanelm/exp/dirha/data-fmllr-tri4/tr05_cont/data/feats_fmllr_tr05_cont.9.ark:56665593
020c020m /scratch/ravanelm/exp/dirha/data-fmllr-tri4/tr05_cont/data/feats_fmllr_tr05_cont.4.ark:39221977
018o0305 /scratch/ravanelm/exp/dirha/data-fmllr-tri4/tr05_cont/data/feats_fmllr_tr05_cont.1.ark:76528121
401o031d /scratch/ravanelm/exp/dirha/data-fmllr-tri4/tr05_cont/data/feats_fmllr_tr05_cont.7.ark:82055233
20hc0105 /scratch/ravanelm/exp/dirha/data-fmllr-tri4/tr05_cont/data/feats_fmllr_tr05_cont.7.ark:254185
01yo030t /scratch/ravanelm/exp/dirha/data-fmllr-tri4/tr05_cont/data/feats_fmllr_tr05_cont.4.ark:20861561
02ec020m /scratch/ravanelm/exp/dirha/data-fmllr-tri4/tr05_cont/data/feats_fmllr_tr05_cont.5.ark:64555785
01bo0317 /scratch/ravanelm/exp/dirha/data-fmllr-tri4/tr05_cont/data/feats_fmllr_tr05_cont.2.ark:13000929
01kc0215 /scratch/ravanelm/exp/dirha/data-fmllr-tri4/tr05_cont/data/feats_fmllr_tr05_cont.2.ark:94695201
029c0202 /scratch/ravanelm/exp/dirha/data-fmllr-tri4/tr05_cont/data/feats_fmllr_tr05_cont.5.ark:24776833
409o031b /scratch/ravanelm/exp/dirha/data-fmllr-tri4/tr05_cont/data/feats_fmllr_tr05_cont.8.ark:76600737
40eo0306 /scratch/ravanelm/exp/dirha/data-fmllr-tri4/tr05_cont/data/feats_fmllr_tr05_cont.9.ark:51507209
029c020c /scratch/ravanelm/exp/dirha/data-fmllr-tri4/tr05_cont/data/feats_fmllr_tr05_cont.5.ark:25891793
01pc0203 /scratch/ravanelm/exp/dirha/data-fmllr-tri4/tr05_cont/data/feats_fmllr_tr05_cont.3.ark:26846001
404o030a /scratch/ravanelm/exp/dirha/data-fmllr-tri4/tr05_cont/data/feats_fmllr_tr05_cont.8.ark:16701241
021c020k /scratch/ravanelm/exp/dirha/data-fmllr-tri4/tr05_cont/data/feats_fmllr_tr05_cont.4.ark:47247793
20to0101 /scratch/ravanelm/exp/dirha/data-fmllr-tri4/tr05_cont/data/feats_fmllr_tr05_cont.7.ark:60629297
404o0314 /scratch/ravanelm/exp/dirha/data-fmllr-tri4/tr05_cont/data/feats_fmllr_tr05_cont.8.ark:20240681
01dc020d /scratch/ravanelm/exp/dirha/data-fmllr-tri4/tr05_cont/data/feats_fmllr_tr05_cont.2.ark:15463305
40no030q /scratch/ravanelm/exp/dirha/data-fmllr-tri4/tr05_cont/data/feats_fmllr_tr05_cont.10.ark:84670777
40co030v /scratch/ravanelm/exp/dirha/data-fmllr-tri4/tr05_cont/data/feats_fmllr_tr05_cont.9.ark:32278865
404o0311 /scratch/ravanelm/exp/dirha/data-fmllr-tri4/tr05_cont/data/feats_fmllr_tr05_cont.8.ark:19854209
01qc020o /scratch/ravanelm/exp/dirha/data-fmllr-tri4/tr05_cont/data/feats_fmllr_tr05_cont.3.ark:42210297
401o030v /scratch/ravanelm/exp/dirha/data-fmllr-tri4/tr05_cont/data/feats_fmllr_tr05_cont.7.ark:79446345
408o030m /scratch/ravanelm/exp/dirha/data-fmllr-tri4/tr05_cont/data/feats_fmllr_tr05_cont.8.ark:63031017
408c020d /scratch/ravanelm/exp/dirha/data-fmllr-tri4/tr05_cont/data/feats_fmllr_tr05_cont.8.ark:56921713
40hc020e /scratch/ravanelm/exp/dirha/data-fmllr-tri4/tr05_cont/data/feats_fmllr_tr05_cont.10.ark:1305921
016o0306 /scratch/ravanelm/exp/dirha/data-fmllr-tri4/tr05_cont/data/feats_fmllr_tr05_cont.1.ark:53682153
40bc020f /scratch/ravanelm/exp/dirha/data-fmllr-tri4/tr05_cont/data/feats_fmllr_tr05_cont.9.ark:14087089
024c020e /scratch/ravanelm/exp/dirha/data-fmllr-tri4/tr05_cont/data/feats_fmllr_tr05_cont.4.ark:58005137
40eo0316 /scratch/ravanelm/exp/dirha/data-fmllr-tri4/tr05_cont/data/feats_fmllr_tr05_cont.9.ark:55695593
40fo0314 /scratch/ravanelm/exp/dirha/data-fmllr-tri4/tr05_cont/data/feats_fmllr_tr05_cont.9.ark:66932001
40fo030f /scratch/ravanelm/exp/dirha/data-fmllr-tri4/tr05_cont/data/feats_fmllr_tr05_cont.9.ark:63757161
40io030o /scratch/ravanelm/exp/dirha/data-fmllr-tri4/tr05_cont/data/feats_fmllr_tr05_cont.10.ark:20290105
013o0303 /scratch/ravanelm/exp/dirha/data-fmllr-tri4/tr05_cont/data/feats_fmllr_tr05_cont.1.ark:19935545
406c0214 /scratch/ravanelm/exp/dirha/data-fmllr-tri4/tr05_cont/data/feats_fmllr_tr05_cont.8.ark:35716441
40ec021e /scratch/ravanelm/exp/dirha/data-fmllr-tri4/tr05_cont/data/feats_fmllr_tr05_cont.9.ark:50343313
01zc0211 /scratch/ravanelm/exp/dirha/data-fmllr-tri4/tr05_cont/data/feats_fmllr_tr05_cont.4.ark:27630585
01to0317 /scratch/ravanelm/exp/dirha/data-fmllr-tri4/tr05_cont/data/feats_fmllr_tr05_cont.3.ark:75442697
40gc020g /scratch/ravanelm/exp/dirha/data-fmllr-tri4/tr05_cont/data/feats_fmllr_tr05_cont.9.ark:70829793
407c0214 /scratch/ravanelm/exp/dirha/data-fmllr-tri4/tr05_cont/data/feats_fmllr_tr05_cont.8.ark:47087161
02co031c /scratch/ravanelm/exp/dirha/data-fmllr-tri4/tr05_cont/data/feats_fmllr_tr05_cont.5.ark:61240809
40fc021e /scratch/ravanelm/exp/dirha/data-fmllr-tri4/tr05_cont/data/feats_fmllr_tr05_cont.9.ark:61748113
403c0202 /scratch/ravanelm/exp/dirha/data-fmllr-tri4/tr05_cont/data/feats_fmllr_tr05_cont.8.ark:161793
40eo030j /scratch/ravanelm/exp/dirha/data-fmllr-tri4/tr05_cont/data/feats_fmllr_tr05_cont.9.ark:53102401
02cc020y /scratch/ravanelm/exp/dirha/data-fmllr-tri4/tr05_cont/data/feats_fmllr_tr05_cont.5.ark:53280737
011o031b /scratch/ravanelm/exp/dirha/data-fmllr-tri4/tr05_cont/data/feats_fmllr_tr05_cont.1.ark:12996873
40bc020w /scratch/ravanelm/exp/dirha/data-fmllr-tri4/tr05_cont/data/feats_fmllr_tr05_cont.9.ark:15708137
20io0102 /scratch/ravanelm/exp/dirha/data-fmllr-tri4/tr05_cont/data/feats_fmllr_tr05_cont.7.ark:7824553
016c0215 /scratch/ravanelm/exp/dirha/data-fmllr-tri4/tr05_cont/data/feats_fmllr_tr05_cont.1.ark:52201977
40hc020n /scratch/ravanelm/exp/dirha/data-fmllr-tri4/tr05_cont/data/feats_fmllr_tr05_cont.10.ark:2104217
01pc020s /scratch/ravanelm/exp/dirha/data-fmllr-tri4/tr05_cont/data/feats_fmllr_tr05_cont.3.ark:29618921
407o0317 /scratch/ravanelm/exp/dirha/data-fmllr-tri4/tr05_cont/data/feats_fmllr_tr05_cont.8.ark:55316049
209c010l /scratch/ravanelm/exp/dirha/data-fmllr-tri4/tr05_cont/data/feats_fmllr_tr05_cont.6.ark:28919673
01fc0219 /scratch/ravanelm/exp/dirha/data-fmllr-tri4/tr05_cont/data/feats_fmllr_tr05_cont.2.ark:42478585
01ro030b /scratch/ravanelm/exp/dirha/data-fmllr-tri4/tr05_cont/data/feats_fmllr_tr05_cont.3.ark:58187049
20vo010m /scratch/ravanelm/exp/dirha/data-fmllr-tri4/tr05_cont/data/feats_fmllr_tr05_cont.7.ark:68342681
406c020r /scratch/ravanelm/exp/dirha/data-fmllr-tri4/tr05_cont/data/feats_fmllr_tr05_cont.8.ark:34418689
20go010e /scratch/ravanelm/exp/dirha/data-fmllr-tri4/tr05_cont/data/feats_fmllr_tr05_cont.6.ark:76158017
40do0317 /scratch/ravanelm/exp/dirha/data-fmllr-tri4/tr05_cont/data/feats_fmllr_tr05_cont.9.ark:45270129
40mo030m /scratch/ravanelm/exp/dirha/data-fmllr-tri4/tr05_cont/data/feats_fmllr_tr05_cont.10.ark:71196257
01yc020o /scratch/ravanelm/exp/dirha/data-fmllr-tri4/tr05_cont/data/feats_fmllr_tr05_cont.4.ark:14036193
20ho010k /scratch/ravanelm/exp/dirha/data-fmllr-tri4/tr05_cont/data/feats_fmllr_tr05_cont.7.ark:4338369
40fc020i /scratch/ravanelm/exp/dirha/data-fmllr-tri4/tr05_cont/data/feats_fmllr_tr05_cont.9.ark:58047025
02bo030g /scratch/ravanelm/exp/dirha/data-fmllr-tri4/tr05_cont/data/feats_fmllr_tr05_cont.5.ark:44949985
01bc0205 /scratch/ravanelm/exp/dirha/data-fmllr-tri4/tr05_cont/data/feats_fmllr_tr05_cont.2.ark:297977
029c020t /scratch/ravanelm/exp/dirha/data-fmllr-tri4/tr05_cont/data/feats_fmllr_tr05_cont.5.ark:27847721
40hc0215 /scratch/ravanelm/exp/dirha/data-fmllr-tri4/tr05_cont/data/feats_fmllr_tr05_cont.10.ark:3948329
40mo030n /scratch/ravanelm/exp/dirha/data-fmllr-tri4/tr05_cont/data/feats_fmllr_tr05_cont.10.ark:71385561
404c0201 /scratch/ravanelm/exp/dirha/data-fmllr-tri4/tr05_cont/data/feats_fmllr_tr05_cont.8.ark:10655161
019o030u /scratch/ravanelm/exp/dirha/data-fmllr-tri4/tr05_cont/data/feats_fmllr_tr05_cont.1.ark:92244265
40fc020n /scratch/ravanelm/exp/dirha/data-fmllr-tri4/tr05_cont/data/feats_fmllr_tr05_cont.9.ark:58670825
01wo0307 /scratch/ravanelm/exp/dirha/data-fmllr-tri4/tr05_cont/data/feats_fmllr_tr05_cont.4.ark:5993353
208c0105 /scratch/ravanelm/exp/dirha/data-fmllr-tri4/tr05_cont/data/feats_fmllr_tr05_cont.6.ark:20985561
40pc020o /scratch/ravanelm/exp/dirha/data-fmllr-tri4/tr05_cont/data/feats_fmllr_tr05_cont.10.ark:90081665
02cc021c /scratch/ravanelm/exp/dirha/data-fmllr-tri4/tr05_cont/data/feats_fmllr_tr05_cont.5.ark:54652385
40lo0307 /scratch/ravanelm/exp/dirha/data-fmllr-tri4/tr05_cont/data/feats_fmllr_tr05_cont.10.ark:55248761
206o010b /scratch/ravanelm/exp/dirha/data-fmllr-tri4/tr05_cont/data/feats_fmllr_tr05_cont.6.ark:10726825
026c0205 /scratch/ravanelm/exp/dirha/data-fmllr-tri4/tr05_cont/data/feats_fmllr_tr05_cont.4.ark:68690225
40lo030s /scratch/ravanelm/exp/dirha/data-fmllr-tri4/tr05_cont/data/feats_fmllr_tr05_cont.10.ark:58808945
02bo031d /scratch/ravanelm/exp/dirha/data-fmllr-tri4/tr05_cont/data/feats_fmllr_tr05_cont.5.ark:49533497
40gc020i /scratch/ravanelm/exp/dirha/data-fmllr-tri4/tr05_cont/data/feats_fmllr_tr05_cont.9.ark:71197841
40fc020u /scratch/ravanelm/exp/dirha/data-fmllr-tri4/tr05_cont/data/feats_fmllr_tr05_cont.9.ark:59514513
01pc0215 /scratch/ravanelm/exp/dirha/data-fmllr-tri4/tr05_cont/data/feats_fmllr_tr05_cont.3.ark:31104353
40jo030s /scratch/ravanelm/exp/dirha/data-fmllr-tri4/tr05_cont/data/feats_fmllr_tr05_cont.10.ark:32912257
024o0319 /scratch/ravanelm/exp/dirha/data-fmllr-tri4/tr05_cont/data/feats_fmllr_tr05_cont.4.ark:67152041
40fo030r /scratch/ravanelm/exp/dirha/data-fmllr-tri4/tr05_cont/data/feats_fmllr_tr05_cont.9.ark:65383529
01go031b /scratch/ravanelm/exp/dirha/data-fmllr-tri4/tr05_cont/data/feats_fmllr_tr05_cont.2.ark:61823193
40go030e /scratch/ravanelm/exp/dirha/data-fmllr-tri4/tr05_cont/data/feats_fmllr_tr05_cont.9.ark:78094169
40gc0215 /scratch/ravanelm/exp/dirha/data-fmllr-tri4/tr05_cont/data/feats_fmllr_tr05_cont.9.ark:74421273
029o0301 /scratch/ravanelm/exp/dirha/data-fmllr-tri4/tr05_cont/data/feats_fmllr_tr05_cont.5.ark:30330217
01rc0212 /scratch/ravanelm/exp/dirha/data-fmllr-tri4/tr05_cont/data/feats_fmllr_tr05_cont.3.ark:55958609
01eo0308 /scratch/ravanelm/exp/dirha/data-fmllr-tri4/tr05_cont/data/feats_fmllr_tr05_cont.2.ark:32575265
01to0307 /scratch/ravanelm/exp/dirha/data-fmllr-tri4/tr05_cont/data/feats_fmllr_tr05_cont.3.ark:70336553
028o030s /scratch/ravanelm/exp/dirha/data-fmllr-tri4/tr05_cont/data/feats_fmllr_tr05_cont.5.ark:21672601
029o0316 /scratch/ravanelm/exp/dirha/data-fmllr-tri4/tr05_cont/data/feats_fmllr_tr05_cont.5.ark:35947201
40mo031b /scratch/ravanelm/exp/dirha/data-fmllr-tri4/tr05_cont/data/feats_fmllr_tr05_cont.10.ark:74423577
40ic020j /scratch/ravanelm/exp/dirha/data-fmllr-tri4/tr05_cont/data/feats_fmllr_tr05_cont.10.ark:13694361
01jc0214 /scratch/ravanelm/exp/dirha/data-fmllr-tri4/tr05_cont/data/feats_fmllr_tr05_cont.2.ark:80649441
01yo0309 /scratch/ravanelm/exp/dirha/data-fmllr-tri4/tr05_cont/data/feats_fmllr_tr05_cont.4.ark:17976761
01qc0204 /scratch/ravanelm/exp/dirha/data-fmllr-tri4/tr05_cont/data/feats_fmllr_tr05_cont.3.ark:39766641
408c020f /scratch/ravanelm/exp/dirha/data-fmllr-tri4/tr05_cont/data/feats_fmllr_tr05_cont.8.ark:57179041
40bc020t /scratch/ravanelm/exp/dirha/data-fmllr-tri4/tr05_cont/data/feats_fmllr_tr05_cont.9.ark:15378145
01uo0317 /scratch/ravanelm/exp/dirha/data-fmllr-tri4/tr05_cont/data/feats_fmllr_tr05_cont.3.ark:89727569
027c0202 /scratch/ravanelm/exp/dirha/data-fmllr-tri4/tr05_cont/data/feats_fmllr_tr05_cont.5.ark:161953
014c021f /scratch/ravanelm/exp/dirha/data-fmllr-tri4/tr05_cont/data/feats_fmllr_tr05_cont.1.ark:30440001
016c0218 /scratch/ravanelm/exp/dirha/data-fmllr-tri4/tr05_cont/data/feats_fmllr_tr05_cont.1.ark:52388449
20oo0106 /scratch/ravanelm/exp/dirha/data-fmllr-tri4/tr05_cont/data/feats_fmllr_tr05_cont.7.ark:35380017
408o030a /scratch/ravanelm/exp/dirha/data-fmllr-tri4/tr05_cont/data/feats_fmllr_tr05_cont.8.ark:61618409
206o010r /scratch/ravanelm/exp/dirha/data-fmllr-tri4/tr05_cont/data/feats_fmllr_tr05_cont.6.ark:13646569
40lo030p /scratch/ravanelm/exp/dirha/data-fmllr-tri4/tr05_cont/data/feats_fmllr_tr05_cont.10.ark:58227593
01yc0209 /scratch/ravanelm/exp/dirha/data-fmllr-tri4/tr05_cont/data/feats_fmllr_tr05_cont.4.ark:12317113
20oc010d /scratch/ravanelm/exp/dirha/data-fmllr-tri4/tr05_cont/data/feats_fmllr_tr05_cont.7.ark:33882969
01ro030x /scratch/ravanelm/exp/dirha/data-fmllr-tri4/tr05_cont/data/feats_fmllr_tr05_cont.3.ark:61132697
208o010r /scratch/ravanelm/exp/dirha/data-fmllr-tri4/tr05_cont/data/feats_fmllr_tr05_cont.6.ark:27033409
013c020w /scratch/ravanelm/exp/dirha/data-fmllr-tri4/tr05_cont/data/feats_fmllr_tr05_cont.1.ark:17872937
20io010d /scratch/ravanelm/exp/dirha/data-fmllr-tri4/tr05_cont/data/feats_fmllr_tr05_cont.7.ark:9326897
205c010g /scratch/ravanelm/exp/dirha/data-fmllr-tri4/tr05_cont/data/feats_fmllr_tr05_cont.6.ark:1748849
01zo0319 /scratch/ravanelm/exp/dirha/data-fmllr-tri4/tr05_cont/data/feats_fmllr_tr05_cont.4.ark:36382561
40lo031e /scratch/ravanelm/exp/dirha/data-fmllr-tri4/tr05_cont/data/feats_fmllr_tr05_cont.10.ark:62332673
029o030b /scratch/ravanelm/exp/dirha/data-fmllr-tri4/tr05_cont/data/feats_fmllr_tr05_cont.5.ark:31620857
40io031a /scratch/ravanelm/exp/dirha/data-fmllr-tri4/tr05_cont/data/feats_fmllr_tr05_cont.10.ark:23107593
206o0109 /scratch/ravanelm/exp/dirha/data-fmllr-tri4/tr05_cont/data/feats_fmllr_tr05_cont.6.ark:10353337
01mo030c /scratch/ravanelm/exp/dirha/data-fmllr-tri4/tr05_cont/data/feats_fmllr_tr05_cont.3.ark:21893657
014o030o /scratch/ravanelm/exp/dirha/data-fmllr-tri4/tr05_cont/data/feats_fmllr_tr05_cont.1.ark:33817265
40do0306 /scratch/ravanelm/exp/dirha/data-fmllr-tri4/tr05_cont/data/feats_fmllr_tr05_cont.9.ark:40913561
01po0316 /scratch/ravanelm/exp/dirha/data-fmllr-tri4/tr05_cont/data/feats_fmllr_tr05_cont.3.ark:38434561
40nc020x /scratch/ravanelm/exp/dirha/data-fmllr-tri4/tr05_cont/data/feats_fmllr_tr05_cont.10.ark:78538017
01zo030m /scratch/ravanelm/exp/dirha/data-fmllr-tri4/tr05_cont/data/feats_fmllr_tr05_cont.4.ark:32676249
01lc0203 /scratch/ravanelm/exp/dirha/data-fmllr-tri4/tr05_cont/data/feats_fmllr_tr05_cont.3.ark:198457
02eo0301 /scratch/ravanelm/exp/dirha/data-fmllr-tri4/tr05_cont/data/feats_fmllr_tr05_cont.5.ark:68148961
403c020t /scratch/ravanelm/exp/dirha/data-fmllr-tri4/tr05_cont/data/feats_fmllr_tr05_cont.8.ark:2438281
207o010e /scratch/ravanelm/exp/dirha/data-fmllr-tri4/tr05_cont/data/feats_fmllr_tr05_cont.6.ark:18497057
015o030t /scratch/ravanelm/exp/dirha/data-fmllr-tri4/tr05_cont/data/feats_fmllr_tr05_cont.1.ark:46429297
403o030o /scratch/ravanelm/exp/dirha/data-fmllr-tri4/tr05_cont/data/feats_fmllr_tr05_cont.8.ark:7580825
019o030g /scratch/ravanelm/exp/dirha/data-fmllr-tri4/tr05_cont/data/feats_fmllr_tr05_cont.1.ark:90505849
028o0307 /scratch/ravanelm/exp/dirha/data-fmllr-tri4/tr05_cont/data/feats_fmllr_tr05_cont.5.ark:18511617
01yc021g /scratch/ravanelm/exp/dirha/data-fmllr-tri4/tr05_cont/data/feats_fmllr_tr05_cont.4.ark:16959105
40kc020v /scratch/ravanelm/exp/dirha/data-fmllr-tri4/tr05_cont/data/feats_fmllr_tr05_cont.10.ark:39401393
409o031c /scratch/ravanelm/exp/dirha/data-fmllr-tri4/tr05_cont/data/feats_fmllr_tr05_cont.8.ark:76721561
01pc020v /scratch/ravanelm/exp/dirha/data-fmllr-tri4/tr05_cont/data/feats_fmllr_tr05_cont.3.ark:29957713
02bc0215 /scratch/ravanelm/exp/dirha/data-fmllr-tri4/tr05_cont/data/feats_fmllr_tr05_cont.5.ark:41461521
024c020w /scratch/ravanelm/exp/dirha/data-fmllr-tri4/tr05_cont/data/feats_fmllr_tr05_cont.4.ark:59914529
40pc020d /scratch/ravanelm/exp/dirha/data-fmllr-tri4/tr05_cont/data/feats_fmllr_tr05_cont.10.ark:89087161
016o030k /scratch/ravanelm/exp/dirha/data-fmllr-tri4/tr05_cont/data/feats_fmllr_tr05_cont.1.ark:55139241
40kc0206 /scratch/ravanelm/exp/dirha/data-fmllr-tri4/tr05_cont/data/feats_fmllr_tr05_cont.10.ark:36538233
014c021c /scratch/ravanelm/exp/dirha/data-fmllr-tri4/tr05_cont/data/feats_fmllr_tr05_cont.1.ark:30116089
011c020b /scratch/ravanelm/exp/dirha/data-fmllr-tri4/tr05_cont/data/feats_fmllr_tr05_cont.1.ark:1006009
20gc010c /scratch/ravanelm/exp/dirha/data-fmllr-tri4/tr05_cont/data/feats_fmllr_tr05_cont.6.ark:73456937
01mo030y /scratch/ravanelm/exp/dirha/data-fmllr-tri4/tr05_cont/data/feats_fmllr_tr05_cont.3.ark:24502665
404o0312 /scratch/ravanelm/exp/dirha/data-fmllr-tri4/tr05_cont/data/feats_fmllr_tr05_cont.8.ark:19943353
018o030m /scratch/ravanelm/exp/dirha/data-fmllr-tri4/tr05_cont/data/feats_fmllr_tr05_cont.1.ark:79030289
40mo0317 /scratch/ravanelm/exp/dirha/data-fmllr-tri4/tr05_cont/data/feats_fmllr_tr05_cont.10.ark:73904921
014c020u /scratch/ravanelm/exp/dirha/data-fmllr-tri4/tr05_cont/data/feats_fmllr_tr05_cont.1.ark:28522537
01wc021e /scratch/ravanelm/exp/dirha/data-fmllr-tri4/tr05_cont/data/feats_fmllr_tr05_cont.4.ark:5125961
20do010q /scratch/ravanelm/exp/dirha/data-fmllr-tri4/tr05_cont/data/feats_fmllr_tr05_cont.6.ark:59442361
01pc020f /scratch/ravanelm/exp/dirha/data-fmllr-tri4/tr05_cont/data/feats_fmllr_tr05_cont.3.ark:28296369
20vc010c /scratch/ravanelm/exp/dirha/data-fmllr-tri4/tr05_cont/data/feats_fmllr_tr05_cont.7.ark:64595281
40kc020h /scratch/ravanelm/exp/dirha/data-fmllr-tri4/tr05_cont/data/feats_fmllr_tr05_cont.10.ark:37867297
40ac0205 /scratch/ravanelm/exp/dirha/data-fmllr-tri4/tr05_cont/data/feats_fmllr_tr05_cont.9.ark:583145
20co010b /scratch/ravanelm/exp/dirha/data-fmllr-tri4/tr05_cont/data/feats_fmllr_tr05_cont.6.ark:50984137
40bc020y /scratch/ravanelm/exp/dirha/data-fmllr-tri4/tr05_cont/data/feats_fmllr_tr05_cont.9.ark:15918105
01do030k /scratch/ravanelm/exp/dirha/data-fmllr-tri4/tr05_cont/data/feats_fmllr_tr05_cont.2.ark:22236057
40mo030y /scratch/ravanelm/exp/dirha/data-fmllr-tri4/tr05_cont/data/feats_fmllr_tr05_cont.10.ark:72884225
20bo010k /scratch/ravanelm/exp/dirha/data-fmllr-tri4/tr05_cont/data/feats_fmllr_tr05_cont.6.ark:45527129
01wo030q /scratch/ravanelm/exp/dirha/data-fmllr-tri4/tr05_cont/data/feats_fmllr_tr05_cont.4.ark:8349465
20oc010b /scratch/ravanelm/exp/dirha/data-fmllr-tri4/tr05_cont/data/feats_fmllr_tr05_cont.7.ark:33711721
015o030u /scratch/ravanelm/exp/dirha/data-fmllr-tri4/tr05_cont/data/feats_fmllr_tr05_cont.1.ark:46502281
02eo0314 /scratch/ravanelm/exp/dirha/data-fmllr-tri4/tr05_cont/data/feats_fmllr_tr05_cont.5.ark:73566353
01fc020t /scratch/ravanelm/exp/dirha/data-fmllr-tri4/tr05_cont/data/feats_fmllr_tr05_cont.2.ark:40827801
40bc020x /scratch/ravanelm/exp/dirha/data-fmllr-tri4/tr05_cont/data/feats_fmllr_tr05_cont.9.ark:15774081
01zo030g /scratch/ravanelm/exp/dirha/data-fmllr-tri4/tr05_cont/data/feats_fmllr_tr05_cont.4.ark:31592905
028c020c /scratch/ravanelm/exp/dirha/data-fmllr-tri4/tr05_cont/data/feats_fmllr_tr05_cont.5.ark:13486513
40bc0219 /scratch/ravanelm/exp/dirha/data-fmllr-tri4/tr05_cont/data/feats_fmllr_tr05_cont.9.ark:17068769
403o030n /scratch/ravanelm/exp/dirha/data-fmllr-tri4/tr05_cont/data/feats_fmllr_tr05_cont.8.ark:7503841
20ec0106 /scratch/ravanelm/exp/dirha/data-fmllr-tri4/tr05_cont/data/feats_fmllr_tr05_cont.6.ark:60511329
40ao030s /scratch/ravanelm/exp/dirha/data-fmllr-tri4/tr05_cont/data/feats_fmllr_tr05_cont.9.ark:9467777
405o030h /scratch/ravanelm/exp/dirha/data-fmllr-tri4/tr05_cont/data/feats_fmllr_tr05_cont.8.ark:27930849
01jc020g /scratch/ravanelm/exp/dirha/data-fmllr-tri4/tr05_cont/data/feats_fmllr_tr05_cont.2.ark:77665505
20pc0103 /scratch/ravanelm/exp/dirha/data-fmllr-tri4/tr05_cont/data/feats_fmllr_tr05_cont.7.ark:38554353
40no0302 /scratch/ravanelm/exp/dirha/data-fmllr-tri4/tr05_cont/data/feats_fmllr_tr05_cont.10.ark:80898201
405o0308 /scratch/ravanelm/exp/dirha/data-fmllr-tri4/tr05_cont/data/feats_fmllr_tr05_cont.8.ark:26669193
014o030p /scratch/ravanelm/exp/dirha/data-fmllr-tri4/tr05_cont/data/feats_fmllr_tr05_cont.1.ark:33999529
209o010m /scratch/ravanelm/exp/dirha/data-fmllr-tri4/tr05_cont/data/feats_fmllr_tr05_cont.6.ark:32237121
01io030l /scratch/ravanelm/exp/dirha/data-fmllr-tri4/tr05_cont/data/feats_fmllr_tr05_cont.2.ark:71766641
20rc010i /scratch/ravanelm/exp/dirha/data-fmllr-tri4/tr05_cont/data/feats_fmllr_tr05_cont.7.ark:53046121
024c0208 /scratch/ravanelm/exp/dirha/data-fmllr-tri4/tr05_cont/data/feats_fmllr_tr05_cont.4.ark:57193313
20io010e /scratch/ravanelm/exp/dirha/data-fmllr-tri4/tr05_cont/data/feats_fmllr_tr05_cont.7.ark:9414281
405c0204 /scratch/ravanelm/exp/dirha/data-fmllr-tri4/tr05_cont/data/feats_fmllr_tr05_cont.8.ark:21501633
01rc020k /scratch/ravanelm/exp/dirha/data-fmllr-tri4/tr05_cont/data/feats_fmllr_tr05_cont.3.ark:53823297
40ac021c /scratch/ravanelm/exp/dirha/data-fmllr-tri4/tr05_cont/data/feats_fmllr_tr05_cont.9.ark:5849297
01kc0206 /scratch/ravanelm/exp/dirha/data-fmllr-tri4/tr05_cont/data/feats_fmllr_tr05_cont.2.ark:90368625
20tc010c /scratch/ravanelm/exp/dirha/data-fmllr-tri4/tr05_cont/data/feats_fmllr_tr05_cont.7.ark:58935497
016c020h /scratch/ravanelm/exp/dirha/data-fmllr-tri4/tr05_cont/data/feats_fmllr_tr05_cont.1.ark:50347713
207c0104 /scratch/ravanelm/exp/dirha/data-fmllr-tri4/tr05_cont/data/feats_fmllr_tr05_cont.6.ark:14199969
01do0318 /scratch/ravanelm/exp/dirha/data-fmllr-tri4/tr05_cont/data/feats_fmllr_tr05_cont.2.ark:25096905
01yo031c /scratch/ravanelm/exp/dirha/data-fmllr-tri4/tr05_cont/data/feats_fmllr_tr05_cont.4.ark:23314497
01bo030r /scratch/ravanelm/exp/dirha/data-fmllr-tri4/tr05_cont/data/feats_fmllr_tr05_cont.2.ark:10733529
40bo030p /scratch/ravanelm/exp/dirha/data-fmllr-tri4/tr05_cont/data/feats_fmllr_tr05_cont.9.ark:21477377
408o030v /scratch/ravanelm/exp/dirha/data-fmllr-tri4/tr05_cont/data/feats_fmllr_tr05_cont.8.ark:63920033
027o030b /scratch/ravanelm/exp/dirha/data-fmllr-tri4/tr05_cont/data/feats_fmllr_tr05_cont.5.ark:7133841
01jc020d /scratch/ravanelm/exp/dirha/data-fmllr-tri4/tr05_cont/data/feats_fmllr_tr05_cont.2.ark:77420633
20eo010n /scratch/ravanelm/exp/dirha/data-fmllr-tri4/tr05_cont/data/feats_fmllr_tr05_cont.6.ark:66015353
02bo030l /scratch/ravanelm/exp/dirha/data-fmllr-tri4/tr05_cont/data/feats_fmllr_tr05_cont.5.ark:45597785
40no0301 /scratch/ravanelm/exp/dirha/data-fmllr-tri4/tr05_cont/data/feats_fmllr_tr05_cont.10.ark:80851297
024c0209 /scratch/ravanelm/exp/dirha/data-fmllr-tri4/tr05_cont/data/feats_fmllr_tr05_cont.4.ark:57372537
014c0212 /scratch/ravanelm/exp/dirha/data-fmllr-tri4/tr05_cont/data/feats_fmllr_tr05_cont.1.ark:29275689
20nc010k /scratch/ravanelm/exp/dirha/data-fmllr-tri4/tr05_cont/data/feats_fmllr_tr05_cont.7.ark:27571489
205c010o /scratch/ravanelm/exp/dirha/data-fmllr-tri4/tr05_cont/data/feats_fmllr_tr05_cont.6.ark:2537841
020c020j /scratch/ravanelm/exp/dirha/data-fmllr-tri4/tr05_cont/data/feats_fmllr_tr05_cont.4.ark:38937905
011o030d /scratch/ravanelm/exp/dirha/data-fmllr-tri4/tr05_cont/data/feats_fmllr_tr05_cont.1.ark:7468857
024o0316 /scratch/ravanelm/exp/dirha/data-fmllr-tri4/tr05_cont/data/feats_fmllr_tr05_cont.4.ark:66897889
013o0305 /scratch/ravanelm/exp/dirha/data-fmllr-tri4/tr05_cont/data/feats_fmllr_tr05_cont.1.ark:20134793
408c020m /scratch/ravanelm/exp/dirha/data-fmllr-tri4/tr05_cont/data/feats_fmllr_tr05_cont.8.ark:57823689
40mo0303 /scratch/ravanelm/exp/dirha/data-fmllr-tri4/tr05_cont/data/feats_fmllr_tr05_cont.10.ark:68524281
01rc0211 /scratch/ravanelm/exp/dirha/data-fmllr-tri4/tr05_cont/data/feats_fmllr_tr05_cont.3.ark:55794265
20fo010l /scratch/ravanelm/exp/dirha/data-fmllr-tri4/tr05_cont/data/feats_fmllr_tr05_cont.6.ark:71879913
02cc0219 /scratch/ravanelm/exp/dirha/data-fmllr-tri4/tr05_cont/data/feats_fmllr_tr05_cont.5.ark:54359673
020o0319 /scratch/ravanelm/exp/dirha/data-fmllr-tri4/tr05_cont/data/feats_fmllr_tr05_cont.4.ark:44458897
40kc021f /scratch/ravanelm/exp/dirha/data-fmllr-tri4/tr05_cont/data/feats_fmllr_tr05_cont.10.ark:41541073
01po031b /scratch/ravanelm/exp/dirha/data-fmllr-tri4/tr05_cont/data/feats_fmllr_tr05_cont.3.ark:39124441
208c0102 /scratch/ravanelm/exp/dirha/data-fmllr-tri4/tr05_cont/data/feats_fmllr_tr05_cont.6.ark:20637969
021c021b /scratch/ravanelm/exp/dirha/data-fmllr-tri4/tr05_cont/data/feats_fmllr_tr05_cont.4.ark:49996921
01yo030q /scratch/ravanelm/exp/dirha/data-fmllr-tri4/tr05_cont/data/feats_fmllr_tr05_cont.4.ark:20415249
01tc0208 /scratch/ravanelm/exp/dirha/data-fmllr-tri4/tr05_cont/data/feats_fmllr_tr05_cont.3.ark:63906073
40eo030y /scratch/ravanelm/exp/dirha/data-fmllr-tri4/tr05_cont/data/feats_fmllr_tr05_cont.9.ark:54682601
409c020f /scratch/ravanelm/exp/dirha/data-fmllr-tri4/tr05_cont/data/feats_fmllr_tr05_cont.8.ark:67137921
40ao031b /scratch/ravanelm/exp/dirha/data-fmllr-tri4/tr05_cont/data/feats_fmllr_tr05_cont.9.ark:11855113
40cc020l /scratch/ravanelm/exp/dirha/data-fmllr-tri4/tr05_cont/data/feats_fmllr_tr05_cont.9.ark:26503665
01kc020i /scratch/ravanelm/exp/dirha/data-fmllr-tri4/tr05_cont/data/feats_fmllr_tr05_cont.2.ark:91861049
01eo030o /scratch/ravanelm/exp/dirha/data-fmllr-tri4/tr05_cont/data/feats_fmllr_tr05_cont.2.ark:34382049
013c0215 /scratch/ravanelm/exp/dirha/data-fmllr-tri4/tr05_cont/data/feats_fmllr_tr05_cont.1.ark:18634913
014o030n /scratch/ravanelm/exp/dirha/data-fmllr-tri4/tr05_cont/data/feats_fmllr_tr05_cont.1.ark:33603961
01to030y /scratch/ravanelm/exp/dirha/data-fmllr-tri4/tr05_cont/data/feats_fmllr_tr05_cont.3.ark:74164401
20ao010k /scratch/ravanelm/exp/dirha/data-fmllr-tri4/tr05_cont/data/feats_fmllr_tr05_cont.6.ark:38627369
026o0309 /scratch/ravanelm/exp/dirha/data-fmllr-tri4/tr05_cont/data/feats_fmllr_tr05_cont.4.ark:74036529
01uc020b /scratch/ravanelm/exp/dirha/data-fmllr-tri4/tr05_cont/data/feats_fmllr_tr05_cont.3.ark:78281577
01yo030u /scratch/ravanelm/exp/dirha/data-fmllr-tri4/tr05_cont/data/feats_fmllr_tr05_cont.4.ark:20920945
019c0204 /scratch/ravanelm/exp/dirha/data-fmllr-tri4/tr05_cont/data/feats_fmllr_tr05_cont.1.ark:83654689
40gc0219 /scratch/ravanelm/exp/dirha/data-fmllr-tri4/tr05_cont/data/feats_fmllr_tr05_cont.9.ark:74986169
011c020j /scratch/ravanelm/exp/dirha/data-fmllr-tri4/tr05_cont/data/feats_fmllr_tr05_cont.1.ark:1895001
404o030s /scratch/ravanelm/exp/dirha/data-fmllr-tri4/tr05_cont/data/feats_fmllr_tr05_cont.8.ark:18823273
20ho010j /scratch/ravanelm/exp/dirha/data-fmllr-tri4/tr05_cont/data/feats_fmllr_tr05_cont.7.ark:4202345
404o0313 /scratch/ravanelm/exp/dirha/data-fmllr-tri4/tr05_cont/data/feats_fmllr_tr05_cont.8.ark:20088017
40bc0204 /scratch/ravanelm/exp/dirha/data-fmllr-tri4/tr05_cont/data/feats_fmllr_tr05_cont.9.ark:12727145
017o0303 /scratch/ravanelm/exp/dirha/data-fmllr-tri4/tr05_cont/data/feats_fmllr_tr05_cont.1.ark:63768025
40kc0209 /scratch/ravanelm/exp/dirha/data-fmllr-tri4/tr05_cont/data/feats_fmllr_tr05_cont.10.ark:36938145
406c0219 /scratch/ravanelm/exp/dirha/data-fmllr-tri4/tr05_cont/data/feats_fmllr_tr05_cont.8.ark:36273681
405o030d /scratch/ravanelm/exp/dirha/data-fmllr-tri4/tr05_cont/data/feats_fmllr_tr05_cont.8.ark:27320833
013c020b /scratch/ravanelm/exp/dirha/data-fmllr-tri4/tr05_cont/data/feats_fmllr_tr05_cont.1.ark:15292593
01qo030k /scratch/ravanelm/exp/dirha/data-fmllr-tri4/tr05_cont/data/feats_fmllr_tr05_cont.3.ark:47596609
404o030y /scratch/ravanelm/exp/dirha/data-fmllr-tri4/tr05_cont/data/feats_fmllr_tr05_cont.8.ark:19534617
20oc010g /scratch/ravanelm/exp/dirha/data-fmllr-tri4/tr05_cont/data/feats_fmllr_tr05_cont.7.ark:34056161
20po0106 /scratch/ravanelm/exp/dirha/data-fmllr-tri4/tr05_cont/data/feats_fmllr_tr05_cont.7.ark:41451985
02eo030r /scratch/ravanelm/exp/dirha/data-fmllr-tri4/tr05_cont/data/feats_fmllr_tr05_cont.5.ark:71864145
01uo030f /scratch/ravanelm/exp/dirha/data-fmllr-tri4/tr05_cont/data/feats_fmllr_tr05_cont.3.ark:85250577
20lc0103 /scratch/ravanelm/exp/dirha/data-fmllr-tri4/tr05_cont/data/feats_fmllr_tr05_cont.7.ark:11569521
01bc021f /scratch/ravanelm/exp/dirha/data-fmllr-tri4/tr05_cont/data/feats_fmllr_tr05_cont.2.ark:6305569
409o0306 /scratch/ravanelm/exp/dirha/data-fmllr-tri4/tr05_cont/data/feats_fmllr_tr05_cont.8.ark:71843913
40ao0314 /scratch/ravanelm/exp/dirha/data-fmllr-tri4/tr05_cont/data/feats_fmllr_tr05_cont.9.ark:11034465
01gc020h /scratch/ravanelm/exp/dirha/data-fmllr-tri4/tr05_cont/data/feats_fmllr_tr05_cont.2.ark:51617273
205c010n /scratch/ravanelm/exp/dirha/data-fmllr-tri4/tr05_cont/data/feats_fmllr_tr05_cont.6.ark:2393817
027c0201 /scratch/ravanelm/exp/dirha/data-fmllr-tri4/tr05_cont/data/feats_fmllr_tr05_cont.5.ark:9
20go010s /scratch/ravanelm/exp/dirha/data-fmllr-tri4/tr05_cont/data/feats_fmllr_tr05_cont.6.ark:77661393
014c0210 /scratch/ravanelm/exp/dirha/data-fmllr-tri4/tr05_cont/data/feats_fmllr_tr05_cont.1.ark:29155481
40eo031a /scratch/ravanelm/exp/dirha/data-fmllr-tri4/tr05_cont/data/feats_fmllr_tr05_cont.9.ark:56089769
02ec020b /scratch/ravanelm/exp/dirha/data-fmllr-tri4/tr05_cont/data/feats_fmllr_tr05_cont.5.ark:63039841
01lo030q /scratch/ravanelm/exp/dirha/data-fmllr-tri4/tr05_cont/data/feats_fmllr_tr05_cont.3.ark:10757353
409c020j /scratch/ravanelm/exp/dirha/data-fmllr-tri4/tr05_cont/data/feats_fmllr_tr05_cont.8.ark:67579137
01kc020t /scratch/ravanelm/exp/dirha/data-fmllr-tri4/tr05_cont/data/feats_fmllr_tr05_cont.2.ark:93147713
20fc010q /scratch/ravanelm/exp/dirha/data-fmllr-tri4/tr05_cont/data/feats_fmllr_tr05_cont.6.ark:69213489
028o0318 /scratch/ravanelm/exp/dirha/data-fmllr-tri4/tr05_cont/data/feats_fmllr_tr05_cont.5.ark:23782745
40dc020n /scratch/ravanelm/exp/dirha/data-fmllr-tri4/tr05_cont/data/feats_fmllr_tr05_cont.9.ark:36834161
01uo030n /scratch/ravanelm/exp/dirha/data-fmllr-tri4/tr05_cont/data/feats_fmllr_tr05_cont.3.ark:86469169
01lo030j /scratch/ravanelm/exp/dirha/data-fmllr-tri4/tr05_cont/data/feats_fmllr_tr05_cont.3.ark:9642145
01lo0314 /scratch/ravanelm/exp/dirha/data-fmllr-tri4/tr05_cont/data/feats_fmllr_tr05_cont.3.ark:13228409
40jo0318 /scratch/ravanelm/exp/dirha/data-fmllr-tri4/tr05_cont/data/feats_fmllr_tr05_cont.10.ark:34884161
01io0309 /scratch/ravanelm/exp/dirha/data-fmllr-tri4/tr05_cont/data/feats_fmllr_tr05_cont.2.ark:69817233
401o0314 /scratch/ravanelm/exp/dirha/data-fmllr-tri4/tr05_cont/data/feats_fmllr_tr05_cont.7.ark:80576777
01wc0213 /scratch/ravanelm/exp/dirha/data-fmllr-tri4/tr05_cont/data/feats_fmllr_tr05_cont.4.ark:4236441
01zo0311 /scratch/ravanelm/exp/dirha/data-fmllr-tri4/tr05_cont/data/feats_fmllr_tr05_cont.4.ark:35525409
20vo010i /scratch/ravanelm/exp/dirha/data-fmllr-tri4/tr05_cont/data/feats_fmllr_tr05_cont.7.ark:67885625
408o0309 /scratch/ravanelm/exp/dirha/data-fmllr-tri4/tr05_cont/data/feats_fmllr_tr05_cont.8.ark:61504785
407c0205 /scratch/ravanelm/exp/dirha/data-fmllr-tri4/tr05_cont/data/feats_fmllr_tr05_cont.8.ark:43370641
01ic0202 /scratch/ravanelm/exp/dirha/data-fmllr-tri4/tr05_cont/data/feats_fmllr_tr05_cont.2.ark:62849601
20qc010d /scratch/ravanelm/exp/dirha/data-fmllr-tri4/tr05_cont/data/feats_fmllr_tr05_cont.7.ark:45673897
20bo010m /scratch/ravanelm/exp/dirha/data-fmllr-tri4/tr05_cont/data/feats_fmllr_tr05_cont.6.ark:45836937
01mc0216 /scratch/ravanelm/exp/dirha/data-fmllr-tri4/tr05_cont/data/feats_fmllr_tr05_cont.3.ark:19344353
01ic0201 /scratch/ravanelm/exp/dirha/data-fmllr-tri4/tr05_cont/data/feats_fmllr_tr05_cont.2.ark:62733257
026c0201 /scratch/ravanelm/exp/dirha/data-fmllr-tri4/tr05_cont/data/feats_fmllr_tr05_cont.4.ark:68060849
40eo030a /scratch/ravanelm/exp/dirha/data-fmllr-tri4/tr05_cont/data/feats_fmllr_tr05_cont.9.ark:51921545
20do010o /scratch/ravanelm/exp/dirha/data-fmllr-tri4/tr05_cont/data/feats_fmllr_tr05_cont.6.ark:59112393
01eo030q /scratch/ravanelm/exp/dirha/data-fmllr-tri4/tr05_cont/data/feats_fmllr_tr05_cont.2.ark:34621137
40mc0219 /scratch/ravanelm/exp/dirha/data-fmllr-tri4/tr05_cont/data/feats_fmllr_tr05_cont.10.ark:67351561
40do030r /scratch/ravanelm/exp/dirha/data-fmllr-tri4/tr05_cont/data/feats_fmllr_tr05_cont.9.ark:43440625
20do010p /scratch/ravanelm/exp/dirha/data-fmllr-tri4/tr05_cont/data/feats_fmllr_tr05_cont.6.ark:59298017
40nc020q /scratch/ravanelm/exp/dirha/data-fmllr-tri4/tr05_cont/data/feats_fmllr_tr05_cont.10.ark:77839449
01uo030a /scratch/ravanelm/exp/dirha/data-fmllr-tri4/tr05_cont/data/feats_fmllr_tr05_cont.3.ark:84594137
20ec0104 /scratch/ravanelm/exp/dirha/data-fmllr-tri4/tr05_cont/data/feats_fmllr_tr05_cont.6.ark:60241201
01fo031c /scratch/ravanelm/exp/dirha/data-fmllr-tri4/tr05_cont/data/feats_fmllr_tr05_cont.2.ark:49538465
01lo030z /scratch/ravanelm/exp/dirha/data-fmllr-tri4/tr05_cont/data/feats_fmllr_tr05_cont.3.ark:12293089
024c0213 /scratch/ravanelm/exp/dirha/data-fmllr-tri4/tr05_cont/data/feats_fmllr_tr05_cont.4.ark:60725417
01qo030c /scratch/ravanelm/exp/dirha/data-fmllr-tri4/tr05_cont/data/feats_fmllr_tr05_cont.3.ark:46426337
029o030w /scratch/ravanelm/exp/dirha/data-fmllr-tri4/tr05_cont/data/feats_fmllr_tr05_cont.5.ark:34537841
013o0310 /scratch/ravanelm/exp/dirha/data-fmllr-tri4/tr05_cont/data/feats_fmllr_tr05_cont.1.ark:23965457
206o010j /scratch/ravanelm/exp/dirha/data-fmllr-tri4/tr05_cont/data/feats_fmllr_tr05_cont.6.ark:12170857
01do030e /scratch/ravanelm/exp/dirha/data-fmllr-tri4/tr05_cont/data/feats_fmllr_tr05_cont.2.ark:21517353
01ko0301 /scratch/ravanelm/exp/dirha/data-fmllr-tri4/tr05_cont/data/feats_fmllr_tr05_cont.2.ark:95899761
20fo010f /scratch/ravanelm/exp/dirha/data-fmllr-tri4/tr05_cont/data/feats_fmllr_tr05_cont.6.ark:71203289
01po0313 /scratch/ravanelm/exp/dirha/data-fmllr-tri4/tr05_cont/data/feats_fmllr_tr05_cont.3.ark:38026009
409o030i /scratch/ravanelm/exp/dirha/data-fmllr-tri4/tr05_cont/data/feats_fmllr_tr05_cont.8.ark:73174281
01kc020j /scratch/ravanelm/exp/dirha/data-fmllr-tri4/tr05_cont/data/feats_fmllr_tr05_cont.2.ark:92038033
40co030i /scratch/ravanelm/exp/dirha/data-fmllr-tri4/tr05_cont/data/feats_fmllr_tr05_cont.9.ark:30947993
20rc010j /scratch/ravanelm/exp/dirha/data-fmllr-tri4/tr05_cont/data/feats_fmllr_tr05_cont.7.ark:53166465
029o030g /scratch/ravanelm/exp/dirha/data-fmllr-tri4/tr05_cont/data/feats_fmllr_tr05_cont.5.ark:32308817
01mo030s /scratch/ravanelm/exp/dirha/data-fmllr-tri4/tr05_cont/data/feats_fmllr_tr05_cont.3.ark:23637881
209c010g /scratch/ravanelm/exp/dirha/data-fmllr-tri4/tr05_cont/data/feats_fmllr_tr05_cont.6.ark:28558593
40ac020e /scratch/ravanelm/exp/dirha/data-fmllr-tri4/tr05_cont/data/feats_fmllr_tr05_cont.9.ark:1858241
40ec0207 /scratch/ravanelm/exp/dirha/data-fmllr-tri4/tr05_cont/data/feats_fmllr_tr05_cont.9.ark:46564041
405c0214 /scratch/ravanelm/exp/dirha/data-fmllr-tri4/tr05_cont/data/feats_fmllr_tr05_cont.8.ark:24846177
40cc021a /scratch/ravanelm/exp/dirha/data-fmllr-tri4/tr05_cont/data/feats_fmllr_tr05_cont.9.ark:28562025
016c020x /scratch/ravanelm/exp/dirha/data-fmllr-tri4/tr05_cont/data/feats_fmllr_tr05_cont.1.ark:51604233
20po010c /scratch/ravanelm/exp/dirha/data-fmllr-tri4/tr05_cont/data/feats_fmllr_tr05_cont.7.ark:42199969
40fo030b /scratch/ravanelm/exp/dirha/data-fmllr-tri4/tr05_cont/data/feats_fmllr_tr05_cont.9.ark:63340905
40bc021f /scratch/ravanelm/exp/dirha/data-fmllr-tri4/tr05_cont/data/feats_fmllr_tr05_cont.9.ark:17873233
208o010n /scratch/ravanelm/exp/dirha/data-fmllr-tri4/tr05_cont/data/feats_fmllr_tr05_cont.6.ark:26448993
027o030x /scratch/ravanelm/exp/dirha/data-fmllr-tri4/tr05_cont/data/feats_fmllr_tr05_cont.5.ark:10486849
40co031d /scratch/ravanelm/exp/dirha/data-fmllr-tri4/tr05_cont/data/feats_fmllr_tr05_cont.9.ark:33749537
405c020y /scratch/ravanelm/exp/dirha/data-fmllr-tri4/tr05_cont/data/feats_fmllr_tr05_cont.8.ark:24329393
01jo030m /scratch/ravanelm/exp/dirha/data-fmllr-tri4/tr05_cont/data/feats_fmllr_tr05_cont.2.ark:85314897
029c020r /scratch/ravanelm/exp/dirha/data-fmllr-tri4/tr05_cont/data/feats_fmllr_tr05_cont.5.ark:27564153
40mo0311 /scratch/ravanelm/exp/dirha/data-fmllr-tri4/tr05_cont/data/feats_fmllr_tr05_cont.10.ark:73288457
02ec020r /scratch/ravanelm/exp/dirha/data-fmllr-tri4/tr05_cont/data/feats_fmllr_tr05_cont.5.ark:65208705
013c020d /scratch/ravanelm/exp/dirha/data-fmllr-tri4/tr05_cont/data/feats_fmllr_tr05_cont.1.ark:15504801
404c020w /scratch/ravanelm/exp/dirha/data-fmllr-tri4/tr05_cont/data/feats_fmllr_tr05_cont.8.ark:13689505
01fo0305 /scratch/ravanelm/exp/dirha/data-fmllr-tri4/tr05_cont/data/feats_fmllr_tr05_cont.2.ark:43960633
408o0318 /scratch/ravanelm/exp/dirha/data-fmllr-tri4/tr05_cont/data/feats_fmllr_tr05_cont.8.ark:65188665
028o030b /scratch/ravanelm/exp/dirha/data-fmllr-tri4/tr05_cont/data/feats_fmllr_tr05_cont.5.ark:19101953
014c020c /scratch/ravanelm/exp/dirha/data-fmllr-tri4/tr05_cont/data/feats_fmllr_tr05_cont.1.ark:26919545
01do0301 /scratch/ravanelm/exp/dirha/data-fmllr-tri4/tr05_cont/data/feats_fmllr_tr05_cont.2.ark:19626961
020o031c /scratch/ravanelm/exp/dirha/data-fmllr-tri4/tr05_cont/data/feats_fmllr_tr05_cont.4.ark:44771745
01mc020v /scratch/ravanelm/exp/dirha/data-fmllr-tri4/tr05_cont/data/feats_fmllr_tr05_cont.3.ark:18122009
01ko030u /scratch/ravanelm/exp/dirha/data-fmllr-tri4/tr05_cont/data/feats_fmllr_tr05_cont.2.ark:100783497
016o0308 /scratch/ravanelm/exp/dirha/data-fmllr-tri4/tr05_cont/data/feats_fmllr_tr05_cont.1.ark:53805057
209o010e /scratch/ravanelm/exp/dirha/data-fmllr-tri4/tr05_cont/data/feats_fmllr_tr05_cont.6.ark:31274049
01eo0310 /scratch/ravanelm/exp/dirha/data-fmllr-tri4/tr05_cont/data/feats_fmllr_tr05_cont.2.ark:35886177
20mc010o /scratch/ravanelm/exp/dirha/data-fmllr-tri4/tr05_cont/data/feats_fmllr_tr05_cont.7.ark:21785353
40ao030m /scratch/ravanelm/exp/dirha/data-fmllr-tri4/tr05_cont/data/feats_fmllr_tr05_cont.9.ark:8582673
01lo031f /scratch/ravanelm/exp/dirha/data-fmllr-tri4/tr05_cont/data/feats_fmllr_tr05_cont.3.ark:15151393
014o030j /scratch/ravanelm/exp/dirha/data-fmllr-tri4/tr05_cont/data/feats_fmllr_tr05_cont.1.ark:32984345
015c020v /scratch/ravanelm/exp/dirha/data-fmllr-tri4/tr05_cont/data/feats_fmllr_tr05_cont.1.ark:40605969
40lc021b /scratch/ravanelm/exp/dirha/data-fmllr-tri4/tr05_cont/data/feats_fmllr_tr05_cont.10.ark:53804017
01ic020k /scratch/ravanelm/exp/dirha/data-fmllr-tri4/tr05_cont/data/feats_fmllr_tr05_cont.2.ark:65126673
011o0306 /scratch/ravanelm/exp/dirha/data-fmllr-tri4/tr05_cont/data/feats_fmllr_tr05_cont.1.ark:6505009
40ec0204 /scratch/ravanelm/exp/dirha/data-fmllr-tri4/tr05_cont/data/feats_fmllr_tr05_cont.9.ark:46303489
40ac0219 /scratch/ravanelm/exp/dirha/data-fmllr-tri4/tr05_cont/data/feats_fmllr_tr05_cont.9.ark:5432745
40ac0212 /scratch/ravanelm/exp/dirha/data-fmllr-tri4/tr05_cont/data/feats_fmllr_tr05_cont.9.ark:4778817
01io030e /scratch/ravanelm/exp/dirha/data-fmllr-tri4/tr05_cont/data/feats_fmllr_tr05_cont.2.ark:70706633
014o030z /scratch/ravanelm/exp/dirha/data-fmllr-tri4/tr05_cont/data/feats_fmllr_tr05_cont.1.ark:35460569
028c0216 /scratch/ravanelm/exp/dirha/data-fmllr-tri4/tr05_cont/data/feats_fmllr_tr05_cont.5.ark:16579233
021c0219 /scratch/ravanelm/exp/dirha/data-fmllr-tri4/tr05_cont/data/feats_fmllr_tr05_cont.4.ark:49845673
20bo010r /scratch/ravanelm/exp/dirha/data-fmllr-tri4/tr05_cont/data/feats_fmllr_tr05_cont.6.ark:46670017
40pc020r /scratch/ravanelm/exp/dirha/data-fmllr-tri4/tr05_cont/data/feats_fmllr_tr05_cont.10.ark:90271337
20eo0102 /scratch/ravanelm/exp/dirha/data-fmllr-tri4/tr05_cont/data/feats_fmllr_tr05_cont.6.ark:62836289
40dc0201 /scratch/ravanelm/exp/dirha/data-fmllr-tri4/tr05_cont/data/feats_fmllr_tr05_cont.9.ark:34317313
014c020g /scratch/ravanelm/exp/dirha/data-fmllr-tri4/tr05_cont/data/feats_fmllr_tr05_cont.1.ark:27260761
01wo030z /scratch/ravanelm/exp/dirha/data-fmllr-tri4/tr05_cont/data/feats_fmllr_tr05_cont.4.ark:9353361
404o030f /scratch/ravanelm/exp/dirha/data-fmllr-tri4/tr05_cont/data/feats_fmllr_tr05_cont.8.ark:17181041
021c020z /scratch/ravanelm/exp/dirha/data-fmllr-tri4/tr05_cont/data/feats_fmllr_tr05_cont.4.ark:48870873
01fo030g /scratch/ravanelm/exp/dirha/data-fmllr-tri4/tr05_cont/data/feats_fmllr_tr05_cont.2.ark:45492097
01ko030t /scratch/ravanelm/exp/dirha/data-fmllr-tri4/tr05_cont/data/feats_fmllr_tr05_cont.2.ark:100634033
02co0316 /scratch/ravanelm/exp/dirha/data-fmllr-tri4/tr05_cont/data/feats_fmllr_tr05_cont.5.ark:60216025
20mo0103 /scratch/ravanelm/exp/dirha/data-fmllr-tri4/tr05_cont/data/feats_fmllr_tr05_cont.7.ark:22340969
01jo0305 /scratch/ravanelm/exp/dirha/data-fmllr-tri4/tr05_cont/data/feats_fmllr_tr05_cont.2.ark:82892409
409c020r /scratch/ravanelm/exp/dirha/data-fmllr-tri4/tr05_cont/data/feats_fmllr_tr05_cont.8.ark:68410849
01zo0314 /scratch/ravanelm/exp/dirha/data-fmllr-tri4/tr05_cont/data/feats_fmllr_tr05_cont.4.ark:35866761
409o030l /scratch/ravanelm/exp/dirha/data-fmllr-tri4/tr05_cont/data/feats_fmllr_tr05_cont.8.ark:73596753
01wc020r /scratch/ravanelm/exp/dirha/data-fmllr-tri4/tr05_cont/data/feats_fmllr_tr05_cont.4.ark:3092953
01ec020c /scratch/ravanelm/exp/dirha/data-fmllr-tri4/tr05_cont/data/feats_fmllr_tr05_cont.2.ark:27319441
40mo031c /scratch/ravanelm/exp/dirha/data-fmllr-tri4/tr05_cont/data/feats_fmllr_tr05_cont.10.ark:74602801
01lc020e /scratch/ravanelm/exp/dirha/data-fmllr-tri4/tr05_cont/data/feats_fmllr_tr05_cont.3.ark:1874241
01jo030w /scratch/ravanelm/exp/dirha/data-fmllr-tri4/tr05_cont/data/feats_fmllr_tr05_cont.2.ark:86706497
01ko030d /scratch/ravanelm/exp/dirha/data-fmllr-tri4/tr05_cont/data/feats_fmllr_tr05_cont.2.ark:97981329
01go030c /scratch/ravanelm/exp/dirha/data-fmllr-tri4/tr05_cont/data/feats_fmllr_tr05_cont.2.ark:56856273
20vo010e /scratch/ravanelm/exp/dirha/data-fmllr-tri4/tr05_cont/data/feats_fmllr_tr05_cont.7.ark:67371289
015o030d /scratch/ravanelm/exp/dirha/data-fmllr-tri4/tr05_cont/data/feats_fmllr_tr05_cont.1.ark:44182193
02cc0205 /scratch/ravanelm/exp/dirha/data-fmllr-tri4/tr05_cont/data/feats_fmllr_tr05_cont.5.ark:50452545
20nc010h /scratch/ravanelm/exp/dirha/data-fmllr-tri4/tr05_cont/data/feats_fmllr_tr05_cont.7.ark:27111577
018c020i /scratch/ravanelm/exp/dirha/data-fmllr-tri4/tr05_cont/data/feats_fmllr_tr05_cont.1.ark:71615345
019c020r /scratch/ravanelm/exp/dirha/data-fmllr-tri4/tr05_cont/data/feats_fmllr_tr05_cont.1.ark:85781801
20vo010b /scratch/ravanelm/exp/dirha/data-fmllr-tri4/tr05_cont/data/feats_fmllr_tr05_cont.7.ark:66976017
40do031c /scratch/ravanelm/exp/dirha/data-fmllr-tri4/tr05_cont/data/feats_fmllr_tr05_cont.9.ark:45857449
01zo030y /scratch/ravanelm/exp/dirha/data-fmllr-tri4/tr05_cont/data/feats_fmllr_tr05_cont.4.ark:34915897
01po030v /scratch/ravanelm/exp/dirha/data-fmllr-tri4/tr05_cont/data/feats_fmllr_tr05_cont.3.ark:36849817
40jc0219 /scratch/ravanelm/exp/dirha/data-fmllr-tri4/tr05_cont/data/feats_fmllr_tr05_cont.10.ark:28381865
207c010c /scratch/ravanelm/exp/dirha/data-fmllr-tri4/tr05_cont/data/feats_fmllr_tr05_cont.6.ark:15061281
014c020a /scratch/ravanelm/exp/dirha/data-fmllr-tri4/tr05_cont/data/feats_fmllr_tr05_cont.1.ark:26714217
40fo0315 /scratch/ravanelm/exp/dirha/data-fmllr-tri4/tr05_cont/data/feats_fmllr_tr05_cont.9.ark:67028185
40ko030k /scratch/ravanelm/exp/dirha/data-fmllr-tri4/tr05_cont/data/feats_fmllr_tr05_cont.10.ark:43963497
40ic020s /scratch/ravanelm/exp/dirha/data-fmllr-tri4/tr05_cont/data/feats_fmllr_tr05_cont.10.ark:14770737
024o031b /scratch/ravanelm/exp/dirha/data-fmllr-tri4/tr05_cont/data/feats_fmllr_tr05_cont.4.ark:67377529
01io030m /scratch/ravanelm/exp/dirha/data-fmllr-tri4/tr05_cont/data/feats_fmllr_tr05_cont.2.ark:71844585
406c020t /scratch/ravanelm/exp/dirha/data-fmllr-tri4/tr05_cont/data/feats_fmllr_tr05_cont.8.ark:34555377
016o030w /scratch/ravanelm/exp/dirha/data-fmllr-tri4/tr05_cont/data/feats_fmllr_tr05_cont.1.ark:56154089
01lo031b /scratch/ravanelm/exp/dirha/data-fmllr-tri4/tr05_cont/data/feats_fmllr_tr05_cont.3.ark:14614337
20bc010e /scratch/ravanelm/exp/dirha/data-fmllr-tri4/tr05_cont/data/feats_fmllr_tr05_cont.6.ark:40995529
40gc0217 /scratch/ravanelm/exp/dirha/data-fmllr-tri4/tr05_cont/data/feats_fmllr_tr05_cont.9.ark:74785641
40jc020v /scratch/ravanelm/exp/dirha/data-fmllr-tri4/tr05_cont/data/feats_fmllr_tr05_cont.10.ark:26854649
01ro030i /scratch/ravanelm/exp/dirha/data-fmllr-tri4/tr05_cont/data/feats_fmllr_tr05_cont.3.ark:59148977
20dc0102 /scratch/ravanelm/exp/dirha/data-fmllr-tri4/tr05_cont/data/feats_fmllr_tr05_cont.6.ark:52820065
029c0213 /scratch/ravanelm/exp/dirha/data-fmllr-tri4/tr05_cont/data/feats_fmllr_tr05_cont.5.ark:28836441
02co030e /scratch/ravanelm/exp/dirha/data-fmllr-tri4/tr05_cont/data/feats_fmllr_tr05_cont.5.ark:56594553
40mc020s /scratch/ravanelm/exp/dirha/data-fmllr-tri4/tr05_cont/data/feats_fmllr_tr05_cont.10.ark:65508753
01bo0309 /scratch/ravanelm/exp/dirha/data-fmllr-tri4/tr05_cont/data/feats_fmllr_tr05_cont.2.ark:7787841
206o010o /scratch/ravanelm/exp/dirha/data-fmllr-tri4/tr05_cont/data/feats_fmllr_tr05_cont.6.ark:13094817
20ic010g /scratch/ravanelm/exp/dirha/data-fmllr-tri4/tr05_cont/data/feats_fmllr_tr05_cont.7.ark:6687353
029c021b /scratch/ravanelm/exp/dirha/data-fmllr-tri4/tr05_cont/data/feats_fmllr_tr05_cont.5.ark:29708313
405o030g /scratch/ravanelm/exp/dirha/data-fmllr-tri4/tr05_cont/data/feats_fmllr_tr05_cont.8.ark:27744585
20co010m /scratch/ravanelm/exp/dirha/data-fmllr-tri4/tr05_cont/data/feats_fmllr_tr05_cont.6.ark:52127761
017o030z /scratch/ravanelm/exp/dirha/data-fmllr-tri4/tr05_cont/data/feats_fmllr_tr05_cont.1.ark:67691673
405c0208 /scratch/ravanelm/exp/dirha/data-fmllr-tri4/tr05_cont/data/feats_fmllr_tr05_cont.8.ark:21916129
405c0212 /scratch/ravanelm/exp/dirha/data-fmllr-tri4/tr05_cont/data/feats_fmllr_tr05_cont.8.ark:24626769
01mo030t /scratch/ravanelm/exp/dirha/data-fmllr-tri4/tr05_cont/data/feats_fmllr_tr05_cont.3.ark:23761425
408o030t /scratch/ravanelm/exp/dirha/data-fmllr-tri4/tr05_cont/data/feats_fmllr_tr05_cont.8.ark:63710865
409o0318 /scratch/ravanelm/exp/dirha/data-fmllr-tri4/tr05_cont/data/feats_fmllr_tr05_cont.8.ark:76209145
40dc0217 /scratch/ravanelm/exp/dirha/data-fmllr-tri4/tr05_cont/data/feats_fmllr_tr05_cont.9.ark:39323441
40no030e /scratch/ravanelm/exp/dirha/data-fmllr-tri4/tr05_cont/data/feats_fmllr_tr05_cont.10.ark:82850809
40gc020o /scratch/ravanelm/exp/dirha/data-fmllr-tri4/tr05_cont/data/feats_fmllr_tr05_cont.9.ark:71993505
40bo030c /scratch/ravanelm/exp/dirha/data-fmllr-tri4/tr05_cont/data/feats_fmllr_tr05_cont.9.ark:19605545
40ao0318 /scratch/ravanelm/exp/dirha/data-fmllr-tri4/tr05_cont/data/feats_fmllr_tr05_cont.9.ark:11576801
013o030d /scratch/ravanelm/exp/dirha/data-fmllr-tri4/tr05_cont/data/feats_fmllr_tr05_cont.1.ark:20989385
20co010o /scratch/ravanelm/exp/dirha/data-fmllr-tri4/tr05_cont/data/feats_fmllr_tr05_cont.6.ark:52423489
015o030k /scratch/ravanelm/exp/dirha/data-fmllr-tri4/tr05_cont/data/feats_fmllr_tr05_cont.1.ark:45093881
20oc0108 /scratch/ravanelm/exp/dirha/data-fmllr-tri4/tr05_cont/data/feats_fmllr_tr05_cont.7.ark:33404769
40io030v /scratch/ravanelm/exp/dirha/data-fmllr-tri4/tr05_cont/data/feats_fmllr_tr05_cont.10.ark:21048833
01dc020m /scratch/ravanelm/exp/dirha/data-fmllr-tri4/tr05_cont/data/feats_fmllr_tr05_cont.2.ark:16487361
01ec0207 /scratch/ravanelm/exp/dirha/data-fmllr-tri4/tr05_cont/data/feats_fmllr_tr05_cont.2.ark:26824121
40mo030p /scratch/ravanelm/exp/dirha/data-fmllr-tri4/tr05_cont/data/feats_fmllr_tr05_cont.10.ark:71610409
015o030i /scratch/ravanelm/exp/dirha/data-fmllr-tri4/tr05_cont/data/feats_fmllr_tr05_cont.1.ark:44716553
01gc020w /scratch/ravanelm/exp/dirha/data-fmllr-tri4/tr05_cont/data/feats_fmllr_tr05_cont.2.ark:53146913
01jo0306 /scratch/ravanelm/exp/dirha/data-fmllr-tri4/tr05_cont/data/feats_fmllr_tr05_cont.2.ark:83051953
40bo030g /scratch/ravanelm/exp/dirha/data-fmllr-tri4/tr05_cont/data/feats_fmllr_tr05_cont.9.ark:20260521
406c020b /scratch/ravanelm/exp/dirha/data-fmllr-tri4/tr05_cont/data/feats_fmllr_tr05_cont.8.ark:33022649
204o0104 /scratch/ravanelm/exp/dirha/data-fmllr-tri4/tr05_cont/data/feats_fmllr_tr05_cont.5.ark:77823473
01go031c /scratch/ravanelm/exp/dirha/data-fmllr-tri4/tr05_cont/data/feats_fmllr_tr05_cont.2.ark:61968177
20eo010f /scratch/ravanelm/exp/dirha/data-fmllr-tri4/tr05_cont/data/feats_fmllr_tr05_cont.6.ark:64848761
40jo030a /scratch/ravanelm/exp/dirha/data-fmllr-tri4/tr05_cont/data/feats_fmllr_tr05_cont.10.ark:30340785
401c0214 /scratch/ravanelm/exp/dirha/data-fmllr-tri4/tr05_cont/data/feats_fmllr_tr05_cont.7.ark:73701017
01pc0206 /scratch/ravanelm/exp/dirha/data-fmllr-tri4/tr05_cont/data/feats_fmllr_tr05_cont.3.ark:27122073
40io030z /scratch/ravanelm/exp/dirha/data-fmllr-tri4/tr05_cont/data/feats_fmllr_tr05_cont.10.ark:21566369
029o0303 /scratch/ravanelm/exp/dirha/data-fmllr-tri4/tr05_cont/data/feats_fmllr_tr05_cont.5.ark:30577305
01ec021e /scratch/ravanelm/exp/dirha/data-fmllr-tri4/tr05_cont/data/feats_fmllr_tr05_cont.2.ark:31598569
20fo0107 /scratch/ravanelm/exp/dirha/data-fmllr-tri4/tr05_cont/data/feats_fmllr_tr05_cont.6.ark:70218137
404c020r /scratch/ravanelm/exp/dirha/data-fmllr-tri4/tr05_cont/data/feats_fmllr_tr05_cont.8.ark:13359945
018c020r /scratch/ravanelm/exp/dirha/data-fmllr-tri4/tr05_cont/data/feats_fmllr_tr05_cont.1.ark:72606601
027o030k /scratch/ravanelm/exp/dirha/data-fmllr-tri4/tr05_cont/data/feats_fmllr_tr05_cont.5.ark:8654377
407c021c /scratch/ravanelm/exp/dirha/data-fmllr-tri4/tr05_cont/data/feats_fmllr_tr05_cont.8.ark:48170233
01zo030w /scratch/ravanelm/exp/dirha/data-fmllr-tri4/tr05_cont/data/feats_fmllr_tr05_cont.4.ark:34517929
40ac020n /scratch/ravanelm/exp/dirha/data-fmllr-tri4/tr05_cont/data/feats_fmllr_tr05_cont.9.ark:2962617
01eo030j /scratch/ravanelm/exp/dirha/data-fmllr-tri4/tr05_cont/data/feats_fmllr_tr05_cont.2.ark:33722889
40ho030y /scratch/ravanelm/exp/dirha/data-fmllr-tri4/tr05_cont/data/feats_fmllr_tr05_cont.10.ark:9365225
208c010d /scratch/ravanelm/exp/dirha/data-fmllr-tri4/tr05_cont/data/feats_fmllr_tr05_cont.6.ark:21925593
406o0309 /scratch/ravanelm/exp/dirha/data-fmllr-tri4/tr05_cont/data/feats_fmllr_tr05_cont.8.ark:37854681
40dc020u /scratch/ravanelm/exp/dirha/data-fmllr-tri4/tr05_cont/data/feats_fmllr_tr05_cont.9.ark:37756569
01wc020f /scratch/ravanelm/exp/dirha/data-fmllr-tri4/tr05_cont/data/feats_fmllr_tr05_cont.4.ark:1620025
017o0315 /scratch/ravanelm/exp/dirha/data-fmllr-tri4/tr05_cont/data/feats_fmllr_tr05_cont.1.ark:68443497
40hc020h /scratch/ravanelm/exp/dirha/data-fmllr-tri4/tr05_cont/data/feats_fmllr_tr05_cont.10.ark:1521673
029c020f /scratch/ravanelm/exp/dirha/data-fmllr-tri4/tr05_cont/data/feats_fmllr_tr05_cont.5.ark:26211865
01bo0307 /scratch/ravanelm/exp/dirha/data-fmllr-tri4/tr05_cont/data/feats_fmllr_tr05_cont.2.ark:7409073
01zo030h /scratch/ravanelm/exp/dirha/data-fmllr-tri4/tr05_cont/data/feats_fmllr_tr05_cont.4.ark:31726049
40ko0319 /scratch/ravanelm/exp/dirha/data-fmllr-tri4/tr05_cont/data/feats_fmllr_tr05_cont.10.ark:47425537
401c020v /scratch/ravanelm/exp/dirha/data-fmllr-tri4/tr05_cont/data/feats_fmllr_tr05_cont.7.ark:72625761
01ko030n /scratch/ravanelm/exp/dirha/data-fmllr-tri4/tr05_cont/data/feats_fmllr_tr05_cont.2.ark:99692609
209o010i /scratch/ravanelm/exp/dirha/data-fmllr-tri4/tr05_cont/data/feats_fmllr_tr05_cont.6.ark:31765665
20ro010q /scratch/ravanelm/exp/dirha/data-fmllr-tri4/tr05_cont/data/feats_fmllr_tr05_cont.7.ark:57576465
20io0105 /scratch/ravanelm/exp/dirha/data-fmllr-tri4/tr05_cont/data/feats_fmllr_tr05_cont.7.ark:8185265
01po0312 /scratch/ravanelm/exp/dirha/data-fmllr-tri4/tr05_cont/data/feats_fmllr_tr05_cont.3.ark:37907905
20oo0109 /scratch/ravanelm/exp/dirha/data-fmllr-tri4/tr05_cont/data/feats_fmllr_tr05_cont.7.ark:35671929
014o0318 /scratch/ravanelm/exp/dirha/data-fmllr-tri4/tr05_cont/data/feats_fmllr_tr05_cont.1.ark:36495505
20tc010p /scratch/ravanelm/exp/dirha/data-fmllr-tri4/tr05_cont/data/feats_fmllr_tr05_cont.7.ark:60462209
403o0308 /scratch/ravanelm/exp/dirha/data-fmllr-tri4/tr05_cont/data/feats_fmllr_tr05_cont.8.ark:5654201
02bc0206 /scratch/ravanelm/exp/dirha/data-fmllr-tri4/tr05_cont/data/feats_fmllr_tr05_cont.5.ark:37754281
205c0103 /scratch/ravanelm/exp/dirha/data-fmllr-tri4/tr05_cont/data/feats_fmllr_tr05_cont.6.ark:215417
026c020o /scratch/ravanelm/exp/dirha/data-fmllr-tri4/tr05_cont/data/feats_fmllr_tr05_cont.4.ark:70351161
40hc021a /scratch/ravanelm/exp/dirha/data-fmllr-tri4/tr05_cont/data/feats_fmllr_tr05_cont.10.ark:4516769
401c020b /scratch/ravanelm/exp/dirha/data-fmllr-tri4/tr05_cont/data/feats_fmllr_tr05_cont.7.ark:70557281
014o0314 /scratch/ravanelm/exp/dirha/data-fmllr-tri4/tr05_cont/data/feats_fmllr_tr05_cont.1.ark:36115249
021c0217 /scratch/ravanelm/exp/dirha/data-fmllr-tri4/tr05_cont/data/feats_fmllr_tr05_cont.4.ark:49655545
40dc0214 /scratch/ravanelm/exp/dirha/data-fmllr-tri4/tr05_cont/data/feats_fmllr_tr05_cont.9.ark:39054249
01zc0201 /scratch/ravanelm/exp/dirha/data-fmllr-tri4/tr05_cont/data/feats_fmllr_tr05_cont.4.ark:23481241
027c020b /scratch/ravanelm/exp/dirha/data-fmllr-tri4/tr05_cont/data/feats_fmllr_tr05_cont.5.ark:1201689
01wc020p /scratch/ravanelm/exp/dirha/data-fmllr-tri4/tr05_cont/data/feats_fmllr_tr05_cont.4.ark:2920105
40eo0307 /scratch/ravanelm/exp/dirha/data-fmllr-tri4/tr05_cont/data/feats_fmllr_tr05_cont.9.ark:51562753
013o030n /scratch/ravanelm/exp/dirha/data-fmllr-tri4/tr05_cont/data/feats_fmllr_tr05_cont.1.ark:22302585
40go0314 /scratch/ravanelm/exp/dirha/data-fmllr-tri4/tr05_cont/data/feats_fmllr_tr05_cont.9.ark:82946633
028o030a /scratch/ravanelm/exp/dirha/data-fmllr-tri4/tr05_cont/data/feats_fmllr_tr05_cont.5.ark:18937449
40ao031d /scratch/ravanelm/exp/dirha/data-fmllr-tri4/tr05_cont/data/feats_fmllr_tr05_cont.9.ark:12051961
018o030g /scratch/ravanelm/exp/dirha/data-fmllr-tri4/tr05_cont/data/feats_fmllr_tr05_cont.1.ark:78018305
40no0314 /scratch/ravanelm/exp/dirha/data-fmllr-tri4/tr05_cont/data/feats_fmllr_tr05_cont.10.ark:86447433
01ec020p /scratch/ravanelm/exp/dirha/data-fmllr-tri4/tr05_cont/data/feats_fmllr_tr05_cont.2.ark:28672553
208o0106 /scratch/ravanelm/exp/dirha/data-fmllr-tri4/tr05_cont/data/feats_fmllr_tr05_cont.6.ark:24214025
20qo010i /scratch/ravanelm/exp/dirha/data-fmllr-tri4/tr05_cont/data/feats_fmllr_tr05_cont.7.ark:49876537
01do0315 /scratch/ravanelm/exp/dirha/data-fmllr-tri4/tr05_cont/data/feats_fmllr_tr05_cont.2.ark:24694113
028o030k /scratch/ravanelm/exp/dirha/data-fmllr-tri4/tr05_cont/data/feats_fmllr_tr05_cont.5.ark:20663129
20oc010f /scratch/ravanelm/exp/dirha/data-fmllr-tri4/tr05_cont/data/feats_fmllr_tr05_cont.7.ark:33977737
20hc010j /scratch/ravanelm/exp/dirha/data-fmllr-tri4/tr05_cont/data/feats_fmllr_tr05_cont.7.ark:1408441
407o030a /scratch/ravanelm/exp/dirha/data-fmllr-tri4/tr05_cont/data/feats_fmllr_tr05_cont.8.ark:50235257
01uo0312 /scratch/ravanelm/exp/dirha/data-fmllr-tri4/tr05_cont/data/feats_fmllr_tr05_cont.3.ark:88978649
01io031a /scratch/ravanelm/exp/dirha/data-fmllr-tri4/tr05_cont/data/feats_fmllr_tr05_cont.2.ark:75265161
01ic021c /scratch/ravanelm/exp/dirha/data-fmllr-tri4/tr05_cont/data/feats_fmllr_tr05_cont.2.ark:67900305
40ac0215 /scratch/ravanelm/exp/dirha/data-fmllr-tri4/tr05_cont/data/feats_fmllr_tr05_cont.9.ark:5024169
028c021b /scratch/ravanelm/exp/dirha/data-fmllr-tri4/tr05_cont/data/feats_fmllr_tr05_cont.5.ark:17072793
01po030a /scratch/ravanelm/exp/dirha/data-fmllr-tri4/tr05_cont/data/feats_fmllr_tr05_cont.3.ark:33891577
021c020t /scratch/ravanelm/exp/dirha/data-fmllr-tri4/tr05_cont/data/feats_fmllr_tr05_cont.4.ark:48413449
01mo030o /scratch/ravanelm/exp/dirha/data-fmllr-tri4/tr05_cont/data/feats_fmllr_tr05_cont.3.ark:23061305
015c020i /scratch/ravanelm/exp/dirha/data-fmllr-tri4/tr05_cont/data/feats_fmllr_tr05_cont.1.ark:39334937
01go030t /scratch/ravanelm/exp/dirha/data-fmllr-tri4/tr05_cont/data/feats_fmllr_tr05_cont.2.ark:59203721
40bc021g /scratch/ravanelm/exp/dirha/data-fmllr-tri4/tr05_cont/data/feats_fmllr_tr05_cont.9.ark:17977417
011o030q /scratch/ravanelm/exp/dirha/data-fmllr-tri4/tr05_cont/data/feats_fmllr_tr05_cont.1.ark:9460849
01qc020t /scratch/ravanelm/exp/dirha/data-fmllr-tri4/tr05_cont/data/feats_fmllr_tr05_cont.3.ark:42613273
017c020d /scratch/ravanelm/exp/dirha/data-fmllr-tri4/tr05_cont/data/feats_fmllr_tr05_cont.1.ark:59683177
01lo0303 /scratch/ravanelm/exp/dirha/data-fmllr-tri4/tr05_cont/data/feats_fmllr_tr05_cont.3.ark:6852961
40fo030q /scratch/ravanelm/exp/dirha/data-fmllr-tri4/tr05_cont/data/feats_fmllr_tr05_cont.9.ark:65205265
40cc020d /scratch/ravanelm/exp/dirha/data-fmllr-tri4/tr05_cont/data/feats_fmllr_tr05_cont.9.ark:25692593
013c020a /scratch/ravanelm/exp/dirha/data-fmllr-tri4/tr05_cont/data/feats_fmllr_tr05_cont.1.ark:15154329
01do030g /scratch/ravanelm/exp/dirha/data-fmllr-tri4/tr05_cont/data/feats_fmllr_tr05_cont.2.ark:21709561
40nc020h /scratch/ravanelm/exp/dirha/data-fmllr-tri4/tr05_cont/data/feats_fmllr_tr05_cont.10.ark:76651233
016o0302 /scratch/ravanelm/exp/dirha/data-fmllr-tri4/tr05_cont/data/feats_fmllr_tr05_cont.1.ark:53087657
40dc020s /scratch/ravanelm/exp/dirha/data-fmllr-tri4/tr05_cont/data/feats_fmllr_tr05_cont.9.ark:37553001
40jc021c /scratch/ravanelm/exp/dirha/data-fmllr-tri4/tr05_cont/data/feats_fmllr_tr05_cont.10.ark:28657777
401c021f /scratch/ravanelm/exp/dirha/data-fmllr-tri4/tr05_cont/data/feats_fmllr_tr05_cont.7.ark:74918561
01uc0211 /scratch/ravanelm/exp/dirha/data-fmllr-tri4/tr05_cont/data/feats_fmllr_tr05_cont.3.ark:81356121
20mc010d /scratch/ravanelm/exp/dirha/data-fmllr-tri4/tr05_cont/data/feats_fmllr_tr05_cont.7.ark:20599489
20hc0107 /scratch/ravanelm/exp/dirha/data-fmllr-tri4/tr05_cont/data/feats_fmllr_tr05_cont.7.ark:436313
019o030a /scratch/ravanelm/exp/dirha/data-fmllr-tri4/tr05_cont/data/feats_fmllr_tr05_cont.1.ark:89751305
40po0307 /scratch/ravanelm/exp/dirha/data-fmllr-tri4/tr05_cont/data/feats_fmllr_tr05_cont.10.ark:93355601
018o0318 /scratch/ravanelm/exp/dirha/data-fmllr-tri4/tr05_cont/data/feats_fmllr_tr05_cont.1.ark:82589857
01kc0201 /scratch/ravanelm/exp/dirha/data-fmllr-tri4/tr05_cont/data/feats_fmllr_tr05_cont.2.ark:89653945
40hc0202 /scratch/ravanelm/exp/dirha/data-fmllr-tri4/tr05_cont/data/feats_fmllr_tr05_cont.10.ark:30113
011o030z /scratch/ravanelm/exp/dirha/data-fmllr-tri4/tr05_cont/data/feats_fmllr_tr05_cont.1.ark:10724425
029c0211 /scratch/ravanelm/exp/dirha/data-fmllr-tri4/tr05_cont/data/feats_fmllr_tr05_cont.5.ark:28669993
01wc021d /scratch/ravanelm/exp/dirha/data-fmllr-tri4/tr05_cont/data/feats_fmllr_tr05_cont.4.ark:5056177
408c0212 /scratch/ravanelm/exp/dirha/data-fmllr-tri4/tr05_cont/data/feats_fmllr_tr05_cont.8.ark:59155249
01rc0215 /scratch/ravanelm/exp/dirha/data-fmllr-tri4/tr05_cont/data/feats_fmllr_tr05_cont.3.ark:56264921
40pc021a /scratch/ravanelm/exp/dirha/data-fmllr-tri4/tr05_cont/data/feats_fmllr_tr05_cont.10.ark:92266033
40go030t /scratch/ravanelm/exp/dirha/data-fmllr-tri4/tr05_cont/data/feats_fmllr_tr05_cont.9.ark:80472129
029c020l /scratch/ravanelm/exp/dirha/data-fmllr-tri4/tr05_cont/data/feats_fmllr_tr05_cont.5.ark:26946249
20hc010i /scratch/ravanelm/exp/dirha/data-fmllr-tri4/tr05_cont/data/feats_fmllr_tr05_cont.7.ark:1361697
405c020a /scratch/ravanelm/exp/dirha/data-fmllr-tri4/tr05_cont/data/feats_fmllr_tr05_cont.8.ark:22152017
024c0207 /scratch/ravanelm/exp/dirha/data-fmllr-tri4/tr05_cont/data/feats_fmllr_tr05_cont.4.ark:57070249
40ac020u /scratch/ravanelm/exp/dirha/data-fmllr-tri4/tr05_cont/data/feats_fmllr_tr05_cont.9.ark:3905505
408c020n /scratch/ravanelm/exp/dirha/data-fmllr-tri4/tr05_cont/data/feats_fmllr_tr05_cont.8.ark:57897313
028c0213 /scratch/ravanelm/exp/dirha/data-fmllr-tri4/tr05_cont/data/feats_fmllr_tr05_cont.5.ark:16178521
017c020b /scratch/ravanelm/exp/dirha/data-fmllr-tri4/tr05_cont/data/feats_fmllr_tr05_cont.1.ark:59513369
20ic010c /scratch/ravanelm/exp/dirha/data-fmllr-tri4/tr05_cont/data/feats_fmllr_tr05_cont.7.ark:6337817
01rc0204 /scratch/ravanelm/exp/dirha/data-fmllr-tri4/tr05_cont/data/feats_fmllr_tr05_cont.3.ark:51987233
40do031a /scratch/ravanelm/exp/dirha/data-fmllr-tri4/tr05_cont/data/feats_fmllr_tr05_cont.9.ark:45572441
02cc021f /scratch/ravanelm/exp/dirha/data-fmllr-tri4/tr05_cont/data/feats_fmllr_tr05_cont.5.ark:54949577
40jo0310 /scratch/ravanelm/exp/dirha/data-fmllr-tri4/tr05_cont/data/feats_fmllr_tr05_cont.10.ark:34007329
01lo030a /scratch/ravanelm/exp/dirha/data-fmllr-tri4/tr05_cont/data/feats_fmllr_tr05_cont.3.ark:7988169
40mc020m /scratch/ravanelm/exp/dirha/data-fmllr-tri4/tr05_cont/data/feats_fmllr_tr05_cont.10.ark:64990049
406o030e /scratch/ravanelm/exp/dirha/data-fmllr-tri4/tr05_cont/data/feats_fmllr_tr05_cont.8.ark:38274161
01jc0204 /scratch/ravanelm/exp/dirha/data-fmllr-tri4/tr05_cont/data/feats_fmllr_tr05_cont.2.ark:76403937
20ho0108 /scratch/ravanelm/exp/dirha/data-fmllr-tri4/tr05_cont/data/feats_fmllr_tr05_cont.7.ark:3002081
026c020l /scratch/ravanelm/exp/dirha/data-fmllr-tri4/tr05_cont/data/feats_fmllr_tr05_cont.4.ark:70174929
01do030a /scratch/ravanelm/exp/dirha/data-fmllr-tri4/tr05_cont/data/feats_fmllr_tr05_cont.2.ark:20985097
01to030r /scratch/ravanelm/exp/dirha/data-fmllr-tri4/tr05_cont/data/feats_fmllr_tr05_cont.3.ark:73254473
208c010c /scratch/ravanelm/exp/dirha/data-fmllr-tri4/tr05_cont/data/feats_fmllr_tr05_cont.6.ark:21843329
20cc0106 /scratch/ravanelm/exp/dirha/data-fmllr-tri4/tr05_cont/data/feats_fmllr_tr05_cont.6.ark:47391121
20po010b /scratch/ravanelm/exp/dirha/data-fmllr-tri4/tr05_cont/data/feats_fmllr_tr05_cont.7.ark:42127945
016o030e /scratch/ravanelm/exp/dirha/data-fmllr-tri4/tr05_cont/data/feats_fmllr_tr05_cont.1.ark:54470801
20eo010g /scratch/ravanelm/exp/dirha/data-fmllr-tri4/tr05_cont/data/feats_fmllr_tr05_cont.6.ark:65025745
405c020p /scratch/ravanelm/exp/dirha/data-fmllr-tri4/tr05_cont/data/feats_fmllr_tr05_cont.8.ark:23701017
013o0311 /scratch/ravanelm/exp/dirha/data-fmllr-tri4/tr05_cont/data/feats_fmllr_tr05_cont.1.ark:24010921
029o030v /scratch/ravanelm/exp/dirha/data-fmllr-tri4/tr05_cont/data/feats_fmllr_tr05_cont.5.ark:34355097
01wo0313 /scratch/ravanelm/exp/dirha/data-fmllr-tri4/tr05_cont/data/feats_fmllr_tr05_cont.4.ark:9981777
01rc0217 /scratch/ravanelm/exp/dirha/data-fmllr-tri4/tr05_cont/data/feats_fmllr_tr05_cont.3.ark:56399529
40go0306 /scratch/ravanelm/exp/dirha/data-fmllr-tri4/tr05_cont/data/feats_fmllr_tr05_cont.9.ark:76945177
407o030l /scratch/ravanelm/exp/dirha/data-fmllr-tri4/tr05_cont/data/feats_fmllr_tr05_cont.8.ark:51902241
01wc020x /scratch/ravanelm/exp/dirha/data-fmllr-tri4/tr05_cont/data/feats_fmllr_tr05_cont.4.ark:3564617
405o030r /scratch/ravanelm/exp/dirha/data-fmllr-tri4/tr05_cont/data/feats_fmllr_tr05_cont.8.ark:28959889
40do0313 /scratch/ravanelm/exp/dirha/data-fmllr-tri4/tr05_cont/data/feats_fmllr_tr05_cont.9.ark:44920113
405o0316 /scratch/ravanelm/exp/dirha/data-fmllr-tri4/tr05_cont/data/feats_fmllr_tr05_cont.8.ark:30737049
20lo010b /scratch/ravanelm/exp/dirha/data-fmllr-tri4/tr05_cont/data/feats_fmllr_tr05_cont.7.ark:16431457
404c021e /scratch/ravanelm/exp/dirha/data-fmllr-tri4/tr05_cont/data/feats_fmllr_tr05_cont.8.ark:15313457
20fo010n /scratch/ravanelm/exp/dirha/data-fmllr-tri4/tr05_cont/data/feats_fmllr_tr05_cont.6.ark:72082521
01ic020b /scratch/ravanelm/exp/dirha/data-fmllr-tri4/tr05_cont/data/feats_fmllr_tr05_cont.2.ark:64104697
02cc020g /scratch/ravanelm/exp/dirha/data-fmllr-tri4/tr05_cont/data/feats_fmllr_tr05_cont.5.ark:51532969
015o030l /scratch/ravanelm/exp/dirha/data-fmllr-tri4/tr05_cont/data/feats_fmllr_tr05_cont.1.ark:45208785
40mo0318 /scratch/ravanelm/exp/dirha/data-fmllr-tri4/tr05_cont/data/feats_fmllr_tr05_cont.10.ark:74021905
01to030q /scratch/ravanelm/exp/dirha/data-fmllr-tri4/tr05_cont/data/feats_fmllr_tr05_cont.3.ark:73060209
02bc0219 /scratch/ravanelm/exp/dirha/data-fmllr-tri4/tr05_cont/data/feats_fmllr_tr05_cont.5.ark:41986417
40gc020d /scratch/ravanelm/exp/dirha/data-fmllr-tri4/tr05_cont/data/feats_fmllr_tr05_cont.9.ark:70557721
40mc020q /scratch/ravanelm/exp/dirha/data-fmllr-tri4/tr05_cont/data/feats_fmllr_tr05_cont.10.ark:65348545
01ko030x /scratch/ravanelm/exp/dirha/data-fmllr-tri4/tr05_cont/data/feats_fmllr_tr05_cont.2.ark:101215249
029c0204 /scratch/ravanelm/exp/dirha/data-fmllr-tri4/tr05_cont/data/feats_fmllr_tr05_cont.5.ark:25034001
01do0310 /scratch/ravanelm/exp/dirha/data-fmllr-tri4/tr05_cont/data/feats_fmllr_tr05_cont.2.ark:24053513
018o0307 /scratch/ravanelm/exp/dirha/data-fmllr-tri4/tr05_cont/data/feats_fmllr_tr05_cont.1.ark:76766889
024c020q /scratch/ravanelm/exp/dirha/data-fmllr-tri4/tr05_cont/data/feats_fmllr_tr05_cont.4.ark:59287025
40mc020b /scratch/ravanelm/exp/dirha/data-fmllr-tri4/tr05_cont/data/feats_fmllr_tr05_cont.10.ark:63844505
40gc0212 /scratch/ravanelm/exp/dirha/data-fmllr-tri4/tr05_cont/data/feats_fmllr_tr05_cont.9.ark:73901041
20nc010e /scratch/ravanelm/exp/dirha/data-fmllr-tri4/tr05_cont/data/feats_fmllr_tr05_cont.7.ark:26675025
02co030s /scratch/ravanelm/exp/dirha/data-fmllr-tri4/tr05_cont/data/feats_fmllr_tr05_cont.5.ark:58453129
01jc020w /scratch/ravanelm/exp/dirha/data-fmllr-tri4/tr05_cont/data/feats_fmllr_tr05_cont.2.ark:79437409
01uo030y /scratch/ravanelm/exp/dirha/data-fmllr-tri4/tr05_cont/data/feats_fmllr_tr05_cont.3.ark:88212313
019o030e /scratch/ravanelm/exp/dirha/data-fmllr-tri4/tr05_cont/data/feats_fmllr_tr05_cont.1.ark:90246921
013o0318 /scratch/ravanelm/exp/dirha/data-fmllr-tri4/tr05_cont/data/feats_fmllr_tr05_cont.1.ark:24944529
020o0310 /scratch/ravanelm/exp/dirha/data-fmllr-tri4/tr05_cont/data/feats_fmllr_tr05_cont.4.ark:43652601
40kc021c /scratch/ravanelm/exp/dirha/data-fmllr-tri4/tr05_cont/data/feats_fmllr_tr05_cont.10.ark:41171881
40ho0306 /scratch/ravanelm/exp/dirha/data-fmllr-tri4/tr05_cont/data/feats_fmllr_tr05_cont.10.ark:5640073
01ic020j /scratch/ravanelm/exp/dirha/data-fmllr-tri4/tr05_cont/data/feats_fmllr_tr05_cont.2.ark:65027609
20ro010j /scratch/ravanelm/exp/dirha/data-fmllr-tri4/tr05_cont/data/feats_fmllr_tr05_cont.7.ark:56403817
407c020p /scratch/ravanelm/exp/dirha/data-fmllr-tri4/tr05_cont/data/feats_fmllr_tr05_cont.8.ark:45599601
406o030y /scratch/ravanelm/exp/dirha/data-fmllr-tri4/tr05_cont/data/feats_fmllr_tr05_cont.8.ark:40884401
020o0307 /scratch/ravanelm/exp/dirha/data-fmllr-tri4/tr05_cont/data/feats_fmllr_tr05_cont.4.ark:41846177
40go030y /scratch/ravanelm/exp/dirha/data-fmllr-tri4/tr05_cont/data/feats_fmllr_tr05_cont.9.ark:81585849
403c020h /scratch/ravanelm/exp/dirha/data-fmllr-tri4/tr05_cont/data/feats_fmllr_tr05_cont.8.ark:1255113
20lo010l /scratch/ravanelm/exp/dirha/data-fmllr-tri4/tr05_cont/data/feats_fmllr_tr05_cont.7.ark:18487377
019o0314 /scratch/ravanelm/exp/dirha/data-fmllr-tri4/tr05_cont/data/feats_fmllr_tr05_cont.1.ark:93360025
407c0204 /scratch/ravanelm/exp/dirha/data-fmllr-tri4/tr05_cont/data/feats_fmllr_tr05_cont.8.ark:43287897
018o030a /scratch/ravanelm/exp/dirha/data-fmllr-tri4/tr05_cont/data/feats_fmllr_tr05_cont.1.ark:77029681
40go0305 /scratch/ravanelm/exp/dirha/data-fmllr-tri4/tr05_cont/data/feats_fmllr_tr05_cont.9.ark:76822753
01do0302 /scratch/ravanelm/exp/dirha/data-fmllr-tri4/tr05_cont/data/feats_fmllr_tr05_cont.2.ark:19825385
403o030j /scratch/ravanelm/exp/dirha/data-fmllr-tri4/tr05_cont/data/feats_fmllr_tr05_cont.8.ark:7057985
02eo030p /scratch/ravanelm/exp/dirha/data-fmllr-tri4/tr05_cont/data/feats_fmllr_tr05_cont.5.ark:71586017
20bc010h /scratch/ravanelm/exp/dirha/data-fmllr-tri4/tr05_cont/data/feats_fmllr_tr05_cont.6.ark:41447121
01zc0212 /scratch/ravanelm/exp/dirha/data-fmllr-tri4/tr05_cont/data/feats_fmllr_tr05_cont.4.ark:27785329
027c0209 /scratch/ravanelm/exp/dirha/data-fmllr-tri4/tr05_cont/data/feats_fmllr_tr05_cont.5.ark:956681
011c0214 /scratch/ravanelm/exp/dirha/data-fmllr-tri4/tr05_cont/data/feats_fmllr_tr05_cont.1.ark:4317905
40bc021d /scratch/ravanelm/exp/dirha/data-fmllr-tri4/tr05_cont/data/feats_fmllr_tr05_cont.9.ark:17636065
20nc0106 /scratch/ravanelm/exp/dirha/data-fmllr-tri4/tr05_cont/data/feats_fmllr_tr05_cont.7.ark:25721233
011o031d /scratch/ravanelm/exp/dirha/data-fmllr-tri4/tr05_cont/data/feats_fmllr_tr05_cont.1.ark:13424281
01yc0211 /scratch/ravanelm/exp/dirha/data-fmllr-tri4/tr05_cont/data/feats_fmllr_tr05_cont.4.ark:15388825
40po0304 /scratch/ravanelm/exp/dirha/data-fmllr-tri4/tr05_cont/data/feats_fmllr_tr05_cont.10.ark:93092489
40pc020h /scratch/ravanelm/exp/dirha/data-fmllr-tri4/tr05_cont/data/feats_fmllr_tr05_cont.10.ark:89454777
20mc010k /scratch/ravanelm/exp/dirha/data-fmllr-tri4/tr05_cont/data/feats_fmllr_tr05_cont.7.ark:21284137
206o0107 /scratch/ravanelm/exp/dirha/data-fmllr-tri4/tr05_cont/data/feats_fmllr_tr05_cont.6.ark:10135369
015o030j /scratch/ravanelm/exp/dirha/data-fmllr-tri4/tr05_cont/data/feats_fmllr_tr05_cont.1.ark:44891137
20mc010j /scratch/ravanelm/exp/dirha/data-fmllr-tri4/tr05_cont/data/feats_fmllr_tr05_cont.7.ark:21200273
021c021e /scratch/ravanelm/exp/dirha/data-fmllr-tri4/tr05_cont/data/feats_fmllr_tr05_cont.4.ark:50211233
02bc020k /scratch/ravanelm/exp/dirha/data-fmllr-tri4/tr05_cont/data/feats_fmllr_tr05_cont.5.ark:39305657
405c020t /scratch/ravanelm/exp/dirha/data-fmllr-tri4/tr05_cont/data/feats_fmllr_tr05_cont.8.ark:24020473
20eo010b /scratch/ravanelm/exp/dirha/data-fmllr-tri4/tr05_cont/data/feats_fmllr_tr05_cont.6.ark:64234265
029o030o /scratch/ravanelm/exp/dirha/data-fmllr-tri4/tr05_cont/data/feats_fmllr_tr05_cont.5.ark:33452049
40jo0305 /scratch/ravanelm/exp/dirha/data-fmllr-tri4/tr05_cont/data/feats_fmllr_tr05_cont.10.ark:29494585
20oc0106 /scratch/ravanelm/exp/dirha/data-fmllr-tri4/tr05_cont/data/feats_fmllr_tr05_cont.7.ark:33108401
20cc0109 /scratch/ravanelm/exp/dirha/data-fmllr-tri4/tr05_cont/data/feats_fmllr_tr05_cont.6.ark:47903193
20cc010b /scratch/ravanelm/exp/dirha/data-fmllr-tri4/tr05_cont/data/feats_fmllr_tr05_cont.6.ark:48110921
20cc010c /scratch/ravanelm/exp/dirha/data-fmllr-tri4/tr05_cont/data/feats_fmllr_tr05_cont.6.ark:48235105
20dc0103 /scratch/ravanelm/exp/dirha/data-fmllr-tri4/tr05_cont/data/feats_fmllr_tr05_cont.6.ark:52966969
01ko031a /scratch/ravanelm/exp/dirha/data-fmllr-tri4/tr05_cont/data/feats_fmllr_tr05_cont.2.ark:103309321
01ic0212 /scratch/ravanelm/exp/dirha/data-fmllr-tri4/tr05_cont/data/feats_fmllr_tr05_cont.2.ark:67019585
40go030z /scratch/ravanelm/exp/dirha/data-fmllr-tri4/tr05_cont/data/feats_fmllr_tr05_cont.9.ark:81826353
01uc020h /scratch/ravanelm/exp/dirha/data-fmllr-tri4/tr05_cont/data/feats_fmllr_tr05_cont.3.ark:78911001
40lo030e /scratch/ravanelm/exp/dirha/data-fmllr-tri4/tr05_cont/data/feats_fmllr_tr05_cont.10.ark:56262849
40lc0215 /scratch/ravanelm/exp/dirha/data-fmllr-tri4/tr05_cont/data/feats_fmllr_tr05_cont.10.ark:53009953
01dc0201 /scratch/ravanelm/exp/dirha/data-fmllr-tri4/tr05_cont/data/feats_fmllr_tr05_cont.2.ark:14293417
01qo030r /scratch/ravanelm/exp/dirha/data-fmllr-tri4/tr05_cont/data/feats_fmllr_tr05_cont.3.ark:48624297
406o0315 /scratch/ravanelm/exp/dirha/data-fmllr-tri4/tr05_cont/data/feats_fmllr_tr05_cont.8.ark:41897529
40ac0208 /scratch/ravanelm/exp/dirha/data-fmllr-tri4/tr05_cont/data/feats_fmllr_tr05_cont.9.ark:1039537
01uo031d /scratch/ravanelm/exp/dirha/data-fmllr-tri4/tr05_cont/data/feats_fmllr_tr05_cont.3.ark:90466753
20ao010f /scratch/ravanelm/exp/dirha/data-fmllr-tri4/tr05_cont/data/feats_fmllr_tr05_cont.6.ark:37806449
013c0211 /scratch/ravanelm/exp/dirha/data-fmllr-tri4/tr05_cont/data/feats_fmllr_tr05_cont.1.ark:18235297
015o030g /scratch/ravanelm/exp/dirha/data-fmllr-tri4/tr05_cont/data/feats_fmllr_tr05_cont.1.ark:44554425
206c010g /scratch/ravanelm/exp/dirha/data-fmllr-tri4/tr05_cont/data/feats_fmllr_tr05_cont.6.ark:8395217
02co0315 /scratch/ravanelm/exp/dirha/data-fmllr-tri4/tr05_cont/data/feats_fmllr_tr05_cont.5.ark:60116321
027c0208 /scratch/ravanelm/exp/dirha/data-fmllr-tri4/tr05_cont/data/feats_fmllr_tr05_cont.5.ark:872177
01jc020m /scratch/ravanelm/exp/dirha/data-fmllr-tri4/tr05_cont/data/feats_fmllr_tr05_cont.2.ark:78428209
20hc010f /scratch/ravanelm/exp/dirha/data-fmllr-tri4/tr05_cont/data/feats_fmllr_tr05_cont.7.ark:1070105
014o030r /scratch/ravanelm/exp/dirha/data-fmllr-tri4/tr05_cont/data/feats_fmllr_tr05_cont.1.ark:34262937
017c0218 /scratch/ravanelm/exp/dirha/data-fmllr-tri4/tr05_cont/data/feats_fmllr_tr05_cont.1.ark:62626961
40mc020z /scratch/ravanelm/exp/dirha/data-fmllr-tri4/tr05_cont/data/feats_fmllr_tr05_cont.10.ark:66268601
40jc020e /scratch/ravanelm/exp/dirha/data-fmllr-tri4/tr05_cont/data/feats_fmllr_tr05_cont.10.ark:24912641
024c020d /scratch/ravanelm/exp/dirha/data-fmllr-tri4/tr05_cont/data/feats_fmllr_tr05_cont.4.ark:57867993
406c020e /scratch/ravanelm/exp/dirha/data-fmllr-tri4/tr05_cont/data/feats_fmllr_tr05_cont.8.ark:33360001
40mc021a /scratch/ravanelm/exp/dirha/data-fmllr-tri4/tr05_cont/data/feats_fmllr_tr05_cont.10.ark:67457985
408o0305 /scratch/ravanelm/exp/dirha/data-fmllr-tri4/tr05_cont/data/feats_fmllr_tr05_cont.8.ark:60942289
017c021c /scratch/ravanelm/exp/dirha/data-fmllr-tri4/tr05_cont/data/feats_fmllr_tr05_cont.1.ark:62977937
02cc020i /scratch/ravanelm/exp/dirha/data-fmllr-tri4/tr05_cont/data/feats_fmllr_tr05_cont.5.ark:51704057
404c020x /scratch/ravanelm/exp/dirha/data-fmllr-tri4/tr05_cont/data/feats_fmllr_tr05_cont.8.ark:13715449
01go030f /scratch/ravanelm/exp/dirha/data-fmllr-tri4/tr05_cont/data/feats_fmllr_tr05_cont.2.ark:57302745
01zo030b /scratch/ravanelm/exp/dirha/data-fmllr-tri4/tr05_cont/data/feats_fmllr_tr05_cont.4.ark:30826065
40cc020r /scratch/ravanelm/exp/dirha/data-fmllr-tri4/tr05_cont/data/feats_fmllr_tr05_cont.9.ark:26942849
020o030b /scratch/ravanelm/exp/dirha/data-fmllr-tri4/tr05_cont/data/feats_fmllr_tr05_cont.4.ark:42082249
029o030s /scratch/ravanelm/exp/dirha/data-fmllr-tri4/tr05_cont/data/feats_fmllr_tr05_cont.5.ark:34046065
