40do031c /scratch/ravanelm/exp/dirha/fbank/raw_fbank_tr05_cont.4.ark:19375669
20lo0104 /scratch/ravanelm/exp/dirha/fbank/raw_fbank_tr05_cont.3.ark:25950309
209c0108 /scratch/ravanelm/exp/dirha/fbank/raw_fbank_tr05_cont.3.ark:9462199
207c010b /scratch/ravanelm/exp/dirha/fbank/raw_fbank_tr05_cont.3.ark:6212289
017o0304 /scratch/ravanelm/exp/dirha/fbank/raw_fbank_tr05_cont.1.ark:16176939
408c0212 /scratch/ravanelm/exp/dirha/fbank/raw_fbank_tr05_cont.4.ark:3245759
40ho0309 /scratch/ravanelm/exp/dirha/fbank/raw_fbank_tr05_cont.4.ark:30671089
01po031c /scratch/ravanelm/exp/dirha/fbank/raw_fbank_tr05_cont.2.ark:3614139
026o031c /scratch/ravanelm/exp/dirha/fbank/raw_fbank_tr05_cont.2.ark:36594959
029c021d /scratch/ravanelm/exp/dirha/fbank/raw_fbank_tr05_cont.2.ark:44162909
40mc021a /scratch/ravanelm/exp/dirha/fbank/raw_fbank_tr05_cont.4.ark:46200989
20mc0109 /scratch/ravanelm/exp/dirha/fbank/raw_fbank_tr05_cont.3.ark:27211719
20fo0107 /scratch/ravanelm/exp/dirha/fbank/raw_fbank_tr05_cont.3.ark:20177029
407c0216 /scratch/ravanelm/exp/dirha/fbank/raw_fbank_tr05_cont.4.ark:247749
401o0312 /scratch/ravanelm/exp/dirha/fbank/raw_fbank_tr05_cont.3.ark:42385709
40ec0217 /scratch/ravanelm/exp/dirha/fbank/raw_fbank_tr05_cont.4.ark:20352029
01jo0317 /scratch/ravanelm/exp/dirha/fbank/raw_fbank_tr05_cont.1.ark:46241509
017o030s /scratch/ravanelm/exp/dirha/fbank/raw_fbank_tr05_cont.1.ark:16929459
20nc0103 /scratch/ravanelm/exp/dirha/fbank/raw_fbank_tr05_cont.3.ark:28501769
20no010a /scratch/ravanelm/exp/dirha/fbank/raw_fbank_tr05_cont.3.ark:29580809
205c0107 /scratch/ravanelm/exp/dirha/fbank/raw_fbank_tr05_cont.3.ark:2592149
01ko0302 /scratch/ravanelm/exp/dirha/fbank/raw_fbank_tr05_cont.1.ark:48128349
20ic010n /scratch/ravanelm/exp/dirha/fbank/raw_fbank_tr05_cont.3.ark:23972279
20bc0106 /scratch/ravanelm/exp/dirha/fbank/raw_fbank_tr05_cont.3.ark:12596929
021o030z /scratch/ravanelm/exp/dirha/fbank/raw_fbank_tr05_cont.2.ark:30421009
20ho0102 /scratch/ravanelm/exp/dirha/fbank/raw_fbank_tr05_cont.3.ark:22634659
401o030s /scratch/ravanelm/exp/dirha/fbank/raw_fbank_tr05_cont.3.ark:42127279
024c0208 /scratch/ravanelm/exp/dirha/fbank/raw_fbank_tr05_cont.2.ark:31101889
20oc010o /scratch/ravanelm/exp/dirha/fbank/raw_fbank_tr05_cont.3.ark:30881639
027c0205 /scratch/ravanelm/exp/dirha/fbank/raw_fbank_tr05_cont.2.ark:36773269
01lc020i /scratch/ravanelm/exp/dirha/fbank/raw_fbank_tr05_cont.1.ark:50862509
20no010d /scratch/ravanelm/exp/dirha/fbank/raw_fbank_tr05_cont.3.ark:29713939
408o0308 /scratch/ravanelm/exp/dirha/fbank/raw_fbank_tr05_cont.4.ark:3798609
20go010m /scratch/ravanelm/exp/dirha/fbank/raw_fbank_tr05_cont.3.ark:21930999
40jc021d /scratch/ravanelm/exp/dirha/fbank/raw_fbank_tr05_cont.4.ark:36431319
401c0202 /scratch/ravanelm/exp/dirha/fbank/raw_fbank_tr05_cont.3.ark:39629969
20cc010l /scratch/ravanelm/exp/dirha/fbank/raw_fbank_tr05_cont.3.ark:14821229
20ro010c /scratch/ravanelm/exp/dirha/fbank/raw_fbank_tr05_cont.3.ark:36083759
024o030h /scratch/ravanelm/exp/dirha/fbank/raw_fbank_tr05_cont.2.ark:32839219
40pc0209 /scratch/ravanelm/exp/dirha/fbank/raw_fbank_tr05_cont.4.ark:51600779
407o030w /scratch/ravanelm/exp/dirha/fbank/raw_fbank_tr05_cont.4.ark:1882029
20fc010l /scratch/ravanelm/exp/dirha/fbank/raw_fbank_tr05_cont.3.ark:19794029
40nc020b /scratch/ravanelm/exp/dirha/fbank/raw_fbank_tr05_cont.4.ark:48332209
01lo030l /scratch/ravanelm/exp/dirha/fbank/raw_fbank_tr05_cont.1.ark:52799449
01lo030p /scratch/ravanelm/exp/dirha/fbank/raw_fbank_tr05_cont.1.ark:52942529
40bo030h /scratch/ravanelm/exp/dirha/fbank/raw_fbank_tr05_cont.4.ark:12935099
011c0218 /scratch/ravanelm/exp/dirha/fbank/raw_fbank_tr05_cont.1.ark:1218179
40mo0301 /scratch/ravanelm/exp/dirha/fbank/raw_fbank_tr05_cont.4.ark:46388679
011o030k /scratch/ravanelm/exp/dirha/fbank/raw_fbank_tr05_cont.1.ark:2193039
021c021d /scratch/ravanelm/exp/dirha/fbank/raw_fbank_tr05_cont.2.ark:29308339
20to0101 /scratch/ravanelm/exp/dirha/fbank/raw_fbank_tr05_cont.3.ark:37425099
406c020f /scratch/ravanelm/exp/dirha/fbank/raw_fbank_tr05_cont.3.ark:51348889
40nc021g /scratch/ravanelm/exp/dirha/fbank/raw_fbank_tr05_cont.4.ark:49556639
40ao030s /scratch/ravanelm/exp/dirha/fbank/raw_fbank_tr05_cont.4.ark:10167139
01kc0215 /scratch/ravanelm/exp/dirha/fbank/raw_fbank_tr05_cont.1.ark:47751259
01io030b /scratch/ravanelm/exp/dirha/fbank/raw_fbank_tr05_cont.1.ark:41563019
01jc0202 /scratch/ravanelm/exp/dirha/fbank/raw_fbank_tr05_cont.1.ark:43054199
208c010j /scratch/ravanelm/exp/dirha/fbank/raw_fbank_tr05_cont.3.ark:8134249
015o030t /scratch/ravanelm/exp/dirha/fbank/raw_fbank_tr05_cont.1.ark:11740459
208c010c /scratch/ravanelm/exp/dirha/fbank/raw_fbank_tr05_cont.3.ark:7953639
01bo0317 /scratch/ravanelm/exp/dirha/fbank/raw_fbank_tr05_cont.1.ark:27104779
027c0216 /scratch/ravanelm/exp/dirha/fbank/raw_fbank_tr05_cont.2.ark:37734019
013c0201 /scratch/ravanelm/exp/dirha/fbank/raw_fbank_tr05_cont.1.ark:3528959
014c021f /scratch/ravanelm/exp/dirha/fbank/raw_fbank_tr05_cont.1.ark:7697039
20vc010b /scratch/ravanelm/exp/dirha/fbank/raw_fbank_tr05_cont.3.ark:38392869
20nc010j /scratch/ravanelm/exp/dirha/fbank/raw_fbank_tr05_cont.3.ark:29021049
011c021b /scratch/ravanelm/exp/dirha/fbank/raw_fbank_tr05_cont.1.ark:1307749
01yo030g /scratch/ravanelm/exp/dirha/fbank/raw_fbank_tr05_cont.2.ark:21416689
01ko0318 /scratch/ravanelm/exp/dirha/fbank/raw_fbank_tr05_cont.1.ark:49825329
408o0305 /scratch/ravanelm/exp/dirha/fbank/raw_fbank_tr05_cont.4.ark:3699399
01do030p /scratch/ravanelm/exp/dirha/fbank/raw_fbank_tr05_cont.1.ark:29537059
01ec020d /scratch/ravanelm/exp/dirha/fbank/raw_fbank_tr05_cont.1.ark:30757269
01lo030a /scratch/ravanelm/exp/dirha/fbank/raw_fbank_tr05_cont.1.ark:52266079
01pc0219 /scratch/ravanelm/exp/dirha/fbank/raw_fbank_tr05_cont.2.ark:1669599
020c0212 /scratch/ravanelm/exp/dirha/fbank/raw_fbank_tr05_cont.2.ark:26836199
029o0309 /scratch/ravanelm/exp/dirha/fbank/raw_fbank_tr05_cont.2.ark:44551389
01qc0202 /scratch/ravanelm/exp/dirha/fbank/raw_fbank_tr05_cont.2.ark:3683919
20qc0108 /scratch/ravanelm/exp/dirha/fbank/raw_fbank_tr05_cont.3.ark:33480539
40go0314 /scratch/ravanelm/exp/dirha/fbank/raw_fbank_tr05_cont.4.ark:28749789
015o030k /scratch/ravanelm/exp/dirha/fbank/raw_fbank_tr05_cont.1.ark:11403509
01gc020d /scratch/ravanelm/exp/dirha/fbank/raw_fbank_tr05_cont.1.ark:36731489
20qc010e /scratch/ravanelm/exp/dirha/fbank/raw_fbank_tr05_cont.3.ark:33689039
40jo030i /scratch/ravanelm/exp/dirha/fbank/raw_fbank_tr05_cont.4.ark:37080129
011o0306 /scratch/ravanelm/exp/dirha/fbank/raw_fbank_tr05_cont.1.ark:1645179
20to010o /scratch/ravanelm/exp/dirha/fbank/raw_fbank_tr05_cont.3.ark:38040589
20io0108 /scratch/ravanelm/exp/dirha/fbank/raw_fbank_tr05_cont.3.ark:24302149
40lo031f /scratch/ravanelm/exp/dirha/fbank/raw_fbank_tr05_cont.4.ark:44968979
401c0212 /scratch/ravanelm/exp/dirha/fbank/raw_fbank_tr05_cont.3.ark:40666329
406o030j /scratch/ravanelm/exp/dirha/fbank/raw_fbank_tr05_cont.3.ark:52705109
01tc0213 /scratch/ravanelm/exp/dirha/fbank/raw_fbank_tr05_cont.2.ark:10945439
024c020l /scratch/ravanelm/exp/dirha/fbank/raw_fbank_tr05_cont.2.ark:31534919
403o0316 /scratch/ravanelm/exp/dirha/fbank/raw_fbank_tr05_cont.3.ark:45385229
405o0302 /scratch/ravanelm/exp/dirha/fbank/raw_fbank_tr05_cont.3.ark:49518489
02bo0304 /scratch/ravanelm/exp/dirha/fbank/raw_fbank_tr05_cont.2.ark:47559259
01wo0301 /scratch/ravanelm/exp/dirha/fbank/raw_fbank_tr05_cont.2.ark:18007439
40ao030h /scratch/ravanelm/exp/dirha/fbank/raw_fbank_tr05_cont.4.ark:9817329
40bc020c /scratch/ravanelm/exp/dirha/fbank/raw_fbank_tr05_cont.4.ark:11216749
408o0304 /scratch/ravanelm/exp/dirha/fbank/raw_fbank_tr05_cont.4.ark:3654209
01rc0219 /scratch/ravanelm/exp/dirha/fbank/raw_fbank_tr05_cont.2.ark:7982589
015c021a /scratch/ravanelm/exp/dirha/fbank/raw_fbank_tr05_cont.1.ark:10616829
40lo0302 /scratch/ravanelm/exp/dirha/fbank/raw_fbank_tr05_cont.4.ark:42956229
40pc0218 /scratch/ravanelm/exp/dirha/fbank/raw_fbank_tr05_cont.4.ark:52425429
40mo030w /scratch/ravanelm/exp/dirha/fbank/raw_fbank_tr05_cont.4.ark:47494049
206c010e /scratch/ravanelm/exp/dirha/fbank/raw_fbank_tr05_cont.3.ark:4514639
015o030g /scratch/ravanelm/exp/dirha/fbank/raw_fbank_tr05_cont.1.ark:11267269
021o0310 /scratch/ravanelm/exp/dirha/fbank/raw_fbank_tr05_cont.2.ark:30457679
20ec010d /scratch/ravanelm/exp/dirha/fbank/raw_fbank_tr05_cont.3.ark:17904689
01mc0209 /scratch/ravanelm/exp/dirha/fbank/raw_fbank_tr05_cont.1.ark:54264159
01fo0318 /scratch/ravanelm/exp/dirha/fbank/raw_fbank_tr05_cont.1.ark:36223419
20do010l /scratch/ravanelm/exp/dirha/fbank/raw_fbank_tr05_cont.3.ark:17274439
02ec0203 /scratch/ravanelm/exp/dirha/fbank/raw_fbank_tr05_cont.2.ark:52323699
029c020y /scratch/ravanelm/exp/dirha/fbank/raw_fbank_tr05_cont.2.ark:43808379
029c0212 /scratch/ravanelm/exp/dirha/fbank/raw_fbank_tr05_cont.2.ark:43883619
20qc010n /scratch/ravanelm/exp/dirha/fbank/raw_fbank_tr05_cont.3.ark:33931629
40nc0203 /scratch/ravanelm/exp/dirha/fbank/raw_fbank_tr05_cont.4.ark:48115769
027o030n /scratch/ravanelm/exp/dirha/fbank/raw_fbank_tr05_cont.2.ark:38907679
01jo030a /scratch/ravanelm/exp/dirha/fbank/raw_fbank_tr05_cont.1.ark:44925599
01dc0213 /scratch/ravanelm/exp/dirha/fbank/raw_fbank_tr05_cont.1.ark:28403369
40bo030p /scratch/ravanelm/exp/dirha/fbank/raw_fbank_tr05_cont.4.ark:13203939
02bo0309 /scratch/ravanelm/exp/dirha/fbank/raw_fbank_tr05_cont.2.ark:47741449
20mc010c /scratch/ravanelm/exp/dirha/fbank/raw_fbank_tr05_cont.3.ark:27290849
40dc020g /scratch/ravanelm/exp/dirha/fbank/raw_fbank_tr05_cont.4.ark:16879349
404o0305 /scratch/ravanelm/exp/dirha/fbank/raw_fbank_tr05_cont.3.ark:46940299
20io010d /scratch/ravanelm/exp/dirha/fbank/raw_fbank_tr05_cont.3.ark:24461899
40cc020a /scratch/ravanelm/exp/dirha/fbank/raw_fbank_tr05_cont.4.ark:14199789
014c021e /scratch/ravanelm/exp/dirha/fbank/raw_fbank_tr05_cont.1.ark:7670329
40gc020e /scratch/ravanelm/exp/dirha/fbank/raw_fbank_tr05_cont.4.ark:25657039
028o030z /scratch/ravanelm/exp/dirha/fbank/raw_fbank_tr05_cont.2.ark:42317899
20oo0105 /scratch/ravanelm/exp/dirha/fbank/raw_fbank_tr05_cont.3.ark:31029949
40ec0202 /scratch/ravanelm/exp/dirha/fbank/raw_fbank_tr05_cont.4.ark:19467919
01rc0211 /scratch/ravanelm/exp/dirha/fbank/raw_fbank_tr05_cont.2.ark:7800269
027o0309 /scratch/ravanelm/exp/dirha/fbank/raw_fbank_tr05_cont.2.ark:38342339
20ic010g /scratch/ravanelm/exp/dirha/fbank/raw_fbank_tr05_cont.3.ark:23794789
01mo030q /scratch/ravanelm/exp/dirha/fbank/raw_fbank_tr05_cont.1.ark:56148599
405c020i /scratch/ravanelm/exp/dirha/fbank/raw_fbank_tr05_cont.3.ark:48694919
02bo030b /scratch/ravanelm/exp/dirha/fbank/raw_fbank_tr05_cont.2.ark:47807949
40bo030j /scratch/ravanelm/exp/dirha/fbank/raw_fbank_tr05_cont.4.ark:13000039
01io0313 /scratch/ravanelm/exp/dirha/fbank/raw_fbank_tr05_cont.1.ark:42606579
021o0301 /scratch/ravanelm/exp/dirha/fbank/raw_fbank_tr05_cont.2.ark:29384229
20rc0102 /scratch/ravanelm/exp/dirha/fbank/raw_fbank_tr05_cont.3.ark:35045889
01lc0205 /scratch/ravanelm/exp/dirha/fbank/raw_fbank_tr05_cont.1.ark:50386999
40mc020l /scratch/ravanelm/exp/dirha/fbank/raw_fbank_tr05_cont.4.ark:45547759
020c020w /scratch/ravanelm/exp/dirha/fbank/raw_fbank_tr05_cont.2.ark:26736219
40kc0201 /scratch/ravanelm/exp/dirha/fbank/raw_fbank_tr05_cont.4.ark:38248949
403c0217 /scratch/ravanelm/exp/dirha/fbank/raw_fbank_tr05_cont.3.ark:43836209
01qo030o /scratch/ravanelm/exp/dirha/fbank/raw_fbank_tr05_cont.2.ark:5853319
408c020f /scratch/ravanelm/exp/dirha/fbank/raw_fbank_tr05_cont.4.ark:2744139
20eo010o /scratch/ravanelm/exp/dirha/fbank/raw_fbank_tr05_cont.3.ark:19161259
01jo0304 /scratch/ravanelm/exp/dirha/fbank/raw_fbank_tr05_cont.1.ark:44716099
01tc021g /scratch/ravanelm/exp/dirha/fbank/raw_fbank_tr05_cont.2.ark:11294989
40ho0319 /scratch/ravanelm/exp/dirha/fbank/raw_fbank_tr05_cont.4.ark:31875969
40bo0309 /scratch/ravanelm/exp/dirha/fbank/raw_fbank_tr05_cont.4.ark:12658979
01ec0203 /scratch/ravanelm/exp/dirha/fbank/raw_fbank_tr05_cont.1.ark:30476929
01ko030z /scratch/ravanelm/exp/dirha/fbank/raw_fbank_tr05_cont.1.ark:49481659
40po0301 /scratch/ravanelm/exp/dirha/fbank/raw_fbank_tr05_cont.4.ark:52576949
027c020m /scratch/ravanelm/exp/dirha/fbank/raw_fbank_tr05_cont.2.ark:37190539
40bc020o /scratch/ravanelm/exp/dirha/fbank/raw_fbank_tr05_cont.4.ark:11513669
02bc020k /scratch/ravanelm/exp/dirha/fbank/raw_fbank_tr05_cont.2.ark:46557449
014o0306 /scratch/ravanelm/exp/dirha/fbank/raw_fbank_tr05_cont.1.ark:7927079
40hc020s /scratch/ravanelm/exp/dirha/fbank/raw_fbank_tr05_cont.4.ark:29829449
40ac020r /scratch/ravanelm/exp/dirha/fbank/raw_fbank_tr05_cont.4.ark:8650009
01mc020n /scratch/ravanelm/exp/dirha/fbank/raw_fbank_tr05_cont.1.ark:54623259
024o030r /scratch/ravanelm/exp/dirha/fbank/raw_fbank_tr05_cont.2.ark:33111159
20ac010j /scratch/ravanelm/exp/dirha/fbank/raw_fbank_tr05_cont.3.ark:11228459
01ic0215 /scratch/ravanelm/exp/dirha/fbank/raw_fbank_tr05_cont.1.ark:40831029
40ko030f /scratch/ravanelm/exp/dirha/fbank/raw_fbank_tr05_cont.4.ark:40096289
01pc0204 /scratch/ravanelm/exp/dirha/fbank/raw_fbank_tr05_cont.2.ark:497009
40cc021b /scratch/ravanelm/exp/dirha/fbank/raw_fbank_tr05_cont.4.ark:15021979
01qc020d /scratch/ravanelm/exp/dirha/fbank/raw_fbank_tr05_cont.2.ark:4056609
026o030k /scratch/ravanelm/exp/dirha/fbank/raw_fbank_tr05_cont.2.ark:35727639
406o0302 /scratch/ravanelm/exp/dirha/fbank/raw_fbank_tr05_cont.3.ark:52255759
01ko030q /scratch/ravanelm/exp/dirha/fbank/raw_fbank_tr05_cont.1.ark:49130589
407c020m /scratch/ravanelm/exp/dirha/fbank/raw_fbank_tr05_cont.3.ark:54311149
020o030l /scratch/ravanelm/exp/dirha/fbank/raw_fbank_tr05_cont.2.ark:27393999
01yc020l /scratch/ravanelm/exp/dirha/fbank/raw_fbank_tr05_cont.2.ark:20093079
40dc020c /scratch/ravanelm/exp/dirha/fbank/raw_fbank_tr05_cont.4.ark:16758309
40ac0217 /scratch/ravanelm/exp/dirha/fbank/raw_fbank_tr05_cont.4.ark:9092449
405o0315 /scratch/ravanelm/exp/dirha/fbank/raw_fbank_tr05_cont.3.ark:50627539
20oc010k /scratch/ravanelm/exp/dirha/fbank/raw_fbank_tr05_cont.3.ark:30813119
40dc020v /scratch/ravanelm/exp/dirha/fbank/raw_fbank_tr05_cont.4.ark:17361119
027o030b /scratch/ravanelm/exp/dirha/fbank/raw_fbank_tr05_cont.2.ark:38425399
027o0310 /scratch/ravanelm/exp/dirha/fbank/raw_fbank_tr05_cont.2.ark:39403909
020c020y /scratch/ravanelm/exp/dirha/fbank/raw_fbank_tr05_cont.2.ark:26776319
027o030r /scratch/ravanelm/exp/dirha/fbank/raw_fbank_tr05_cont.2.ark:39028559
02co0316 /scratch/ravanelm/exp/dirha/fbank/raw_fbank_tr05_cont.2.ark:51844209
204o0102 /scratch/ravanelm/exp/dirha/fbank/raw_fbank_tr05_cont.3.ark:1619379
01uo030b /scratch/ravanelm/exp/dirha/fbank/raw_fbank_tr05_cont.2.ark:15135059
20cc0109 /scratch/ravanelm/exp/dirha/fbank/raw_fbank_tr05_cont.3.ark:14537749
40go031b /scratch/ravanelm/exp/dirha/fbank/raw_fbank_tr05_cont.4.ark:29015479
027c021f /scratch/ravanelm/exp/dirha/fbank/raw_fbank_tr05_cont.2.ark:37994769
016o031b /scratch/ravanelm/exp/dirha/fbank/raw_fbank_tr05_cont.1.ark:14632219
403o0315 /scratch/ravanelm/exp/dirha/fbank/raw_fbank_tr05_cont.3.ark:45364839
01uc020b /scratch/ravanelm/exp/dirha/fbank/raw_fbank_tr05_cont.2.ark:13483329
01jo030z /scratch/ravanelm/exp/dirha/fbank/raw_fbank_tr05_cont.1.ark:45866389
40jc0202 /scratch/ravanelm/exp/dirha/fbank/raw_fbank_tr05_cont.4.ark:35175029
01jo030n /scratch/ravanelm/exp/dirha/fbank/raw_fbank_tr05_cont.1.ark:45421749
40jc021b /scratch/ravanelm/exp/dirha/fbank/raw_fbank_tr05_cont.4.ark:36380819
206o010a /scratch/ravanelm/exp/dirha/fbank/raw_fbank_tr05_cont.3.ark:5081019
016o030w /scratch/ravanelm/exp/dirha/fbank/raw_fbank_tr05_cont.1.ark:14203649
01yo031c /scratch/ravanelm/exp/dirha/fbank/raw_fbank_tr05_cont.2.ark:22527609
20fo010n /scratch/ravanelm/exp/dirha/fbank/raw_fbank_tr05_cont.3.ark:20648629
027c0204 /scratch/ravanelm/exp/dirha/fbank/raw_fbank_tr05_cont.2.ark:36733159
40cc020i /scratch/ravanelm/exp/dirha/fbank/raw_fbank_tr05_cont.4.ark:14396229
014o0304 /scratch/ravanelm/exp/dirha/fbank/raw_fbank_tr05_cont.1.ark:7853939
015o030w /scratch/ravanelm/exp/dirha/fbank/raw_fbank_tr05_cont.1.ark:11793549
40pc020b /scratch/ravanelm/exp/dirha/fbank/raw_fbank_tr05_cont.4.ark:51635599
013c0209 /scratch/ravanelm/exp/dirha/fbank/raw_fbank_tr05_cont.1.ark:3797559
40io030q /scratch/ravanelm/exp/dirha/fbank/raw_fbank_tr05_cont.4.ark:34322359
01yc0202 /scratch/ravanelm/exp/dirha/fbank/raw_fbank_tr05_cont.2.ark:19539869
01jc020i /scratch/ravanelm/exp/dirha/fbank/raw_fbank_tr05_cont.1.ark:43535039
40ao031d /scratch/ravanelm/exp/dirha/fbank/raw_fbank_tr05_cont.4.ark:10820409
404c020o /scratch/ravanelm/exp/dirha/fbank/raw_fbank_tr05_cont.3.ark:46155219
20ic0101 /scratch/ravanelm/exp/dirha/fbank/raw_fbank_tr05_cont.3.ark:23384099
40ac0216 /scratch/ravanelm/exp/dirha/fbank/raw_fbank_tr05_cont.4.ark:9072499
01wo030c /scratch/ravanelm/exp/dirha/fbank/raw_fbank_tr05_cont.2.ark:18312209
408c0215 /scratch/ravanelm/exp/dirha/fbank/raw_fbank_tr05_cont.4.ark:3299049
015c021g /scratch/ravanelm/exp/dirha/fbank/raw_fbank_tr05_cont.1.ark:10726729
20dc0102 /scratch/ravanelm/exp/dirha/fbank/raw_fbank_tr05_cont.3.ark:15781759
20vc010m /scratch/ravanelm/exp/dirha/fbank/raw_fbank_tr05_cont.3.ark:38676399
01fo0308 /scratch/ravanelm/exp/dirha/fbank/raw_fbank_tr05_cont.1.ark:35053819
011c020v /scratch/ravanelm/exp/dirha/fbank/raw_fbank_tr05_cont.1.ark:832709
027c020x /scratch/ravanelm/exp/dirha/fbank/raw_fbank_tr05_cont.2.ark:37452069
40bc0217 /scratch/ravanelm/exp/dirha/fbank/raw_fbank_tr05_cont.4.ark:12058519
40bo030g /scratch/ravanelm/exp/dirha/fbank/raw_fbank_tr05_cont.4.ark:12896629
40kc020u /scratch/ravanelm/exp/dirha/fbank/raw_fbank_tr05_cont.4.ark:39079459
20qo010a /scratch/ravanelm/exp/dirha/fbank/raw_fbank_tr05_cont.3.ark:34395909
01ko030n /scratch/ravanelm/exp/dirha/fbank/raw_fbank_tr05_cont.1.ark:49011619
017o030m /scratch/ravanelm/exp/dirha/fbank/raw_fbank_tr05_cont.1.ark:16740359
01ko0316 /scratch/ravanelm/exp/dirha/fbank/raw_fbank_tr05_cont.1.ark:49740949
409c020h /scratch/ravanelm/exp/dirha/fbank/raw_fbank_tr05_cont.4.ark:5321039
011o030c /scratch/ravanelm/exp/dirha/fbank/raw_fbank_tr05_cont.1.ark:1858879
01mc020f /scratch/ravanelm/exp/dirha/fbank/raw_fbank_tr05_cont.1.ark:54387419
405c0215 /scratch/ravanelm/exp/dirha/fbank/raw_fbank_tr05_cont.3.ark:49206249
02cc020j /scratch/ravanelm/exp/dirha/fbank/raw_fbank_tr05_cont.2.ark:49720999
01qo0315 /scratch/ravanelm/exp/dirha/fbank/raw_fbank_tr05_cont.2.ark:6369029
40gc0219 /scratch/ravanelm/exp/dirha/fbank/raw_fbank_tr05_cont.4.ark:26743849
401o030x /scratch/ravanelm/exp/dirha/fbank/raw_fbank_tr05_cont.3.ark:42256829
01ec020n /scratch/ravanelm/exp/dirha/fbank/raw_fbank_tr05_cont.1.ark:31007409
02bc020d /scratch/ravanelm/exp/dirha/fbank/raw_fbank_tr05_cont.2.ark:46360919
20dc010m /scratch/ravanelm/exp/dirha/fbank/raw_fbank_tr05_cont.3.ark:16412759
40dc021e /scratch/ravanelm/exp/dirha/fbank/raw_fbank_tr05_cont.4.ark:17891329
40co0306 /scratch/ravanelm/exp/dirha/fbank/raw_fbank_tr05_cont.4.ark:15260729
01io031d /scratch/ravanelm/exp/dirha/fbank/raw_fbank_tr05_cont.1.ark:42902159
40go030b /scratch/ravanelm/exp/dirha/fbank/raw_fbank_tr05_cont.4.ark:27437599
018o030n /scratch/ravanelm/exp/dirha/fbank/raw_fbank_tr05_cont.1.ark:20031049
02cc020b /scratch/ravanelm/exp/dirha/fbank/raw_fbank_tr05_cont.2.ark:49534959
01do030s /scratch/ravanelm/exp/dirha/fbank/raw_fbank_tr05_cont.1.ark:29632389
01go030v /scratch/ravanelm/exp/dirha/fbank/raw_fbank_tr05_cont.1.ark:38851049
01ro031b /scratch/ravanelm/exp/dirha/fbank/raw_fbank_tr05_cont.2.ark:9533009
01kc0210 /scratch/ravanelm/exp/dirha/fbank/raw_fbank_tr05_cont.1.ark:47605109
405c020o /scratch/ravanelm/exp/dirha/fbank/raw_fbank_tr05_cont.3.ark:48844819
028c020j /scratch/ravanelm/exp/dirha/fbank/raw_fbank_tr05_cont.2.ark:40187249
20hc010o /scratch/ravanelm/exp/dirha/fbank/raw_fbank_tr05_cont.3.ark:22540619
20tc0101 /scratch/ravanelm/exp/dirha/fbank/raw_fbank_tr05_cont.3.ark:36718719
404c0207 /scratch/ravanelm/exp/dirha/fbank/raw_fbank_tr05_cont.3.ark:45710349
408c020w /scratch/ravanelm/exp/dirha/fbank/raw_fbank_tr05_cont.4.ark:3152129
407o0309 /scratch/ravanelm/exp/dirha/fbank/raw_fbank_tr05_cont.4.ark:949099
018o0315 /scratch/ravanelm/exp/dirha/fbank/raw_fbank_tr05_cont.1.ark:20787989
02co031c /scratch/ravanelm/exp/dirha/fbank/raw_fbank_tr05_cont.2.ark:52102469
20fo010a /scratch/ravanelm/exp/dirha/fbank/raw_fbank_tr05_cont.3.ark:20293439
01uc020p /scratch/ravanelm/exp/dirha/fbank/raw_fbank_tr05_cont.2.ark:13894349
406o031b /scratch/ravanelm/exp/dirha/fbank/raw_fbank_tr05_cont.3.ark:53682349
013c021e /scratch/ravanelm/exp/dirha/fbank/raw_fbank_tr05_cont.1.ark:4915389
011c020s /scratch/ravanelm/exp/dirha/fbank/raw_fbank_tr05_cont.1.ark:764699
019o030n /scratch/ravanelm/exp/dirha/fbank/raw_fbank_tr05_cont.1.ark:23129239
401c020c /scratch/ravanelm/exp/dirha/fbank/raw_fbank_tr05_cont.3.ark:39968269
404o030j /scratch/ravanelm/exp/dirha/fbank/raw_fbank_tr05_cont.3.ark:47369159
020c0211 /scratch/ravanelm/exp/dirha/fbank/raw_fbank_tr05_cont.2.ark:26822249
20oo010h /scratch/ravanelm/exp/dirha/fbank/raw_fbank_tr05_cont.3.ark:31413509
40bc0203 /scratch/ravanelm/exp/dirha/fbank/raw_fbank_tr05_cont.4.ark:10980159
01eo0318 /scratch/ravanelm/exp/dirha/fbank/raw_fbank_tr05_cont.1.ark:33131939
406c0207 /scratch/ravanelm/exp/dirha/fbank/raw_fbank_tr05_cont.3.ark:51124729
40gc0216 /scratch/ravanelm/exp/dirha/fbank/raw_fbank_tr05_cont.4.ark:26632359
017c020e /scratch/ravanelm/exp/dirha/fbank/raw_fbank_tr05_cont.1.ark:15120359
40cc020f /scratch/ravanelm/exp/dirha/fbank/raw_fbank_tr05_cont.4.ark:14312339
204o010e /scratch/ravanelm/exp/dirha/fbank/raw_fbank_tr05_cont.3.ark:1955899
40lo030c /scratch/ravanelm/exp/dirha/fbank/raw_fbank_tr05_cont.4.ark:43288849
01wo0305 /scratch/ravanelm/exp/dirha/fbank/raw_fbank_tr05_cont.2.ark:18088999
01gc020h /scratch/ravanelm/exp/dirha/fbank/raw_fbank_tr05_cont.1.ark:36869289
20pc010p /scratch/ravanelm/exp/dirha/fbank/raw_fbank_tr05_cont.3.ark:32393039
40io030t /scratch/ravanelm/exp/dirha/fbank/raw_fbank_tr05_cont.4.ark:34403169
021c021a /scratch/ravanelm/exp/dirha/fbank/raw_fbank_tr05_cont.2.ark:29267249
209c010m /scratch/ravanelm/exp/dirha/fbank/raw_fbank_tr05_cont.3.ark:9779739
40po030i /scratch/ravanelm/exp/dirha/fbank/raw_fbank_tr05_cont.4.ark:53176779
40fc020f /scratch/ravanelm/exp/dirha/fbank/raw_fbank_tr05_cont.4.ark:22385829
01zo0319 /scratch/ravanelm/exp/dirha/fbank/raw_fbank_tr05_cont.2.ark:25827649
20dc010o /scratch/ravanelm/exp/dirha/fbank/raw_fbank_tr05_cont.3.ark:16480259
02cc021a /scratch/ravanelm/exp/dirha/fbank/raw_fbank_tr05_cont.2.ark:50390119
405c020g /scratch/ravanelm/exp/dirha/fbank/raw_fbank_tr05_cont.3.ark:48639099
40jc020n /scratch/ravanelm/exp/dirha/fbank/raw_fbank_tr05_cont.4.ark:35698299
20fc010h /scratch/ravanelm/exp/dirha/fbank/raw_fbank_tr05_cont.3.ark:19698469
20no010f /scratch/ravanelm/exp/dirha/fbank/raw_fbank_tr05_cont.3.ark:29818959
02bo030j /scratch/ravanelm/exp/dirha/fbank/raw_fbank_tr05_cont.2.ark:48094109
029o030g /scratch/ravanelm/exp/dirha/fbank/raw_fbank_tr05_cont.2.ark:44789319
01to030f /scratch/ravanelm/exp/dirha/fbank/raw_fbank_tr05_cont.2.ark:11770289
01ro030e /scratch/ravanelm/exp/dirha/fbank/raw_fbank_tr05_cont.2.ark:8513979
404c020m /scratch/ravanelm/exp/dirha/fbank/raw_fbank_tr05_cont.3.ark:46104079
026o0302 /scratch/ravanelm/exp/dirha/fbank/raw_fbank_tr05_cont.2.ark:35181619
40po030h /scratch/ravanelm/exp/dirha/fbank/raw_fbank_tr05_cont.4.ark:53135629
40ho0304 /scratch/ravanelm/exp/dirha/fbank/raw_fbank_tr05_cont.4.ark:30506939
01ec0212 /scratch/ravanelm/exp/dirha/fbank/raw_fbank_tr05_cont.1.ark:31457219
01ic0213 /scratch/ravanelm/exp/dirha/fbank/raw_fbank_tr05_cont.1.ark:40787609
01lo030k /scratch/ravanelm/exp/dirha/fbank/raw_fbank_tr05_cont.1.ark:52741779
404o030i /scratch/ravanelm/exp/dirha/fbank/raw_fbank_tr05_cont.3.ark:47332169
026c0219 /scratch/ravanelm/exp/dirha/fbank/raw_fbank_tr05_cont.2.ark:34913749
20gc010l /scratch/ravanelm/exp/dirha/fbank/raw_fbank_tr05_cont.3.ark:21221079
024c020k /scratch/ravanelm/exp/dirha/fbank/raw_fbank_tr05_cont.2.ark:31506689
20to010b /scratch/ravanelm/exp/dirha/fbank/raw_fbank_tr05_cont.3.ark:37633639
20lo010l /scratch/ravanelm/exp/dirha/fbank/raw_fbank_tr05_cont.3.ark:26772659
404o0309 /scratch/ravanelm/exp/dirha/fbank/raw_fbank_tr05_cont.3.ark:47063979
016c020s /scratch/ravanelm/exp/dirha/fbank/raw_fbank_tr05_cont.1.ark:12942099
01dc0206 /scratch/ravanelm/exp/dirha/fbank/raw_fbank_tr05_cont.1.ark:27547059
011o031a /scratch/ravanelm/exp/dirha/fbank/raw_fbank_tr05_cont.1.ark:3239099
02cc0212 /scratch/ravanelm/exp/dirha/fbank/raw_fbank_tr05_cont.2.ark:50219499
01ko0308 /scratch/ravanelm/exp/dirha/fbank/raw_fbank_tr05_cont.1.ark:48381209
405o030m /scratch/ravanelm/exp/dirha/fbank/raw_fbank_tr05_cont.3.ark:50089689
02eo0301 /scratch/ravanelm/exp/dirha/fbank/raw_fbank_tr05_cont.2.ark:53847739
405o031b /scratch/ravanelm/exp/dirha/fbank/raw_fbank_tr05_cont.3.ark:50816959
01zc020u /scratch/ravanelm/exp/dirha/fbank/raw_fbank_tr05_cont.2.ark:23378469
01eo030u /scratch/ravanelm/exp/dirha/fbank/raw_fbank_tr05_cont.1.ark:32687199
016o030m /scratch/ravanelm/exp/dirha/fbank/raw_fbank_tr05_cont.1.ark:13998869
40jc020f /scratch/ravanelm/exp/dirha/fbank/raw_fbank_tr05_cont.4.ark:35481299
01uc020l /scratch/ravanelm/exp/dirha/fbank/raw_fbank_tr05_cont.2.ark:13769109
40hc020w /scratch/ravanelm/exp/dirha/fbank/raw_fbank_tr05_cont.4.ark:29888729
40ic020a /scratch/ravanelm/exp/dirha/fbank/raw_fbank_tr05_cont.4.ark:32316909
01bo0311 /scratch/ravanelm/exp/dirha/fbank/raw_fbank_tr05_cont.1.ark:26930069
20bo0101 /scratch/ravanelm/exp/dirha/fbank/raw_fbank_tr05_cont.3.ark:13138059
014c021d /scratch/ravanelm/exp/dirha/fbank/raw_fbank_tr05_cont.1.ark:7648419
206o010g /scratch/ravanelm/exp/dirha/fbank/raw_fbank_tr05_cont.3.ark:5391439
408c0210 /scratch/ravanelm/exp/dirha/fbank/raw_fbank_tr05_cont.4.ark:3212659
209o0108 /scratch/ravanelm/exp/dirha/fbank/raw_fbank_tr05_cont.3.ark:10143699
20tc010l /scratch/ravanelm/exp/dirha/fbank/raw_fbank_tr05_cont.3.ark:37260679
20no010o /scratch/ravanelm/exp/dirha/fbank/raw_fbank_tr05_cont.3.ark:30172909
40hc0208 /scratch/ravanelm/exp/dirha/fbank/raw_fbank_tr05_cont.4.ark:29321209
40io0303 /scratch/ravanelm/exp/dirha/fbank/raw_fbank_tr05_cont.4.ark:33602069
01qc020s /scratch/ravanelm/exp/dirha/fbank/raw_fbank_tr05_cont.2.ark:4433479
405o0304 /scratch/ravanelm/exp/dirha/fbank/raw_fbank_tr05_cont.3.ark:49559469
01qo030p /scratch/ravanelm/exp/dirha/fbank/raw_fbank_tr05_cont.2.ark:5897989
20lc010k /scratch/ravanelm/exp/dirha/fbank/raw_fbank_tr05_cont.3.ark:25579369
40fo031b /scratch/ravanelm/exp/dirha/fbank/raw_fbank_tr05_cont.4.ark:24945469
403c020r /scratch/ravanelm/exp/dirha/fbank/raw_fbank_tr05_cont.3.ark:43452329
20lc0105 /scratch/ravanelm/exp/dirha/fbank/raw_fbank_tr05_cont.3.ark:25101719
40do030g /scratch/ravanelm/exp/dirha/fbank/raw_fbank_tr05_cont.4.ark:18374909
404c020h /scratch/ravanelm/exp/dirha/fbank/raw_fbank_tr05_cont.3.ark:45945169
20oc010d /scratch/ravanelm/exp/dirha/fbank/raw_fbank_tr05_cont.3.ark:30663869
01ec020i /scratch/ravanelm/exp/dirha/fbank/raw_fbank_tr05_cont.1.ark:30866339
016o031d /scratch/ravanelm/exp/dirha/fbank/raw_fbank_tr05_cont.1.ark:14699359
40ic0214 /scratch/ravanelm/exp/dirha/fbank/raw_fbank_tr05_cont.4.ark:33196249
408c020e /scratch/ravanelm/exp/dirha/fbank/raw_fbank_tr05_cont.4.ark:2713869
021c0219 /scratch/ravanelm/exp/dirha/fbank/raw_fbank_tr05_cont.2.ark:29242619
015c020s /scratch/ravanelm/exp/dirha/fbank/raw_fbank_tr05_cont.1.ark:10193609
40jo0306 /scratch/ravanelm/exp/dirha/fbank/raw_fbank_tr05_cont.4.ark:36653849
01po0309 /scratch/ravanelm/exp/dirha/fbank/raw_fbank_tr05_cont.2.ark:2239159
403c020d /scratch/ravanelm/exp/dirha/fbank/raw_fbank_tr05_cont.3.ark:43099629
40bo0315 /scratch/ravanelm/exp/dirha/fbank/raw_fbank_tr05_cont.4.ark:13718519
209o0102 /scratch/ravanelm/exp/dirha/fbank/raw_fbank_tr05_cont.3.ark:9946239
013o030u /scratch/ravanelm/exp/dirha/fbank/raw_fbank_tr05_cont.1.ark:5858439
02bo030z /scratch/ravanelm/exp/dirha/fbank/raw_fbank_tr05_cont.2.ark:48647949
40fo030m /scratch/ravanelm/exp/dirha/fbank/raw_fbank_tr05_cont.4.ark:24143279
01to0305 /scratch/ravanelm/exp/dirha/fbank/raw_fbank_tr05_cont.2.ark:11407029
02ec020x /scratch/ravanelm/exp/dirha/fbank/raw_fbank_tr05_cont.2.ark:53245079
024c020v /scratch/ravanelm/exp/dirha/fbank/raw_fbank_tr05_cont.2.ark:31761939
404c020j /scratch/ravanelm/exp/dirha/fbank/raw_fbank_tr05_cont.3.ark:46000789
01ec020a /scratch/ravanelm/exp/dirha/fbank/raw_fbank_tr05_cont.1.ark:30684219
02co030k /scratch/ravanelm/exp/dirha/fbank/raw_fbank_tr05_cont.2.ark:51113309
40ac020q /scratch/ravanelm/exp/dirha/fbank/raw_fbank_tr05_cont.4.ark:8606019
409c0211 /scratch/ravanelm/exp/dirha/fbank/raw_fbank_tr05_cont.4.ark:5893759
404c0205 /scratch/ravanelm/exp/dirha/fbank/raw_fbank_tr05_cont.3.ark:45674769
408o0301 /scratch/ravanelm/exp/dirha/fbank/raw_fbank_tr05_cont.4.ark:3573839
013c020j /scratch/ravanelm/exp/dirha/fbank/raw_fbank_tr05_cont.1.ark:4112979
40co0302 /scratch/ravanelm/exp/dirha/fbank/raw_fbank_tr05_cont.4.ark:15164409
40fo0301 /scratch/ravanelm/exp/dirha/fbank/raw_fbank_tr05_cont.4.ark:23458649
406c0201 /scratch/ravanelm/exp/dirha/fbank/raw_fbank_tr05_cont.3.ark:50965989
20cc010b /scratch/ravanelm/exp/dirha/fbank/raw_fbank_tr05_cont.3.ark:14590369
20nc010f /scratch/ravanelm/exp/dirha/fbank/raw_fbank_tr05_cont.3.ark:28883489
019o030z /scratch/ravanelm/exp/dirha/fbank/raw_fbank_tr05_cont.1.ark:23477359
40jo030n /scratch/ravanelm/exp/dirha/fbank/raw_fbank_tr05_cont.4.ark:37294719
01yc021g /scratch/ravanelm/exp/dirha/fbank/raw_fbank_tr05_cont.2.ark:20922249
40ao030x /scratch/ravanelm/exp/dirha/fbank/raw_fbank_tr05_cont.4.ark:10332729
01yc020b /scratch/ravanelm/exp/dirha/fbank/raw_fbank_tr05_cont.2.ark:19807139
013c020q /scratch/ravanelm/exp/dirha/fbank/raw_fbank_tr05_cont.1.ark:4328469
011c0203 /scratch/ravanelm/exp/dirha/fbank/raw_fbank_tr05_cont.1.ark:54509
02eo0310 /scratch/ravanelm/exp/dirha/fbank/raw_fbank_tr05_cont.3.ark:496469
209o010k /scratch/ravanelm/exp/dirha/fbank/raw_fbank_tr05_cont.3.ark:10526299
20gc0102 /scratch/ravanelm/exp/dirha/fbank/raw_fbank_tr05_cont.3.ark:20774189
027c020v /scratch/ravanelm/exp/dirha/fbank/raw_fbank_tr05_cont.2.ark:37389209
017c020g /scratch/ravanelm/exp/dirha/fbank/raw_fbank_tr05_cont.1.ark:15172139
018o0306 /scratch/ravanelm/exp/dirha/fbank/raw_fbank_tr05_cont.1.ark:19380499
208c010k /scratch/ravanelm/exp/dirha/fbank/raw_fbank_tr05_cont.3.ark:8167639
40lc020c /scratch/ravanelm/exp/dirha/fbank/raw_fbank_tr05_cont.4.ark:41655359
40fc0207 /scratch/ravanelm/exp/dirha/fbank/raw_fbank_tr05_cont.4.ark:22152909
204o010j /scratch/ravanelm/exp/dirha/fbank/raw_fbank_tr05_cont.3.ark:2139009
40bc020l /scratch/ravanelm/exp/dirha/fbank/raw_fbank_tr05_cont.4.ark:11452779
40co030v /scratch/ravanelm/exp/dirha/fbank/raw_fbank_tr05_cont.4.ark:15939399
40ho0306 /scratch/ravanelm/exp/dirha/fbank/raw_fbank_tr05_cont.4.ark:30576919
405c020a /scratch/ravanelm/exp/dirha/fbank/raw_fbank_tr05_cont.3.ark:48485279
019c020u /scratch/ravanelm/exp/dirha/fbank/raw_fbank_tr05_cont.1.ark:21774499
40ko031b /scratch/ravanelm/exp/dirha/fbank/raw_fbank_tr05_cont.4.ark:41231809
01ko030e /scratch/ravanelm/exp/dirha/fbank/raw_fbank_tr05_cont.1.ark:48642069
207o010k /scratch/ravanelm/exp/dirha/fbank/raw_fbank_tr05_cont.3.ark:7292259
207o010b /scratch/ravanelm/exp/dirha/fbank/raw_fbank_tr05_cont.3.ark:7006069
20rc010d /scratch/ravanelm/exp/dirha/fbank/raw_fbank_tr05_cont.3.ark:35336379
40ic0207 /scratch/ravanelm/exp/dirha/fbank/raw_fbank_tr05_cont.4.ark:32212259
40mc0213 /scratch/ravanelm/exp/dirha/fbank/raw_fbank_tr05_cont.4.ark:45985339
01io0318 /scratch/ravanelm/exp/dirha/fbank/raw_fbank_tr05_cont.1.ark:42783609
019o030a /scratch/ravanelm/exp/dirha/fbank/raw_fbank_tr05_cont.1.ark:22700649
028o030d /scratch/ravanelm/exp/dirha/fbank/raw_fbank_tr05_cont.2.ark:41544959
20no010b /scratch/ravanelm/exp/dirha/fbank/raw_fbank_tr05_cont.3.ark:29631159
01qo031c /scratch/ravanelm/exp/dirha/fbank/raw_fbank_tr05_cont.2.ark:6551199
20mc0103 /scratch/ravanelm/exp/dirha/fbank/raw_fbank_tr05_cont.3.ark:27053379
40jc020v /scratch/ravanelm/exp/dirha/fbank/raw_fbank_tr05_cont.4.ark:35940419
01yc020j /scratch/ravanelm/exp/dirha/fbank/raw_fbank_tr05_cont.2.ark:20035059
20mc010g /scratch/ravanelm/exp/dirha/fbank/raw_fbank_tr05_cont.3.ark:27395369
20ec0104 /scratch/ravanelm/exp/dirha/fbank/raw_fbank_tr05_cont.3.ark:17655619
01fc020b /scratch/ravanelm/exp/dirha/fbank/raw_fbank_tr05_cont.1.ark:33679029
40hc020m /scratch/ravanelm/exp/dirha/fbank/raw_fbank_tr05_cont.4.ark:29667509
01wo030w /scratch/ravanelm/exp/dirha/fbank/raw_fbank_tr05_cont.2.ark:18900459
01wo030p /scratch/ravanelm/exp/dirha/fbank/raw_fbank_tr05_cont.2.ark:18713489
40nc021f /scratch/ravanelm/exp/dirha/fbank/raw_fbank_tr05_cont.4.ark:49542209
01zo030w /scratch/ravanelm/exp/dirha/fbank/raw_fbank_tr05_cont.2.ark:25357019
028c020q /scratch/ravanelm/exp/dirha/fbank/raw_fbank_tr05_cont.2.ark:40373419
027c020a /scratch/ravanelm/exp/dirha/fbank/raw_fbank_tr05_cont.2.ark:36893019
024c0217 /scratch/ravanelm/exp/dirha/fbank/raw_fbank_tr05_cont.2.ark:32093259
01fc0213 /scratch/ravanelm/exp/dirha/fbank/raw_fbank_tr05_cont.1.ark:34421589
40do031d /scratch/ravanelm/exp/dirha/fbank/raw_fbank_tr05_cont.4.ark:19393659
40no031b /scratch/ravanelm/exp/dirha/fbank/raw_fbank_tr05_cont.4.ark:51298489
01ic0214 /scratch/ravanelm/exp/dirha/fbank/raw_fbank_tr05_cont.1.ark:40806039
40do0301 /scratch/ravanelm/exp/dirha/fbank/raw_fbank_tr05_cont.4.ark:17985779
409c021d /scratch/ravanelm/exp/dirha/fbank/raw_fbank_tr05_cont.4.ark:6204919
20lc010f /scratch/ravanelm/exp/dirha/fbank/raw_fbank_tr05_cont.3.ark:25424579
40ko0318 /scratch/ravanelm/exp/dirha/fbank/raw_fbank_tr05_cont.4.ark:41120999
028c0206 /scratch/ravanelm/exp/dirha/fbank/raw_fbank_tr05_cont.2.ark:39900379
027c020n /scratch/ravanelm/exp/dirha/fbank/raw_fbank_tr05_cont.2.ark:37201449
40ho030p /scratch/ravanelm/exp/dirha/fbank/raw_fbank_tr05_cont.4.ark:31198769
407c021c /scratch/ravanelm/exp/dirha/fbank/raw_fbank_tr05_cont.4.ark:468889
20oo010p /scratch/ravanelm/exp/dirha/fbank/raw_fbank_tr05_cont.3.ark:31719429
40jo030a /scratch/ravanelm/exp/dirha/fbank/raw_fbank_tr05_cont.4.ark:36821929
01do030x /scratch/ravanelm/exp/dirha/fbank/raw_fbank_tr05_cont.1.ark:29792979
028c020h /scratch/ravanelm/exp/dirha/fbank/raw_fbank_tr05_cont.2.ark:40133749
40eo030j /scratch/ravanelm/exp/dirha/fbank/raw_fbank_tr05_cont.4.ark:21212019
01io030d /scratch/ravanelm/exp/dirha/fbank/raw_fbank_tr05_cont.1.ark:41671999
017c020n /scratch/ravanelm/exp/dirha/fbank/raw_fbank_tr05_cont.1.ark:15338789
029c021e /scratch/ravanelm/exp/dirha/fbank/raw_fbank_tr05_cont.2.ark:44185819
02bc0203 /scratch/ravanelm/exp/dirha/fbank/raw_fbank_tr05_cont.2.ark:46103579
204o010p /scratch/ravanelm/exp/dirha/fbank/raw_fbank_tr05_cont.3.ark:2360309
01mo030s /scratch/ravanelm/exp/dirha/fbank/raw_fbank_tr05_cont.1.ark:56219099
017c0201 /scratch/ravanelm/exp/dirha/fbank/raw_fbank_tr05_cont.1.ark:14796249
408o030m /scratch/ravanelm/exp/dirha/fbank/raw_fbank_tr05_cont.4.ark:4227429
020c020f /scratch/ravanelm/exp/dirha/fbank/raw_fbank_tr05_cont.2.ark:26397189
01ro0303 /scratch/ravanelm/exp/dirha/fbank/raw_fbank_tr05_cont.2.ark:8263409
01ec020t /scratch/ravanelm/exp/dirha/fbank/raw_fbank_tr05_cont.1.ark:31179269
20oo010i /scratch/ravanelm/exp/dirha/fbank/raw_fbank_tr05_cont.3.ark:31455139
20ic0103 /scratch/ravanelm/exp/dirha/fbank/raw_fbank_tr05_cont.3.ark:23434479
01zc0205 /scratch/ravanelm/exp/dirha/fbank/raw_fbank_tr05_cont.2.ark:22732959
015o0307 /scratch/ravanelm/exp/dirha/fbank/raw_fbank_tr05_cont.1.ark:10964879
01ic0203 /scratch/ravanelm/exp/dirha/fbank/raw_fbank_tr05_cont.1.ark:39740529
403o0319 /scratch/ravanelm/exp/dirha/fbank/raw_fbank_tr05_cont.3.ark:45474039
01lo030t /scratch/ravanelm/exp/dirha/fbank/raw_fbank_tr05_cont.1.ark:53051489
20hc0108 /scratch/ravanelm/exp/dirha/fbank/raw_fbank_tr05_cont.3.ark:22234139
20oc010h /scratch/ravanelm/exp/dirha/fbank/raw_fbank_tr05_cont.3.ark:30729269
028c020b /scratch/ravanelm/exp/dirha/fbank/raw_fbank_tr05_cont.2.ark:39991249
40gc020p /scratch/ravanelm/exp/dirha/fbank/raw_fbank_tr05_cont.4.ark:26002649
029o0304 /scratch/ravanelm/exp/dirha/fbank/raw_fbank_tr05_cont.2.ark:44386919
01gc020q /scratch/ravanelm/exp/dirha/fbank/raw_fbank_tr05_cont.1.ark:37131599
40ic021b /scratch/ravanelm/exp/dirha/fbank/raw_fbank_tr05_cont.4.ark:33400619
01lo030u /scratch/ravanelm/exp/dirha/fbank/raw_fbank_tr05_cont.1.ark:53086079
027o030m /scratch/ravanelm/exp/dirha/fbank/raw_fbank_tr05_cont.2.ark:38875289
01uo0308 /scratch/ravanelm/exp/dirha/fbank/raw_fbank_tr05_cont.2.ark:15004169
20eo010i /scratch/ravanelm/exp/dirha/fbank/raw_fbank_tr05_cont.3.ark:18927879
20ac0107 /scratch/ravanelm/exp/dirha/fbank/raw_fbank_tr05_cont.3.ark:10902979
40dc020s /scratch/ravanelm/exp/dirha/fbank/raw_fbank_tr05_cont.4.ark:17274789
20bo010g /scratch/ravanelm/exp/dirha/fbank/raw_fbank_tr05_cont.3.ark:13778829
028c021b /scratch/ravanelm/exp/dirha/fbank/raw_fbank_tr05_cont.2.ark:40938689
01tc0209 /scratch/ravanelm/exp/dirha/fbank/raw_fbank_tr05_cont.2.ark:9895619
40lc0218 /scratch/ravanelm/exp/dirha/fbank/raw_fbank_tr05_cont.4.ark:42665639
406o030c /scratch/ravanelm/exp/dirha/fbank/raw_fbank_tr05_cont.3.ark:52523579
01qc020n /scratch/ravanelm/exp/dirha/fbank/raw_fbank_tr05_cont.2.ark:4348799
01pc020u /scratch/ravanelm/exp/dirha/fbank/raw_fbank_tr05_cont.2.ark:1230109
408c0202 /scratch/ravanelm/exp/dirha/fbank/raw_fbank_tr05_cont.4.ark:2440349
20ao010q /scratch/ravanelm/exp/dirha/fbank/raw_fbank_tr05_cont.3.ark:12441069
20qo010e /scratch/ravanelm/exp/dirha/fbank/raw_fbank_tr05_cont.3.ark:34551389
20ao010h /scratch/ravanelm/exp/dirha/fbank/raw_fbank_tr05_cont.3.ark:12065199
408c020d /scratch/ravanelm/exp/dirha/fbank/raw_fbank_tr05_cont.4.ark:2679119
403c0215 /scratch/ravanelm/exp/dirha/fbank/raw_fbank_tr05_cont.3.ark:43784549
01zc020p /scratch/ravanelm/exp/dirha/fbank/raw_fbank_tr05_cont.2.ark:23280879
40pc020g /scratch/ravanelm/exp/dirha/fbank/raw_fbank_tr05_cont.4.ark:51737429
40fc0216 /scratch/ravanelm/exp/dirha/fbank/raw_fbank_tr05_cont.4.ark:23191959
02bo031a /scratch/ravanelm/exp/dirha/fbank/raw_fbank_tr05_cont.2.ark:49059719
01kc0202 /scratch/ravanelm/exp/dirha/fbank/raw_fbank_tr05_cont.1.ark:46525479
40ac0213 /scratch/ravanelm/exp/dirha/fbank/raw_fbank_tr05_cont.4.ark:9006249
404c020d /scratch/ravanelm/exp/dirha/fbank/raw_fbank_tr05_cont.3.ark:45855449
013o0305 /scratch/ravanelm/exp/dirha/fbank/raw_fbank_tr05_cont.1.ark:5087369
409c020m /scratch/ravanelm/exp/dirha/fbank/raw_fbank_tr05_cont.4.ark:5448869
01yc020x /scratch/ravanelm/exp/dirha/fbank/raw_fbank_tr05_cont.2.ark:20416279
401c021a /scratch/ravanelm/exp/dirha/fbank/raw_fbank_tr05_cont.3.ark:40920329
01jc0205 /scratch/ravanelm/exp/dirha/fbank/raw_fbank_tr05_cont.1.ark:43165809
20lo010n /scratch/ravanelm/exp/dirha/fbank/raw_fbank_tr05_cont.3.ark:26870479
20eo010b /scratch/ravanelm/exp/dirha/fbank/raw_fbank_tr05_cont.3.ark:18664549
401o030u /scratch/ravanelm/exp/dirha/fbank/raw_fbank_tr05_cont.3.ark:42162819
204c010h /scratch/ravanelm/exp/dirha/fbank/raw_fbank_tr05_cont.3.ark:1379079
01qc0216 /scratch/ravanelm/exp/dirha/fbank/raw_fbank_tr05_cont.2.ark:4768479
404o0313 /scratch/ravanelm/exp/dirha/fbank/raw_fbank_tr05_cont.3.ark:47962399
024o031a /scratch/ravanelm/exp/dirha/fbank/raw_fbank_tr05_cont.2.ark:33649249
40mc0218 /scratch/ravanelm/exp/dirha/fbank/raw_fbank_tr05_cont.4.ark:46145009
01ro0313 /scratch/ravanelm/exp/dirha/fbank/raw_fbank_tr05_cont.2.ark:9362489
01gc020s /scratch/ravanelm/exp/dirha/fbank/raw_fbank_tr05_cont.1.ark:37166659
01wo030j /scratch/ravanelm/exp/dirha/fbank/raw_fbank_tr05_cont.2.ark:18563339
01pc021c /scratch/ravanelm/exp/dirha/fbank/raw_fbank_tr05_cont.2.ark:1781129
017c0219 /scratch/ravanelm/exp/dirha/fbank/raw_fbank_tr05_cont.1.ark:15861329
40jo030v /scratch/ravanelm/exp/dirha/fbank/raw_fbank_tr05_cont.4.ark:37565039
01to0317 /scratch/ravanelm/exp/dirha/fbank/raw_fbank_tr05_cont.2.ark:12766729
01gc020y /scratch/ravanelm/exp/dirha/fbank/raw_fbank_tr05_cont.1.ark:37317919
01uo030x /scratch/ravanelm/exp/dirha/fbank/raw_fbank_tr05_cont.2.ark:15947719
01yc020d /scratch/ravanelm/exp/dirha/fbank/raw_fbank_tr05_cont.2.ark:19852599
20oo010a /scratch/ravanelm/exp/dirha/fbank/raw_fbank_tr05_cont.3.ark:31178579
01dc020f /scratch/ravanelm/exp/dirha/fbank/raw_fbank_tr05_cont.1.ark:27777009
024o030i /scratch/ravanelm/exp/dirha/fbank/raw_fbank_tr05_cont.2.ark:32879649
015c0207 /scratch/ravanelm/exp/dirha/fbank/raw_fbank_tr05_cont.1.ark:9630539
02eo030z /scratch/ravanelm/exp/dirha/fbank/raw_fbank_tr05_cont.3.ark:471839
20ao010j /scratch/ravanelm/exp/dirha/fbank/raw_fbank_tr05_cont.3.ark:12157099
020o030b /scratch/ravanelm/exp/dirha/fbank/raw_fbank_tr05_cont.2.ark:27275619
01po0318 /scratch/ravanelm/exp/dirha/fbank/raw_fbank_tr05_cont.2.ark:3469939
017o0318 /scratch/ravanelm/exp/dirha/fbank/raw_fbank_tr05_cont.1.ark:17411459
01kc020e /scratch/ravanelm/exp/dirha/fbank/raw_fbank_tr05_cont.1.ark:46917959
01pc0201 /scratch/ravanelm/exp/dirha/fbank/raw_fbank_tr05_cont.2.ark:414959
404o030v /scratch/ravanelm/exp/dirha/fbank/raw_fbank_tr05_cont.3.ark:47741519
021c020f /scratch/ravanelm/exp/dirha/fbank/raw_fbank_tr05_cont.2.ark:28437599
40hc020q /scratch/ravanelm/exp/dirha/fbank/raw_fbank_tr05_cont.4.ark:29784389
406o031a /scratch/ravanelm/exp/dirha/fbank/raw_fbank_tr05_cont.3.ark:53648119
40mc020s /scratch/ravanelm/exp/dirha/fbank/raw_fbank_tr05_cont.4.ark:45707489
01uc020m /scratch/ravanelm/exp/dirha/fbank/raw_fbank_tr05_cont.2.ark:13808299
02co0311 /scratch/ravanelm/exp/dirha/fbank/raw_fbank_tr05_cont.2.ark:51704139
013c020u /scratch/ravanelm/exp/dirha/fbank/raw_fbank_tr05_cont.1.ark:4461869
01yo030f /scratch/ravanelm/exp/dirha/fbank/raw_fbank_tr05_cont.2.ark:21382659
206o010o /scratch/ravanelm/exp/dirha/fbank/raw_fbank_tr05_cont.3.ark:5743119
020c0210 /scratch/ravanelm/exp/dirha/fbank/raw_fbank_tr05_cont.2.ark:26795459
021c0202 /scratch/ravanelm/exp/dirha/fbank/raw_fbank_tr05_cont.2.ark:28077809
20ao010m /scratch/ravanelm/exp/dirha/fbank/raw_fbank_tr05_cont.3.ark:12288549
028o030r /scratch/ravanelm/exp/dirha/fbank/raw_fbank_tr05_cont.2.ark:42066579
20lo0103 /scratch/ravanelm/exp/dirha/fbank/raw_fbank_tr05_cont.3.ark:25892759
01qo0309 /scratch/ravanelm/exp/dirha/fbank/raw_fbank_tr05_cont.2.ark:5291549
40no030r /scratch/ravanelm/exp/dirha/fbank/raw_fbank_tr05_cont.4.ark:50584049
01bc020u /scratch/ravanelm/exp/dirha/fbank/raw_fbank_tr05_cont.1.ark:24808489
01rc0203 /scratch/ravanelm/exp/dirha/fbank/raw_fbank_tr05_cont.2.ark:6815529
01mo030l /scratch/ravanelm/exp/dirha/fbank/raw_fbank_tr05_cont.1.ark:55985529
20po010p /scratch/ravanelm/exp/dirha/fbank/raw_fbank_tr05_cont.3.ark:33150909
20tc010g /scratch/ravanelm/exp/dirha/fbank/raw_fbank_tr05_cont.3.ark:37107569
01jc0203 /scratch/ravanelm/exp/dirha/fbank/raw_fbank_tr05_cont.1.ark:43093389
017o030d /scratch/ravanelm/exp/dirha/fbank/raw_fbank_tr05_cont.1.ark:16453489
01kc020m /scratch/ravanelm/exp/dirha/fbank/raw_fbank_tr05_cont.1.ark:47162009
01zo0306 /scratch/ravanelm/exp/dirha/fbank/raw_fbank_tr05_cont.2.ark:24284919
40pc020s /scratch/ravanelm/exp/dirha/fbank/raw_fbank_tr05_cont.4.ark:51996949
01dc0214 /scratch/ravanelm/exp/dirha/fbank/raw_fbank_tr05_cont.1.ark:28428759
01bo0319 /scratch/ravanelm/exp/dirha/fbank/raw_fbank_tr05_cont.1.ark:27184199
20ao010f /scratch/ravanelm/exp/dirha/fbank/raw_fbank_tr05_cont.3.ark:11989139
40gc0211 /scratch/ravanelm/exp/dirha/fbank/raw_fbank_tr05_cont.4.ark:26409169
40dc0219 /scratch/ravanelm/exp/dirha/fbank/raw_fbank_tr05_cont.4.ark:17756379
019o030k /scratch/ravanelm/exp/dirha/fbank/raw_fbank_tr05_cont.1.ark:23049469
207o0102 /scratch/ravanelm/exp/dirha/fbank/raw_fbank_tr05_cont.3.ark:6655399
029o0312 /scratch/ravanelm/exp/dirha/fbank/raw_fbank_tr05_cont.2.ark:45567059
01mc020w /scratch/ravanelm/exp/dirha/fbank/raw_fbank_tr05_cont.1.ark:54854369
20cc010a /scratch/ravanelm/exp/dirha/fbank/raw_fbank_tr05_cont.3.ark:14565219
20ro0102 /scratch/ravanelm/exp/dirha/fbank/raw_fbank_tr05_cont.3.ark:35691859
20gc010b /scratch/ravanelm/exp/dirha/fbank/raw_fbank_tr05_cont.3.ark:20970059
408c0203 /scratch/ravanelm/exp/dirha/fbank/raw_fbank_tr05_cont.4.ark:2453819
20po010a /scratch/ravanelm/exp/dirha/fbank/raw_fbank_tr05_cont.3.ark:32704619
01dc020h /scratch/ravanelm/exp/dirha/fbank/raw_fbank_tr05_cont.1.ark:27855109
40io030e /scratch/ravanelm/exp/dirha/fbank/raw_fbank_tr05_cont.4.ark:33941959
014c0217 /scratch/ravanelm/exp/dirha/fbank/raw_fbank_tr05_cont.1.ark:7499959
01gc020f /scratch/ravanelm/exp/dirha/fbank/raw_fbank_tr05_cont.1.ark:36800869
014o030j /scratch/ravanelm/exp/dirha/fbank/raw_fbank_tr05_cont.1.ark:8340349
028c0203 /scratch/ravanelm/exp/dirha/fbank/raw_fbank_tr05_cont.2.ark:39830449
40ac021e /scratch/ravanelm/exp/dirha/fbank/raw_fbank_tr05_cont.4.ark:9318779
20vc0107 /scratch/ravanelm/exp/dirha/fbank/raw_fbank_tr05_cont.3.ark:38272429
01kc0213 /scratch/ravanelm/exp/dirha/fbank/raw_fbank_tr05_cont.1.ark:47693439
40jc0212 /scratch/ravanelm/exp/dirha/fbank/raw_fbank_tr05_cont.4.ark:36117109
40mc0205 /scratch/ravanelm/exp/dirha/fbank/raw_fbank_tr05_cont.4.ark:45117239
01wo031c /scratch/ravanelm/exp/dirha/fbank/raw_fbank_tr05_cont.2.ark:19438139
401o030i /scratch/ravanelm/exp/dirha/fbank/raw_fbank_tr05_cont.3.ark:41683419
406o0311 /scratch/ravanelm/exp/dirha/fbank/raw_fbank_tr05_cont.3.ark:53334849
20ho010k /scratch/ravanelm/exp/dirha/fbank/raw_fbank_tr05_cont.3.ark:23200319
40mc020d /scratch/ravanelm/exp/dirha/fbank/raw_fbank_tr05_cont.4.ark:45318559
024c020b /scratch/ravanelm/exp/dirha/fbank/raw_fbank_tr05_cont.2.ark:31191059
40mo0307 /scratch/ravanelm/exp/dirha/fbank/raw_fbank_tr05_cont.4.ark:46637139
40cc0207 /scratch/ravanelm/exp/dirha/fbank/raw_fbank_tr05_cont.4.ark:14123699
40mc020g /scratch/ravanelm/exp/dirha/fbank/raw_fbank_tr05_cont.4.ark:45386449
409o030o /scratch/ravanelm/exp/dirha/fbank/raw_fbank_tr05_cont.4.ark:7012809
403o031a /scratch/ravanelm/exp/dirha/fbank/raw_fbank_tr05_cont.3.ark:45507429
01mo0311 /scratch/ravanelm/exp/dirha/fbank/raw_fbank_tr05_cont.1.ark:56530929
20po010f /scratch/ravanelm/exp/dirha/fbank/raw_fbank_tr05_cont.3.ark:32820129
02co0305 /scratch/ravanelm/exp/dirha/fbank/raw_fbank_tr05_cont.2.ark:50659099
01yo0303 /scratch/ravanelm/exp/dirha/fbank/raw_fbank_tr05_cont.2.ark:21014739
205c0102 /scratch/ravanelm/exp/dirha/fbank/raw_fbank_tr05_cont.3.ark:2467199
01mo030a /scratch/ravanelm/exp/dirha/fbank/raw_fbank_tr05_cont.1.ark:55717279
205c0105 /scratch/ravanelm/exp/dirha/fbank/raw_fbank_tr05_cont.3.ark:2533049
404o0319 /scratch/ravanelm/exp/dirha/fbank/raw_fbank_tr05_cont.3.ark:48110219
01io0312 /scratch/ravanelm/exp/dirha/fbank/raw_fbank_tr05_cont.1.ark:42572389
40gc0213 /scratch/ravanelm/exp/dirha/fbank/raw_fbank_tr05_cont.4.ark:26507269
01uo030a /scratch/ravanelm/exp/dirha/fbank/raw_fbank_tr05_cont.2.ark:15078669
024o031b /scratch/ravanelm/exp/dirha/fbank/raw_fbank_tr05_cont.2.ark:33678559
209c010a /scratch/ravanelm/exp/dirha/fbank/raw_fbank_tr05_cont.3.ark:9509699
01tc0217 /scratch/ravanelm/exp/dirha/fbank/raw_fbank_tr05_cont.2.ark:11059839
024o0307 /scratch/ravanelm/exp/dirha/fbank/raw_fbank_tr05_cont.2.ark:32543679
014o031b /scratch/ravanelm/exp/dirha/fbank/raw_fbank_tr05_cont.1.ark:9335429
409o030i /scratch/ravanelm/exp/dirha/fbank/raw_fbank_tr05_cont.4.ark:6796269
01uo030v /scratch/ravanelm/exp/dirha/fbank/raw_fbank_tr05_cont.2.ark:15860299
40ko030r /scratch/ravanelm/exp/dirha/fbank/raw_fbank_tr05_cont.4.ark:40529329
01ic020w /scratch/ravanelm/exp/dirha/fbank/raw_fbank_tr05_cont.1.ark:40617319
206o010i /scratch/ravanelm/exp/dirha/fbank/raw_fbank_tr05_cont.3.ark:5468779
01pc0208 /scratch/ravanelm/exp/dirha/fbank/raw_fbank_tr05_cont.2.ark:601329
40mc021b /scratch/ravanelm/exp/dirha/fbank/raw_fbank_tr05_cont.4.ark:46213099
403c021d /scratch/ravanelm/exp/dirha/fbank/raw_fbank_tr05_cont.3.ark:43978149
40ho0311 /scratch/ravanelm/exp/dirha/fbank/raw_fbank_tr05_cont.4.ark:31617369
020c0204 /scratch/ravanelm/exp/dirha/fbank/raw_fbank_tr05_cont.2.ark:26165699
01bc0217 /scratch/ravanelm/exp/dirha/fbank/raw_fbank_tr05_cont.1.ark:25162649
02cc020k /scratch/ravanelm/exp/dirha/fbank/raw_fbank_tr05_cont.2.ark:49744309
40po030s /scratch/ravanelm/exp/dirha/fbank/raw_fbank_tr05_cont.4.ark:53531639
206c0106 /scratch/ravanelm/exp/dirha/fbank/raw_fbank_tr05_cont.3.ark:4356079
206o0101 /scratch/ravanelm/exp/dirha/fbank/raw_fbank_tr05_cont.3.ark:4777869
018c020p /scratch/ravanelm/exp/dirha/fbank/raw_fbank_tr05_cont.1.ark:18312909
40gc020c /scratch/ravanelm/exp/dirha/fbank/raw_fbank_tr05_cont.4.ark:25606299
028o0318 /scratch/ravanelm/exp/dirha/fbank/raw_fbank_tr05_cont.2.ark:42632689
20lo010g /scratch/ravanelm/exp/dirha/fbank/raw_fbank_tr05_cont.3.ark:26546109
209o010m /scratch/ravanelm/exp/dirha/fbank/raw_fbank_tr05_cont.3.ark:10582359
40fo030s /scratch/ravanelm/exp/dirha/fbank/raw_fbank_tr05_cont.4.ark:24354659
01io0315 /scratch/ravanelm/exp/dirha/fbank/raw_fbank_tr05_cont.1.ark:42681799
40dc021c /scratch/ravanelm/exp/dirha/fbank/raw_fbank_tr05_cont.4.ark:17844029
408o0310 /scratch/ravanelm/exp/dirha/fbank/raw_fbank_tr05_cont.4.ark:4550409
403o030o /scratch/ravanelm/exp/dirha/fbank/raw_fbank_tr05_cont.3.ark:44796729
20co0107 /scratch/ravanelm/exp/dirha/fbank/raw_fbank_tr05_cont.3.ark:15155529
01jc0216 /scratch/ravanelm/exp/dirha/fbank/raw_fbank_tr05_cont.1.ark:44263999
01bc0209 /scratch/ravanelm/exp/dirha/fbank/raw_fbank_tr05_cont.1.ark:24077289
026o0303 /scratch/ravanelm/exp/dirha/fbank/raw_fbank_tr05_cont.2.ark:35208049
40fc020t /scratch/ravanelm/exp/dirha/fbank/raw_fbank_tr05_cont.4.ark:22791209
021c0201 /scratch/ravanelm/exp/dirha/fbank/raw_fbank_tr05_cont.2.ark:28031779
01bo030o /scratch/ravanelm/exp/dirha/fbank/raw_fbank_tr05_cont.1.ark:26389479
40no0304 /scratch/ravanelm/exp/dirha/fbank/raw_fbank_tr05_cont.4.ark:49715239
01yc0201 /scratch/ravanelm/exp/dirha/fbank/raw_fbank_tr05_cont.2.ark:19505719
021o030c /scratch/ravanelm/exp/dirha/fbank/raw_fbank_tr05_cont.2.ark:29689759
403c020t /scratch/ravanelm/exp/dirha/fbank/raw_fbank_tr05_cont.3.ark:43495269
01fc020z /scratch/ravanelm/exp/dirha/fbank/raw_fbank_tr05_cont.1.ark:34296909
40co030n /scratch/ravanelm/exp/dirha/fbank/raw_fbank_tr05_cont.4.ark:15740239
01io030p /scratch/ravanelm/exp/dirha/fbank/raw_fbank_tr05_cont.1.ark:42095999
026c020m /scratch/ravanelm/exp/dirha/fbank/raw_fbank_tr05_cont.2.ark:34401219
02eo030i /scratch/ravanelm/exp/dirha/fbank/raw_fbank_tr05_cont.2.ark:54443009
01bo030c /scratch/ravanelm/exp/dirha/fbank/raw_fbank_tr05_cont.1.ark:25859599
40ao030w /scratch/ravanelm/exp/dirha/fbank/raw_fbank_tr05_cont.4.ark:10294579
015o030n /scratch/ravanelm/exp/dirha/fbank/raw_fbank_tr05_cont.1.ark:11519079
20co0102 /scratch/ravanelm/exp/dirha/fbank/raw_fbank_tr05_cont.3.ark:14998209
40mc0208 /scratch/ravanelm/exp/dirha/fbank/raw_fbank_tr05_cont.4.ark:45202729
01pc020k /scratch/ravanelm/exp/dirha/fbank/raw_fbank_tr05_cont.2.ark:963209
40hc0202 /scratch/ravanelm/exp/dirha/fbank/raw_fbank_tr05_cont.4.ark:29155509
409c020z /scratch/ravanelm/exp/dirha/fbank/raw_fbank_tr05_cont.4.ark:5831059
20rc0106 /scratch/ravanelm/exp/dirha/fbank/raw_fbank_tr05_cont.3.ark:35180969
20oo010c /scratch/ravanelm/exp/dirha/fbank/raw_fbank_tr05_cont.3.ark:31237439
206o0103 /scratch/ravanelm/exp/dirha/fbank/raw_fbank_tr05_cont.3.ark:4869369
20no0102 /scratch/ravanelm/exp/dirha/fbank/raw_fbank_tr05_cont.3.ark:29286889
015o0309 /scratch/ravanelm/exp/dirha/fbank/raw_fbank_tr05_cont.1.ark:11045419
019o030x /scratch/ravanelm/exp/dirha/fbank/raw_fbank_tr05_cont.1.ark:23416179
20vo0104 /scratch/ravanelm/exp/dirha/fbank/raw_fbank_tr05_cont.3.ark:38808209
01bc020c /scratch/ravanelm/exp/dirha/fbank/raw_fbank_tr05_cont.1.ark:24188099
01uc020a /scratch/ravanelm/exp/dirha/fbank/raw_fbank_tr05_cont.2.ark:13439779
019c020g /scratch/ravanelm/exp/dirha/fbank/raw_fbank_tr05_cont.1.ark:21463159
40ao0307 /scratch/ravanelm/exp/dirha/fbank/raw_fbank_tr05_cont.4.ark:9470669
01mc0212 /scratch/ravanelm/exp/dirha/fbank/raw_fbank_tr05_cont.1.ark:55023269
02bc020j /scratch/ravanelm/exp/dirha/fbank/raw_fbank_tr05_cont.2.ark:46544219
40mc020h /scratch/ravanelm/exp/dirha/fbank/raw_fbank_tr05_cont.4.ark:45405719
024c0203 /scratch/ravanelm/exp/dirha/fbank/raw_fbank_tr05_cont.2.ark:30962699
403o030s /scratch/ravanelm/exp/dirha/fbank/raw_fbank_tr05_cont.3.ark:44931769
20rc010c /scratch/ravanelm/exp/dirha/fbank/raw_fbank_tr05_cont.3.ark:35307949
20fc010i /scratch/ravanelm/exp/dirha/fbank/raw_fbank_tr05_cont.3.ark:19724739
01bc020n /scratch/ravanelm/exp/dirha/fbank/raw_fbank_tr05_cont.1.ark:24519039
01dc021c /scratch/ravanelm/exp/dirha/fbank/raw_fbank_tr05_cont.1.ark:28692399
20ec0105 /scratch/ravanelm/exp/dirha/fbank/raw_fbank_tr05_cont.3.ark:17679169
20no010h /scratch/ravanelm/exp/dirha/fbank/raw_fbank_tr05_cont.3.ark:29906619
40lc020y /scratch/ravanelm/exp/dirha/fbank/raw_fbank_tr05_cont.4.ark:42302659
01eo031c /scratch/ravanelm/exp/dirha/fbank/raw_fbank_tr05_cont.1.ark:33307059
028c021a /scratch/ravanelm/exp/dirha/fbank/raw_fbank_tr05_cont.2.ark:40922019
01tc020g /scratch/ravanelm/exp/dirha/fbank/raw_fbank_tr05_cont.2.ark:10128149
014c020e /scratch/ravanelm/exp/dirha/fbank/raw_fbank_tr05_cont.1.ark:6840929
40hc020z /scratch/ravanelm/exp/dirha/fbank/raw_fbank_tr05_cont.4.ark:29989859
408c0205 /scratch/ravanelm/exp/dirha/fbank/raw_fbank_tr05_cont.4.ark:2486679
20lc010a /scratch/ravanelm/exp/dirha/fbank/raw_fbank_tr05_cont.3.ark:25259149
027c0219 /scratch/ravanelm/exp/dirha/fbank/raw_fbank_tr05_cont.2.ark:37839149
02eo0318 /scratch/ravanelm/exp/dirha/fbank/raw_fbank_tr05_cont.3.ark:755359
406c020y /scratch/ravanelm/exp/dirha/fbank/raw_fbank_tr05_cont.3.ark:51756389
40jo030z /scratch/ravanelm/exp/dirha/fbank/raw_fbank_tr05_cont.4.ark:37718959
20vc010p /scratch/ravanelm/exp/dirha/fbank/raw_fbank_tr05_cont.3.ark:38730329
40cc020w /scratch/ravanelm/exp/dirha/fbank/raw_fbank_tr05_cont.4.ark:14678769
40io030i /scratch/ravanelm/exp/dirha/fbank/raw_fbank_tr05_cont.4.ark:34094359
40ac020y /scratch/ravanelm/exp/dirha/fbank/raw_fbank_tr05_cont.4.ark:8880579
20bo010f /scratch/ravanelm/exp/dirha/fbank/raw_fbank_tr05_cont.3.ark:13722879
016o0309 /scratch/ravanelm/exp/dirha/fbank/raw_fbank_tr05_cont.1.ark:13626709
40hc021a /scratch/ravanelm/exp/dirha/fbank/raw_fbank_tr05_cont.4.ark:30292309
01dc020t /scratch/ravanelm/exp/dirha/fbank/raw_fbank_tr05_cont.1.ark:28153149
209c010g /scratch/ravanelm/exp/dirha/fbank/raw_fbank_tr05_cont.3.ark:9651719
013c0217 /scratch/ravanelm/exp/dirha/fbank/raw_fbank_tr05_cont.1.ark:4762579
014c021a /scratch/ravanelm/exp/dirha/fbank/raw_fbank_tr05_cont.1.ark:7556409
407c021d /scratch/ravanelm/exp/dirha/fbank/raw_fbank_tr05_cont.4.ark:488279
40mc0215 /scratch/ravanelm/exp/dirha/fbank/raw_fbank_tr05_cont.4.ark:46050719
207o0106 /scratch/ravanelm/exp/dirha/fbank/raw_fbank_tr05_cont.3.ark:6817999
017c021e /scratch/ravanelm/exp/dirha/fbank/raw_fbank_tr05_cont.1.ark:15963559
024o030o /scratch/ravanelm/exp/dirha/fbank/raw_fbank_tr05_cont.2.ark:33050789
01eo0316 /scratch/ravanelm/exp/dirha/fbank/raw_fbank_tr05_cont.1.ark:33068719
01fo030e /scratch/ravanelm/exp/dirha/fbank/raw_fbank_tr05_cont.1.ark:35285639
20do0102 /scratch/ravanelm/exp/dirha/fbank/raw_fbank_tr05_cont.3.ark:16589229
40fc020n /scratch/ravanelm/exp/dirha/fbank/raw_fbank_tr05_cont.4.ark:22621669
20do010n /scratch/ravanelm/exp/dirha/fbank/raw_fbank_tr05_cont.3.ark:17335459
011o0302 /scratch/ravanelm/exp/dirha/fbank/raw_fbank_tr05_cont.1.ark:1434419
20eo010p /scratch/ravanelm/exp/dirha/fbank/raw_fbank_tr05_cont.3.ark:19179849
01fc0212 /scratch/ravanelm/exp/dirha/fbank/raw_fbank_tr05_cont.1.ark:34394559
01to030l /scratch/ravanelm/exp/dirha/fbank/raw_fbank_tr05_cont.2.ark:12005309
024o0319 /scratch/ravanelm/exp/dirha/fbank/raw_fbank_tr05_cont.2.ark:33621499
40go030k /scratch/ravanelm/exp/dirha/fbank/raw_fbank_tr05_cont.4.ark:27768269
