406c020h /scratch/ravanelm/exp/dirha/fbank/raw_fbank_tr05_cont.3.ark:51393869
01wo030u /scratch/ravanelm/exp/dirha/fbank/raw_fbank_tr05_cont.2.ark:18842079
405c020m /scratch/ravanelm/exp/dirha/fbank/raw_fbank_tr05_cont.3.ark:48804639
01lc020w /scratch/ravanelm/exp/dirha/fbank/raw_fbank_tr05_cont.1.ark:51267849
019o0306 /scratch/ravanelm/exp/dirha/fbank/raw_fbank_tr05_cont.1.ark:22557129
01go0306 /scratch/ravanelm/exp/dirha/fbank/raw_fbank_tr05_cont.1.ark:37996299
20mo010o /scratch/ravanelm/exp/dirha/fbank/raw_fbank_tr05_cont.3.ark:28296119
40pc020x /scratch/ravanelm/exp/dirha/fbank/raw_fbank_tr05_cont.4.ark:52149659
404o0314 /scratch/ravanelm/exp/dirha/fbank/raw_fbank_tr05_cont.3.ark:48000909
40go030p /scratch/ravanelm/exp/dirha/fbank/raw_fbank_tr05_cont.4.ark:27974179
409c0215 /scratch/ravanelm/exp/dirha/fbank/raw_fbank_tr05_cont.4.ark:5976159
02ec020u /scratch/ravanelm/exp/dirha/fbank/raw_fbank_tr05_cont.2.ark:53156309
027c0202 /scratch/ravanelm/exp/dirha/fbank/raw_fbank_tr05_cont.2.ark:36661099
01uc020x /scratch/ravanelm/exp/dirha/fbank/raw_fbank_tr05_cont.2.ark:14123789
01pc0205 /scratch/ravanelm/exp/dirha/fbank/raw_fbank_tr05_cont.2.ark:512599
20pc0107 /scratch/ravanelm/exp/dirha/fbank/raw_fbank_tr05_cont.3.ark:31954179
020c021d /scratch/ravanelm/exp/dirha/fbank/raw_fbank_tr05_cont.2.ark:27030369
01go030x /scratch/ravanelm/exp/dirha/fbank/raw_fbank_tr05_cont.1.ark:38898349
018c020x /scratch/ravanelm/exp/dirha/fbank/raw_fbank_tr05_cont.1.ark:18557789
014c020t /scratch/ravanelm/exp/dirha/fbank/raw_fbank_tr05_cont.1.ark:7184739
01io030h /scratch/ravanelm/exp/dirha/fbank/raw_fbank_tr05_cont.1.ark:41783679
409o030x /scratch/ravanelm/exp/dirha/fbank/raw_fbank_tr05_cont.4.ark:7265679
408c021a /scratch/ravanelm/exp/dirha/fbank/raw_fbank_tr05_cont.4.ark:3422839
40go030m /scratch/ravanelm/exp/dirha/fbank/raw_fbank_tr05_cont.4.ark:27829689
02ec020s /scratch/ravanelm/exp/dirha/fbank/raw_fbank_tr05_cont.2.ark:53112889
024c020h /scratch/ravanelm/exp/dirha/fbank/raw_fbank_tr05_cont.2.ark:31398479
40kc020b /scratch/ravanelm/exp/dirha/fbank/raw_fbank_tr05_cont.4.ark:38547289
20ac010d /scratch/ravanelm/exp/dirha/fbank/raw_fbank_tr05_cont.3.ark:11085559
011c0217 /scratch/ravanelm/exp/dirha/fbank/raw_fbank_tr05_cont.1.ark:1185709
01ic0201 /scratch/ravanelm/exp/dirha/fbank/raw_fbank_tr05_cont.1.ark:39677869
013c020k /scratch/ravanelm/exp/dirha/fbank/raw_fbank_tr05_cont.1.ark:4135169
01eo030t /scratch/ravanelm/exp/dirha/fbank/raw_fbank_tr05_cont.1.ark:32669769
20go010n /scratch/ravanelm/exp/dirha/fbank/raw_fbank_tr05_cont.3.ark:21955989
027o0301 /scratch/ravanelm/exp/dirha/fbank/raw_fbank_tr05_cont.2.ark:38045699
02ec020m /scratch/ravanelm/exp/dirha/fbank/raw_fbank_tr05_cont.2.ark:52939469
40do0305 /scratch/ravanelm/exp/dirha/fbank/raw_fbank_tr05_cont.4.ark:18105099
01zo0308 /scratch/ravanelm/exp/dirha/fbank/raw_fbank_tr05_cont.2.ark:24320779
019c020u /scratch/ravanelm/exp/dirha/fbank/raw_fbank_tr05_cont.1.ark:21774499
40go030n /scratch/ravanelm/exp/dirha/fbank/raw_fbank_tr05_cont.4.ark:27902199
01kc021d /scratch/ravanelm/exp/dirha/fbank/raw_fbank_tr05_cont.1.ark:47980939
01wo0314 /scratch/ravanelm/exp/dirha/fbank/raw_fbank_tr05_cont.2.ark:19205819
20mc0101 /scratch/ravanelm/exp/dirha/fbank/raw_fbank_tr05_cont.3.ark:26993959
019c020j /scratch/ravanelm/exp/dirha/fbank/raw_fbank_tr05_cont.1.ark:21525089
01kc021a /scratch/ravanelm/exp/dirha/fbank/raw_fbank_tr05_cont.1.ark:47900769
026c020j /scratch/ravanelm/exp/dirha/fbank/raw_fbank_tr05_cont.2.ark:34335969
404o0315 /scratch/ravanelm/exp/dirha/fbank/raw_fbank_tr05_cont.3.ark:48041579
20cc0102 /scratch/ravanelm/exp/dirha/fbank/raw_fbank_tr05_cont.3.ark:14320419
01eo030x /scratch/ravanelm/exp/dirha/fbank/raw_fbank_tr05_cont.1.ark:32781129
028o030p /scratch/ravanelm/exp/dirha/fbank/raw_fbank_tr05_cont.2.ark:41992999
40hc0205 /scratch/ravanelm/exp/dirha/fbank/raw_fbank_tr05_cont.4.ark:29230119
01uc020i /scratch/ravanelm/exp/dirha/fbank/raw_fbank_tr05_cont.2.ark:13682139
01jo0317 /scratch/ravanelm/exp/dirha/fbank/raw_fbank_tr05_cont.1.ark:46241509
01qc020n /scratch/ravanelm/exp/dirha/fbank/raw_fbank_tr05_cont.2.ark:4348799
019o0312 /scratch/ravanelm/exp/dirha/fbank/raw_fbank_tr05_cont.1.ark:23567849
01wo0302 /scratch/ravanelm/exp/dirha/fbank/raw_fbank_tr05_cont.2.ark:18039949
40ac020e /scratch/ravanelm/exp/dirha/fbank/raw_fbank_tr05_cont.4.ark:8242739
01eo030y /scratch/ravanelm/exp/dirha/fbank/raw_fbank_tr05_cont.1.ark:32829319
40bo030m /scratch/ravanelm/exp/dirha/fbank/raw_fbank_tr05_cont.4.ark:13097569
01po030g /scratch/ravanelm/exp/dirha/fbank/raw_fbank_tr05_cont.2.ark:2462009
40dc020c /scratch/ravanelm/exp/dirha/fbank/raw_fbank_tr05_cont.4.ark:16758309
40lo030d /scratch/ravanelm/exp/dirha/fbank/raw_fbank_tr05_cont.4.ark:43334399
024o0304 /scratch/ravanelm/exp/dirha/fbank/raw_fbank_tr05_cont.2.ark:32419429
01kc020r /scratch/ravanelm/exp/dirha/fbank/raw_fbank_tr05_cont.1.ark:47305079
40do0308 /scratch/ravanelm/exp/dirha/fbank/raw_fbank_tr05_cont.4.ark:18153149
01to031f /scratch/ravanelm/exp/dirha/fbank/raw_fbank_tr05_cont.2.ark:13047369
018o0301 /scratch/ravanelm/exp/dirha/fbank/raw_fbank_tr05_cont.1.ark:19195229
208c010d /scratch/ravanelm/exp/dirha/fbank/raw_fbank_tr05_cont.3.ark:7974549
40go030e /scratch/ravanelm/exp/dirha/fbank/raw_fbank_tr05_cont.4.ark:27527729
40jc020s /scratch/ravanelm/exp/dirha/fbank/raw_fbank_tr05_cont.4.ark:35851729
401c021c /scratch/ravanelm/exp/dirha/fbank/raw_fbank_tr05_cont.3.ark:40970429
01tc0219 /scratch/ravanelm/exp/dirha/fbank/raw_fbank_tr05_cont.2.ark:11099859
404c020u /scratch/ravanelm/exp/dirha/fbank/raw_fbank_tr05_cont.3.ark:46327879
01zc020k /scratch/ravanelm/exp/dirha/fbank/raw_fbank_tr05_cont.2.ark:23151369
40po0317 /scratch/ravanelm/exp/dirha/fbank/raw_fbank_tr05_cont.4.ark:54020689
20mc010l /scratch/ravanelm/exp/dirha/fbank/raw_fbank_tr05_cont.3.ark:27523679
40fc020y /scratch/ravanelm/exp/dirha/fbank/raw_fbank_tr05_cont.4.ark:22959599
020c0216 /scratch/ravanelm/exp/dirha/fbank/raw_fbank_tr05_cont.2.ark:26908639
013c0218 /scratch/ravanelm/exp/dirha/fbank/raw_fbank_tr05_cont.1.ark:4792809
40do0319 /scratch/ravanelm/exp/dirha/fbank/raw_fbank_tr05_cont.4.ark:19286539
016c020y /scratch/ravanelm/exp/dirha/fbank/raw_fbank_tr05_cont.1.ark:13072639
01bo030r /scratch/ravanelm/exp/dirha/fbank/raw_fbank_tr05_cont.1.ark:26532769
20gc0103 /scratch/ravanelm/exp/dirha/fbank/raw_fbank_tr05_cont.3.ark:20789819
40mo0303 /scratch/ravanelm/exp/dirha/fbank/raw_fbank_tr05_cont.4.ark:46470659
20qc010i /scratch/ravanelm/exp/dirha/fbank/raw_fbank_tr05_cont.3.ark:33782359
01mo030c /scratch/ravanelm/exp/dirha/fbank/raw_fbank_tr05_cont.1.ark:55777539
20oo010q /scratch/ravanelm/exp/dirha/fbank/raw_fbank_tr05_cont.3.ark:31746899
027c020q /scratch/ravanelm/exp/dirha/fbank/raw_fbank_tr05_cont.2.ark:37255419
408c0219 /scratch/ravanelm/exp/dirha/fbank/raw_fbank_tr05_cont.4.ark:3408529
01ic0213 /scratch/ravanelm/exp/dirha/fbank/raw_fbank_tr05_cont.1.ark:40787609
027c020n /scratch/ravanelm/exp/dirha/fbank/raw_fbank_tr05_cont.2.ark:37201449
20cc0105 /scratch/ravanelm/exp/dirha/fbank/raw_fbank_tr05_cont.3.ark:14390989
20dc0103 /scratch/ravanelm/exp/dirha/fbank/raw_fbank_tr05_cont.3.ark:15818829
01zc020l /scratch/ravanelm/exp/dirha/fbank/raw_fbank_tr05_cont.2.ark:23200319
02eo030m /scratch/ravanelm/exp/dirha/fbank/raw_fbank_tr05_cont.3.ark:9
01mo0302 /scratch/ravanelm/exp/dirha/fbank/raw_fbank_tr05_cont.1.ark:55437159
01mc0213 /scratch/ravanelm/exp/dirha/fbank/raw_fbank_tr05_cont.1.ark:55048179
029o0317 /scratch/ravanelm/exp/dirha/fbank/raw_fbank_tr05_cont.2.ark:45742489
40kc020w /scratch/ravanelm/exp/dirha/fbank/raw_fbank_tr05_cont.4.ark:39137239
408c020r /scratch/ravanelm/exp/dirha/fbank/raw_fbank_tr05_cont.4.ark:3029339
029c020p /scratch/ravanelm/exp/dirha/fbank/raw_fbank_tr05_cont.2.ark:43540309
01wc020o /scratch/ravanelm/exp/dirha/fbank/raw_fbank_tr05_cont.2.ark:17330909
40ko030k /scratch/ravanelm/exp/dirha/fbank/raw_fbank_tr05_cont.4.ark:40266479
013c020s /scratch/ravanelm/exp/dirha/fbank/raw_fbank_tr05_cont.1.ark:4396449
02eo030n /scratch/ravanelm/exp/dirha/fbank/raw_fbank_tr05_cont.3.ark:52679
01zc021f /scratch/ravanelm/exp/dirha/fbank/raw_fbank_tr05_cont.2.ark:24064739
01io030p /scratch/ravanelm/exp/dirha/fbank/raw_fbank_tr05_cont.1.ark:42095999
01yo0312 /scratch/ravanelm/exp/dirha/fbank/raw_fbank_tr05_cont.2.ark:22243109
40fo030x /scratch/ravanelm/exp/dirha/fbank/raw_fbank_tr05_cont.4.ark:24524409
015o0304 /scratch/ravanelm/exp/dirha/fbank/raw_fbank_tr05_cont.1.ark:10873349
407o030o /scratch/ravanelm/exp/dirha/fbank/raw_fbank_tr05_cont.4.ark:1550269
205c010g /scratch/ravanelm/exp/dirha/fbank/raw_fbank_tr05_cont.3.ark:2878419
20do0102 /scratch/ravanelm/exp/dirha/fbank/raw_fbank_tr05_cont.3.ark:16589229
20qo0102 /scratch/ravanelm/exp/dirha/fbank/raw_fbank_tr05_cont.3.ark:34099589
40ko030p /scratch/ravanelm/exp/dirha/fbank/raw_fbank_tr05_cont.4.ark:40473389
02co030h /scratch/ravanelm/exp/dirha/fbank/raw_fbank_tr05_cont.2.ark:51020899
01gc0207 /scratch/ravanelm/exp/dirha/fbank/raw_fbank_tr05_cont.1.ark:36561389
20oo010a /scratch/ravanelm/exp/dirha/fbank/raw_fbank_tr05_cont.3.ark:31178579
024o031a /scratch/ravanelm/exp/dirha/fbank/raw_fbank_tr05_cont.2.ark:33649249
20to010g /scratch/ravanelm/exp/dirha/fbank/raw_fbank_tr05_cont.3.ark:37809709
01io0315 /scratch/ravanelm/exp/dirha/fbank/raw_fbank_tr05_cont.1.ark:42681799
20no010b /scratch/ravanelm/exp/dirha/fbank/raw_fbank_tr05_cont.3.ark:29631159
01jo0301 /scratch/ravanelm/exp/dirha/fbank/raw_fbank_tr05_cont.1.ark:44590409
405o031d /scratch/ravanelm/exp/dirha/fbank/raw_fbank_tr05_cont.3.ark:50887819
01mo0301 /scratch/ravanelm/exp/dirha/fbank/raw_fbank_tr05_cont.1.ark:55392569
406c0211 /scratch/ravanelm/exp/dirha/fbank/raw_fbank_tr05_cont.3.ark:51845559
40po0304 /scratch/ravanelm/exp/dirha/fbank/raw_fbank_tr05_cont.4.ark:52682199
204c010i /scratch/ravanelm/exp/dirha/fbank/raw_fbank_tr05_cont.3.ark:1409509
01tc0211 /scratch/ravanelm/exp/dirha/fbank/raw_fbank_tr05_cont.2.ark:10878099
40lc021f /scratch/ravanelm/exp/dirha/fbank/raw_fbank_tr05_cont.4.ark:42875889
014o0309 /scratch/ravanelm/exp/dirha/fbank/raw_fbank_tr05_cont.1.ark:8036489
40gc020x /scratch/ravanelm/exp/dirha/fbank/raw_fbank_tr05_cont.4.ark:26252689
40cc0208 /scratch/ravanelm/exp/dirha/fbank/raw_fbank_tr05_cont.4.ark:14152529
40go030x /scratch/ravanelm/exp/dirha/fbank/raw_fbank_tr05_cont.4.ark:28355659
40ic0213 /scratch/ravanelm/exp/dirha/fbank/raw_fbank_tr05_cont.4.ark:33176659
40jc020u /scratch/ravanelm/exp/dirha/fbank/raw_fbank_tr05_cont.4.ark:35901229
01jc020t /scratch/ravanelm/exp/dirha/fbank/raw_fbank_tr05_cont.1.ark:43825289
40ho031c /scratch/ravanelm/exp/dirha/fbank/raw_fbank_tr05_cont.4.ark:31985139
40ec021g /scratch/ravanelm/exp/dirha/fbank/raw_fbank_tr05_cont.4.ark:20575379
01ro0316 /scratch/ravanelm/exp/dirha/fbank/raw_fbank_tr05_cont.2.ark:9418099
026c020k /scratch/ravanelm/exp/dirha/fbank/raw_fbank_tr05_cont.2.ark:34370799
207o010j /scratch/ravanelm/exp/dirha/fbank/raw_fbank_tr05_cont.3.ark:7256229
016o0308 /scratch/ravanelm/exp/dirha/fbank/raw_fbank_tr05_cont.1.ark:13608479
409o0316 /scratch/ravanelm/exp/dirha/fbank/raw_fbank_tr05_cont.4.ark:7507749
40gc0215 /scratch/ravanelm/exp/dirha/fbank/raw_fbank_tr05_cont.4.ark:26601249
029c020h /scratch/ravanelm/exp/dirha/fbank/raw_fbank_tr05_cont.2.ark:43285029
40pc020e /scratch/ravanelm/exp/dirha/fbank/raw_fbank_tr05_cont.4.ark:51686209
01lo030c /scratch/ravanelm/exp/dirha/fbank/raw_fbank_tr05_cont.1.ark:52387099
40ec020l /scratch/ravanelm/exp/dirha/fbank/raw_fbank_tr05_cont.4.ark:19869449
01gc0218 /scratch/ravanelm/exp/dirha/fbank/raw_fbank_tr05_cont.1.ark:37587459
027c020r /scratch/ravanelm/exp/dirha/fbank/raw_fbank_tr05_cont.2.ark:37286969
024c0202 /scratch/ravanelm/exp/dirha/fbank/raw_fbank_tr05_cont.2.ark:30939309
01lc020o /scratch/ravanelm/exp/dirha/fbank/raw_fbank_tr05_cont.1.ark:51033369
20ro0103 /scratch/ravanelm/exp/dirha/fbank/raw_fbank_tr05_cont.3.ark:35745249
40nc020k /scratch/ravanelm/exp/dirha/fbank/raw_fbank_tr05_cont.4.ark:48619959
40ec0206 /scratch/ravanelm/exp/dirha/fbank/raw_fbank_tr05_cont.4.ark:19536079
01fc0211 /scratch/ravanelm/exp/dirha/fbank/raw_fbank_tr05_cont.1.ark:34363729
40no030g /scratch/ravanelm/exp/dirha/fbank/raw_fbank_tr05_cont.4.ark:50157759
20ac0103 /scratch/ravanelm/exp/dirha/fbank/raw_fbank_tr05_cont.3.ark:10756619
40ec021h /scratch/ravanelm/exp/dirha/fbank/raw_fbank_tr05_cont.4.ark:20608689
401o0313 /scratch/ravanelm/exp/dirha/fbank/raw_fbank_tr05_cont.3.ark:42416179
01jc020d /scratch/ravanelm/exp/dirha/fbank/raw_fbank_tr05_cont.1.ark:43388929
20ho010l /scratch/ravanelm/exp/dirha/fbank/raw_fbank_tr05_cont.3.ark:23226109
20co010h /scratch/ravanelm/exp/dirha/fbank/raw_fbank_tr05_cont.3.ark:15459909
02eo031b /scratch/ravanelm/exp/dirha/fbank/raw_fbank_tr05_cont.3.ark:848059
40gc0217 /scratch/ravanelm/exp/dirha/fbank/raw_fbank_tr05_cont.4.ark:26693029
407o0311 /scratch/ravanelm/exp/dirha/fbank/raw_fbank_tr05_cont.4.ark:2066059
014c021d /scratch/ravanelm/exp/dirha/fbank/raw_fbank_tr05_cont.1.ark:7648419
404o030u /scratch/ravanelm/exp/dirha/fbank/raw_fbank_tr05_cont.3.ark:47721289
40fc0213 /scratch/ravanelm/exp/dirha/fbank/raw_fbank_tr05_cont.4.ark:23107669
404o0304 /scratch/ravanelm/exp/dirha/fbank/raw_fbank_tr05_cont.3.ark:46902669
02ec020t /scratch/ravanelm/exp/dirha/fbank/raw_fbank_tr05_cont.2.ark:53132519
015o0307 /scratch/ravanelm/exp/dirha/fbank/raw_fbank_tr05_cont.1.ark:10964879
011c020i /scratch/ravanelm/exp/dirha/fbank/raw_fbank_tr05_cont.1.ark:452199
408o030s /scratch/ravanelm/exp/dirha/fbank/raw_fbank_tr05_cont.4.ark:4376329
01mc021f /scratch/ravanelm/exp/dirha/fbank/raw_fbank_tr05_cont.1.ark:55358579
20gc010a /scratch/ravanelm/exp/dirha/fbank/raw_fbank_tr05_cont.3.ark:20943309
011o030y /scratch/ravanelm/exp/dirha/fbank/raw_fbank_tr05_cont.1.ark:2685219
40gc020n /scratch/ravanelm/exp/dirha/fbank/raw_fbank_tr05_cont.4.ark:25951149
01to0312 /scratch/ravanelm/exp/dirha/fbank/raw_fbank_tr05_cont.2.ark:12576699
409o030y /scratch/ravanelm/exp/dirha/fbank/raw_fbank_tr05_cont.4.ark:7291909
024c020e /scratch/ravanelm/exp/dirha/fbank/raw_fbank_tr05_cont.2.ark:31306909
20vo010n /scratch/ravanelm/exp/dirha/fbank/raw_fbank_tr05_cont.3.ark:39426139
20io0105 /scratch/ravanelm/exp/dirha/fbank/raw_fbank_tr05_cont.3.ark:24173739
02bc021c /scratch/ravanelm/exp/dirha/fbank/raw_fbank_tr05_cont.2.ark:47341169
40co0313 /scratch/ravanelm/exp/dirha/fbank/raw_fbank_tr05_cont.4.ark:16122559
01ic021d /scratch/ravanelm/exp/dirha/fbank/raw_fbank_tr05_cont.1.ark:41009909
01qc020j /scratch/ravanelm/exp/dirha/fbank/raw_fbank_tr05_cont.2.ark:4286429
029o030h /scratch/ravanelm/exp/dirha/fbank/raw_fbank_tr05_cont.2.ark:44809269
01zo030e /scratch/ravanelm/exp/dirha/fbank/raw_fbank_tr05_cont.2.ark:24543199
027o030a /scratch/ravanelm/exp/dirha/fbank/raw_fbank_tr05_cont.2.ark:38391329
40jc020o /scratch/ravanelm/exp/dirha/fbank/raw_fbank_tr05_cont.4.ark:35729809
20gc010c /scratch/ravanelm/exp/dirha/fbank/raw_fbank_tr05_cont.3.ark:20997049
020c021e /scratch/ravanelm/exp/dirha/fbank/raw_fbank_tr05_cont.2.ark:27043279
20no0101 /scratch/ravanelm/exp/dirha/fbank/raw_fbank_tr05_cont.3.ark:29232299
01gc0209 /scratch/ravanelm/exp/dirha/fbank/raw_fbank_tr05_cont.1.ark:36623249
027c021g /scratch/ravanelm/exp/dirha/fbank/raw_fbank_tr05_cont.2.ark:38009039
405o030e /scratch/ravanelm/exp/dirha/fbank/raw_fbank_tr05_cont.3.ark:49835169
40pc0205 /scratch/ravanelm/exp/dirha/fbank/raw_fbank_tr05_cont.4.ark:51512939
403o030q /scratch/ravanelm/exp/dirha/fbank/raw_fbank_tr05_cont.3.ark:44855069
01yo030j /scratch/ravanelm/exp/dirha/fbank/raw_fbank_tr05_cont.2.ark:21523619
01ro030u /scratch/ravanelm/exp/dirha/fbank/raw_fbank_tr05_cont.2.ark:9055179
207o010l /scratch/ravanelm/exp/dirha/fbank/raw_fbank_tr05_cont.3.ark:7311729
021o030t /scratch/ravanelm/exp/dirha/fbank/raw_fbank_tr05_cont.2.ark:30247709
01uc0218 /scratch/ravanelm/exp/dirha/fbank/raw_fbank_tr05_cont.2.ark:14520079
20oo010c /scratch/ravanelm/exp/dirha/fbank/raw_fbank_tr05_cont.3.ark:31237439
011o031a /scratch/ravanelm/exp/dirha/fbank/raw_fbank_tr05_cont.1.ark:3239099
40fo030e /scratch/ravanelm/exp/dirha/fbank/raw_fbank_tr05_cont.4.ark:23868639
406c020f /scratch/ravanelm/exp/dirha/fbank/raw_fbank_tr05_cont.3.ark:51348889
401c020e /scratch/ravanelm/exp/dirha/fbank/raw_fbank_tr05_cont.3.ark:40009169
019o030l /scratch/ravanelm/exp/dirha/fbank/raw_fbank_tr05_cont.1.ark:23078699
20vo010l /scratch/ravanelm/exp/dirha/fbank/raw_fbank_tr05_cont.3.ark:39330159
02ec0211 /scratch/ravanelm/exp/dirha/fbank/raw_fbank_tr05_cont.2.ark:53375879
20eo0103 /scratch/ravanelm/exp/dirha/fbank/raw_fbank_tr05_cont.3.ark:18339749
409o0309 /scratch/ravanelm/exp/dirha/fbank/raw_fbank_tr05_cont.4.ark:6535799
20fc0101 /scratch/ravanelm/exp/dirha/fbank/raw_fbank_tr05_cont.3.ark:19274709
021c020n /scratch/ravanelm/exp/dirha/fbank/raw_fbank_tr05_cont.2.ark:28682399
40hc020n /scratch/ravanelm/exp/dirha/fbank/raw_fbank_tr05_cont.4.ark:29681259
01yo0309 /scratch/ravanelm/exp/dirha/fbank/raw_fbank_tr05_cont.2.ark:21179759
405c0201 /scratch/ravanelm/exp/dirha/fbank/raw_fbank_tr05_cont.3.ark:48237809
01bo030v /scratch/ravanelm/exp/dirha/fbank/raw_fbank_tr05_cont.1.ark:26687209
40kc0204 /scratch/ravanelm/exp/dirha/fbank/raw_fbank_tr05_cont.4.ark:38343279
40eo0316 /scratch/ravanelm/exp/dirha/fbank/raw_fbank_tr05_cont.4.ark:21868229
40bc0207 /scratch/ravanelm/exp/dirha/fbank/raw_fbank_tr05_cont.4.ark:11074039
20rc0106 /scratch/ravanelm/exp/dirha/fbank/raw_fbank_tr05_cont.3.ark:35180969
027o0307 /scratch/ravanelm/exp/dirha/fbank/raw_fbank_tr05_cont.2.ark:38285479
20nc010j /scratch/ravanelm/exp/dirha/fbank/raw_fbank_tr05_cont.3.ark:29021049
40no030a /scratch/ravanelm/exp/dirha/fbank/raw_fbank_tr05_cont.4.ark:49960539
40dc020l /scratch/ravanelm/exp/dirha/fbank/raw_fbank_tr05_cont.4.ark:17043699
020c0202 /scratch/ravanelm/exp/dirha/fbank/raw_fbank_tr05_cont.2.ark:26147399
40jc0215 /scratch/ravanelm/exp/dirha/fbank/raw_fbank_tr05_cont.4.ark:36209359
017c020k /scratch/ravanelm/exp/dirha/fbank/raw_fbank_tr05_cont.1.ark:15262419
01zo0301 /scratch/ravanelm/exp/dirha/fbank/raw_fbank_tr05_cont.2.ark:24094129
01zc020j /scratch/ravanelm/exp/dirha/fbank/raw_fbank_tr05_cont.2.ark:23122659
01go030c /scratch/ravanelm/exp/dirha/fbank/raw_fbank_tr05_cont.1.ark:38194519
02cc020i /scratch/ravanelm/exp/dirha/fbank/raw_fbank_tr05_cont.2.ark:49691449
403o0306 /scratch/ravanelm/exp/dirha/fbank/raw_fbank_tr05_cont.3.ark:44249149
01ko030y /scratch/ravanelm/exp/dirha/fbank/raw_fbank_tr05_cont.1.ark:49450309
01kc0201 /scratch/ravanelm/exp/dirha/fbank/raw_fbank_tr05_cont.1.ark:46477529
20fo0102 /scratch/ravanelm/exp/dirha/fbank/raw_fbank_tr05_cont.3.ark:19972639
01po0314 /scratch/ravanelm/exp/dirha/fbank/raw_fbank_tr05_cont.2.ark:3349099
20mo0105 /scratch/ravanelm/exp/dirha/fbank/raw_fbank_tr05_cont.3.ark:27794669
206o010m /scratch/ravanelm/exp/dirha/fbank/raw_fbank_tr05_cont.3.ark:5655539
013c020c /scratch/ravanelm/exp/dirha/fbank/raw_fbank_tr05_cont.1.ark:3884729
40gc020k /scratch/ravanelm/exp/dirha/fbank/raw_fbank_tr05_cont.4.ark:25855539
01uo030z /scratch/ravanelm/exp/dirha/fbank/raw_fbank_tr05_cont.2.ark:16042379
01do030s /scratch/ravanelm/exp/dirha/fbank/raw_fbank_tr05_cont.1.ark:29632389
01lc020c /scratch/ravanelm/exp/dirha/fbank/raw_fbank_tr05_cont.1.ark:50661169
01uc021e /scratch/ravanelm/exp/dirha/fbank/raw_fbank_tr05_cont.2.ark:14683499
40eo0301 /scratch/ravanelm/exp/dirha/fbank/raw_fbank_tr05_cont.4.ark:20639799
01pc021e /scratch/ravanelm/exp/dirha/fbank/raw_fbank_tr05_cont.2.ark:1856189
029c0204 /scratch/ravanelm/exp/dirha/fbank/raw_fbank_tr05_cont.2.ark:42948599
40gc0209 /scratch/ravanelm/exp/dirha/fbank/raw_fbank_tr05_cont.4.ark:25461609
017c020m /scratch/ravanelm/exp/dirha/fbank/raw_fbank_tr05_cont.1.ark:15323559
40mo030a /scratch/ravanelm/exp/dirha/fbank/raw_fbank_tr05_cont.4.ark:46740669
01zo030s /scratch/ravanelm/exp/dirha/fbank/raw_fbank_tr05_cont.2.ark:25171619
024o0315 /scratch/ravanelm/exp/dirha/fbank/raw_fbank_tr05_cont.2.ark:33529939
01ic0212 /scratch/ravanelm/exp/dirha/fbank/raw_fbank_tr05_cont.1.ark:40762179
017o030j /scratch/ravanelm/exp/dirha/fbank/raw_fbank_tr05_cont.1.ark:16653629
406o030q /scratch/ravanelm/exp/dirha/fbank/raw_fbank_tr05_cont.3.ark:52963759
01qc020l /scratch/ravanelm/exp/dirha/fbank/raw_fbank_tr05_cont.2.ark:4315339
013o030h /scratch/ravanelm/exp/dirha/fbank/raw_fbank_tr05_cont.1.ark:5440369
408o0304 /scratch/ravanelm/exp/dirha/fbank/raw_fbank_tr05_cont.4.ark:3654209
026c020s /scratch/ravanelm/exp/dirha/fbank/raw_fbank_tr05_cont.2.ark:34528879
01qo031e /scratch/ravanelm/exp/dirha/fbank/raw_fbank_tr05_cont.2.ark:6619019
01zo030y /scratch/ravanelm/exp/dirha/fbank/raw_fbank_tr05_cont.2.ark:25457199
40ac020m /scratch/ravanelm/exp/dirha/fbank/raw_fbank_tr05_cont.4.ark:8487179
011o0314 /scratch/ravanelm/exp/dirha/fbank/raw_fbank_tr05_cont.1.ark:2977759
409o030z /scratch/ravanelm/exp/dirha/fbank/raw_fbank_tr05_cont.4.ark:7307779
029c020x /scratch/ravanelm/exp/dirha/fbank/raw_fbank_tr05_cont.2.ark:43768709
024o031f /scratch/ravanelm/exp/dirha/fbank/raw_fbank_tr05_cont.2.ark:33807999
40hc020g /scratch/ravanelm/exp/dirha/fbank/raw_fbank_tr05_cont.4.ark:29516329
40po030m /scratch/ravanelm/exp/dirha/fbank/raw_fbank_tr05_cont.4.ark:53330259
026c020y /scratch/ravanelm/exp/dirha/fbank/raw_fbank_tr05_cont.2.ark:34652299
01uc020h /scratch/ravanelm/exp/dirha/fbank/raw_fbank_tr05_cont.2.ark:13642749
40ao0310 /scratch/ravanelm/exp/dirha/fbank/raw_fbank_tr05_cont.4.ark:10415499
40bo030w /scratch/ravanelm/exp/dirha/fbank/raw_fbank_tr05_cont.4.ark:13463389
01tc020l /scratch/ravanelm/exp/dirha/fbank/raw_fbank_tr05_cont.2.ark:10303259
013o030k /scratch/ravanelm/exp/dirha/fbank/raw_fbank_tr05_cont.1.ark:5539979
01do031b /scratch/ravanelm/exp/dirha/fbank/raw_fbank_tr05_cont.1.ark:30260999
40dc0219 /scratch/ravanelm/exp/dirha/fbank/raw_fbank_tr05_cont.4.ark:17756379
01mc0208 /scratch/ravanelm/exp/dirha/fbank/raw_fbank_tr05_cont.1.ark:54242409
01rc020n /scratch/ravanelm/exp/dirha/fbank/raw_fbank_tr05_cont.2.ark:7366209
405c020e /scratch/ravanelm/exp/dirha/fbank/raw_fbank_tr05_cont.3.ark:48592639
026c020o /scratch/ravanelm/exp/dirha/fbank/raw_fbank_tr05_cont.2.ark:34431599
01wc020l /scratch/ravanelm/exp/dirha/fbank/raw_fbank_tr05_cont.2.ark:17228179
20ro0104 /scratch/ravanelm/exp/dirha/fbank/raw_fbank_tr05_cont.3.ark:35783519
01zc020u /scratch/ravanelm/exp/dirha/fbank/raw_fbank_tr05_cont.2.ark:23378469
017o030c /scratch/ravanelm/exp/dirha/fbank/raw_fbank_tr05_cont.1.ark:16421419
01ec0215 /scratch/ravanelm/exp/dirha/fbank/raw_fbank_tr05_cont.1.ark:31555669
405c0218 /scratch/ravanelm/exp/dirha/fbank/raw_fbank_tr05_cont.3.ark:49279579
20vc010i /scratch/ravanelm/exp/dirha/fbank/raw_fbank_tr05_cont.3.ark:38573719
01yc0205 /scratch/ravanelm/exp/dirha/fbank/raw_fbank_tr05_cont.2.ark:19627599
024o0316 /scratch/ravanelm/exp/dirha/fbank/raw_fbank_tr05_cont.2.ark:33556929
407c021d /scratch/ravanelm/exp/dirha/fbank/raw_fbank_tr05_cont.4.ark:488279
404c020v /scratch/ravanelm/exp/dirha/fbank/raw_fbank_tr05_cont.3.ark:46335989
403o030l /scratch/ravanelm/exp/dirha/fbank/raw_fbank_tr05_cont.3.ark:44735959
017c020a /scratch/ravanelm/exp/dirha/fbank/raw_fbank_tr05_cont.1.ark:15035519
20ic010g /scratch/ravanelm/exp/dirha/fbank/raw_fbank_tr05_cont.3.ark:23794789
027o031b /scratch/ravanelm/exp/dirha/fbank/raw_fbank_tr05_cont.2.ark:39754879
01tc020q /scratch/ravanelm/exp/dirha/fbank/raw_fbank_tr05_cont.2.ark:10486889
01ko030c /scratch/ravanelm/exp/dirha/fbank/raw_fbank_tr05_cont.1.ark:48540729
204o010n /scratch/ravanelm/exp/dirha/fbank/raw_fbank_tr05_cont.3.ark:2290809
018c020o /scratch/ravanelm/exp/dirha/fbank/raw_fbank_tr05_cont.1.ark:18278719
01bo0317 /scratch/ravanelm/exp/dirha/fbank/raw_fbank_tr05_cont.1.ark:27104779
40ko0319 /scratch/ravanelm/exp/dirha/fbank/raw_fbank_tr05_cont.4.ark:41140589
013c020w /scratch/ravanelm/exp/dirha/fbank/raw_fbank_tr05_cont.1.ark:4513649
405o0311 /scratch/ravanelm/exp/dirha/fbank/raw_fbank_tr05_cont.3.ark:50487219
028o030y /scratch/ravanelm/exp/dirha/fbank/raw_fbank_tr05_cont.2.ark:42299469
01ec020b /scratch/ravanelm/exp/dirha/fbank/raw_fbank_tr05_cont.1.ark:30699889
027c020g /scratch/ravanelm/exp/dirha/fbank/raw_fbank_tr05_cont.2.ark:37043239
20fc010g /scratch/ravanelm/exp/dirha/fbank/raw_fbank_tr05_cont.3.ark:19666279
20cc010n /scratch/ravanelm/exp/dirha/fbank/raw_fbank_tr05_cont.3.ark:14865209
01fo0317 /scratch/ravanelm/exp/dirha/fbank/raw_fbank_tr05_cont.1.ark:36149429
026c0215 /scratch/ravanelm/exp/dirha/fbank/raw_fbank_tr05_cont.2.ark:34820029
20ic010m /scratch/ravanelm/exp/dirha/fbank/raw_fbank_tr05_cont.3.ark:23949049
40gc0201 /scratch/ravanelm/exp/dirha/fbank/raw_fbank_tr05_cont.4.ark:25186449
40kc0205 /scratch/ravanelm/exp/dirha/fbank/raw_fbank_tr05_cont.4.ark:38374029
01lo0316 /scratch/ravanelm/exp/dirha/fbank/raw_fbank_tr05_cont.1.ark:53687399
014o0316 /scratch/ravanelm/exp/dirha/fbank/raw_fbank_tr05_cont.1.ark:9192079
40ac020c /scratch/ravanelm/exp/dirha/fbank/raw_fbank_tr05_cont.4.ark:8190799
01pc021b /scratch/ravanelm/exp/dirha/fbank/raw_fbank_tr05_cont.2.ark:1737219
01bo030w /scratch/ravanelm/exp/dirha/fbank/raw_fbank_tr05_cont.1.ark:26731679
01zc021c /scratch/ravanelm/exp/dirha/fbank/raw_fbank_tr05_cont.2.ark:23975689
019c021b /scratch/ravanelm/exp/dirha/fbank/raw_fbank_tr05_cont.1.ark:22264489
20po010p /scratch/ravanelm/exp/dirha/fbank/raw_fbank_tr05_cont.3.ark:33150909
20vo010b /scratch/ravanelm/exp/dirha/fbank/raw_fbank_tr05_cont.3.ark:39032419
017c020x /scratch/ravanelm/exp/dirha/fbank/raw_fbank_tr05_cont.1.ark:15555729
024o030l /scratch/ravanelm/exp/dirha/fbank/raw_fbank_tr05_cont.2.ark:32965299
20bo0109 /scratch/ravanelm/exp/dirha/fbank/raw_fbank_tr05_cont.3.ark:13465419
02ec021a /scratch/ravanelm/exp/dirha/fbank/raw_fbank_tr05_cont.2.ark:53677549
205c010i /scratch/ravanelm/exp/dirha/fbank/raw_fbank_tr05_cont.3.ark:2925999
021o0312 /scratch/ravanelm/exp/dirha/fbank/raw_fbank_tr05_cont.2.ark:30503939
011c020p /scratch/ravanelm/exp/dirha/fbank/raw_fbank_tr05_cont.1.ark:664729
40mc020v /scratch/ravanelm/exp/dirha/fbank/raw_fbank_tr05_cont.4.ark:45784299
011c0215 /scratch/ravanelm/exp/dirha/fbank/raw_fbank_tr05_cont.1.ark:1130249
01fc020b /scratch/ravanelm/exp/dirha/fbank/raw_fbank_tr05_cont.1.ark:33679029
407o0310 /scratch/ravanelm/exp/dirha/fbank/raw_fbank_tr05_cont.4.ark:2038869
406c0218 /scratch/ravanelm/exp/dirha/fbank/raw_fbank_tr05_cont.3.ark:52047809
01wc021c /scratch/ravanelm/exp/dirha/fbank/raw_fbank_tr05_cont.2.ark:17884679
20go010l /scratch/ravanelm/exp/dirha/fbank/raw_fbank_tr05_cont.3.ark:21902169
01fc020f /scratch/ravanelm/exp/dirha/fbank/raw_fbank_tr05_cont.1.ark:33826149
019c0205 /scratch/ravanelm/exp/dirha/fbank/raw_fbank_tr05_cont.1.ark:21194029
406o0313 /scratch/ravanelm/exp/dirha/fbank/raw_fbank_tr05_cont.3.ark:53421189
40fc020c /scratch/ravanelm/exp/dirha/fbank/raw_fbank_tr05_cont.4.ark:22315899
40lo0310 /scratch/ravanelm/exp/dirha/fbank/raw_fbank_tr05_cont.4.ark:44438969
01wo030v /scratch/ravanelm/exp/dirha/fbank/raw_fbank_tr05_cont.2.ark:18878869
020o0312 /scratch/ravanelm/exp/dirha/fbank/raw_fbank_tr05_cont.2.ark:27716699
20rc010c /scratch/ravanelm/exp/dirha/fbank/raw_fbank_tr05_cont.3.ark:35307949
40jc0208 /scratch/ravanelm/exp/dirha/fbank/raw_fbank_tr05_cont.4.ark:35327209
020o0307 /scratch/ravanelm/exp/dirha/fbank/raw_fbank_tr05_cont.2.ark:27215569
01rc021d /scratch/ravanelm/exp/dirha/fbank/raw_fbank_tr05_cont.2.ark:8076029
015c0203 /scratch/ravanelm/exp/dirha/fbank/raw_fbank_tr05_cont.1.ark:9514459
401o031d /scratch/ravanelm/exp/dirha/fbank/raw_fbank_tr05_cont.3.ark:42841439
40po0314 /scratch/ravanelm/exp/dirha/fbank/raw_fbank_tr05_cont.4.ark:53933999
408o0301 /scratch/ravanelm/exp/dirha/fbank/raw_fbank_tr05_cont.4.ark:3573839
01bc0207 /scratch/ravanelm/exp/dirha/fbank/raw_fbank_tr05_cont.1.ark:23972069
40mc0209 /scratch/ravanelm/exp/dirha/fbank/raw_fbank_tr05_cont.4.ark:45240039
20mo010l /scratch/ravanelm/exp/dirha/fbank/raw_fbank_tr05_cont.3.ark:28230989
02co0301 /scratch/ravanelm/exp/dirha/fbank/raw_fbank_tr05_cont.2.ark:50541459
407c0202 /scratch/ravanelm/exp/dirha/fbank/raw_fbank_tr05_cont.3.ark:53764029
40mo030j /scratch/ravanelm/exp/dirha/fbank/raw_fbank_tr05_cont.4.ark:47035139
40fo030r /scratch/ravanelm/exp/dirha/fbank/raw_fbank_tr05_cont.4.ark:24319109
01ic020s /scratch/ravanelm/exp/dirha/fbank/raw_fbank_tr05_cont.1.ark:40498719
01ec0210 /scratch/ravanelm/exp/dirha/fbank/raw_fbank_tr05_cont.1.ark:31374719
407o0305 /scratch/ravanelm/exp/dirha/fbank/raw_fbank_tr05_cont.4.ark:784419
018o0317 /scratch/ravanelm/exp/dirha/fbank/raw_fbank_tr05_cont.1.ark:20839609
01ro031b /scratch/ravanelm/exp/dirha/fbank/raw_fbank_tr05_cont.2.ark:9533009
01fc020l /scratch/ravanelm/exp/dirha/fbank/raw_fbank_tr05_cont.1.ark:33939409
20io0101 /scratch/ravanelm/exp/dirha/fbank/raw_fbank_tr05_cont.3.ark:24032419
20mc010d /scratch/ravanelm/exp/dirha/fbank/raw_fbank_tr05_cont.3.ark:27306879
02bc0209 /scratch/ravanelm/exp/dirha/fbank/raw_fbank_tr05_cont.2.ark:46231399
027o030m /scratch/ravanelm/exp/dirha/fbank/raw_fbank_tr05_cont.2.ark:38875289
02bc020j /scratch/ravanelm/exp/dirha/fbank/raw_fbank_tr05_cont.2.ark:46544219
01ic020r /scratch/ravanelm/exp/dirha/fbank/raw_fbank_tr05_cont.1.ark:40459329
40fo030l /scratch/ravanelm/exp/dirha/fbank/raw_fbank_tr05_cont.4.ark:24126929
403c020f /scratch/ravanelm/exp/dirha/fbank/raw_fbank_tr05_cont.3.ark:43143849
015o030q /scratch/ravanelm/exp/dirha/fbank/raw_fbank_tr05_cont.1.ark:11642089
205o0104 /scratch/ravanelm/exp/dirha/fbank/raw_fbank_tr05_cont.3.ark:3235529
40do0313 /scratch/ravanelm/exp/dirha/fbank/raw_fbank_tr05_cont.4.ark:19138239
01rc020a /scratch/ravanelm/exp/dirha/fbank/raw_fbank_tr05_cont.2.ark:6990179
405c0209 /scratch/ravanelm/exp/dirha/fbank/raw_fbank_tr05_cont.3.ark:48451009
014c021h /scratch/ravanelm/exp/dirha/fbank/raw_fbank_tr05_cont.1.ark:7754339
01wc020w /scratch/ravanelm/exp/dirha/fbank/raw_fbank_tr05_cont.2.ark:17512709
01do0314 /scratch/ravanelm/exp/dirha/fbank/raw_fbank_tr05_cont.1.ark:30022229
40go0304 /scratch/ravanelm/exp/dirha/fbank/raw_fbank_tr05_cont.4.ark:27158509
20hc010n /scratch/ravanelm/exp/dirha/fbank/raw_fbank_tr05_cont.3.ark:22510589
20fc010q /scratch/ravanelm/exp/dirha/fbank/raw_fbank_tr05_cont.3.ark:19923459
01wc020i /scratch/ravanelm/exp/dirha/fbank/raw_fbank_tr05_cont.2.ark:17138649
011c020u /scratch/ravanelm/exp/dirha/fbank/raw_fbank_tr05_cont.1.ark:801759
01yo030z /scratch/ravanelm/exp/dirha/fbank/raw_fbank_tr05_cont.2.ark:22111019
020o030b /scratch/ravanelm/exp/dirha/fbank/raw_fbank_tr05_cont.2.ark:27275619
40mc021e /scratch/ravanelm/exp/dirha/fbank/raw_fbank_tr05_cont.4.ark:46283589
027c0203 /scratch/ravanelm/exp/dirha/fbank/raw_fbank_tr05_cont.2.ark:36678889
018c020g /scratch/ravanelm/exp/dirha/fbank/raw_fbank_tr05_cont.1.ark:18066039
021c020s /scratch/ravanelm/exp/dirha/fbank/raw_fbank_tr05_cont.2.ark:28837949
01lc021e /scratch/ravanelm/exp/dirha/fbank/raw_fbank_tr05_cont.1.ark:51845669
40kc020h /scratch/ravanelm/exp/dirha/fbank/raw_fbank_tr05_cont.4.ark:38723509
20do010k /scratch/ravanelm/exp/dirha/fbank/raw_fbank_tr05_cont.3.ark:17225769
029o031e /scratch/ravanelm/exp/dirha/fbank/raw_fbank_tr05_cont.2.ark:45957059
20vo010c /scratch/ravanelm/exp/dirha/fbank/raw_fbank_tr05_cont.3.ark:39067489
20co0104 /scratch/ravanelm/exp/dirha/fbank/raw_fbank_tr05_cont.3.ark:15035919
40no030u /scratch/ravanelm/exp/dirha/fbank/raw_fbank_tr05_cont.4.ark:50654939
40cc020p /scratch/ravanelm/exp/dirha/fbank/raw_fbank_tr05_cont.4.ark:14539519
01eo0318 /scratch/ravanelm/exp/dirha/fbank/raw_fbank_tr05_cont.1.ark:33131939
020o0308 /scratch/ravanelm/exp/dirha/fbank/raw_fbank_tr05_cont.2.ark:27235119
01uc020t /scratch/ravanelm/exp/dirha/fbank/raw_fbank_tr05_cont.2.ark:13995429
01yo0315 /scratch/ravanelm/exp/dirha/fbank/raw_fbank_tr05_cont.2.ark:22321999
01kc0217 /scratch/ravanelm/exp/dirha/fbank/raw_fbank_tr05_cont.1.ark:47796679
026o0311 /scratch/ravanelm/exp/dirha/fbank/raw_fbank_tr05_cont.2.ark:36248589
017c020h /scratch/ravanelm/exp/dirha/fbank/raw_fbank_tr05_cont.1.ark:15197609
40fo0306 /scratch/ravanelm/exp/dirha/fbank/raw_fbank_tr05_cont.4.ark:23613399
40fo0304 /scratch/ravanelm/exp/dirha/fbank/raw_fbank_tr05_cont.4.ark:23561259
40mo030k /scratch/ravanelm/exp/dirha/fbank/raw_fbank_tr05_cont.4.ark:47070529
40co030z /scratch/ravanelm/exp/dirha/fbank/raw_fbank_tr05_cont.4.ark:16007679
20gc0108 /scratch/ravanelm/exp/dirha/fbank/raw_fbank_tr05_cont.3.ark:20899169
20ec0109 /scratch/ravanelm/exp/dirha/fbank/raw_fbank_tr05_cont.3.ark:17800329
014o0319 /scratch/ravanelm/exp/dirha/fbank/raw_fbank_tr05_cont.1.ark:9276409
20fc0105 /scratch/ravanelm/exp/dirha/fbank/raw_fbank_tr05_cont.3.ark:19379789
01ko031c /scratch/ravanelm/exp/dirha/fbank/raw_fbank_tr05_cont.1.ark:49992129
01ro0314 /scratch/ravanelm/exp/dirha/fbank/raw_fbank_tr05_cont.2.ark:9377519
01ec021b /scratch/ravanelm/exp/dirha/fbank/raw_fbank_tr05_cont.1.ark:31754369
013c020j /scratch/ravanelm/exp/dirha/fbank/raw_fbank_tr05_cont.1.ark:4112979
20mc010e /scratch/ravanelm/exp/dirha/fbank/raw_fbank_tr05_cont.3.ark:27341949
015o030x /scratch/ravanelm/exp/dirha/fbank/raw_fbank_tr05_cont.1.ark:11819979
408o030y /scratch/ravanelm/exp/dirha/fbank/raw_fbank_tr05_cont.4.ark:4512869
02cc020e /scratch/ravanelm/exp/dirha/fbank/raw_fbank_tr05_cont.2.ark:49607409
20bc010h /scratch/ravanelm/exp/dirha/fbank/raw_fbank_tr05_cont.3.ark:12908939
40fc020d /scratch/ravanelm/exp/dirha/fbank/raw_fbank_tr05_cont.4.ark:22344849
40dc020h /scratch/ravanelm/exp/dirha/fbank/raw_fbank_tr05_cont.4.ark:16918899
20ao010h /scratch/ravanelm/exp/dirha/fbank/raw_fbank_tr05_cont.3.ark:12065199
40mc020r /scratch/ravanelm/exp/dirha/fbank/raw_fbank_tr05_cont.4.ark:45693019
029c0206 /scratch/ravanelm/exp/dirha/fbank/raw_fbank_tr05_cont.2.ark:43002699
018c021d /scratch/ravanelm/exp/dirha/fbank/raw_fbank_tr05_cont.1.ark:19040189
018o0312 /scratch/ravanelm/exp/dirha/fbank/raw_fbank_tr05_cont.1.ark:20636819
01kc0216 /scratch/ravanelm/exp/dirha/fbank/raw_fbank_tr05_cont.1.ark:47766129
405o030m /scratch/ravanelm/exp/dirha/fbank/raw_fbank_tr05_cont.3.ark:50089689
026o031c /scratch/ravanelm/exp/dirha/fbank/raw_fbank_tr05_cont.2.ark:36594959
01wc020d /scratch/ravanelm/exp/dirha/fbank/raw_fbank_tr05_cont.2.ark:16971739
40go030b /scratch/ravanelm/exp/dirha/fbank/raw_fbank_tr05_cont.4.ark:27437599
02bo030h /scratch/ravanelm/exp/dirha/fbank/raw_fbank_tr05_cont.2.ark:48013209
40bo031c /scratch/ravanelm/exp/dirha/fbank/raw_fbank_tr05_cont.4.ark:13932609
20do010a /scratch/ravanelm/exp/dirha/fbank/raw_fbank_tr05_cont.3.ark:16857229
01tc020m /scratch/ravanelm/exp/dirha/fbank/raw_fbank_tr05_cont.2.ark:10346649
015o030z /scratch/ravanelm/exp/dirha/fbank/raw_fbank_tr05_cont.1.ark:11894719
014c0216 /scratch/ravanelm/exp/dirha/fbank/raw_fbank_tr05_cont.1.ark:7483889
205c0105 /scratch/ravanelm/exp/dirha/fbank/raw_fbank_tr05_cont.3.ark:2533049
20mc0106 /scratch/ravanelm/exp/dirha/fbank/raw_fbank_tr05_cont.3.ark:27131709
01ro0306 /scratch/ravanelm/exp/dirha/fbank/raw_fbank_tr05_cont.2.ark:8324419
028o0307 /scratch/ravanelm/exp/dirha/fbank/raw_fbank_tr05_cont.2.ark:41302179
013o0302 /scratch/ravanelm/exp/dirha/fbank/raw_fbank_tr05_cont.1.ark:5016679
01io0301 /scratch/ravanelm/exp/dirha/fbank/raw_fbank_tr05_cont.1.ark:41105519
01pc0210 /scratch/ravanelm/exp/dirha/fbank/raw_fbank_tr05_cont.2.ark:1407089
40co030f /scratch/ravanelm/exp/dirha/fbank/raw_fbank_tr05_cont.4.ark:15509159
01yc020i /scratch/ravanelm/exp/dirha/fbank/raw_fbank_tr05_cont.2.ark:20023269
40ao0314 /scratch/ravanelm/exp/dirha/fbank/raw_fbank_tr05_cont.4.ark:10562939
20oc010n /scratch/ravanelm/exp/dirha/fbank/raw_fbank_tr05_cont.3.ark:30863769
029o030p /scratch/ravanelm/exp/dirha/fbank/raw_fbank_tr05_cont.2.ark:45098029
024c020d /scratch/ravanelm/exp/dirha/fbank/raw_fbank_tr05_cont.2.ark:31272279
20dc010b /scratch/ravanelm/exp/dirha/fbank/raw_fbank_tr05_cont.3.ark:16029389
027c020j /scratch/ravanelm/exp/dirha/fbank/raw_fbank_tr05_cont.2.ark:37107929
209c0109 /scratch/ravanelm/exp/dirha/fbank/raw_fbank_tr05_cont.3.ark:9490229
01to030r /scratch/ravanelm/exp/dirha/fbank/raw_fbank_tr05_cont.2.ark:12214169
408o031c /scratch/ravanelm/exp/dirha/fbank/raw_fbank_tr05_cont.4.ark:4855689
40lc020d /scratch/ravanelm/exp/dirha/fbank/raw_fbank_tr05_cont.4.ark:41686669
01qc0213 /scratch/ravanelm/exp/dirha/fbank/raw_fbank_tr05_cont.2.ark:4684309
01lc0207 /scratch/ravanelm/exp/dirha/fbank/raw_fbank_tr05_cont.1.ark:50466219
013o031d /scratch/ravanelm/exp/dirha/fbank/raw_fbank_tr05_cont.1.ark:6434329
029o0313 /scratch/ravanelm/exp/dirha/fbank/raw_fbank_tr05_cont.2.ark:45600569
20vo010d /scratch/ravanelm/exp/dirha/fbank/raw_fbank_tr05_cont.3.ark:39101919
401c0204 /scratch/ravanelm/exp/dirha/fbank/raw_fbank_tr05_cont.3.ark:39671869
20tc0102 /scratch/ravanelm/exp/dirha/fbank/raw_fbank_tr05_cont.3.ark:36757549
011o0316 /scratch/ravanelm/exp/dirha/fbank/raw_fbank_tr05_cont.1.ark:3088659
404o0313 /scratch/ravanelm/exp/dirha/fbank/raw_fbank_tr05_cont.3.ark:47962399
20mc0104 /scratch/ravanelm/exp/dirha/fbank/raw_fbank_tr05_cont.3.ark:27075489
018c020u /scratch/ravanelm/exp/dirha/fbank/raw_fbank_tr05_cont.1.ark:18451379
01mo030x /scratch/ravanelm/exp/dirha/fbank/raw_fbank_tr05_cont.1.ark:56400209
40do030s /scratch/ravanelm/exp/dirha/fbank/raw_fbank_tr05_cont.4.ark:18791229
01kc020v /scratch/ravanelm/exp/dirha/fbank/raw_fbank_tr05_cont.1.ark:47422679
01kc0208 /scratch/ravanelm/exp/dirha/fbank/raw_fbank_tr05_cont.1.ark:46738779
40lc020z /scratch/ravanelm/exp/dirha/fbank/raw_fbank_tr05_cont.4.ark:42347529
01tc021b /scratch/ravanelm/exp/dirha/fbank/raw_fbank_tr05_cont.2.ark:11170999
40lo030w /scratch/ravanelm/exp/dirha/fbank/raw_fbank_tr05_cont.4.ark:44216169
01do030d /scratch/ravanelm/exp/dirha/fbank/raw_fbank_tr05_cont.1.ark:29216679
40bo0319 /scratch/ravanelm/exp/dirha/fbank/raw_fbank_tr05_cont.4.ark:13830559
40ec0205 /scratch/ravanelm/exp/dirha/fbank/raw_fbank_tr05_cont.4.ark:19510449
013o0317 /scratch/ravanelm/exp/dirha/fbank/raw_fbank_tr05_cont.1.ark:6274069
20dc010m /scratch/ravanelm/exp/dirha/fbank/raw_fbank_tr05_cont.3.ark:16412759
01zc020g /scratch/ravanelm/exp/dirha/fbank/raw_fbank_tr05_cont.2.ark:23051369
01pc021a /scratch/ravanelm/exp/dirha/fbank/raw_fbank_tr05_cont.2.ark:1705589
01fc020c /scratch/ravanelm/exp/dirha/fbank/raw_fbank_tr05_cont.1.ark:33723379
01jc0218 /scratch/ravanelm/exp/dirha/fbank/raw_fbank_tr05_cont.1.ark:44311259
20co010p /scratch/ravanelm/exp/dirha/fbank/raw_fbank_tr05_cont.3.ark:15700069
014o0318 /scratch/ravanelm/exp/dirha/fbank/raw_fbank_tr05_cont.1.ark:9226739
01rc0209 /scratch/ravanelm/exp/dirha/fbank/raw_fbank_tr05_cont.2.ark:6952749
01pc0212 /scratch/ravanelm/exp/dirha/fbank/raw_fbank_tr05_cont.2.ark:1461189
02co0316 /scratch/ravanelm/exp/dirha/fbank/raw_fbank_tr05_cont.2.ark:51844209
026o030t /scratch/ravanelm/exp/dirha/fbank/raw_fbank_tr05_cont.2.ark:35984429
01uc020p /scratch/ravanelm/exp/dirha/fbank/raw_fbank_tr05_cont.2.ark:13894349
409c020q /scratch/ravanelm/exp/dirha/fbank/raw_fbank_tr05_cont.4.ark:5555069
409o030m /scratch/ravanelm/exp/dirha/fbank/raw_fbank_tr05_cont.4.ark:6944469
403c020a /scratch/ravanelm/exp/dirha/fbank/raw_fbank_tr05_cont.3.ark:43048139
40bo030r /scratch/ravanelm/exp/dirha/fbank/raw_fbank_tr05_cont.4.ark:13285559
20ec0102 /scratch/ravanelm/exp/dirha/fbank/raw_fbank_tr05_cont.3.ark:17590919
207c010i /scratch/ravanelm/exp/dirha/fbank/raw_fbank_tr05_cont.3.ark:6455299
20qo0105 /scratch/ravanelm/exp/dirha/fbank/raw_fbank_tr05_cont.3.ark:34212319
20qc010o /scratch/ravanelm/exp/dirha/fbank/raw_fbank_tr05_cont.3.ark:33951499
403o030d /scratch/ravanelm/exp/dirha/fbank/raw_fbank_tr05_cont.3.ark:44506079
401o030v /scratch/ravanelm/exp/dirha/fbank/raw_fbank_tr05_cont.3.ark:42183369
205o010m /scratch/ravanelm/exp/dirha/fbank/raw_fbank_tr05_cont.3.ark:3977669
029c020d /scratch/ravanelm/exp/dirha/fbank/raw_fbank_tr05_cont.2.ark:43198949
403c0201 /scratch/ravanelm/exp/dirha/fbank/raw_fbank_tr05_cont.3.ark:42876069
02bc020z /scratch/ravanelm/exp/dirha/fbank/raw_fbank_tr05_cont.2.ark:46956019
018c020s /scratch/ravanelm/exp/dirha/fbank/raw_fbank_tr05_cont.1.ark:18407239
403o0307 /scratch/ravanelm/exp/dirha/fbank/raw_fbank_tr05_cont.3.ark:44278539
02eo0317 /scratch/ravanelm/exp/dirha/fbank/raw_fbank_tr05_cont.3.ark:704729
015c020v /scratch/ravanelm/exp/dirha/fbank/raw_fbank_tr05_cont.1.ark:10266739
01uo0303 /scratch/ravanelm/exp/dirha/fbank/raw_fbank_tr05_cont.2.ark:14839099
20no0106 /scratch/ravanelm/exp/dirha/fbank/raw_fbank_tr05_cont.3.ark:29419089
01lc0208 /scratch/ravanelm/exp/dirha/fbank/raw_fbank_tr05_cont.1.ark:50495089
01gc021a /scratch/ravanelm/exp/dirha/fbank/raw_fbank_tr05_cont.1.ark:37654199
01wc0204 /scratch/ravanelm/exp/dirha/fbank/raw_fbank_tr05_cont.2.ark:16711749
40fo030k /scratch/ravanelm/exp/dirha/fbank/raw_fbank_tr05_cont.4.ark:24110579
20vc0102 /scratch/ravanelm/exp/dirha/fbank/raw_fbank_tr05_cont.3.ark:38121639
027c0217 /scratch/ravanelm/exp/dirha/fbank/raw_fbank_tr05_cont.2.ark:37776089
026c020e /scratch/ravanelm/exp/dirha/fbank/raw_fbank_tr05_cont.2.ark:34196419
014o0307 /scratch/ravanelm/exp/dirha/fbank/raw_fbank_tr05_cont.1.ark:7975269
40lo030k /scratch/ravanelm/exp/dirha/fbank/raw_fbank_tr05_cont.4.ark:43627329
20lo0102 /scratch/ravanelm/exp/dirha/fbank/raw_fbank_tr05_cont.3.ark:25865529
01go031c /scratch/ravanelm/exp/dirha/fbank/raw_fbank_tr05_cont.1.ark:39484879
01qo031b /scratch/ravanelm/exp/dirha/fbank/raw_fbank_tr05_cont.2.ark:6536409
40ko0307 /scratch/ravanelm/exp/dirha/fbank/raw_fbank_tr05_cont.4.ark:39856769
01fo030x /scratch/ravanelm/exp/dirha/fbank/raw_fbank_tr05_cont.1.ark:35848729
404c021f /scratch/ravanelm/exp/dirha/fbank/raw_fbank_tr05_cont.3.ark:46786949
02ec020x /scratch/ravanelm/exp/dirha/fbank/raw_fbank_tr05_cont.2.ark:53245079
01do030h /scratch/ravanelm/exp/dirha/fbank/raw_fbank_tr05_cont.1.ark:29331479
20no0108 /scratch/ravanelm/exp/dirha/fbank/raw_fbank_tr05_cont.3.ark:29499629
01ic020n /scratch/ravanelm/exp/dirha/fbank/raw_fbank_tr05_cont.1.ark:40367289
40lc0218 /scratch/ravanelm/exp/dirha/fbank/raw_fbank_tr05_cont.4.ark:42665639
20lo010q /scratch/ravanelm/exp/dirha/fbank/raw_fbank_tr05_cont.3.ark:26969529
403c020z /scratch/ravanelm/exp/dirha/fbank/raw_fbank_tr05_cont.3.ark:43617049
01qo0309 /scratch/ravanelm/exp/dirha/fbank/raw_fbank_tr05_cont.2.ark:5291549
20fo010p /scratch/ravanelm/exp/dirha/fbank/raw_fbank_tr05_cont.3.ark:20702209
01ic020h /scratch/ravanelm/exp/dirha/fbank/raw_fbank_tr05_cont.1.ark:40190309
20fo0104 /scratch/ravanelm/exp/dirha/fbank/raw_fbank_tr05_cont.3.ark:20045499
01uo030e /scratch/ravanelm/exp/dirha/fbank/raw_fbank_tr05_cont.2.ark:15219509
40gc0211 /scratch/ravanelm/exp/dirha/fbank/raw_fbank_tr05_cont.4.ark:26409169
015o0317 /scratch/ravanelm/exp/dirha/fbank/raw_fbank_tr05_cont.1.ark:12173959
401c020l /scratch/ravanelm/exp/dirha/fbank/raw_fbank_tr05_cont.3.ark:40202779
026o030k /scratch/ravanelm/exp/dirha/fbank/raw_fbank_tr05_cont.2.ark:35727639
20mo0103 /scratch/ravanelm/exp/dirha/fbank/raw_fbank_tr05_cont.3.ark:27747409
01ko030a /scratch/ravanelm/exp/dirha/fbank/raw_fbank_tr05_cont.1.ark:48461029
01go031e /scratch/ravanelm/exp/dirha/fbank/raw_fbank_tr05_cont.1.ark:39556379
20vo0104 /scratch/ravanelm/exp/dirha/fbank/raw_fbank_tr05_cont.3.ark:38808209
407c020b /scratch/ravanelm/exp/dirha/fbank/raw_fbank_tr05_cont.3.ark:53986779
016o031f /scratch/ravanelm/exp/dirha/fbank/raw_fbank_tr05_cont.1.ark:14755099
01uc020w /scratch/ravanelm/exp/dirha/fbank/raw_fbank_tr05_cont.2.ark:14079079
01to0306 /scratch/ravanelm/exp/dirha/fbank/raw_fbank_tr05_cont.2.ark:11438899
408c020g /scratch/ravanelm/exp/dirha/fbank/raw_fbank_tr05_cont.4.ark:2769929
021c020w /scratch/ravanelm/exp/dirha/fbank/raw_fbank_tr05_cont.2.ark:28949989
20vc010o /scratch/ravanelm/exp/dirha/fbank/raw_fbank_tr05_cont.3.ark:38718139
208o010e /scratch/ravanelm/exp/dirha/fbank/raw_fbank_tr05_cont.3.ark:8820929
40mo030w /scratch/ravanelm/exp/dirha/fbank/raw_fbank_tr05_cont.4.ark:47494049
20gc010h /scratch/ravanelm/exp/dirha/fbank/raw_fbank_tr05_cont.3.ark:21117919
40ac0209 /scratch/ravanelm/exp/dirha/fbank/raw_fbank_tr05_cont.4.ark:8073789
20lc0109 /scratch/ravanelm/exp/dirha/fbank/raw_fbank_tr05_cont.3.ark:25235919
027c020o /scratch/ravanelm/exp/dirha/fbank/raw_fbank_tr05_cont.2.ark:37218039
205o010r /scratch/ravanelm/exp/dirha/fbank/raw_fbank_tr05_cont.3.ark:4182219
027o030r /scratch/ravanelm/exp/dirha/fbank/raw_fbank_tr05_cont.2.ark:39028559
209c010a /scratch/ravanelm/exp/dirha/fbank/raw_fbank_tr05_cont.3.ark:9509699
406o030o /scratch/ravanelm/exp/dirha/fbank/raw_fbank_tr05_cont.3.ark:52916819
405c020h /scratch/ravanelm/exp/dirha/fbank/raw_fbank_tr05_cont.3.ark:48663569
01ic020u /scratch/ravanelm/exp/dirha/fbank/raw_fbank_tr05_cont.1.ark:40552419
40lo030m /scratch/ravanelm/exp/dirha/fbank/raw_fbank_tr05_cont.4.ark:43725949
20nc0108 /scratch/ravanelm/exp/dirha/fbank/raw_fbank_tr05_cont.3.ark:28674959
020c0217 /scratch/ravanelm/exp/dirha/fbank/raw_fbank_tr05_cont.2.ark:26923909
01pc021f /scratch/ravanelm/exp/dirha/fbank/raw_fbank_tr05_cont.2.ark:1888859
406o0303 /scratch/ravanelm/exp/dirha/fbank/raw_fbank_tr05_cont.3.ark:52284589
408c020v /scratch/ravanelm/exp/dirha/fbank/raw_fbank_tr05_cont.4.ark:3118059
20tc010n /scratch/ravanelm/exp/dirha/fbank/raw_fbank_tr05_cont.3.ark:37322499
01zc020z /scratch/ravanelm/exp/dirha/fbank/raw_fbank_tr05_cont.2.ark:23570419
01mc020h /scratch/ravanelm/exp/dirha/fbank/raw_fbank_tr05_cont.1.ark:54467359
40ac0219 /scratch/ravanelm/exp/dirha/fbank/raw_fbank_tr05_cont.4.ark:9147029
024c020t /scratch/ravanelm/exp/dirha/fbank/raw_fbank_tr05_cont.2.ark:31716599
40po0310 /scratch/ravanelm/exp/dirha/fbank/raw_fbank_tr05_cont.4.ark:53830559
40ko030i /scratch/ravanelm/exp/dirha/fbank/raw_fbank_tr05_cont.4.ark:40183099
013o030t /scratch/ravanelm/exp/dirha/fbank/raw_fbank_tr05_cont.1.ark:5839569
029o0303 /scratch/ravanelm/exp/dirha/fbank/raw_fbank_tr05_cont.2.ark:44351969
40lc021c /scratch/ravanelm/exp/dirha/fbank/raw_fbank_tr05_cont.4.ark:42775439
021o031b /scratch/ravanelm/exp/dirha/fbank/raw_fbank_tr05_cont.2.ark:30784169
40fo030m /scratch/ravanelm/exp/dirha/fbank/raw_fbank_tr05_cont.4.ark:24143279
01lc0209 /scratch/ravanelm/exp/dirha/fbank/raw_fbank_tr05_cont.1.ark:50528399
021c020u /scratch/ravanelm/exp/dirha/fbank/raw_fbank_tr05_cont.2.ark:28903009
405o030i /scratch/ravanelm/exp/dirha/fbank/raw_fbank_tr05_cont.3.ark:49977449
40ko0312 /scratch/ravanelm/exp/dirha/fbank/raw_fbank_tr05_cont.4.ark:40963779
403o030c /scratch/ravanelm/exp/dirha/fbank/raw_fbank_tr05_cont.3.ark:44460409
40mc020a /scratch/ravanelm/exp/dirha/fbank/raw_fbank_tr05_cont.4.ark:45254589
018c0214 /scratch/ravanelm/exp/dirha/fbank/raw_fbank_tr05_cont.1.ark:18753039
01mo0314 /scratch/ravanelm/exp/dirha/fbank/raw_fbank_tr05_cont.2.ark:57149
01yc020c /scratch/ravanelm/exp/dirha/fbank/raw_fbank_tr05_cont.2.ark:19833449
404o030q /scratch/ravanelm/exp/dirha/fbank/raw_fbank_tr05_cont.3.ark:47585809
01ec021e /scratch/ravanelm/exp/dirha/fbank/raw_fbank_tr05_cont.1.ark:31807509
403c020l /scratch/ravanelm/exp/dirha/fbank/raw_fbank_tr05_cont.3.ark:43314069
40ao031d /scratch/ravanelm/exp/dirha/fbank/raw_fbank_tr05_cont.4.ark:10820409
028c021a /scratch/ravanelm/exp/dirha/fbank/raw_fbank_tr05_cont.2.ark:40922019
01po030o /scratch/ravanelm/exp/dirha/fbank/raw_fbank_tr05_cont.2.ark:2705659
014c020z /scratch/ravanelm/exp/dirha/fbank/raw_fbank_tr05_cont.1.ark:7341479
01qo0301 /scratch/ravanelm/exp/dirha/fbank/raw_fbank_tr05_cont.2.ark:5029269
02eo0305 /scratch/ravanelm/exp/dirha/fbank/raw_fbank_tr05_cont.2.ark:53980779
20co0105 /scratch/ravanelm/exp/dirha/fbank/raw_fbank_tr05_cont.3.ark:15088989
401c0216 /scratch/ravanelm/exp/dirha/fbank/raw_fbank_tr05_cont.3.ark:40796409
409o0305 /scratch/ravanelm/exp/dirha/fbank/raw_fbank_tr05_cont.4.ark:6434719
40do0307 /scratch/ravanelm/exp/dirha/fbank/raw_fbank_tr05_cont.4.ark:18139559
20go0105 /scratch/ravanelm/exp/dirha/fbank/raw_fbank_tr05_cont.3.ark:21424729
40dc020i /scratch/ravanelm/exp/dirha/fbank/raw_fbank_tr05_cont.4.ark:16953609
20gc010j /scratch/ravanelm/exp/dirha/fbank/raw_fbank_tr05_cont.3.ark:21162779
20do010g /scratch/ravanelm/exp/dirha/fbank/raw_fbank_tr05_cont.3.ark:17068849
02bo031f /scratch/ravanelm/exp/dirha/fbank/raw_fbank_tr05_cont.2.ark:49194909
20vo0109 /scratch/ravanelm/exp/dirha/fbank/raw_fbank_tr05_cont.3.ark:38954679
405c0207 /scratch/ravanelm/exp/dirha/fbank/raw_fbank_tr05_cont.3.ark:48408309
02eo031g /scratch/ravanelm/exp/dirha/fbank/raw_fbank_tr05_cont.3.ark:1019769
020c021c /scratch/ravanelm/exp/dirha/fbank/raw_fbank_tr05_cont.2.ark:27017779
01bc0213 /scratch/ravanelm/exp/dirha/fbank/raw_fbank_tr05_cont.1.ark:25002809
40po030v /scratch/ravanelm/exp/dirha/fbank/raw_fbank_tr05_cont.4.ark:53626209
013c020z /scratch/ravanelm/exp/dirha/fbank/raw_fbank_tr05_cont.1.ark:4556419
01tc021d /scratch/ravanelm/exp/dirha/fbank/raw_fbank_tr05_cont.2.ark:11213099
403o0305 /scratch/ravanelm/exp/dirha/fbank/raw_fbank_tr05_cont.3.ark:44211559
206o010f /scratch/ravanelm/exp/dirha/fbank/raw_fbank_tr05_cont.3.ark:5338129
20co010j /scratch/ravanelm/exp/dirha/fbank/raw_fbank_tr05_cont.3.ark:15526369
02ec020a /scratch/ravanelm/exp/dirha/fbank/raw_fbank_tr05_cont.2.ark:52529629
01zc0202 /scratch/ravanelm/exp/dirha/fbank/raw_fbank_tr05_cont.2.ark:22615229
40lc021d /scratch/ravanelm/exp/dirha/fbank/raw_fbank_tr05_cont.4.ark:42825909
014o030l /scratch/ravanelm/exp/dirha/fbank/raw_fbank_tr05_cont.1.ark:8424089
40dc021a /scratch/ravanelm/exp/dirha/fbank/raw_fbank_tr05_cont.4.ark:17782249
40fo030j /scratch/ravanelm/exp/dirha/fbank/raw_fbank_tr05_cont.4.ark:24072389
40lc0211 /scratch/ravanelm/exp/dirha/fbank/raw_fbank_tr05_cont.4.ark:42404509
40ec0204 /scratch/ravanelm/exp/dirha/fbank/raw_fbank_tr05_cont.4.ark:19488899
014o030a /scratch/ravanelm/exp/dirha/fbank/raw_fbank_tr05_cont.1.ark:8090239
01eo030b /scratch/ravanelm/exp/dirha/fbank/raw_fbank_tr05_cont.1.ark:32120709
206o0103 /scratch/ravanelm/exp/dirha/fbank/raw_fbank_tr05_cont.3.ark:4869369
01jc021b /scratch/ravanelm/exp/dirha/fbank/raw_fbank_tr05_cont.1.ark:44406509
40lc020i /scratch/ravanelm/exp/dirha/fbank/raw_fbank_tr05_cont.4.ark:41845899
403c0203 /scratch/ravanelm/exp/dirha/fbank/raw_fbank_tr05_cont.3.ark:42959249
029o030w /scratch/ravanelm/exp/dirha/fbank/raw_fbank_tr05_cont.2.ark:45352079
02ec0207 /scratch/ravanelm/exp/dirha/fbank/raw_fbank_tr05_cont.2.ark:52428659
403c020h /scratch/ravanelm/exp/dirha/fbank/raw_fbank_tr05_cont.3.ark:43195349
01bc0212 /scratch/ravanelm/exp/dirha/fbank/raw_fbank_tr05_cont.1.ark:24962459
01zc020c /scratch/ravanelm/exp/dirha/fbank/raw_fbank_tr05_cont.2.ark:22916769
40jc0210 /scratch/ravanelm/exp/dirha/fbank/raw_fbank_tr05_cont.4.ark:36059969
20lo010h /scratch/ravanelm/exp/dirha/fbank/raw_fbank_tr05_cont.3.ark:26583979
029o030n /scratch/ravanelm/exp/dirha/fbank/raw_fbank_tr05_cont.2.ark:45020849
407c0206 /scratch/ravanelm/exp/dirha/fbank/raw_fbank_tr05_cont.3.ark:53884629
016c0208 /scratch/ravanelm/exp/dirha/fbank/raw_fbank_tr05_cont.1.ark:12483169
017c020y /scratch/ravanelm/exp/dirha/fbank/raw_fbank_tr05_cont.1.ark:15573879
40ec020e /scratch/ravanelm/exp/dirha/fbank/raw_fbank_tr05_cont.4.ark:19718519
407c0218 /scratch/ravanelm/exp/dirha/fbank/raw_fbank_tr05_cont.4.ark:344409
029o0304 /scratch/ravanelm/exp/dirha/fbank/raw_fbank_tr05_cont.2.ark:44386919
40ac0214 /scratch/ravanelm/exp/dirha/fbank/raw_fbank_tr05_cont.4.ark:9032999
208o0103 /scratch/ravanelm/exp/dirha/fbank/raw_fbank_tr05_cont.3.ark:8451879
01uc020b /scratch/ravanelm/exp/dirha/fbank/raw_fbank_tr05_cont.2.ark:13483329
20tc010j /scratch/ravanelm/exp/dirha/fbank/raw_fbank_tr05_cont.3.ark:37201979
01qo031f /scratch/ravanelm/exp/dirha/fbank/raw_fbank_tr05_cont.2.ark:6675089
01ro0309 /scratch/ravanelm/exp/dirha/fbank/raw_fbank_tr05_cont.2.ark:8360589
01to030i /scratch/ravanelm/exp/dirha/fbank/raw_fbank_tr05_cont.2.ark:11894699
01eo031d /scratch/ravanelm/exp/dirha/fbank/raw_fbank_tr05_cont.1.ark:33355169
01dc0215 /scratch/ravanelm/exp/dirha/fbank/raw_fbank_tr05_cont.1.ark:28453989
02eo0310 /scratch/ravanelm/exp/dirha/fbank/raw_fbank_tr05_cont.3.ark:496469
40dc020z /scratch/ravanelm/exp/dirha/fbank/raw_fbank_tr05_cont.4.ark:17487199
01rc0213 /scratch/ravanelm/exp/dirha/fbank/raw_fbank_tr05_cont.2.ark:7877169
404c020p /scratch/ravanelm/exp/dirha/fbank/raw_fbank_tr05_cont.3.ark:46189409
014o0312 /scratch/ravanelm/exp/dirha/fbank/raw_fbank_tr05_cont.1.ark:9071279
01yo0303 /scratch/ravanelm/exp/dirha/fbank/raw_fbank_tr05_cont.2.ark:21014739
404c020n /scratch/ravanelm/exp/dirha/fbank/raw_fbank_tr05_cont.3.ark:46140109
40no0316 /scratch/ravanelm/exp/dirha/fbank/raw_fbank_tr05_cont.4.ark:51082099
20qc010g /scratch/ravanelm/exp/dirha/fbank/raw_fbank_tr05_cont.3.ark:33748059
01lc021c /scratch/ravanelm/exp/dirha/fbank/raw_fbank_tr05_cont.1.ark:51769369
408o030c /scratch/ravanelm/exp/dirha/fbank/raw_fbank_tr05_cont.4.ark:3917129
014o031b /scratch/ravanelm/exp/dirha/fbank/raw_fbank_tr05_cont.1.ark:9335429
01zc020o /scratch/ravanelm/exp/dirha/fbank/raw_fbank_tr05_cont.2.ark:23273249
20qo010f /scratch/ravanelm/exp/dirha/fbank/raw_fbank_tr05_cont.3.ark:34593019
01to030j /scratch/ravanelm/exp/dirha/fbank/raw_fbank_tr05_cont.2.ark:11950129
40mc020w /scratch/ravanelm/exp/dirha/fbank/raw_fbank_tr05_cont.4.ark:45828969
01jc020q /scratch/ravanelm/exp/dirha/fbank/raw_fbank_tr05_cont.1.ark:43755879
015c021i /scratch/ravanelm/exp/dirha/fbank/raw_fbank_tr05_cont.1.ark:10781909
018c020v /scratch/ravanelm/exp/dirha/fbank/raw_fbank_tr05_cont.1.ark:18478449
404c020i /scratch/ravanelm/exp/dirha/fbank/raw_fbank_tr05_cont.3.ark:45975879
209o010p /scratch/ravanelm/exp/dirha/fbank/raw_fbank_tr05_cont.3.ark:10667329
01io030k /scratch/ravanelm/exp/dirha/fbank/raw_fbank_tr05_cont.1.ark:41916809
40eo030b /scratch/ravanelm/exp/dirha/fbank/raw_fbank_tr05_cont.4.ark:20953579
40ic0206 /scratch/ravanelm/exp/dirha/fbank/raw_fbank_tr05_cont.4.ark:32182629
01eo030o /scratch/ravanelm/exp/dirha/fbank/raw_fbank_tr05_cont.1.ark:32511979
01tc021c /scratch/ravanelm/exp/dirha/fbank/raw_fbank_tr05_cont.2.ark:11187589
40no0314 /scratch/ravanelm/exp/dirha/fbank/raw_fbank_tr05_cont.4.ark:50998919
20no010q /scratch/ravanelm/exp/dirha/fbank/raw_fbank_tr05_cont.3.ark:30267289
20ec0107 /scratch/ravanelm/exp/dirha/fbank/raw_fbank_tr05_cont.3.ark:17743869
40ko0313 /scratch/ravanelm/exp/dirha/fbank/raw_fbank_tr05_cont.4.ark:40997129
02co030u /scratch/ravanelm/exp/dirha/fbank/raw_fbank_tr05_cont.2.ark:51449529
40ao030u /scratch/ravanelm/exp/dirha/fbank/raw_fbank_tr05_cont.4.ark:10237799
40nc020t /scratch/ravanelm/exp/dirha/fbank/raw_fbank_tr05_cont.4.ark:48912349
40ic020m /scratch/ravanelm/exp/dirha/fbank/raw_fbank_tr05_cont.4.ark:32712269
406c0203 /scratch/ravanelm/exp/dirha/fbank/raw_fbank_tr05_cont.3.ark:51018009
20bc010l /scratch/ravanelm/exp/dirha/fbank/raw_fbank_tr05_cont.3.ark:13018019
024o030a /scratch/ravanelm/exp/dirha/fbank/raw_fbank_tr05_cont.2.ark:32609329
01yo030x /scratch/ravanelm/exp/dirha/fbank/raw_fbank_tr05_cont.2.ark:22035199
01eo0317 /scratch/ravanelm/exp/dirha/fbank/raw_fbank_tr05_cont.1.ark:33104189
404c020c /scratch/ravanelm/exp/dirha/fbank/raw_fbank_tr05_cont.3.ark:45840859
405c020s /scratch/ravanelm/exp/dirha/fbank/raw_fbank_tr05_cont.3.ark:48947819
40io031d /scratch/ravanelm/exp/dirha/fbank/raw_fbank_tr05_cont.4.ark:35102409
02bc020p /scratch/ravanelm/exp/dirha/fbank/raw_fbank_tr05_cont.2.ark:46701479
015c0201 /scratch/ravanelm/exp/dirha/fbank/raw_fbank_tr05_cont.1.ark:9457479
01ec020r /scratch/ravanelm/exp/dirha/fbank/raw_fbank_tr05_cont.1.ark:31128689
01gc0214 /scratch/ravanelm/exp/dirha/fbank/raw_fbank_tr05_cont.1.ark:37481019
018o0306 /scratch/ravanelm/exp/dirha/fbank/raw_fbank_tr05_cont.1.ark:19380499
027o0302 /scratch/ravanelm/exp/dirha/fbank/raw_fbank_tr05_cont.2.ark:38074649
01ec0217 /scratch/ravanelm/exp/dirha/fbank/raw_fbank_tr05_cont.1.ark:31635289
