018o031b /scratch/ravanelm/exp/dirha/fbank/raw_fbank_tr05_cont.1.ark:20999209
40bo0306 /scratch/ravanelm/exp/dirha/fbank/raw_fbank_tr05_cont.4.ark:12535769
01mo0305 /scratch/ravanelm/exp/dirha/fbank/raw_fbank_tr05_cont.1.ark:55538249
01yo0306 /scratch/ravanelm/exp/dirha/fbank/raw_fbank_tr05_cont.2.ark:21108909
206c010g /scratch/ravanelm/exp/dirha/fbank/raw_fbank_tr05_cont.3.ark:4557899
40do0304 /scratch/ravanelm/exp/dirha/fbank/raw_fbank_tr05_cont.4.ark:18077389
40ho031b /scratch/ravanelm/exp/dirha/fbank/raw_fbank_tr05_cont.4.ark:31947429
020c020a /scratch/ravanelm/exp/dirha/fbank/raw_fbank_tr05_cont.2.ark:26281399
026c020a /scratch/ravanelm/exp/dirha/fbank/raw_fbank_tr05_cont.2.ark:34100979
01bo030k /scratch/ravanelm/exp/dirha/fbank/raw_fbank_tr05_cont.1.ark:26250039
01qo030f /scratch/ravanelm/exp/dirha/fbank/raw_fbank_tr05_cont.2.ark:5523529
20eo0101 /scratch/ravanelm/exp/dirha/fbank/raw_fbank_tr05_cont.3.ark:18255769
20vc0102 /scratch/ravanelm/exp/dirha/fbank/raw_fbank_tr05_cont.3.ark:38121639
40eo0306 /scratch/ravanelm/exp/dirha/fbank/raw_fbank_tr05_cont.4.ark:20808749
20lo0106 /scratch/ravanelm/exp/dirha/fbank/raw_fbank_tr05_cont.3.ark:26022449
01ec020e /scratch/ravanelm/exp/dirha/fbank/raw_fbank_tr05_cont.1.ark:30777659
01wo0319 /scratch/ravanelm/exp/dirha/fbank/raw_fbank_tr05_cont.2.ark:19336849
40co0319 /scratch/ravanelm/exp/dirha/fbank/raw_fbank_tr05_cont.4.ark:16252739
20co0108 /scratch/ravanelm/exp/dirha/fbank/raw_fbank_tr05_cont.3.ark:15185559
02bo0309 /scratch/ravanelm/exp/dirha/fbank/raw_fbank_tr05_cont.2.ark:47741449
02bo0305 /scratch/ravanelm/exp/dirha/fbank/raw_fbank_tr05_cont.2.ark:47586969
406o030p /scratch/ravanelm/exp/dirha/fbank/raw_fbank_tr05_cont.3.ark:52936009
40eo030u /scratch/ravanelm/exp/dirha/fbank/raw_fbank_tr05_cont.4.ark:21509669
20ao0103 /scratch/ravanelm/exp/dirha/fbank/raw_fbank_tr05_cont.3.ark:11457659
01ic0203 /scratch/ravanelm/exp/dirha/fbank/raw_fbank_tr05_cont.1.ark:39740529
40lo0316 /scratch/ravanelm/exp/dirha/fbank/raw_fbank_tr05_cont.4.ark:44644149
40bc0205 /scratch/ravanelm/exp/dirha/fbank/raw_fbank_tr05_cont.4.ark:11007179
20vo010n /scratch/ravanelm/exp/dirha/fbank/raw_fbank_tr05_cont.3.ark:39426139
014o030r /scratch/ravanelm/exp/dirha/fbank/raw_fbank_tr05_cont.1.ark:8662749
20po0105 /scratch/ravanelm/exp/dirha/fbank/raw_fbank_tr05_cont.3.ark:32558549
024o0305 /scratch/ravanelm/exp/dirha/fbank/raw_fbank_tr05_cont.2.ark:32463099
40jc020h /scratch/ravanelm/exp/dirha/fbank/raw_fbank_tr05_cont.4.ark:35539359
01yo0304 /scratch/ravanelm/exp/dirha/fbank/raw_fbank_tr05_cont.2.ark:21043969
205c010f /scratch/ravanelm/exp/dirha/fbank/raw_fbank_tr05_cont.3.ark:2845349
20po010e /scratch/ravanelm/exp/dirha/fbank/raw_fbank_tr05_cont.3.ark:32803059
027c0204 /scratch/ravanelm/exp/dirha/fbank/raw_fbank_tr05_cont.2.ark:36733159
408o030t /scratch/ravanelm/exp/dirha/fbank/raw_fbank_tr05_cont.4.ark:4399799
01bc020a /scratch/ravanelm/exp/dirha/fbank/raw_fbank_tr05_cont.1.ark:24130999
016c020n /scratch/ravanelm/exp/dirha/fbank/raw_fbank_tr05_cont.1.ark:12862539
401o0310 /scratch/ravanelm/exp/dirha/fbank/raw_fbank_tr05_cont.3.ark:42351919
015c0206 /scratch/ravanelm/exp/dirha/fbank/raw_fbank_tr05_cont.1.ark:9604829
20io010b /scratch/ravanelm/exp/dirha/fbank/raw_fbank_tr05_cont.3.ark:24392079
01wo030w /scratch/ravanelm/exp/dirha/fbank/raw_fbank_tr05_cont.2.ark:18900459
01po030m /scratch/ravanelm/exp/dirha/fbank/raw_fbank_tr05_cont.2.ark:2636879
20eo0109 /scratch/ravanelm/exp/dirha/fbank/raw_fbank_tr05_cont.3.ark:18601049
40ho0309 /scratch/ravanelm/exp/dirha/fbank/raw_fbank_tr05_cont.4.ark:30671089
20dc0108 /scratch/ravanelm/exp/dirha/fbank/raw_fbank_tr05_cont.3.ark:15941139
017o030q /scratch/ravanelm/exp/dirha/fbank/raw_fbank_tr05_cont.1.ark:16859999
021c020i /scratch/ravanelm/exp/dirha/fbank/raw_fbank_tr05_cont.2.ark:28525649
208c0101 /scratch/ravanelm/exp/dirha/fbank/raw_fbank_tr05_cont.3.ark:7623149
01jc0217 /scratch/ravanelm/exp/dirha/fbank/raw_fbank_tr05_cont.1.ark:44291149
01fc0211 /scratch/ravanelm/exp/dirha/fbank/raw_fbank_tr05_cont.1.ark:34363729
20co010o /scratch/ravanelm/exp/dirha/fbank/raw_fbank_tr05_cont.3.ark:15681239
01wo0305 /scratch/ravanelm/exp/dirha/fbank/raw_fbank_tr05_cont.2.ark:18088999
20fc010n /scratch/ravanelm/exp/dirha/fbank/raw_fbank_tr05_cont.3.ark:19852889
20lo0109 /scratch/ravanelm/exp/dirha/fbank/raw_fbank_tr05_cont.3.ark:26148699
406c0208 /scratch/ravanelm/exp/dirha/fbank/raw_fbank_tr05_cont.3.ark:51153839
406o030t /scratch/ravanelm/exp/dirha/fbank/raw_fbank_tr05_cont.3.ark:53083289
20gc0103 /scratch/ravanelm/exp/dirha/fbank/raw_fbank_tr05_cont.3.ark:20789819
015c0208 /scratch/ravanelm/exp/dirha/fbank/raw_fbank_tr05_cont.1.ark:9664969
024o030h /scratch/ravanelm/exp/dirha/fbank/raw_fbank_tr05_cont.2.ark:32839219
01zo030a /scratch/ravanelm/exp/dirha/fbank/raw_fbank_tr05_cont.2.ark:24378799
01lc020x /scratch/ravanelm/exp/dirha/fbank/raw_fbank_tr05_cont.1.ark:51283919
01po0315 /scratch/ravanelm/exp/dirha/fbank/raw_fbank_tr05_cont.2.ark:3388169
021c020o /scratch/ravanelm/exp/dirha/fbank/raw_fbank_tr05_cont.2.ark:28722149
409o030g /scratch/ravanelm/exp/dirha/fbank/raw_fbank_tr05_cont.4.ark:6717369
02bo0313 /scratch/ravanelm/exp/dirha/fbank/raw_fbank_tr05_cont.2.ark:48779149
01qo030g /scratch/ravanelm/exp/dirha/fbank/raw_fbank_tr05_cont.2.ark:5572879
01ic020m /scratch/ravanelm/exp/dirha/fbank/raw_fbank_tr05_cont.1.ark:40345659
018c020m /scratch/ravanelm/exp/dirha/fbank/raw_fbank_tr05_cont.1.ark:18239419
404c0212 /scratch/ravanelm/exp/dirha/fbank/raw_fbank_tr05_cont.3.ark:46475879
014o030v /scratch/ravanelm/exp/dirha/fbank/raw_fbank_tr05_cont.1.ark:8838549
01tc021d /scratch/ravanelm/exp/dirha/fbank/raw_fbank_tr05_cont.2.ark:11213099
01po030e /scratch/ravanelm/exp/dirha/fbank/raw_fbank_tr05_cont.2.ark:2389149
01kc020s /scratch/ravanelm/exp/dirha/fbank/raw_fbank_tr05_cont.1.ark:47325109
20oo010e /scratch/ravanelm/exp/dirha/fbank/raw_fbank_tr05_cont.3.ark:31320939
20lo010a /scratch/ravanelm/exp/dirha/fbank/raw_fbank_tr05_cont.3.ark:26196009
40fo030t /scratch/ravanelm/exp/dirha/fbank/raw_fbank_tr05_cont.4.ark:24400249
40lc020u /scratch/ravanelm/exp/dirha/fbank/raw_fbank_tr05_cont.4.ark:42146379
017c020r /scratch/ravanelm/exp/dirha/fbank/raw_fbank_tr05_cont.1.ark:15404229
019c020o /scratch/ravanelm/exp/dirha/fbank/raw_fbank_tr05_cont.1.ark:21624639
01tc020l /scratch/ravanelm/exp/dirha/fbank/raw_fbank_tr05_cont.2.ark:10303259
026c0203 /scratch/ravanelm/exp/dirha/fbank/raw_fbank_tr05_cont.2.ark:33949209
404o031d /scratch/ravanelm/exp/dirha/fbank/raw_fbank_tr05_cont.3.ark:48216419
40jo030u /scratch/ravanelm/exp/dirha/fbank/raw_fbank_tr05_cont.4.ark:37519489
409c020k /scratch/ravanelm/exp/dirha/fbank/raw_fbank_tr05_cont.4.ark:5390769
01eo0306 /scratch/ravanelm/exp/dirha/fbank/raw_fbank_tr05_cont.1.ark:32011279
01zo030g /scratch/ravanelm/exp/dirha/fbank/raw_fbank_tr05_cont.2.ark:24620259
207o010s /scratch/ravanelm/exp/dirha/fbank/raw_fbank_tr05_cont.3.ark:7521379
407o0318 /scratch/ravanelm/exp/dirha/fbank/raw_fbank_tr05_cont.4.ark:2310469
408c021g /scratch/ravanelm/exp/dirha/fbank/raw_fbank_tr05_cont.4.ark:3534659
029o031e /scratch/ravanelm/exp/dirha/fbank/raw_fbank_tr05_cont.2.ark:45957059
01wc0207 /scratch/ravanelm/exp/dirha/fbank/raw_fbank_tr05_cont.2.ark:16788519
028o030r /scratch/ravanelm/exp/dirha/fbank/raw_fbank_tr05_cont.2.ark:42066579
01tc020i /scratch/ravanelm/exp/dirha/fbank/raw_fbank_tr05_cont.2.ark:10198929
01lo0311 /scratch/ravanelm/exp/dirha/fbank/raw_fbank_tr05_cont.1.ark:53476209
01kc020c /scratch/ravanelm/exp/dirha/fbank/raw_fbank_tr05_cont.1.ark:46857619
20bo010f /scratch/ravanelm/exp/dirha/fbank/raw_fbank_tr05_cont.3.ark:13722879
20lc0105 /scratch/ravanelm/exp/dirha/fbank/raw_fbank_tr05_cont.3.ark:25101719
407o030h /scratch/ravanelm/exp/dirha/fbank/raw_fbank_tr05_cont.4.ark:1257619
014c020x /scratch/ravanelm/exp/dirha/fbank/raw_fbank_tr05_cont.1.ark:7278979
40ko030q /scratch/ravanelm/exp/dirha/fbank/raw_fbank_tr05_cont.4.ark:40504339
40jo030n /scratch/ravanelm/exp/dirha/fbank/raw_fbank_tr05_cont.4.ark:37294719
02co0304 /scratch/ravanelm/exp/dirha/fbank/raw_fbank_tr05_cont.2.ark:50640269
01ec0212 /scratch/ravanelm/exp/dirha/fbank/raw_fbank_tr05_cont.1.ark:31457219
40ho030r /scratch/ravanelm/exp/dirha/fbank/raw_fbank_tr05_cont.4.ark:31263709
40ec020r /scratch/ravanelm/exp/dirha/fbank/raw_fbank_tr05_cont.4.ark:19973549
40lc0215 /scratch/ravanelm/exp/dirha/fbank/raw_fbank_tr05_cont.4.ark:42551829
01jc020r /scratch/ravanelm/exp/dirha/fbank/raw_fbank_tr05_cont.1.ark:43786989
01bc020i /scratch/ravanelm/exp/dirha/fbank/raw_fbank_tr05_cont.1.ark:24399199
40mc020s /scratch/ravanelm/exp/dirha/fbank/raw_fbank_tr05_cont.4.ark:45707489
40lc0219 /scratch/ravanelm/exp/dirha/fbank/raw_fbank_tr05_cont.4.ark:42695509
40nc020c /scratch/ravanelm/exp/dirha/fbank/raw_fbank_tr05_cont.4.ark:48343919
20vc0108 /scratch/ravanelm/exp/dirha/fbank/raw_fbank_tr05_cont.3.ark:38295979
40fo030p /scratch/ravanelm/exp/dirha/fbank/raw_fbank_tr05_cont.4.ark:24249089
027o030q /scratch/ravanelm/exp/dirha/fbank/raw_fbank_tr05_cont.2.ark:39001529
01to0312 /scratch/ravanelm/exp/dirha/fbank/raw_fbank_tr05_cont.2.ark:12576699
40go031b /scratch/ravanelm/exp/dirha/fbank/raw_fbank_tr05_cont.4.ark:29015479
01ko030z /scratch/ravanelm/exp/dirha/fbank/raw_fbank_tr05_cont.1.ark:49481659
40ao031e /scratch/ravanelm/exp/dirha/fbank/raw_fbank_tr05_cont.4.ark:10833999
40cc0219 /scratch/ravanelm/exp/dirha/fbank/raw_fbank_tr05_cont.4.ark:14968079
014o0305 /scratch/ravanelm/exp/dirha/fbank/raw_fbank_tr05_cont.1.ark:7898249
021o030n /scratch/ravanelm/exp/dirha/fbank/raw_fbank_tr05_cont.2.ark:30048369
024o0313 /scratch/ravanelm/exp/dirha/fbank/raw_fbank_tr05_cont.2.ark:33489879
01jc020g /scratch/ravanelm/exp/dirha/fbank/raw_fbank_tr05_cont.1.ark:43451179
01zc020o /scratch/ravanelm/exp/dirha/fbank/raw_fbank_tr05_cont.2.ark:23273249
01dc0205 /scratch/ravanelm/exp/dirha/fbank/raw_fbank_tr05_cont.1.ark:27533349
01go0315 /scratch/ravanelm/exp/dirha/fbank/raw_fbank_tr05_cont.1.ark:39199109
017c0209 /scratch/ravanelm/exp/dirha/fbank/raw_fbank_tr05_cont.1.ark:15010369
404c020y /scratch/ravanelm/exp/dirha/fbank/raw_fbank_tr05_cont.3.ark:46374279
01dc020v /scratch/ravanelm/exp/dirha/fbank/raw_fbank_tr05_cont.1.ark:28194889
01go0312 /scratch/ravanelm/exp/dirha/fbank/raw_fbank_tr05_cont.1.ark:39083779
20ec0104 /scratch/ravanelm/exp/dirha/fbank/raw_fbank_tr05_cont.3.ark:17655619
40pc021a /scratch/ravanelm/exp/dirha/fbank/raw_fbank_tr05_cont.4.ark:52472489
01to031g /scratch/ravanelm/exp/dirha/fbank/raw_fbank_tr05_cont.2.ark:13108959
40mc020e /scratch/ravanelm/exp/dirha/fbank/raw_fbank_tr05_cont.4.ark:45330949
401o030g /scratch/ravanelm/exp/dirha/fbank/raw_fbank_tr05_cont.3.ark:41589559
02bo0316 /scratch/ravanelm/exp/dirha/fbank/raw_fbank_tr05_cont.2.ark:48920479
01io031e /scratch/ravanelm/exp/dirha/fbank/raw_fbank_tr05_cont.1.ark:42933389
014o031c /scratch/ravanelm/exp/dirha/fbank/raw_fbank_tr05_cont.1.ark:9374219
206c010l /scratch/ravanelm/exp/dirha/fbank/raw_fbank_tr05_cont.3.ark:4730369
019o0318 /scratch/ravanelm/exp/dirha/fbank/raw_fbank_tr05_cont.1.ark:23752509
40kc020c /scratch/ravanelm/exp/dirha/fbank/raw_fbank_tr05_cont.4.ark:38573679
40do0305 /scratch/ravanelm/exp/dirha/fbank/raw_fbank_tr05_cont.4.ark:18105099
207c010m /scratch/ravanelm/exp/dirha/fbank/raw_fbank_tr05_cont.3.ark:6568459
01jc021e /scratch/ravanelm/exp/dirha/fbank/raw_fbank_tr05_cont.1.ark:44489079
011c020c /scratch/ravanelm/exp/dirha/fbank/raw_fbank_tr05_cont.1.ark:292259
026c021f /scratch/ravanelm/exp/dirha/fbank/raw_fbank_tr05_cont.2.ark:35094449
011o0319 /scratch/ravanelm/exp/dirha/fbank/raw_fbank_tr05_cont.1.ark:3193269
40do030n /scratch/ravanelm/exp/dirha/fbank/raw_fbank_tr05_cont.4.ark:18644799
20rc010n /scratch/ravanelm/exp/dirha/fbank/raw_fbank_tr05_cont.3.ark:35637239
20gc010f /scratch/ravanelm/exp/dirha/fbank/raw_fbank_tr05_cont.3.ark:21067539
024o0304 /scratch/ravanelm/exp/dirha/fbank/raw_fbank_tr05_cont.2.ark:32419429
01yo030z /scratch/ravanelm/exp/dirha/fbank/raw_fbank_tr05_cont.2.ark:22111019
01fo030p /scratch/ravanelm/exp/dirha/fbank/raw_fbank_tr05_cont.1.ark:35633529
40fo0312 /scratch/ravanelm/exp/dirha/fbank/raw_fbank_tr05_cont.4.ark:24656319
015c020k /scratch/ravanelm/exp/dirha/fbank/raw_fbank_tr05_cont.1.ark:9999609
406o030q /scratch/ravanelm/exp/dirha/fbank/raw_fbank_tr05_cont.3.ark:52963759
02cc0210 /scratch/ravanelm/exp/dirha/fbank/raw_fbank_tr05_cont.2.ark:50147079
01wc021b /scratch/ravanelm/exp/dirha/fbank/raw_fbank_tr05_cont.2.ark:17866049
40jo0316 /scratch/ravanelm/exp/dirha/fbank/raw_fbank_tr05_cont.4.ark:37927249
01zc0217 /scratch/ravanelm/exp/dirha/fbank/raw_fbank_tr05_cont.2.ark:23822899
405c0211 /scratch/ravanelm/exp/dirha/fbank/raw_fbank_tr05_cont.3.ark:49078249
01pc020l /scratch/ravanelm/exp/dirha/fbank/raw_fbank_tr05_cont.2.ark:981519
02bc0213 /scratch/ravanelm/exp/dirha/fbank/raw_fbank_tr05_cont.2.ark:47048339
01ro0308 /scratch/ravanelm/exp/dirha/fbank/raw_fbank_tr05_cont.2.ark:8345439
014o0312 /scratch/ravanelm/exp/dirha/fbank/raw_fbank_tr05_cont.1.ark:9071279
20qc0102 /scratch/ravanelm/exp/dirha/fbank/raw_fbank_tr05_cont.3.ark:33264279
01lc020l /scratch/ravanelm/exp/dirha/fbank/raw_fbank_tr05_cont.1.ark:50951559
017o0313 /scratch/ravanelm/exp/dirha/fbank/raw_fbank_tr05_cont.1.ark:17261069
01mo0306 /scratch/ravanelm/exp/dirha/fbank/raw_fbank_tr05_cont.1.ark:55567919
01io030z /scratch/ravanelm/exp/dirha/fbank/raw_fbank_tr05_cont.1.ark:42478779
20eo010l /scratch/ravanelm/exp/dirha/fbank/raw_fbank_tr05_cont.3.ark:19024209
406o030r /scratch/ravanelm/exp/dirha/fbank/raw_fbank_tr05_cont.3.ark:53009549
20to0106 /scratch/ravanelm/exp/dirha/fbank/raw_fbank_tr05_cont.3.ark:37526369
404c0215 /scratch/ravanelm/exp/dirha/fbank/raw_fbank_tr05_cont.3.ark:46561049
021c0210 /scratch/ravanelm/exp/dirha/fbank/raw_fbank_tr05_cont.2.ark:29020949
20tc010b /scratch/ravanelm/exp/dirha/fbank/raw_fbank_tr05_cont.3.ark:36968939
021c0216 /scratch/ravanelm/exp/dirha/fbank/raw_fbank_tr05_cont.2.ark:29160249
01zc0213 /scratch/ravanelm/exp/dirha/fbank/raw_fbank_tr05_cont.2.ark:23694339
011o030w /scratch/ravanelm/exp/dirha/fbank/raw_fbank_tr05_cont.1.ark:2595599
01gc020z /scratch/ravanelm/exp/dirha/fbank/raw_fbank_tr05_cont.1.ark:37340189
01mc020i /scratch/ravanelm/exp/dirha/fbank/raw_fbank_tr05_cont.1.ark:54483989
01gc0203 /scratch/ravanelm/exp/dirha/fbank/raw_fbank_tr05_cont.1.ark:36450669
01ro031d /scratch/ravanelm/exp/dirha/fbank/raw_fbank_tr05_cont.2.ark:9588989
011o0314 /scratch/ravanelm/exp/dirha/fbank/raw_fbank_tr05_cont.1.ark:2977759
020o030b /scratch/ravanelm/exp/dirha/fbank/raw_fbank_tr05_cont.2.ark:27275619
02bo030f /scratch/ravanelm/exp/dirha/fbank/raw_fbank_tr05_cont.2.ark:47964629
01mc0209 /scratch/ravanelm/exp/dirha/fbank/raw_fbank_tr05_cont.1.ark:54264159
02cc0211 /scratch/ravanelm/exp/dirha/fbank/raw_fbank_tr05_cont.2.ark:50181989
40do0306 /scratch/ravanelm/exp/dirha/fbank/raw_fbank_tr05_cont.4.ark:18125249
40ac0206 /scratch/ravanelm/exp/dirha/fbank/raw_fbank_tr05_cont.4.ark:7966259
20co010l /scratch/ravanelm/exp/dirha/fbank/raw_fbank_tr05_cont.3.ark:15588989
01to0316 /scratch/ravanelm/exp/dirha/fbank/raw_fbank_tr05_cont.2.ark:12711939
40jc020x /scratch/ravanelm/exp/dirha/fbank/raw_fbank_tr05_cont.4.ark:35992399
016o031a /scratch/ravanelm/exp/dirha/fbank/raw_fbank_tr05_cont.1.ark:14604029
20lc010b /scratch/ravanelm/exp/dirha/fbank/raw_fbank_tr05_cont.3.ark:25281739
208o0103 /scratch/ravanelm/exp/dirha/fbank/raw_fbank_tr05_cont.3.ark:8451879
01jc020u /scratch/ravanelm/exp/dirha/fbank/raw_fbank_tr05_cont.1.ark:43849919
019o030g /scratch/ravanelm/exp/dirha/fbank/raw_fbank_tr05_cont.1.ark:22891349
01lo0317 /scratch/ravanelm/exp/dirha/fbank/raw_fbank_tr05_cont.1.ark:53717829
028c021b /scratch/ravanelm/exp/dirha/fbank/raw_fbank_tr05_cont.2.ark:40938689
01dc0209 /scratch/ravanelm/exp/dirha/fbank/raw_fbank_tr05_cont.1.ark:27598389
01po030w /scratch/ravanelm/exp/dirha/fbank/raw_fbank_tr05_cont.2.ark:3033379
408o030p /scratch/ravanelm/exp/dirha/fbank/raw_fbank_tr05_cont.4.ark:4303799
015c020r /scratch/ravanelm/exp/dirha/fbank/raw_fbank_tr05_cont.1.ark:10171299
408c021e /scratch/ravanelm/exp/dirha/fbank/raw_fbank_tr05_cont.4.ark:3510239
028o030h /scratch/ravanelm/exp/dirha/fbank/raw_fbank_tr05_cont.2.ark:41724079
404c021d /scratch/ravanelm/exp/dirha/fbank/raw_fbank_tr05_cont.3.ark:46725489
205o010q /scratch/ravanelm/exp/dirha/fbank/raw_fbank_tr05_cont.3.ark:4121309
40io030n /scratch/ravanelm/exp/dirha/fbank/raw_fbank_tr05_cont.4.ark:34240349
405c0210 /scratch/ravanelm/exp/dirha/fbank/raw_fbank_tr05_cont.3.ark:49057019
01ro0316 /scratch/ravanelm/exp/dirha/fbank/raw_fbank_tr05_cont.2.ark:9418099
018o031c /scratch/ravanelm/exp/dirha/fbank/raw_fbank_tr05_cont.1.ark:21041799
408o030a /scratch/ravanelm/exp/dirha/fbank/raw_fbank_tr05_cont.4.ark:3870149
01uc0219 /scratch/ravanelm/exp/dirha/fbank/raw_fbank_tr05_cont.2.ark:14532469
40ec020h /scratch/ravanelm/exp/dirha/fbank/raw_fbank_tr05_cont.4.ark:19778929
401o0302 /scratch/ravanelm/exp/dirha/fbank/raw_fbank_tr05_cont.3.ark:41128219
028o0317 /scratch/ravanelm/exp/dirha/fbank/raw_fbank_tr05_cont.2.ark:42601099
20to010f /scratch/ravanelm/exp/dirha/fbank/raw_fbank_tr05_cont.3.ark:37769919
40kc020n /scratch/ravanelm/exp/dirha/fbank/raw_fbank_tr05_cont.4.ark:38902529
40eo0315 /scratch/ravanelm/exp/dirha/fbank/raw_fbank_tr05_cont.4.ark:21834359
409o030v /scratch/ravanelm/exp/dirha/fbank/raw_fbank_tr05_cont.4.ark:7217859
40ko031c /scratch/ravanelm/exp/dirha/fbank/raw_fbank_tr05_cont.4.ark:41258679
01rc021e /scratch/ravanelm/exp/dirha/fbank/raw_fbank_tr05_cont.2.ark:8105459
20ac010a /scratch/ravanelm/exp/dirha/fbank/raw_fbank_tr05_cont.3.ark:10998989
20bo0103 /scratch/ravanelm/exp/dirha/fbank/raw_fbank_tr05_cont.3.ark:13185319
02co0301 /scratch/ravanelm/exp/dirha/fbank/raw_fbank_tr05_cont.2.ark:50541459
20lo010h /scratch/ravanelm/exp/dirha/fbank/raw_fbank_tr05_cont.3.ark:26583979
01fo0316 /scratch/ravanelm/exp/dirha/fbank/raw_fbank_tr05_cont.1.ark:36114399
01go030f /scratch/ravanelm/exp/dirha/fbank/raw_fbank_tr05_cont.1.ark:38307169
01yo0308 /scratch/ravanelm/exp/dirha/fbank/raw_fbank_tr05_cont.2.ark:21154249
40ko030f /scratch/ravanelm/exp/dirha/fbank/raw_fbank_tr05_cont.4.ark:40096289
404c0201 /scratch/ravanelm/exp/dirha/fbank/raw_fbank_tr05_cont.3.ark:45573569
01mc020j /scratch/ravanelm/exp/dirha/fbank/raw_fbank_tr05_cont.1.ark:54516299
404c020a /scratch/ravanelm/exp/dirha/fbank/raw_fbank_tr05_cont.3.ark:45791959
40do030c /scratch/ravanelm/exp/dirha/fbank/raw_fbank_tr05_cont.4.ark:18244349
01wc020e /scratch/ravanelm/exp/dirha/fbank/raw_fbank_tr05_cont.2.ark:16996169
01ko0315 /scratch/ravanelm/exp/dirha/fbank/raw_fbank_tr05_cont.1.ark:49707599
40no030z /scratch/ravanelm/exp/dirha/fbank/raw_fbank_tr05_cont.4.ark:50786049
02bo030e /scratch/ravanelm/exp/dirha/fbank/raw_fbank_tr05_cont.2.ark:47929879
021c0201 /scratch/ravanelm/exp/dirha/fbank/raw_fbank_tr05_cont.2.ark:28031779
40fc0204 /scratch/ravanelm/exp/dirha/fbank/raw_fbank_tr05_cont.4.ark:22099899
01gc021e /scratch/ravanelm/exp/dirha/fbank/raw_fbank_tr05_cont.1.ark:37763919
20ao010h /scratch/ravanelm/exp/dirha/fbank/raw_fbank_tr05_cont.3.ark:12065199
026o0308 /scratch/ravanelm/exp/dirha/fbank/raw_fbank_tr05_cont.2.ark:35345799
016c020r /scratch/ravanelm/exp/dirha/fbank/raw_fbank_tr05_cont.1.ark:12919949
024c0209 /scratch/ravanelm/exp/dirha/fbank/raw_fbank_tr05_cont.2.ark:31147039
015o030j /scratch/ravanelm/exp/dirha/fbank/raw_fbank_tr05_cont.1.ark:11352479
407c021d /scratch/ravanelm/exp/dirha/fbank/raw_fbank_tr05_cont.4.ark:488279
01ko031f /scratch/ravanelm/exp/dirha/fbank/raw_fbank_tr05_cont.1.ark:50144379
40fc020b /scratch/ravanelm/exp/dirha/fbank/raw_fbank_tr05_cont.4.ark:22280389
40ec020f /scratch/ravanelm/exp/dirha/fbank/raw_fbank_tr05_cont.4.ark:19750229
20ec010n /scratch/ravanelm/exp/dirha/fbank/raw_fbank_tr05_cont.3.ark:18189789
20co010m /scratch/ravanelm/exp/dirha/fbank/raw_fbank_tr05_cont.3.ark:15606619
01tc021b /scratch/ravanelm/exp/dirha/fbank/raw_fbank_tr05_cont.2.ark:11170999
02co030p /scratch/ravanelm/exp/dirha/fbank/raw_fbank_tr05_cont.2.ark:51279139
40ac0201 /scratch/ravanelm/exp/dirha/fbank/raw_fbank_tr05_cont.4.ark:7773709
02ec021d /scratch/ravanelm/exp/dirha/fbank/raw_fbank_tr05_cont.2.ark:53758679
018o030o /scratch/ravanelm/exp/dirha/fbank/raw_fbank_tr05_cont.1.ark:20068559
40jc0202 /scratch/ravanelm/exp/dirha/fbank/raw_fbank_tr05_cont.4.ark:35175029
40pc020j /scratch/ravanelm/exp/dirha/fbank/raw_fbank_tr05_cont.4.ark:51791999
011o030g /scratch/ravanelm/exp/dirha/fbank/raw_fbank_tr05_cont.1.ark:1987759
01rc020a /scratch/ravanelm/exp/dirha/fbank/raw_fbank_tr05_cont.2.ark:6990179
409c0218 /scratch/ravanelm/exp/dirha/fbank/raw_fbank_tr05_cont.4.ark:6083009
40pc0205 /scratch/ravanelm/exp/dirha/fbank/raw_fbank_tr05_cont.4.ark:51512939
013o030z /scratch/ravanelm/exp/dirha/fbank/raw_fbank_tr05_cont.1.ark:6017549
021o030h /scratch/ravanelm/exp/dirha/fbank/raw_fbank_tr05_cont.2.ark:29842389
01mc021e /scratch/ravanelm/exp/dirha/fbank/raw_fbank_tr05_cont.1.ark:55318469
40bc0218 /scratch/ravanelm/exp/dirha/fbank/raw_fbank_tr05_cont.4.ark:12070829
20ic0103 /scratch/ravanelm/exp/dirha/fbank/raw_fbank_tr05_cont.3.ark:23434479
409c021d /scratch/ravanelm/exp/dirha/fbank/raw_fbank_tr05_cont.4.ark:6204919
020c0205 /scratch/ravanelm/exp/dirha/fbank/raw_fbank_tr05_cont.2.ark:26173329
204o0104 /scratch/ravanelm/exp/dirha/fbank/raw_fbank_tr05_cont.3.ark:1680559
20go0106 /scratch/ravanelm/exp/dirha/fbank/raw_fbank_tr05_cont.3.ark:21455879
403o030z /scratch/ravanelm/exp/dirha/fbank/raw_fbank_tr05_cont.3.ark:45150379
409o0317 /scratch/ravanelm/exp/dirha/fbank/raw_fbank_tr05_cont.4.ark:7548659
01mc021c /scratch/ravanelm/exp/dirha/fbank/raw_fbank_tr05_cont.1.ark:55266289
021o030y /scratch/ravanelm/exp/dirha/fbank/raw_fbank_tr05_cont.2.ark:30379299
01lc0217 /scratch/ravanelm/exp/dirha/fbank/raw_fbank_tr05_cont.1.ark:51600659
011c021c /scratch/ravanelm/exp/dirha/fbank/raw_fbank_tr05_cont.1.ark:1323779
01go030r /scratch/ravanelm/exp/dirha/fbank/raw_fbank_tr05_cont.1.ark:38707649
20gc010g /scratch/ravanelm/exp/dirha/fbank/raw_fbank_tr05_cont.3.ark:21099249
209o0103 /scratch/ravanelm/exp/dirha/fbank/raw_fbank_tr05_cont.3.ark:9984909
017o030u /scratch/ravanelm/exp/dirha/fbank/raw_fbank_tr05_cont.1.ark:16972399
405o0308 /scratch/ravanelm/exp/dirha/fbank/raw_fbank_tr05_cont.3.ark:49631429
01qo030l /scratch/ravanelm/exp/dirha/fbank/raw_fbank_tr05_cont.2.ark:5756629
20lc010l /scratch/ravanelm/exp/dirha/fbank/raw_fbank_tr05_cont.3.ark:25612119
01rc0217 /scratch/ravanelm/exp/dirha/fbank/raw_fbank_tr05_cont.2.ark:7953649
20co010i /scratch/ravanelm/exp/dirha/fbank/raw_fbank_tr05_cont.3.ark:15501859
017c020g /scratch/ravanelm/exp/dirha/fbank/raw_fbank_tr05_cont.1.ark:15172139
01tc020e /scratch/ravanelm/exp/dirha/fbank/raw_fbank_tr05_cont.2.ark:10051889
01rc020k /scratch/ravanelm/exp/dirha/fbank/raw_fbank_tr05_cont.2.ark:7301679
018o030s /scratch/ravanelm/exp/dirha/fbank/raw_fbank_tr05_cont.1.ark:20208039
20to010j /scratch/ravanelm/exp/dirha/fbank/raw_fbank_tr05_cont.3.ark:37898679
204c0108 /scratch/ravanelm/exp/dirha/fbank/raw_fbank_tr05_cont.3.ark:1210489
01zc020z /scratch/ravanelm/exp/dirha/fbank/raw_fbank_tr05_cont.2.ark:23570419
026o0306 /scratch/ravanelm/exp/dirha/fbank/raw_fbank_tr05_cont.2.ark:35300259
027o030m /scratch/ravanelm/exp/dirha/fbank/raw_fbank_tr05_cont.2.ark:38875289
01fo0312 /scratch/ravanelm/exp/dirha/fbank/raw_fbank_tr05_cont.1.ark:35984159
01do030a /scratch/ravanelm/exp/dirha/fbank/raw_fbank_tr05_cont.1.ark:29123869
20mo010d /scratch/ravanelm/exp/dirha/fbank/raw_fbank_tr05_cont.3.ark:28046749
028o0319 /scratch/ravanelm/exp/dirha/fbank/raw_fbank_tr05_cont.2.ark:42675879
01io030o /scratch/ravanelm/exp/dirha/fbank/raw_fbank_tr05_cont.1.ark:42052289
01rc020q /scratch/ravanelm/exp/dirha/fbank/raw_fbank_tr05_cont.2.ark:7475099
014o030k /scratch/ravanelm/exp/dirha/fbank/raw_fbank_tr05_cont.1.ark:8378899
40no0309 /scratch/ravanelm/exp/dirha/fbank/raw_fbank_tr05_cont.4.ark:49928949
01mo0302 /scratch/ravanelm/exp/dirha/fbank/raw_fbank_tr05_cont.1.ark:55437159
208c010e /scratch/ravanelm/exp/dirha/fbank/raw_fbank_tr05_cont.3.ark:7998979
029c021f /scratch/ravanelm/exp/dirha/fbank/raw_fbank_tr05_cont.2.ark:44222489
401c020l /scratch/ravanelm/exp/dirha/fbank/raw_fbank_tr05_cont.3.ark:40202779
02bo030u /scratch/ravanelm/exp/dirha/fbank/raw_fbank_tr05_cont.2.ark:48482799
01tc0211 /scratch/ravanelm/exp/dirha/fbank/raw_fbank_tr05_cont.2.ark:10878099
407o0308 /scratch/ravanelm/exp/dirha/fbank/raw_fbank_tr05_cont.4.ark:902509
205o0108 /scratch/ravanelm/exp/dirha/fbank/raw_fbank_tr05_cont.3.ark:3380129
01qc020b /scratch/ravanelm/exp/dirha/fbank/raw_fbank_tr05_cont.2.ark:3990549
401c0203 /scratch/ravanelm/exp/dirha/fbank/raw_fbank_tr05_cont.3.ark:39653479
017c021e /scratch/ravanelm/exp/dirha/fbank/raw_fbank_tr05_cont.1.ark:15963559
20fo0104 /scratch/ravanelm/exp/dirha/fbank/raw_fbank_tr05_cont.3.ark:20045499
029o0318 /scratch/ravanelm/exp/dirha/fbank/raw_fbank_tr05_cont.2.ark:45776479
027c020d /scratch/ravanelm/exp/dirha/fbank/raw_fbank_tr05_cont.2.ark:36974869
02bc020g /scratch/ravanelm/exp/dirha/fbank/raw_fbank_tr05_cont.2.ark:46457329
40go030y /scratch/ravanelm/exp/dirha/fbank/raw_fbank_tr05_cont.4.ark:28407529
409c020l /scratch/ravanelm/exp/dirha/fbank/raw_fbank_tr05_cont.4.ark:5421599
01ko030m /scratch/ravanelm/exp/dirha/fbank/raw_fbank_tr05_cont.1.ark:48959549
40io0306 /scratch/ravanelm/exp/dirha/fbank/raw_fbank_tr05_cont.4.ark:33662959
40do030b /scratch/ravanelm/exp/dirha/fbank/raw_fbank_tr05_cont.4.ark:18214919
403c020n /scratch/ravanelm/exp/dirha/fbank/raw_fbank_tr05_cont.3.ark:43390769
011c0214 /scratch/ravanelm/exp/dirha/fbank/raw_fbank_tr05_cont.1.ark:1092899
20gc0101 /scratch/ravanelm/exp/dirha/fbank/raw_fbank_tr05_cont.3.ark:20742559
014c0202 /scratch/ravanelm/exp/dirha/fbank/raw_fbank_tr05_cont.1.ark:6548409
01wc020t /scratch/ravanelm/exp/dirha/fbank/raw_fbank_tr05_cont.2.ark:17444019
011o030t /scratch/ravanelm/exp/dirha/fbank/raw_fbank_tr05_cont.1.ark:2472989
018o0310 /scratch/ravanelm/exp/dirha/fbank/raw_fbank_tr05_cont.1.ark:20544519
01mo0317 /scratch/ravanelm/exp/dirha/fbank/raw_fbank_tr05_cont.2.ark:177839
40ko030e /scratch/ravanelm/exp/dirha/fbank/raw_fbank_tr05_cont.4.ark:40075299
011o030q /scratch/ravanelm/exp/dirha/fbank/raw_fbank_tr05_cont.1.ark:2391019
01ic0205 /scratch/ravanelm/exp/dirha/fbank/raw_fbank_tr05_cont.1.ark:39809789
01go0307 /scratch/ravanelm/exp/dirha/fbank/raw_fbank_tr05_cont.1.ark:38035249
01gc020x /scratch/ravanelm/exp/dirha/fbank/raw_fbank_tr05_cont.1.ark:37285969
01kc020y /scratch/ravanelm/exp/dirha/fbank/raw_fbank_tr05_cont.1.ark:47524249
40po0305 /scratch/ravanelm/exp/dirha/fbank/raw_fbank_tr05_cont.4.ark:52705869
01rc0203 /scratch/ravanelm/exp/dirha/fbank/raw_fbank_tr05_cont.2.ark:6815529
01wc0219 /scratch/ravanelm/exp/dirha/fbank/raw_fbank_tr05_cont.2.ark:17822669
40lc020l /scratch/ravanelm/exp/dirha/fbank/raw_fbank_tr05_cont.4.ark:41950149
407c020t /scratch/ravanelm/exp/dirha/fbank/raw_fbank_tr05_cont.3.ark:54525799
40ho031c /scratch/ravanelm/exp/dirha/fbank/raw_fbank_tr05_cont.4.ark:31985139
408c021c /scratch/ravanelm/exp/dirha/fbank/raw_fbank_tr05_cont.4.ark:3465499
014c0206 /scratch/ravanelm/exp/dirha/fbank/raw_fbank_tr05_cont.1.ark:6656249
01qc020n /scratch/ravanelm/exp/dirha/fbank/raw_fbank_tr05_cont.2.ark:4348799
40ic0213 /scratch/ravanelm/exp/dirha/fbank/raw_fbank_tr05_cont.4.ark:33176659
40po0318 /scratch/ravanelm/exp/dirha/fbank/raw_fbank_tr05_cont.4.ark:54040799
01do030j /scratch/ravanelm/exp/dirha/fbank/raw_fbank_tr05_cont.1.ark:29408259
013o030d /scratch/ravanelm/exp/dirha/fbank/raw_fbank_tr05_cont.1.ark:5303769
01zc0215 /scratch/ravanelm/exp/dirha/fbank/raw_fbank_tr05_cont.2.ark:23759119
01lc0218 /scratch/ravanelm/exp/dirha/fbank/raw_fbank_tr05_cont.1.ark:51624809
018o030d /scratch/ravanelm/exp/dirha/fbank/raw_fbank_tr05_cont.1.ark:19624749
401c021b /scratch/ravanelm/exp/dirha/fbank/raw_fbank_tr05_cont.3.ark:40955239
20oc010h /scratch/ravanelm/exp/dirha/fbank/raw_fbank_tr05_cont.3.ark:30729269
01zc0205 /scratch/ravanelm/exp/dirha/fbank/raw_fbank_tr05_cont.2.ark:22732959
01rc020g /scratch/ravanelm/exp/dirha/fbank/raw_fbank_tr05_cont.2.ark:7163599
408o0304 /scratch/ravanelm/exp/dirha/fbank/raw_fbank_tr05_cont.4.ark:3654209
01dc020n /scratch/ravanelm/exp/dirha/fbank/raw_fbank_tr05_cont.1.ark:28019289
020c020t /scratch/ravanelm/exp/dirha/fbank/raw_fbank_tr05_cont.2.ark:26669489
40lc0209 /scratch/ravanelm/exp/dirha/fbank/raw_fbank_tr05_cont.4.ark:41571589
01wo031a /scratch/ravanelm/exp/dirha/fbank/raw_fbank_tr05_cont.2.ark:19352279
029o030s /scratch/ravanelm/exp/dirha/fbank/raw_fbank_tr05_cont.2.ark:45227759
01fc021a /scratch/ravanelm/exp/dirha/fbank/raw_fbank_tr05_cont.1.ark:34594199
01qo031d /scratch/ravanelm/exp/dirha/fbank/raw_fbank_tr05_cont.2.ark:6571549
028c0208 /scratch/ravanelm/exp/dirha/fbank/raw_fbank_tr05_cont.2.ark:39927639
40jo0304 /scratch/ravanelm/exp/dirha/fbank/raw_fbank_tr05_cont.4.ark:36572629
40jc0203 /scratch/ravanelm/exp/dirha/fbank/raw_fbank_tr05_cont.4.ark:35193099
407c021c /scratch/ravanelm/exp/dirha/fbank/raw_fbank_tr05_cont.4.ark:468889
01ic020e /scratch/ravanelm/exp/dirha/fbank/raw_fbank_tr05_cont.1.ark:40094139
01po0302 /scratch/ravanelm/exp/dirha/fbank/raw_fbank_tr05_cont.2.ark:1985669
011o031d /scratch/ravanelm/exp/dirha/fbank/raw_fbank_tr05_cont.1.ark:3389789
20eo010q /scratch/ravanelm/exp/dirha/fbank/raw_fbank_tr05_cont.3.ark:19225479
017o030b /scratch/ravanelm/exp/dirha/fbank/raw_fbank_tr05_cont.1.ark:16380909
20mo010l /scratch/ravanelm/exp/dirha/fbank/raw_fbank_tr05_cont.3.ark:28230989
01tc020n /scratch/ravanelm/exp/dirha/fbank/raw_fbank_tr05_cont.2.ark:10385479
409c020c /scratch/ravanelm/exp/dirha/fbank/raw_fbank_tr05_cont.4.ark:5171449
029o0315 /scratch/ravanelm/exp/dirha/fbank/raw_fbank_tr05_cont.2.ark:45669269
016o0315 /scratch/ravanelm/exp/dirha/fbank/raw_fbank_tr05_cont.1.ark:14487799
40fc0201 /scratch/ravanelm/exp/dirha/fbank/raw_fbank_tr05_cont.4.ark:22023649
021c0212 /scratch/ravanelm/exp/dirha/fbank/raw_fbank_tr05_cont.2.ark:29074489
40nc020g /scratch/ravanelm/exp/dirha/fbank/raw_fbank_tr05_cont.4.ark:48495999
02ec020g /scratch/ravanelm/exp/dirha/fbank/raw_fbank_tr05_cont.2.ark:52752969
40nc021g /scratch/ravanelm/exp/dirha/fbank/raw_fbank_tr05_cont.4.ark:49556639
40io030r /scratch/ravanelm/exp/dirha/fbank/raw_fbank_tr05_cont.4.ark:34341389
027c0205 /scratch/ravanelm/exp/dirha/fbank/raw_fbank_tr05_cont.2.ark:36773269
019c0212 /scratch/ravanelm/exp/dirha/fbank/raw_fbank_tr05_cont.1.ark:21975939
40bc0214 /scratch/ravanelm/exp/dirha/fbank/raw_fbank_tr05_cont.4.ark:11965189
40kc0219 /scratch/ravanelm/exp/dirha/fbank/raw_fbank_tr05_cont.4.ark:39469549
40no030r /scratch/ravanelm/exp/dirha/fbank/raw_fbank_tr05_cont.4.ark:50584049
20mc010e /scratch/ravanelm/exp/dirha/fbank/raw_fbank_tr05_cont.3.ark:27341949
02co0319 /scratch/ravanelm/exp/dirha/fbank/raw_fbank_tr05_cont.2.ark:51969899
20vc010n /scratch/ravanelm/exp/dirha/fbank/raw_fbank_tr05_cont.3.ark:38684669
01uo030c /scratch/ravanelm/exp/dirha/fbank/raw_fbank_tr05_cont.2.ark:15166169
024c0218 /scratch/ravanelm/exp/dirha/fbank/raw_fbank_tr05_cont.2.ark:32108609
01io030x /scratch/ravanelm/exp/dirha/fbank/raw_fbank_tr05_cont.1.ark:42397439
40po030n /scratch/ravanelm/exp/dirha/fbank/raw_fbank_tr05_cont.4.ark:53369249
206o010f /scratch/ravanelm/exp/dirha/fbank/raw_fbank_tr05_cont.3.ark:5338129
01kc0209 /scratch/ravanelm/exp/dirha/fbank/raw_fbank_tr05_cont.1.ark:46766369
015c021d /scratch/ravanelm/exp/dirha/fbank/raw_fbank_tr05_cont.1.ark:10668959
01lc020y /scratch/ravanelm/exp/dirha/fbank/raw_fbank_tr05_cont.1.ark:51303109
405c0209 /scratch/ravanelm/exp/dirha/fbank/raw_fbank_tr05_cont.3.ark:48451009
020c020k /scratch/ravanelm/exp/dirha/fbank/raw_fbank_tr05_cont.2.ark:26497819
014o030f /scratch/ravanelm/exp/dirha/fbank/raw_fbank_tr05_cont.1.ark:8238349
018o0305 /scratch/ravanelm/exp/dirha/fbank/raw_fbank_tr05_cont.1.ark:19358389
01zc021b /scratch/ravanelm/exp/dirha/fbank/raw_fbank_tr05_cont.2.ark:23955579
01zo031e /scratch/ravanelm/exp/dirha/fbank/raw_fbank_tr05_cont.2.ark:26007159
20fc010b /scratch/ravanelm/exp/dirha/fbank/raw_fbank_tr05_cont.3.ark:19555009
01mo030t /scratch/ravanelm/exp/dirha/fbank/raw_fbank_tr05_cont.1.ark:56250329
021o030p /scratch/ravanelm/exp/dirha/fbank/raw_fbank_tr05_cont.2.ark:30134349
40po030g /scratch/ravanelm/exp/dirha/fbank/raw_fbank_tr05_cont.4.ark:53095039
017o0306 /scratch/ravanelm/exp/dirha/fbank/raw_fbank_tr05_cont.1.ark:16245559
016o030w /scratch/ravanelm/exp/dirha/fbank/raw_fbank_tr05_cont.1.ark:14203649
01fo030x /scratch/ravanelm/exp/dirha/fbank/raw_fbank_tr05_cont.1.ark:35848729
01kc020n /scratch/ravanelm/exp/dirha/fbank/raw_fbank_tr05_cont.1.ark:47179159
01bo030p /scratch/ravanelm/exp/dirha/fbank/raw_fbank_tr05_cont.1.ark:26427229
20hc010h /scratch/ravanelm/exp/dirha/fbank/raw_fbank_tr05_cont.3.ark:22418569
01bc021a /scratch/ravanelm/exp/dirha/fbank/raw_fbank_tr05_cont.1.ark:25274099
20dc0104 /scratch/ravanelm/exp/dirha/fbank/raw_fbank_tr05_cont.3.ark:15856059
016c020o /scratch/ravanelm/exp/dirha/fbank/raw_fbank_tr05_cont.1.ark:12888609
40mc0213 /scratch/ravanelm/exp/dirha/fbank/raw_fbank_tr05_cont.4.ark:45985339
01qc020l /scratch/ravanelm/exp/dirha/fbank/raw_fbank_tr05_cont.2.ark:4315339
208c010k /scratch/ravanelm/exp/dirha/fbank/raw_fbank_tr05_cont.3.ark:8167639
40jo031b /scratch/ravanelm/exp/dirha/fbank/raw_fbank_tr05_cont.4.ark:38107159
01wo0306 /scratch/ravanelm/exp/dirha/fbank/raw_fbank_tr05_cont.2.ark:18106509
40ec020v /scratch/ravanelm/exp/dirha/fbank/raw_fbank_tr05_cont.4.ark:20075429
01rc020u /scratch/ravanelm/exp/dirha/fbank/raw_fbank_tr05_cont.2.ark:7584979
20co010n /scratch/ravanelm/exp/dirha/fbank/raw_fbank_tr05_cont.3.ark:15649529
40fo031a /scratch/ravanelm/exp/dirha/fbank/raw_fbank_tr05_cont.4.ark:24920919
40dc0208 /scratch/ravanelm/exp/dirha/fbank/raw_fbank_tr05_cont.4.ark:16650469
01bc0207 /scratch/ravanelm/exp/dirha/fbank/raw_fbank_tr05_cont.1.ark:23972069
208c0107 /scratch/ravanelm/exp/dirha/fbank/raw_fbank_tr05_cont.3.ark:7801089
027o0316 /scratch/ravanelm/exp/dirha/fbank/raw_fbank_tr05_cont.2.ark:39608729
20go0107 /scratch/ravanelm/exp/dirha/fbank/raw_fbank_tr05_cont.3.ark:21468789
01io030r /scratch/ravanelm/exp/dirha/fbank/raw_fbank_tr05_cont.1.ark:42164739
204o010p /scratch/ravanelm/exp/dirha/fbank/raw_fbank_tr05_cont.3.ark:2360309
20nc010c /scratch/ravanelm/exp/dirha/fbank/raw_fbank_tr05_cont.3.ark:28772999
20dc0109 /scratch/ravanelm/exp/dirha/fbank/raw_fbank_tr05_cont.3.ark:15970609
20do010j /scratch/ravanelm/exp/dirha/fbank/raw_fbank_tr05_cont.3.ark:17205579
205c010p /scratch/ravanelm/exp/dirha/fbank/raw_fbank_tr05_cont.3.ark:3103009
024o031d /scratch/ravanelm/exp/dirha/fbank/raw_fbank_tr05_cont.2.ark:33749499
029c0201 /scratch/ravanelm/exp/dirha/fbank/raw_fbank_tr05_cont.2.ark:42867989
019o0316 /scratch/ravanelm/exp/dirha/fbank/raw_fbank_tr05_cont.1.ark:23672889
01io0304 /scratch/ravanelm/exp/dirha/fbank/raw_fbank_tr05_cont.1.ark:41250889
01lo0305 /scratch/ravanelm/exp/dirha/fbank/raw_fbank_tr05_cont.1.ark:52060969
01go030k /scratch/ravanelm/exp/dirha/fbank/raw_fbank_tr05_cont.1.ark:38467119
208o0104 /scratch/ravanelm/exp/dirha/fbank/raw_fbank_tr05_cont.3.ark:8496549
01rc021b /scratch/ravanelm/exp/dirha/fbank/raw_fbank_tr05_cont.2.ark:8028689
01ec020v /scratch/ravanelm/exp/dirha/fbank/raw_fbank_tr05_cont.1.ark:31218329
021c020p /scratch/ravanelm/exp/dirha/fbank/raw_fbank_tr05_cont.2.ark:28756019
014c020o /scratch/ravanelm/exp/dirha/fbank/raw_fbank_tr05_cont.1.ark:7057669
01zo0319 /scratch/ravanelm/exp/dirha/fbank/raw_fbank_tr05_cont.2.ark:25827649
01rc0209 /scratch/ravanelm/exp/dirha/fbank/raw_fbank_tr05_cont.2.ark:6952749
021c020t /scratch/ravanelm/exp/dirha/fbank/raw_fbank_tr05_cont.2.ark:28879059
20ho010n /scratch/ravanelm/exp/dirha/fbank/raw_fbank_tr05_cont.3.ark:23297209
20cc010b /scratch/ravanelm/exp/dirha/fbank/raw_fbank_tr05_cont.3.ark:14590369
40go0301 /scratch/ravanelm/exp/dirha/fbank/raw_fbank_tr05_cont.4.ark:26992099
020c020l /scratch/ravanelm/exp/dirha/fbank/raw_fbank_tr05_cont.2.ark:26519849
40ko0301 /scratch/ravanelm/exp/dirha/fbank/raw_fbank_tr05_cont.4.ark:39703349
020o0305 /scratch/ravanelm/exp/dirha/fbank/raw_fbank_tr05_cont.2.ark:27144229
40io030g /scratch/ravanelm/exp/dirha/fbank/raw_fbank_tr05_cont.4.ark:33998419
01wo030k /scratch/ravanelm/exp/dirha/fbank/raw_fbank_tr05_cont.2.ark:18588649
206c010b /scratch/ravanelm/exp/dirha/fbank/raw_fbank_tr05_cont.3.ark:4454709
40ic0202 /scratch/ravanelm/exp/dirha/fbank/raw_fbank_tr05_cont.4.ark:32070869
207o010n /scratch/ravanelm/exp/dirha/fbank/raw_fbank_tr05_cont.3.ark:7390029
020c021e /scratch/ravanelm/exp/dirha/fbank/raw_fbank_tr05_cont.2.ark:27043279
406o030m /scratch/ravanelm/exp/dirha/fbank/raw_fbank_tr05_cont.3.ark:52837719
01io030n /scratch/ravanelm/exp/dirha/fbank/raw_fbank_tr05_cont.1.ark:42016339
01fo030l /scratch/ravanelm/exp/dirha/fbank/raw_fbank_tr05_cont.1.ark:35499409
40do030p /scratch/ravanelm/exp/dirha/fbank/raw_fbank_tr05_cont.4.ark:18698619
20mc0107 /scratch/ravanelm/exp/dirha/fbank/raw_fbank_tr05_cont.3.ark:27149419
01ic020n /scratch/ravanelm/exp/dirha/fbank/raw_fbank_tr05_cont.1.ark:40367289
02cc020r /scratch/ravanelm/exp/dirha/fbank/raw_fbank_tr05_cont.2.ark:49905729
408c020p /scratch/ravanelm/exp/dirha/fbank/raw_fbank_tr05_cont.4.ark:2984879
013c0203 /scratch/ravanelm/exp/dirha/fbank/raw_fbank_tr05_cont.1.ark:3608019
011o0309 /scratch/ravanelm/exp/dirha/fbank/raw_fbank_tr05_cont.1.ark:1760069
40po030r /scratch/ravanelm/exp/dirha/fbank/raw_fbank_tr05_cont.4.ark:53495929
204o010d /scratch/ravanelm/exp/dirha/fbank/raw_fbank_tr05_cont.3.ark:1928509
20mc010p /scratch/ravanelm/exp/dirha/fbank/raw_fbank_tr05_cont.3.ark:27642279
207o0109 /scratch/ravanelm/exp/dirha/fbank/raw_fbank_tr05_cont.3.ark:6899049
029o030q /scratch/ravanelm/exp/dirha/fbank/raw_fbank_tr05_cont.2.ark:45141579
01eo030y /scratch/ravanelm/exp/dirha/fbank/raw_fbank_tr05_cont.1.ark:32829319
01lc020z /scratch/ravanelm/exp/dirha/fbank/raw_fbank_tr05_cont.1.ark:51323059
20vo0103 /scratch/ravanelm/exp/dirha/fbank/raw_fbank_tr05_cont.3.ark:38795219
20co0106 /scratch/ravanelm/exp/dirha/fbank/raw_fbank_tr05_cont.3.ark:15124859
20do010b /scratch/ravanelm/exp/dirha/fbank/raw_fbank_tr05_cont.3.ark:16873419
40dc0217 /scratch/ravanelm/exp/dirha/fbank/raw_fbank_tr05_cont.4.ark:17722559
01zc020t /scratch/ravanelm/exp/dirha/fbank/raw_fbank_tr05_cont.2.ark:23349959
01zc020i /scratch/ravanelm/exp/dirha/fbank/raw_fbank_tr05_cont.2.ark:23098869
026c0214 /scratch/ravanelm/exp/dirha/fbank/raw_fbank_tr05_cont.2.ark:34794599
01gc020q /scratch/ravanelm/exp/dirha/fbank/raw_fbank_tr05_cont.1.ark:37131599
02bo031f /scratch/ravanelm/exp/dirha/fbank/raw_fbank_tr05_cont.2.ark:49194909
40jc020j /scratch/ravanelm/exp/dirha/fbank/raw_fbank_tr05_cont.4.ark:35611299
405c0217 /scratch/ravanelm/exp/dirha/fbank/raw_fbank_tr05_cont.3.ark:49257549
40go030h /scratch/ravanelm/exp/dirha/fbank/raw_fbank_tr05_cont.4.ark:27649859
40jc0208 /scratch/ravanelm/exp/dirha/fbank/raw_fbank_tr05_cont.4.ark:35327209
011o0301 /scratch/ravanelm/exp/dirha/fbank/raw_fbank_tr05_cont.1.ark:1406109
40eo0314 /scratch/ravanelm/exp/dirha/fbank/raw_fbank_tr05_cont.4.ark:21817929
01lo030y /scratch/ravanelm/exp/dirha/fbank/raw_fbank_tr05_cont.1.ark:53279239
011c0215 /scratch/ravanelm/exp/dirha/fbank/raw_fbank_tr05_cont.1.ark:1130249
01tc0207 /scratch/ravanelm/exp/dirha/fbank/raw_fbank_tr05_cont.2.ark:9807759
40mo030h /scratch/ravanelm/exp/dirha/fbank/raw_fbank_tr05_cont.4.ark:46960879
021o030a /scratch/ravanelm/exp/dirha/fbank/raw_fbank_tr05_cont.2.ark:29638379
20qc010m /scratch/ravanelm/exp/dirha/fbank/raw_fbank_tr05_cont.3.ark:33881439
016o0317 /scratch/ravanelm/exp/dirha/fbank/raw_fbank_tr05_cont.1.ark:14528139
013c020i /scratch/ravanelm/exp/dirha/fbank/raw_fbank_tr05_cont.1.ark:4076589
409c0213 /scratch/ravanelm/exp/dirha/fbank/raw_fbank_tr05_cont.4.ark:5947699
02cc0209 /scratch/ravanelm/exp/dirha/fbank/raw_fbank_tr05_cont.2.ark:49491339
01jc020b /scratch/ravanelm/exp/dirha/fbank/raw_fbank_tr05_cont.1.ark:43328429
40mo0306 /scratch/ravanelm/exp/dirha/fbank/raw_fbank_tr05_cont.4.ark:46602629
01wc020k /scratch/ravanelm/exp/dirha/fbank/raw_fbank_tr05_cont.2.ark:17191149
40ko0317 /scratch/ravanelm/exp/dirha/fbank/raw_fbank_tr05_cont.4.ark:41091449
40po0311 /scratch/ravanelm/exp/dirha/fbank/raw_fbank_tr05_cont.4.ark:53857789
40pc0216 /scratch/ravanelm/exp/dirha/fbank/raw_fbank_tr05_cont.4.ark:52375209
018c020o /scratch/ravanelm/exp/dirha/fbank/raw_fbank_tr05_cont.1.ark:18278719
01ec0205 /scratch/ravanelm/exp/dirha/fbank/raw_fbank_tr05_cont.1.ark:30536829
40bo0312 /scratch/ravanelm/exp/dirha/fbank/raw_fbank_tr05_cont.4.ark:13619389
01fc0204 /scratch/ravanelm/exp/dirha/fbank/raw_fbank_tr05_cont.1.ark:33479259
01zo030n /scratch/ravanelm/exp/dirha/fbank/raw_fbank_tr05_cont.2.ark:24941909
40ko031a /scratch/ravanelm/exp/dirha/fbank/raw_fbank_tr05_cont.4.ark:41187939
40hc0219 /scratch/ravanelm/exp/dirha/fbank/raw_fbank_tr05_cont.4.ark:30256039
01io030t /scratch/ravanelm/exp/dirha/fbank/raw_fbank_tr05_cont.1.ark:42239959
20co0105 /scratch/ravanelm/exp/dirha/fbank/raw_fbank_tr05_cont.3.ark:15088989
01zo0303 /scratch/ravanelm/exp/dirha/fbank/raw_fbank_tr05_cont.2.ark:24185309
029c020y /scratch/ravanelm/exp/dirha/fbank/raw_fbank_tr05_cont.2.ark:43808379
40mc0209 /scratch/ravanelm/exp/dirha/fbank/raw_fbank_tr05_cont.4.ark:45240039
40co0307 /scratch/ravanelm/exp/dirha/fbank/raw_fbank_tr05_cont.4.ark:15282959
20no0105 /scratch/ravanelm/exp/dirha/fbank/raw_fbank_tr05_cont.3.ark:29387139
406o0312 /scratch/ravanelm/exp/dirha/fbank/raw_fbank_tr05_cont.3.ark:53374719
20no0109 /scratch/ravanelm/exp/dirha/fbank/raw_fbank_tr05_cont.3.ark:29538939
014c020l /scratch/ravanelm/exp/dirha/fbank/raw_fbank_tr05_cont.1.ark:6995219
024o030w /scratch/ravanelm/exp/dirha/fbank/raw_fbank_tr05_cont.2.ark:33227749
40pc020u /scratch/ravanelm/exp/dirha/fbank/raw_fbank_tr05_cont.4.ark:52073329
208c010b /scratch/ravanelm/exp/dirha/fbank/raw_fbank_tr05_cont.3.ark:7910889
01zc0207 /scratch/ravanelm/exp/dirha/fbank/raw_fbank_tr05_cont.2.ark:22790099
40po030f /scratch/ravanelm/exp/dirha/fbank/raw_fbank_tr05_cont.4.ark:53054529
208o010e /scratch/ravanelm/exp/dirha/fbank/raw_fbank_tr05_cont.3.ark:8820929
018c021c /scratch/ravanelm/exp/dirha/fbank/raw_fbank_tr05_cont.1.ark:19003959
40eo0318 /scratch/ravanelm/exp/dirha/fbank/raw_fbank_tr05_cont.4.ark:21925129
01io0308 /scratch/ravanelm/exp/dirha/fbank/raw_fbank_tr05_cont.1.ark:41417889
01jc0201 /scratch/ravanelm/exp/dirha/fbank/raw_fbank_tr05_cont.1.ark:43016809
027o0315 /scratch/ravanelm/exp/dirha/fbank/raw_fbank_tr05_cont.2.ark:39578419
028c021c /scratch/ravanelm/exp/dirha/fbank/raw_fbank_tr05_cont.2.ark:40969759
028c020k /scratch/ravanelm/exp/dirha/fbank/raw_fbank_tr05_cont.2.ark:40207879
01qo0319 /scratch/ravanelm/exp/dirha/fbank/raw_fbank_tr05_cont.2.ark:6495869
01ec020s /scratch/ravanelm/exp/dirha/fbank/raw_fbank_tr05_cont.1.ark:31141959
20gc0109 /scratch/ravanelm/exp/dirha/fbank/raw_fbank_tr05_cont.3.ark:20929039
01uo030h /scratch/ravanelm/exp/dirha/fbank/raw_fbank_tr05_cont.2.ark:15329879
024o0306 /scratch/ravanelm/exp/dirha/fbank/raw_fbank_tr05_cont.2.ark:32508929
20pc010p /scratch/ravanelm/exp/dirha/fbank/raw_fbank_tr05_cont.3.ark:32393039
404c020e /scratch/ravanelm/exp/dirha/fbank/raw_fbank_tr05_cont.3.ark:45893039
404c0219 /scratch/ravanelm/exp/dirha/fbank/raw_fbank_tr05_cont.3.ark:46639089
40ao030r /scratch/ravanelm/exp/dirha/fbank/raw_fbank_tr05_cont.4.ark:10133309
02bc0214 /scratch/ravanelm/exp/dirha/fbank/raw_fbank_tr05_cont.2.ark:47077009
028c0214 /scratch/ravanelm/exp/dirha/fbank/raw_fbank_tr05_cont.2.ark:40742759
20lc010p /scratch/ravanelm/exp/dirha/fbank/raw_fbank_tr05_cont.3.ark:25752799
40ao031c /scratch/ravanelm/exp/dirha/fbank/raw_fbank_tr05_cont.4.ark:10805259
404o030p /scratch/ravanelm/exp/dirha/fbank/raw_fbank_tr05_cont.3.ark:47539739
20tc0104 /scratch/ravanelm/exp/dirha/fbank/raw_fbank_tr05_cont.3.ark:36831689
01fc020g /scratch/ravanelm/exp/dirha/fbank/raw_fbank_tr05_cont.1.ark:33868099
019c021b /scratch/ravanelm/exp/dirha/fbank/raw_fbank_tr05_cont.1.ark:22264489
406c0216 /scratch/ravanelm/exp/dirha/fbank/raw_fbank_tr05_cont.3.ark:51986709
406c021c /scratch/ravanelm/exp/dirha/fbank/raw_fbank_tr05_cont.3.ark:52127849
20tc010m /scratch/ravanelm/exp/dirha/fbank/raw_fbank_tr05_cont.3.ark:37292389
02bc0202 /scratch/ravanelm/exp/dirha/fbank/raw_fbank_tr05_cont.2.ark:46062789
408c020b /scratch/ravanelm/exp/dirha/fbank/raw_fbank_tr05_cont.4.ark:2635779
20co010e /scratch/ravanelm/exp/dirha/fbank/raw_fbank_tr05_cont.3.ark:15395259
40ao0307 /scratch/ravanelm/exp/dirha/fbank/raw_fbank_tr05_cont.4.ark:9470669
40lo0312 /scratch/ravanelm/exp/dirha/fbank/raw_fbank_tr05_cont.4.ark:44525629
028o030d /scratch/ravanelm/exp/dirha/fbank/raw_fbank_tr05_cont.2.ark:41544959
01ec020d /scratch/ravanelm/exp/dirha/fbank/raw_fbank_tr05_cont.1.ark:30757269
20ho0102 /scratch/ravanelm/exp/dirha/fbank/raw_fbank_tr05_cont.3.ark:22634659
205o010m /scratch/ravanelm/exp/dirha/fbank/raw_fbank_tr05_cont.3.ark:3977669
206o0109 /scratch/ravanelm/exp/dirha/fbank/raw_fbank_tr05_cont.3.ark:5052589
404c021c /scratch/ravanelm/exp/dirha/fbank/raw_fbank_tr05_cont.3.ark:46704299
01qc0217 /scratch/ravanelm/exp/dirha/fbank/raw_fbank_tr05_cont.2.ark:4785349
40jo030t /scratch/ravanelm/exp/dirha/fbank/raw_fbank_tr05_cont.4.ark:37500179
40fc0205 /scratch/ravanelm/exp/dirha/fbank/raw_fbank_tr05_cont.4.ark:22114169
20fo010a /scratch/ravanelm/exp/dirha/fbank/raw_fbank_tr05_cont.3.ark:20293439
016c020s /scratch/ravanelm/exp/dirha/fbank/raw_fbank_tr05_cont.1.ark:12942099
406o030k /scratch/ravanelm/exp/dirha/fbank/raw_fbank_tr05_cont.3.ark:52749139
01yo0310 /scratch/ravanelm/exp/dirha/fbank/raw_fbank_tr05_cont.2.ark:22161049
40ko030p /scratch/ravanelm/exp/dirha/fbank/raw_fbank_tr05_cont.4.ark:40473389
40pc020t /scratch/ravanelm/exp/dirha/fbank/raw_fbank_tr05_cont.4.ark:52035899
407o0312 /scratch/ravanelm/exp/dirha/fbank/raw_fbank_tr05_cont.4.ark:2099129
207c010g /scratch/ravanelm/exp/dirha/fbank/raw_fbank_tr05_cont.3.ark:6362199
40jc020a /scratch/ravanelm/exp/dirha/fbank/raw_fbank_tr05_cont.4.ark:35354989
205o0105 /scratch/ravanelm/exp/dirha/fbank/raw_fbank_tr05_cont.3.ark:3273799
01wo0317 /scratch/ravanelm/exp/dirha/fbank/raw_fbank_tr05_cont.2.ark:19291149
018c021a /scratch/ravanelm/exp/dirha/fbank/raw_fbank_tr05_cont.1.ark:18953539
026c0213 /scratch/ravanelm/exp/dirha/fbank/raw_fbank_tr05_cont.2.ark:34782409
01qo030x /scratch/ravanelm/exp/dirha/fbank/raw_fbank_tr05_cont.2.ark:6126109
40co030s /scratch/ravanelm/exp/dirha/fbank/raw_fbank_tr05_cont.4.ark:15876669
40no030n /scratch/ravanelm/exp/dirha/fbank/raw_fbank_tr05_cont.4.ark:50422009
01dc021a /scratch/ravanelm/exp/dirha/fbank/raw_fbank_tr05_cont.1.ark:28619579
017c020j /scratch/ravanelm/exp/dirha/fbank/raw_fbank_tr05_cont.1.ark:15253869
01to0311 /scratch/ravanelm/exp/dirha/fbank/raw_fbank_tr05_cont.2.ark:12532989
401c020v /scratch/ravanelm/exp/dirha/fbank/raw_fbank_tr05_cont.3.ark:40460679
403o0317 /scratch/ravanelm/exp/dirha/fbank/raw_fbank_tr05_cont.3.ark:45429699
027o0304 /scratch/ravanelm/exp/dirha/fbank/raw_fbank_tr05_cont.2.ark:38141029
403c021b /scratch/ravanelm/exp/dirha/fbank/raw_fbank_tr05_cont.3.ark:43921689
01zc020d /scratch/ravanelm/exp/dirha/fbank/raw_fbank_tr05_cont.2.ark:22947999
206o010h /scratch/ravanelm/exp/dirha/fbank/raw_fbank_tr05_cont.3.ark:5440669
01to030f /scratch/ravanelm/exp/dirha/fbank/raw_fbank_tr05_cont.2.ark:11770289
026c020z /scratch/ravanelm/exp/dirha/fbank/raw_fbank_tr05_cont.2.ark:34671729
404o030y /scratch/ravanelm/exp/dirha/fbank/raw_fbank_tr05_cont.3.ark:47822329
01dc0219 /scratch/ravanelm/exp/dirha/fbank/raw_fbank_tr05_cont.1.ark:28586149
021c020r /scratch/ravanelm/exp/dirha/fbank/raw_fbank_tr05_cont.2.ark:28813919
021o031c /scratch/ravanelm/exp/dirha/fbank/raw_fbank_tr05_cont.2.ark:30802319
021o030g /scratch/ravanelm/exp/dirha/fbank/raw_fbank_tr05_cont.2.ark:29815199
01kc020a /scratch/ravanelm/exp/dirha/fbank/raw_fbank_tr05_cont.1.ark:46787719
40eo030v /scratch/ravanelm/exp/dirha/fbank/raw_fbank_tr05_cont.4.ark:21523899
019o0307 /scratch/ravanelm/exp/dirha/fbank/raw_fbank_tr05_cont.1.ark:22609599
017c0212 /scratch/ravanelm/exp/dirha/fbank/raw_fbank_tr05_cont.1.ark:15689839
015o030h /scratch/ravanelm/exp/dirha/fbank/raw_fbank_tr05_cont.1.ark:11294979
027o030i /scratch/ravanelm/exp/dirha/fbank/raw_fbank_tr05_cont.2.ark:38724689
40ho030x /scratch/ravanelm/exp/dirha/fbank/raw_fbank_tr05_cont.4.ark:31482809
408o030v /scratch/ravanelm/exp/dirha/fbank/raw_fbank_tr05_cont.4.ark:4452779
029o0301 /scratch/ravanelm/exp/dirha/fbank/raw_fbank_tr05_cont.2.ark:44289509
40ko030r /scratch/ravanelm/exp/dirha/fbank/raw_fbank_tr05_cont.4.ark:40529329
40ho0302 /scratch/ravanelm/exp/dirha/fbank/raw_fbank_tr05_cont.4.ark:30465799
01ro030i /scratch/ravanelm/exp/dirha/fbank/raw_fbank_tr05_cont.2.ark:8650299
207c0108 /scratch/ravanelm/exp/dirha/fbank/raw_fbank_tr05_cont.3.ark:6104039
01lc021c /scratch/ravanelm/exp/dirha/fbank/raw_fbank_tr05_cont.1.ark:51769369
01mc020d /scratch/ravanelm/exp/dirha/fbank/raw_fbank_tr05_cont.1.ark:54347679
021c020n /scratch/ravanelm/exp/dirha/fbank/raw_fbank_tr05_cont.2.ark:28682399
01pc020t /scratch/ravanelm/exp/dirha/fbank/raw_fbank_tr05_cont.2.ark:1206239
019o030d /scratch/ravanelm/exp/dirha/fbank/raw_fbank_tr05_cont.1.ark:22789299
20mc0101 /scratch/ravanelm/exp/dirha/fbank/raw_fbank_tr05_cont.3.ark:26993959
40bo0303 /scratch/ravanelm/exp/dirha/fbank/raw_fbank_tr05_cont.4.ark:12439599
40hc020r /scratch/ravanelm/exp/dirha/fbank/raw_fbank_tr05_cont.4.ark:29816939
40jc021b /scratch/ravanelm/exp/dirha/fbank/raw_fbank_tr05_cont.4.ark:36380819
01qo0303 /scratch/ravanelm/exp/dirha/fbank/raw_fbank_tr05_cont.2.ark:5102689
024c020w /scratch/ravanelm/exp/dirha/fbank/raw_fbank_tr05_cont.2.ark:31790449
403o0312 /scratch/ravanelm/exp/dirha/fbank/raw_fbank_tr05_cont.3.ark:45255149
01yo0305 /scratch/ravanelm/exp/dirha/fbank/raw_fbank_tr05_cont.2.ark:21059839
020o030n /scratch/ravanelm/exp/dirha/fbank/raw_fbank_tr05_cont.2.ark:27420819
01jc020x /scratch/ravanelm/exp/dirha/fbank/raw_fbank_tr05_cont.1.ark:43944089
02cc020s /scratch/ravanelm/exp/dirha/fbank/raw_fbank_tr05_cont.2.ark:49916759
018o030r /scratch/ravanelm/exp/dirha/fbank/raw_fbank_tr05_cont.1.ark:20170649
02ec0219 /scratch/ravanelm/exp/dirha/fbank/raw_fbank_tr05_cont.2.ark:53639119
405o0315 /scratch/ravanelm/exp/dirha/fbank/raw_fbank_tr05_cont.3.ark:50627539
206c010i /scratch/ravanelm/exp/dirha/fbank/raw_fbank_tr05_cont.3.ark:4631079
026o031b /scratch/ravanelm/exp/dirha/fbank/raw_fbank_tr05_cont.2.ark:36561209
027o030e /scratch/ravanelm/exp/dirha/fbank/raw_fbank_tr05_cont.2.ark:38531729
20lo010m /scratch/ravanelm/exp/dirha/fbank/raw_fbank_tr05_cont.3.ark:26839969
40mo030j /scratch/ravanelm/exp/dirha/fbank/raw_fbank_tr05_cont.4.ark:47035139
011c020x /scratch/ravanelm/exp/dirha/fbank/raw_fbank_tr05_cont.1.ark:894289
028c021d /scratch/ravanelm/exp/dirha/fbank/raw_fbank_tr05_cont.2.ark:41004789
40jc0204 /scratch/ravanelm/exp/dirha/fbank/raw_fbank_tr05_cont.4.ark:35226089
40io030s /scratch/ravanelm/exp/dirha/fbank/raw_fbank_tr05_cont.4.ark:34377139
401c020s /scratch/ravanelm/exp/dirha/fbank/raw_fbank_tr05_cont.3.ark:40375989
01po0316 /scratch/ravanelm/exp/dirha/fbank/raw_fbank_tr05_cont.2.ark:3411839
01lc020t /scratch/ravanelm/exp/dirha/fbank/raw_fbank_tr05_cont.1.ark:51156799
014c020d /scratch/ravanelm/exp/dirha/fbank/raw_fbank_tr05_cont.1.ark:6821619
407c020l /scratch/ravanelm/exp/dirha/fbank/raw_fbank_tr05_cont.3.ark:54285679
01ko0318 /scratch/ravanelm/exp/dirha/fbank/raw_fbank_tr05_cont.1.ark:49825329
01go030p /scratch/ravanelm/exp/dirha/fbank/raw_fbank_tr05_cont.1.ark:38641229
02bc021f /scratch/ravanelm/exp/dirha/fbank/raw_fbank_tr05_cont.2.ark:47411019
016c020m /scratch/ravanelm/exp/dirha/fbank/raw_fbank_tr05_cont.1.ark:12853029
40fc020i /scratch/ravanelm/exp/dirha/fbank/raw_fbank_tr05_cont.4.ark:22463999
01go030x /scratch/ravanelm/exp/dirha/fbank/raw_fbank_tr05_cont.1.ark:38898349
011o030v /scratch/ravanelm/exp/dirha/fbank/raw_fbank_tr05_cont.1.ark:2557289
01qo030b /scratch/ravanelm/exp/dirha/fbank/raw_fbank_tr05_cont.2.ark:5398649
403o0310 /scratch/ravanelm/exp/dirha/fbank/raw_fbank_tr05_cont.3.ark:45196969
01bo030i /scratch/ravanelm/exp/dirha/fbank/raw_fbank_tr05_cont.1.ark:26132579
405o030x /scratch/ravanelm/exp/dirha/fbank/raw_fbank_tr05_cont.3.ark:50398859
016c021c /scratch/ravanelm/exp/dirha/fbank/raw_fbank_tr05_cont.1.ark:13358959
406o030u /scratch/ravanelm/exp/dirha/fbank/raw_fbank_tr05_cont.3.ark:53100759
40ic020f /scratch/ravanelm/exp/dirha/fbank/raw_fbank_tr05_cont.4.ark:32479219
20ro0102 /scratch/ravanelm/exp/dirha/fbank/raw_fbank_tr05_cont.3.ark:35691859
204o0108 /scratch/ravanelm/exp/dirha/fbank/raw_fbank_tr05_cont.3.ark:1774679
40ic020e /scratch/ravanelm/exp/dirha/fbank/raw_fbank_tr05_cont.4.ark:32434349
028c0202 /scratch/ravanelm/exp/dirha/fbank/raw_fbank_tr05_cont.2.ark:39806059
01jc021c /scratch/ravanelm/exp/dirha/fbank/raw_fbank_tr05_cont.1.ark:44430899
02ec020e /scratch/ravanelm/exp/dirha/fbank/raw_fbank_tr05_cont.2.ark:52678029
409o030a /scratch/ravanelm/exp/dirha/fbank/raw_fbank_tr05_cont.4.ark:6558549
40mo030b /scratch/ravanelm/exp/dirha/fbank/raw_fbank_tr05_cont.4.ark:46770219
206c010a /scratch/ravanelm/exp/dirha/fbank/raw_fbank_tr05_cont.3.ark:4443159
40hc020w /scratch/ravanelm/exp/dirha/fbank/raw_fbank_tr05_cont.4.ark:29888729
016o0304 /scratch/ravanelm/exp/dirha/fbank/raw_fbank_tr05_cont.1.ark:13498789
01mo031e /scratch/ravanelm/exp/dirha/fbank/raw_fbank_tr05_cont.2.ark:397369
01uo030i /scratch/ravanelm/exp/dirha/fbank/raw_fbank_tr05_cont.2.ark:15365749
20ao010l /scratch/ravanelm/exp/dirha/fbank/raw_fbank_tr05_cont.3.ark:12240439
40mc020l /scratch/ravanelm/exp/dirha/fbank/raw_fbank_tr05_cont.4.ark:45547759
01jc020f /scratch/ravanelm/exp/dirha/fbank/raw_fbank_tr05_cont.1.ark:43439989
02bc020b /scratch/ravanelm/exp/dirha/fbank/raw_fbank_tr05_cont.2.ark:46285099
40nc021c /scratch/ravanelm/exp/dirha/fbank/raw_fbank_tr05_cont.4.ark:49466559
20vo010f /scratch/ravanelm/exp/dirha/fbank/raw_fbank_tr05_cont.3.ark:39168379
40ao030f /scratch/ravanelm/exp/dirha/fbank/raw_fbank_tr05_cont.4.ark:9748829
20ro0109 /scratch/ravanelm/exp/dirha/fbank/raw_fbank_tr05_cont.3.ark:35958709
01fo030n /scratch/ravanelm/exp/dirha/fbank/raw_fbank_tr05_cont.1.ark:35559229
01jo030o /scratch/ravanelm/exp/dirha/fbank/raw_fbank_tr05_cont.1.ark:45444259
20oo010h /scratch/ravanelm/exp/dirha/fbank/raw_fbank_tr05_cont.3.ark:31413509
011o030l /scratch/ravanelm/exp/dirha/fbank/raw_fbank_tr05_cont.1.ark:2218669
01yc020w /scratch/ravanelm/exp/dirha/fbank/raw_fbank_tr05_cont.2.ark:20395249
01qo0314 /scratch/ravanelm/exp/dirha/fbank/raw_fbank_tr05_cont.2.ark:6351999
029o030m /scratch/ravanelm/exp/dirha/fbank/raw_fbank_tr05_cont.2.ark:44983779
407c020n /scratch/ravanelm/exp/dirha/fbank/raw_fbank_tr05_cont.3.ark:54341859
40ic021b /scratch/ravanelm/exp/dirha/fbank/raw_fbank_tr05_cont.4.ark:33400619
40ac020o /scratch/ravanelm/exp/dirha/fbank/raw_fbank_tr05_cont.4.ark:8555039
40mc0219 /scratch/ravanelm/exp/dirha/fbank/raw_fbank_tr05_cont.4.ark:46174039
028c0212 /scratch/ravanelm/exp/dirha/fbank/raw_fbank_tr05_cont.2.ark:40683099
20ac010k /scratch/ravanelm/exp/dirha/fbank/raw_fbank_tr05_cont.3.ark:11252729
401o030y /scratch/ravanelm/exp/dirha/fbank/raw_fbank_tr05_cont.3.ark:42292219
20fc0102 /scratch/ravanelm/exp/dirha/fbank/raw_fbank_tr05_cont.3.ark:19295299
406c020x /scratch/ravanelm/exp/dirha/fbank/raw_fbank_tr05_cont.3.ark:51733639
40lc020y /scratch/ravanelm/exp/dirha/fbank/raw_fbank_tr05_cont.4.ark:42302659
028c021f /scratch/ravanelm/exp/dirha/fbank/raw_fbank_tr05_cont.2.ark:41071729
40no030j /scratch/ravanelm/exp/dirha/fbank/raw_fbank_tr05_cont.4.ark:50280369
