015o030a /scratch/ravanelm/exp/dirha/fbank/raw_fbank_tr05_cont.1.ark:11063809
01mo030d /scratch/ravanelm/exp/dirha/fbank/raw_fbank_tr05_cont.1.ark:55798929
40gc0212 /scratch/ravanelm/exp/dirha/fbank/raw_fbank_tr05_cont.4.ark:26470159
017c020u /scratch/ravanelm/exp/dirha/fbank/raw_fbank_tr05_cont.1.ark:15487159
40fo030r /scratch/ravanelm/exp/dirha/fbank/raw_fbank_tr05_cont.4.ark:24319109
01ro0309 /scratch/ravanelm/exp/dirha/fbank/raw_fbank_tr05_cont.2.ark:8360589
020c0214 /scratch/ravanelm/exp/dirha/fbank/raw_fbank_tr05_cont.2.ark:26881379
20go010d /scratch/ravanelm/exp/dirha/fbank/raw_fbank_tr05_cont.3.ark:21641529
20gc010m /scratch/ravanelm/exp/dirha/fbank/raw_fbank_tr05_cont.3.ark:21254389
40lo031d /scratch/ravanelm/exp/dirha/fbank/raw_fbank_tr05_cont.4.ark:44863279
019c021a /scratch/ravanelm/exp/dirha/fbank/raw_fbank_tr05_cont.1.ark:22228659
40ko0308 /scratch/ravanelm/exp/dirha/fbank/raw_fbank_tr05_cont.4.ark:39872439
40io0316 /scratch/ravanelm/exp/dirha/fbank/raw_fbank_tr05_cont.4.ark:34905279
020o030v /scratch/ravanelm/exp/dirha/fbank/raw_fbank_tr05_cont.2.ark:27598229
01gc020l /scratch/ravanelm/exp/dirha/fbank/raw_fbank_tr05_cont.1.ark:36991049
40kc0216 /scratch/ravanelm/exp/dirha/fbank/raw_fbank_tr05_cont.4.ark:39407259
01kc0211 /scratch/ravanelm/exp/dirha/fbank/raw_fbank_tr05_cont.1.ark:47620659
014o030t /scratch/ravanelm/exp/dirha/fbank/raw_fbank_tr05_cont.1.ark:8749089
40po0313 /scratch/ravanelm/exp/dirha/fbank/raw_fbank_tr05_cont.4.ark:53897129
01bc0207 /scratch/ravanelm/exp/dirha/fbank/raw_fbank_tr05_cont.1.ark:23972069
01ro030x /scratch/ravanelm/exp/dirha/fbank/raw_fbank_tr05_cont.2.ark:9151389
40bc020y /scratch/ravanelm/exp/dirha/fbank/raw_fbank_tr05_cont.4.ark:11799329
017o0306 /scratch/ravanelm/exp/dirha/fbank/raw_fbank_tr05_cont.1.ark:16245559
018o030p /scratch/ravanelm/exp/dirha/fbank/raw_fbank_tr05_cont.1.ark:20092749
01mc020l /scratch/ravanelm/exp/dirha/fbank/raw_fbank_tr05_cont.1.ark:54576399
407o030q /scratch/ravanelm/exp/dirha/fbank/raw_fbank_tr05_cont.4.ark:1628009
01ic020u /scratch/ravanelm/exp/dirha/fbank/raw_fbank_tr05_cont.1.ark:40552419
207o010r /scratch/ravanelm/exp/dirha/fbank/raw_fbank_tr05_cont.3.ark:7493029
403c020u /scratch/ravanelm/exp/dirha/fbank/raw_fbank_tr05_cont.3.ark:43513699
024c021e /scratch/ravanelm/exp/dirha/fbank/raw_fbank_tr05_cont.2.ark:32278789
028o030v /scratch/ravanelm/exp/dirha/fbank/raw_fbank_tr05_cont.2.ark:42233339
40co031c /scratch/ravanelm/exp/dirha/fbank/raw_fbank_tr05_cont.4.ark:16297149
40ac020b /scratch/ravanelm/exp/dirha/fbank/raw_fbank_tr05_cont.4.ark:8154729
40ic021c /scratch/ravanelm/exp/dirha/fbank/raw_fbank_tr05_cont.4.ark:33422089
409o030s /scratch/ravanelm/exp/dirha/fbank/raw_fbank_tr05_cont.4.ark:7124049
40pc020g /scratch/ravanelm/exp/dirha/fbank/raw_fbank_tr05_cont.4.ark:51737429
027o030c /scratch/ravanelm/exp/dirha/fbank/raw_fbank_tr05_cont.2.ark:38465029
20cc010l /scratch/ravanelm/exp/dirha/fbank/raw_fbank_tr05_cont.3.ark:14821229
02bc0207 /scratch/ravanelm/exp/dirha/fbank/raw_fbank_tr05_cont.2.ark:46180459
408c0214 /scratch/ravanelm/exp/dirha/fbank/raw_fbank_tr05_cont.4.ark:3287339
40jo0315 /scratch/ravanelm/exp/dirha/fbank/raw_fbank_tr05_cont.4.ark:37889779
40jo030x /scratch/ravanelm/exp/dirha/fbank/raw_fbank_tr05_cont.4.ark:37630219
01eo030h /scratch/ravanelm/exp/dirha/fbank/raw_fbank_tr05_cont.1.ark:32300929
40io030a /scratch/ravanelm/exp/dirha/fbank/raw_fbank_tr05_cont.4.ark:33813319
01zc0204 /scratch/ravanelm/exp/dirha/fbank/raw_fbank_tr05_cont.2.ark:22707889
026o0306 /scratch/ravanelm/exp/dirha/fbank/raw_fbank_tr05_cont.2.ark:35300259
020c0207 /scratch/ravanelm/exp/dirha/fbank/raw_fbank_tr05_cont.2.ark:26219149
01eo0317 /scratch/ravanelm/exp/dirha/fbank/raw_fbank_tr05_cont.1.ark:33104189
01yo0305 /scratch/ravanelm/exp/dirha/fbank/raw_fbank_tr05_cont.2.ark:21059839
01po0305 /scratch/ravanelm/exp/dirha/fbank/raw_fbank_tr05_cont.2.ark:2098279
01fc020n /scratch/ravanelm/exp/dirha/fbank/raw_fbank_tr05_cont.1.ark:33980509
01bo0309 /scratch/ravanelm/exp/dirha/fbank/raw_fbank_tr05_cont.1.ark:25790499
40ho030q /scratch/ravanelm/exp/dirha/fbank/raw_fbank_tr05_cont.4.ark:31251519
011o030q /scratch/ravanelm/exp/dirha/fbank/raw_fbank_tr05_cont.1.ark:2391019
40kc020i /scratch/ravanelm/exp/dirha/fbank/raw_fbank_tr05_cont.4.ark:38763499
40co030n /scratch/ravanelm/exp/dirha/fbank/raw_fbank_tr05_cont.4.ark:15740239
40mc0214 /scratch/ravanelm/exp/dirha/fbank/raw_fbank_tr05_cont.4.ark:46012569
40gc020g /scratch/ravanelm/exp/dirha/fbank/raw_fbank_tr05_cont.4.ark:25694779
40dc020e /scratch/ravanelm/exp/dirha/fbank/raw_fbank_tr05_cont.4.ark:16815649
20ro010h /scratch/ravanelm/exp/dirha/fbank/raw_fbank_tr05_cont.3.ark:36284469
40nc0210 /scratch/ravanelm/exp/dirha/fbank/raw_fbank_tr05_cont.4.ark:49109239
02bc020y /scratch/ravanelm/exp/dirha/fbank/raw_fbank_tr05_cont.2.ark:46933309
01wc020f /scratch/ravanelm/exp/dirha/fbank/raw_fbank_tr05_cont.2.ark:17041039
01jc020x /scratch/ravanelm/exp/dirha/fbank/raw_fbank_tr05_cont.1.ark:43944089
026c0206 /scratch/ravanelm/exp/dirha/fbank/raw_fbank_tr05_cont.2.ark:34033379
40dc020z /scratch/ravanelm/exp/dirha/fbank/raw_fbank_tr05_cont.4.ark:17487199
20lc0109 /scratch/ravanelm/exp/dirha/fbank/raw_fbank_tr05_cont.3.ark:25235919
40bc020e /scratch/ravanelm/exp/dirha/fbank/raw_fbank_tr05_cont.4.ark:11295329
20cc0102 /scratch/ravanelm/exp/dirha/fbank/raw_fbank_tr05_cont.3.ark:14320419
408c021b /scratch/ravanelm/exp/dirha/fbank/raw_fbank_tr05_cont.4.ark:3449869
40lo030c /scratch/ravanelm/exp/dirha/fbank/raw_fbank_tr05_cont.4.ark:43288849
40no031a /scratch/ravanelm/exp/dirha/fbank/raw_fbank_tr05_cont.4.ark:51267659
40do0313 /scratch/ravanelm/exp/dirha/fbank/raw_fbank_tr05_cont.4.ark:19138239
013c020e /scratch/ravanelm/exp/dirha/fbank/raw_fbank_tr05_cont.1.ark:3942989
01lc020g /scratch/ravanelm/exp/dirha/fbank/raw_fbank_tr05_cont.1.ark:50778209
206o0106 /scratch/ravanelm/exp/dirha/fbank/raw_fbank_tr05_cont.3.ark:4975059
40cc0213 /scratch/ravanelm/exp/dirha/fbank/raw_fbank_tr05_cont.4.ark:14851259
01mc020d /scratch/ravanelm/exp/dirha/fbank/raw_fbank_tr05_cont.1.ark:54347679
40jc0201 /scratch/ravanelm/exp/dirha/fbank/raw_fbank_tr05_cont.4.ark:35147279
017o0309 /scratch/ravanelm/exp/dirha/fbank/raw_fbank_tr05_cont.1.ark:16316329
40lc020o /scratch/ravanelm/exp/dirha/fbank/raw_fbank_tr05_cont.4.ark:42028319
026c020w /scratch/ravanelm/exp/dirha/fbank/raw_fbank_tr05_cont.2.ark:34613719
029o030h /scratch/ravanelm/exp/dirha/fbank/raw_fbank_tr05_cont.2.ark:44809269
406o030t /scratch/ravanelm/exp/dirha/fbank/raw_fbank_tr05_cont.3.ark:53083289
017c020w /scratch/ravanelm/exp/dirha/fbank/raw_fbank_tr05_cont.1.ark:15531659
20no010h /scratch/ravanelm/exp/dirha/fbank/raw_fbank_tr05_cont.3.ark:29906619
01fo0313 /scratch/ravanelm/exp/dirha/fbank/raw_fbank_tr05_cont.1.ark:36012149
20lc0104 /scratch/ravanelm/exp/dirha/fbank/raw_fbank_tr05_cont.3.ark:25053369
40ec0201 /scratch/ravanelm/exp/dirha/fbank/raw_fbank_tr05_cont.4.ark:19435569
40ho030d /scratch/ravanelm/exp/dirha/fbank/raw_fbank_tr05_cont.4.ark:30781769
01lc020d /scratch/ravanelm/exp/dirha/fbank/raw_fbank_tr05_cont.1.ark:50701759
01go0310 /scratch/ravanelm/exp/dirha/fbank/raw_fbank_tr05_cont.1.ark:39020999
01lc020f /scratch/ravanelm/exp/dirha/fbank/raw_fbank_tr05_cont.1.ark:50753179
20eo010f /scratch/ravanelm/exp/dirha/fbank/raw_fbank_tr05_cont.3.ark:18819549
015o030q /scratch/ravanelm/exp/dirha/fbank/raw_fbank_tr05_cont.1.ark:11642089
20oc0103 /scratch/ravanelm/exp/dirha/fbank/raw_fbank_tr05_cont.3.ark:30375249
017o030v /scratch/ravanelm/exp/dirha/fbank/raw_fbank_tr05_cont.1.ark:17015149
01io030o /scratch/ravanelm/exp/dirha/fbank/raw_fbank_tr05_cont.1.ark:42052289
01jc020n /scratch/ravanelm/exp/dirha/fbank/raw_fbank_tr05_cont.1.ark:43658029
408c0201 /scratch/ravanelm/exp/dirha/fbank/raw_fbank_tr05_cont.4.ark:2409879
01do0303 /scratch/ravanelm/exp/dirha/fbank/raw_fbank_tr05_cont.1.ark:28861459
017c0213 /scratch/ravanelm/exp/dirha/fbank/raw_fbank_tr05_cont.1.ark:15699789
01yo030v /scratch/ravanelm/exp/dirha/fbank/raw_fbank_tr05_cont.2.ark:21952299
20fo0103 /scratch/ravanelm/exp/dirha/fbank/raw_fbank_tr05_cont.3.ark:19994829
015o030d /scratch/ravanelm/exp/dirha/fbank/raw_fbank_tr05_cont.1.ark:11173179
40ho030m /scratch/ravanelm/exp/dirha/fbank/raw_fbank_tr05_cont.4.ark:31121119
40jo030u /scratch/ravanelm/exp/dirha/fbank/raw_fbank_tr05_cont.4.ark:37519489
011o030z /scratch/ravanelm/exp/dirha/fbank/raw_fbank_tr05_cont.1.ark:2710009
019o031b /scratch/ravanelm/exp/dirha/fbank/raw_fbank_tr05_cont.1.ark:23794599
408o030v /scratch/ravanelm/exp/dirha/fbank/raw_fbank_tr05_cont.4.ark:4452779
016o031b /scratch/ravanelm/exp/dirha/fbank/raw_fbank_tr05_cont.1.ark:14632219
20dc010n /scratch/ravanelm/exp/dirha/fbank/raw_fbank_tr05_cont.3.ark:16451029
408c0203 /scratch/ravanelm/exp/dirha/fbank/raw_fbank_tr05_cont.4.ark:2453819
40ko0301 /scratch/ravanelm/exp/dirha/fbank/raw_fbank_tr05_cont.4.ark:39703349
01bo030g /scratch/ravanelm/exp/dirha/fbank/raw_fbank_tr05_cont.1.ark:26062399
024o0308 /scratch/ravanelm/exp/dirha/fbank/raw_fbank_tr05_cont.2.ark:32566469
018c0209 /scratch/ravanelm/exp/dirha/fbank/raw_fbank_tr05_cont.1.ark:17844749
20vo010r /scratch/ravanelm/exp/dirha/fbank/raw_fbank_tr05_cont.3.ark:39605379
40fc020c /scratch/ravanelm/exp/dirha/fbank/raw_fbank_tr05_cont.4.ark:22315899
02cc020c /scratch/ravanelm/exp/dirha/fbank/raw_fbank_tr05_cont.2.ark:49556909
01bc021b /scratch/ravanelm/exp/dirha/fbank/raw_fbank_tr05_cont.1.ark:25305449
206o0101 /scratch/ravanelm/exp/dirha/fbank/raw_fbank_tr05_cont.3.ark:4777869
01zc0205 /scratch/ravanelm/exp/dirha/fbank/raw_fbank_tr05_cont.2.ark:22732959
20vo010c /scratch/ravanelm/exp/dirha/fbank/raw_fbank_tr05_cont.3.ark:39067489
209o010f /scratch/ravanelm/exp/dirha/fbank/raw_fbank_tr05_cont.3.ark:10371989
017c020c /scratch/ravanelm/exp/dirha/fbank/raw_fbank_tr05_cont.1.ark:15084179
015c020h /scratch/ravanelm/exp/dirha/fbank/raw_fbank_tr05_cont.1.ark:9908039
01rc020b /scratch/ravanelm/exp/dirha/fbank/raw_fbank_tr05_cont.2.ark:7013449
016c020e /scratch/ravanelm/exp/dirha/fbank/raw_fbank_tr05_cont.1.ark:12648749
20oc010d /scratch/ravanelm/exp/dirha/fbank/raw_fbank_tr05_cont.3.ark:30663869
014c0202 /scratch/ravanelm/exp/dirha/fbank/raw_fbank_tr05_cont.1.ark:6548409
40mc020i /scratch/ravanelm/exp/dirha/fbank/raw_fbank_tr05_cont.4.ark:45441149
013o030v /scratch/ravanelm/exp/dirha/fbank/raw_fbank_tr05_cont.1.ark:5879269
40lc020c /scratch/ravanelm/exp/dirha/fbank/raw_fbank_tr05_cont.4.ark:41655359
01mo030b /scratch/ravanelm/exp/dirha/fbank/raw_fbank_tr05_cont.1.ark:55756709
40hc0218 /scratch/ravanelm/exp/dirha/fbank/raw_fbank_tr05_cont.4.ark:30248889
01to0314 /scratch/ravanelm/exp/dirha/fbank/raw_fbank_tr05_cont.2.ark:12630159
021c0201 /scratch/ravanelm/exp/dirha/fbank/raw_fbank_tr05_cont.2.ark:28031779
403c020w /scratch/ravanelm/exp/dirha/fbank/raw_fbank_tr05_cont.3.ark:43535799
208o0108 /scratch/ravanelm/exp/dirha/fbank/raw_fbank_tr05_cont.3.ark:8619229
40fo030i /scratch/ravanelm/exp/dirha/fbank/raw_fbank_tr05_cont.4.ark:24026599
208o010b /scratch/ravanelm/exp/dirha/fbank/raw_fbank_tr05_cont.3.ark:8710759
01do0319 /scratch/ravanelm/exp/dirha/fbank/raw_fbank_tr05_cont.1.ark:30204219
013o030k /scratch/ravanelm/exp/dirha/fbank/raw_fbank_tr05_cont.1.ark:5539979
016o0302 /scratch/ravanelm/exp/dirha/fbank/raw_fbank_tr05_cont.1.ark:13427409
20vo0106 /scratch/ravanelm/exp/dirha/fbank/raw_fbank_tr05_cont.3.ark:38894269
01mo0309 /scratch/ravanelm/exp/dirha/fbank/raw_fbank_tr05_cont.1.ark:55663449
20ic0107 /scratch/ravanelm/exp/dirha/fbank/raw_fbank_tr05_cont.3.ark:23559159
01tc0201 /scratch/ravanelm/exp/dirha/fbank/raw_fbank_tr05_cont.2.ark:9632219
40hc020y /scratch/ravanelm/exp/dirha/fbank/raw_fbank_tr05_cont.4.ark:29949629
01do030f /scratch/ravanelm/exp/dirha/fbank/raw_fbank_tr05_cont.1.ark:29290899
01ec020i /scratch/ravanelm/exp/dirha/fbank/raw_fbank_tr05_cont.1.ark:30866339
01uo030y /scratch/ravanelm/exp/dirha/fbank/raw_fbank_tr05_cont.2.ark:15991469
024c0210 /scratch/ravanelm/exp/dirha/fbank/raw_fbank_tr05_cont.2.ark:31905849
01zc021f /scratch/ravanelm/exp/dirha/fbank/raw_fbank_tr05_cont.2.ark:24064739
016c021a /scratch/ravanelm/exp/dirha/fbank/raw_fbank_tr05_cont.1.ark:13316779
403c0214 /scratch/ravanelm/exp/dirha/fbank/raw_fbank_tr05_cont.3.ark:43743199
40mc0203 /scratch/ravanelm/exp/dirha/fbank/raw_fbank_tr05_cont.4.ark:45085059
01qc020f /scratch/ravanelm/exp/dirha/fbank/raw_fbank_tr05_cont.2.ark:4115469
016c020w /scratch/ravanelm/exp/dirha/fbank/raw_fbank_tr05_cont.1.ark:13030539
01kc020r /scratch/ravanelm/exp/dirha/fbank/raw_fbank_tr05_cont.1.ark:47305079
01fo030o /scratch/ravanelm/exp/dirha/fbank/raw_fbank_tr05_cont.1.ark:35584459
021o0304 /scratch/ravanelm/exp/dirha/fbank/raw_fbank_tr05_cont.2.ark:29476079
011c020w /scratch/ravanelm/exp/dirha/fbank/raw_fbank_tr05_cont.1.ark:853019
01zc020z /scratch/ravanelm/exp/dirha/fbank/raw_fbank_tr05_cont.2.ark:23570419
20dc010o /scratch/ravanelm/exp/dirha/fbank/raw_fbank_tr05_cont.3.ark:16480259
209o010p /scratch/ravanelm/exp/dirha/fbank/raw_fbank_tr05_cont.3.ark:10667329
40ko030z /scratch/ravanelm/exp/dirha/fbank/raw_fbank_tr05_cont.4.ark:40831969
40cc0202 /scratch/ravanelm/exp/dirha/fbank/raw_fbank_tr05_cont.4.ark:13994189
021o0303 /scratch/ravanelm/exp/dirha/fbank/raw_fbank_tr05_cont.2.ark:29450689
408o0309 /scratch/ravanelm/exp/dirha/fbank/raw_fbank_tr05_cont.4.ark:3841399
40bc020f /scratch/ravanelm/exp/dirha/fbank/raw_fbank_tr05_cont.4.ark:11335039
40fo031f /scratch/ravanelm/exp/dirha/fbank/raw_fbank_tr05_cont.4.ark:25104189
40bo030k /scratch/ravanelm/exp/dirha/fbank/raw_fbank_tr05_cont.4.ark:13035029
401c0213 /scratch/ravanelm/exp/dirha/fbank/raw_fbank_tr05_cont.3.ark:40695359
40io030l /scratch/ravanelm/exp/dirha/fbank/raw_fbank_tr05_cont.4.ark:34189809
01mc020n /scratch/ravanelm/exp/dirha/fbank/raw_fbank_tr05_cont.1.ark:54623259
017c020k /scratch/ravanelm/exp/dirha/fbank/raw_fbank_tr05_cont.1.ark:15262419
019o030u /scratch/ravanelm/exp/dirha/fbank/raw_fbank_tr05_cont.1.ark:23330769
01uc020u /scratch/ravanelm/exp/dirha/fbank/raw_fbank_tr05_cont.2.ark:14012139
01mo0307 /scratch/ravanelm/exp/dirha/fbank/raw_fbank_tr05_cont.1.ark:55588029
40ho0315 /scratch/ravanelm/exp/dirha/fbank/raw_fbank_tr05_cont.4.ark:31740849
01mo030n /scratch/ravanelm/exp/dirha/fbank/raw_fbank_tr05_cont.1.ark:56057189
01to030x /scratch/ravanelm/exp/dirha/fbank/raw_fbank_tr05_cont.2.ark:12428709
404o030t /scratch/ravanelm/exp/dirha/fbank/raw_fbank_tr05_cont.3.ark:47678619
01wo030q /scratch/ravanelm/exp/dirha/fbank/raw_fbank_tr05_cont.2.ark:18744039
206o0102 /scratch/ravanelm/exp/dirha/fbank/raw_fbank_tr05_cont.3.ark:4818699
40jo030n /scratch/ravanelm/exp/dirha/fbank/raw_fbank_tr05_cont.4.ark:37294719
20co010g /scratch/ravanelm/exp/dirha/fbank/raw_fbank_tr05_cont.3.ark:15434839
406o030c /scratch/ravanelm/exp/dirha/fbank/raw_fbank_tr05_cont.3.ark:52523579
02cc0219 /scratch/ravanelm/exp/dirha/fbank/raw_fbank_tr05_cont.2.ark:50363609
02bc0209 /scratch/ravanelm/exp/dirha/fbank/raw_fbank_tr05_cont.2.ark:46231399
01yo030k /scratch/ravanelm/exp/dirha/fbank/raw_fbank_tr05_cont.2.ark:21563729
015o030p /scratch/ravanelm/exp/dirha/fbank/raw_fbank_tr05_cont.1.ark:11629059
40hc020z /scratch/ravanelm/exp/dirha/fbank/raw_fbank_tr05_cont.4.ark:29989859
01zc020p /scratch/ravanelm/exp/dirha/fbank/raw_fbank_tr05_cont.2.ark:23280879
40ic020l /scratch/ravanelm/exp/dirha/fbank/raw_fbank_tr05_cont.4.ark:32673159
20ho010i /scratch/ravanelm/exp/dirha/fbank/raw_fbank_tr05_cont.3.ark:23135379
01gc0204 /scratch/ravanelm/exp/dirha/fbank/raw_fbank_tr05_cont.1.ark:36470099
017c020x /scratch/ravanelm/exp/dirha/fbank/raw_fbank_tr05_cont.1.ark:15555729
01do030d /scratch/ravanelm/exp/dirha/fbank/raw_fbank_tr05_cont.1.ark:29216679
40jo030k /scratch/ravanelm/exp/dirha/fbank/raw_fbank_tr05_cont.4.ark:37162149
20tc010p /scratch/ravanelm/exp/dirha/fbank/raw_fbank_tr05_cont.3.ark:37382639
20bo0105 /scratch/ravanelm/exp/dirha/fbank/raw_fbank_tr05_cont.3.ark:13255939
40bc0203 /scratch/ravanelm/exp/dirha/fbank/raw_fbank_tr05_cont.4.ark:10980159
40pc021a /scratch/ravanelm/exp/dirha/fbank/raw_fbank_tr05_cont.4.ark:52472489
01eo030d /scratch/ravanelm/exp/dirha/fbank/raw_fbank_tr05_cont.1.ark:32183809
026c020r /scratch/ravanelm/exp/dirha/fbank/raw_fbank_tr05_cont.2.ark:34499929
40cc020k /scratch/ravanelm/exp/dirha/fbank/raw_fbank_tr05_cont.4.ark:14454089
01uo030z /scratch/ravanelm/exp/dirha/fbank/raw_fbank_tr05_cont.2.ark:16042379
40eo030d /scratch/ravanelm/exp/dirha/fbank/raw_fbank_tr05_cont.4.ark:21037239
40jc020d /scratch/ravanelm/exp/dirha/fbank/raw_fbank_tr05_cont.4.ark:35427559
20no0109 /scratch/ravanelm/exp/dirha/fbank/raw_fbank_tr05_cont.3.ark:29538939
024c021d /scratch/ravanelm/exp/dirha/fbank/raw_fbank_tr05_cont.2.ark:32255599
20ro010p /scratch/ravanelm/exp/dirha/fbank/raw_fbank_tr05_cont.3.ark:36604309
011o0312 /scratch/ravanelm/exp/dirha/fbank/raw_fbank_tr05_cont.1.ark:2862019
017c020f /scratch/ravanelm/exp/dirha/fbank/raw_fbank_tr05_cont.1.ark:15151749
01fc020s /scratch/ravanelm/exp/dirha/fbank/raw_fbank_tr05_cont.1.ark:34117299
40lo0316 /scratch/ravanelm/exp/dirha/fbank/raw_fbank_tr05_cont.4.ark:44644149
40ac020p /scratch/ravanelm/exp/dirha/fbank/raw_fbank_tr05_cont.4.ark:8587909
01rc021e /scratch/ravanelm/exp/dirha/fbank/raw_fbank_tr05_cont.2.ark:8105459
40ko030j /scratch/ravanelm/exp/dirha/fbank/raw_fbank_tr05_cont.4.ark:40228449
020o030b /scratch/ravanelm/exp/dirha/fbank/raw_fbank_tr05_cont.2.ark:27275619
01lo0314 /scratch/ravanelm/exp/dirha/fbank/raw_fbank_tr05_cont.1.ark:53586459
20go0108 /scratch/ravanelm/exp/dirha/fbank/raw_fbank_tr05_cont.3.ark:21489859
40no030i /scratch/ravanelm/exp/dirha/fbank/raw_fbank_tr05_cont.4.ark:50239139
406o031b /scratch/ravanelm/exp/dirha/fbank/raw_fbank_tr05_cont.3.ark:53682349
01ic021a /scratch/ravanelm/exp/dirha/fbank/raw_fbank_tr05_cont.1.ark:40952459
02eo031a /scratch/ravanelm/exp/dirha/fbank/raw_fbank_tr05_cont.3.ark:817469
40jc021d /scratch/ravanelm/exp/dirha/fbank/raw_fbank_tr05_cont.4.ark:36431319
014c020d /scratch/ravanelm/exp/dirha/fbank/raw_fbank_tr05_cont.1.ark:6821619
01wc020n /scratch/ravanelm/exp/dirha/fbank/raw_fbank_tr05_cont.2.ark:17287839
029o030n /scratch/ravanelm/exp/dirha/fbank/raw_fbank_tr05_cont.2.ark:45020849
02eo031b /scratch/ravanelm/exp/dirha/fbank/raw_fbank_tr05_cont.3.ark:848059
028o031a /scratch/ravanelm/exp/dirha/fbank/raw_fbank_tr05_cont.2.ark:42712109
406c021b /scratch/ravanelm/exp/dirha/fbank/raw_fbank_tr05_cont.3.ark:52115979
01fc0206 /scratch/ravanelm/exp/dirha/fbank/raw_fbank_tr05_cont.1.ark:33546479
40gc020a /scratch/ravanelm/exp/dirha/fbank/raw_fbank_tr05_cont.4.ark:25517719
40fc0218 /scratch/ravanelm/exp/dirha/fbank/raw_fbank_tr05_cont.4.ark:23239499
20ro010q /scratch/ravanelm/exp/dirha/fbank/raw_fbank_tr05_cont.3.ark:36652259
01uc0209 /scratch/ravanelm/exp/dirha/fbank/raw_fbank_tr05_cont.2.ark:13391509
40ao031d /scratch/ravanelm/exp/dirha/fbank/raw_fbank_tr05_cont.4.ark:10820409
409o030o /scratch/ravanelm/exp/dirha/fbank/raw_fbank_tr05_cont.4.ark:7012809
40lo030t /scratch/ravanelm/exp/dirha/fbank/raw_fbank_tr05_cont.4.ark:44060439
01ec020r /scratch/ravanelm/exp/dirha/fbank/raw_fbank_tr05_cont.1.ark:31128689
20fo010c /scratch/ravanelm/exp/dirha/fbank/raw_fbank_tr05_cont.3.ark:20350619
028c020b /scratch/ravanelm/exp/dirha/fbank/raw_fbank_tr05_cont.2.ark:39991249
209c010n /scratch/ravanelm/exp/dirha/fbank/raw_fbank_tr05_cont.3.ark:9818489
409o031d /scratch/ravanelm/exp/dirha/fbank/raw_fbank_tr05_cont.4.ark:7741919
01mc0210 /scratch/ravanelm/exp/dirha/fbank/raw_fbank_tr05_cont.1.ark:54964609
409c020k /scratch/ravanelm/exp/dirha/fbank/raw_fbank_tr05_cont.4.ark:5390769
01yo0302 /scratch/ravanelm/exp/dirha/fbank/raw_fbank_tr05_cont.2.ark:20976709
40ec0209 /scratch/ravanelm/exp/dirha/fbank/raw_fbank_tr05_cont.4.ark:19601889
40lo0313 /scratch/ravanelm/exp/dirha/fbank/raw_fbank_tr05_cont.4.ark:44542179
01bo0312 /scratch/ravanelm/exp/dirha/fbank/raw_fbank_tr05_cont.1.ark:26985259
014c020u /scratch/ravanelm/exp/dirha/fbank/raw_fbank_tr05_cont.1.ark:7210449
208c0101 /scratch/ravanelm/exp/dirha/fbank/raw_fbank_tr05_cont.3.ark:7623149
40po0317 /scratch/ravanelm/exp/dirha/fbank/raw_fbank_tr05_cont.4.ark:54020689
20eo0101 /scratch/ravanelm/exp/dirha/fbank/raw_fbank_tr05_cont.3.ark:18255769
01qo0315 /scratch/ravanelm/exp/dirha/fbank/raw_fbank_tr05_cont.2.ark:6369029
40lo030o /scratch/ravanelm/exp/dirha/fbank/raw_fbank_tr05_cont.4.ark:43828289
01zc021a /scratch/ravanelm/exp/dirha/fbank/raw_fbank_tr05_cont.2.ark:23909229
018c020m /scratch/ravanelm/exp/dirha/fbank/raw_fbank_tr05_cont.1.ark:18239419
020o030l /scratch/ravanelm/exp/dirha/fbank/raw_fbank_tr05_cont.2.ark:27393999
02bc020r /scratch/ravanelm/exp/dirha/fbank/raw_fbank_tr05_cont.2.ark:46737739
01pc020t /scratch/ravanelm/exp/dirha/fbank/raw_fbank_tr05_cont.2.ark:1206239
20rc010g /scratch/ravanelm/exp/dirha/fbank/raw_fbank_tr05_cont.3.ark:35457749
01go0306 /scratch/ravanelm/exp/dirha/fbank/raw_fbank_tr05_cont.1.ark:37996299
01mc0206 /scratch/ravanelm/exp/dirha/fbank/raw_fbank_tr05_cont.1.ark:54180629
40lc021c /scratch/ravanelm/exp/dirha/fbank/raw_fbank_tr05_cont.4.ark:42775439
01bc0202 /scratch/ravanelm/exp/dirha/fbank/raw_fbank_tr05_cont.1.ark:23825309
024c0215 /scratch/ravanelm/exp/dirha/fbank/raw_fbank_tr05_cont.2.ark:32054079
019o0306 /scratch/ravanelm/exp/dirha/fbank/raw_fbank_tr05_cont.1.ark:22557129
40po030f /scratch/ravanelm/exp/dirha/fbank/raw_fbank_tr05_cont.4.ark:53054529
20ac010o /scratch/ravanelm/exp/dirha/fbank/raw_fbank_tr05_cont.3.ark:11339489
209o010m /scratch/ravanelm/exp/dirha/fbank/raw_fbank_tr05_cont.3.ark:10582359
40hc0212 /scratch/ravanelm/exp/dirha/fbank/raw_fbank_tr05_cont.4.ark:30054309
40jo030o /scratch/ravanelm/exp/dirha/fbank/raw_fbank_tr05_cont.4.ark:37339429
01uc020c /scratch/ravanelm/exp/dirha/fbank/raw_fbank_tr05_cont.2.ark:13514519
206c0107 /scratch/ravanelm/exp/dirha/fbank/raw_fbank_tr05_cont.3.ark:4375869
017c020o /scratch/ravanelm/exp/dirha/fbank/raw_fbank_tr05_cont.1.ark:15352939
40jo0317 /scratch/ravanelm/exp/dirha/fbank/raw_fbank_tr05_cont.4.ark:37951799
40nc020t /scratch/ravanelm/exp/dirha/fbank/raw_fbank_tr05_cont.4.ark:48912349
018c020h /scratch/ravanelm/exp/dirha/fbank/raw_fbank_tr05_cont.1.ark:18082389
40io030w /scratch/ravanelm/exp/dirha/fbank/raw_fbank_tr05_cont.4.ark:34496059
40ic020c /scratch/ravanelm/exp/dirha/fbank/raw_fbank_tr05_cont.4.ark:32375849
403c0211 /scratch/ravanelm/exp/dirha/fbank/raw_fbank_tr05_cont.3.ark:43650469
20hc0108 /scratch/ravanelm/exp/dirha/fbank/raw_fbank_tr05_cont.3.ark:22234139
401c021f /scratch/ravanelm/exp/dirha/fbank/raw_fbank_tr05_cont.3.ark:41040759
01zo030y /scratch/ravanelm/exp/dirha/fbank/raw_fbank_tr05_cont.2.ark:25457199
403c0210 /scratch/ravanelm/exp/dirha/fbank/raw_fbank_tr05_cont.3.ark:43638119
20bo010n /scratch/ravanelm/exp/dirha/fbank/raw_fbank_tr05_cont.3.ark:14028159
015c0202 /scratch/ravanelm/exp/dirha/fbank/raw_fbank_tr05_cont.1.ark:9487189
016o030y /scratch/ravanelm/exp/dirha/fbank/raw_fbank_tr05_cont.1.ark:14266989
01zo031f /scratch/ravanelm/exp/dirha/fbank/raw_fbank_tr05_cont.2.ark:26069829
40jo0304 /scratch/ravanelm/exp/dirha/fbank/raw_fbank_tr05_cont.4.ark:36572629
40fo0307 /scratch/ravanelm/exp/dirha/fbank/raw_fbank_tr05_cont.4.ark:23648669
409c021c /scratch/ravanelm/exp/dirha/fbank/raw_fbank_tr05_cont.4.ark:6187929
01ko030v /scratch/ravanelm/exp/dirha/fbank/raw_fbank_tr05_cont.1.ark:49308299
01eo030u /scratch/ravanelm/exp/dirha/fbank/raw_fbank_tr05_cont.1.ark:32687199
026c020u /scratch/ravanelm/exp/dirha/fbank/raw_fbank_tr05_cont.2.ark:34557539
207c010e /scratch/ravanelm/exp/dirha/fbank/raw_fbank_tr05_cont.3.ark:6293579
406o0315 /scratch/ravanelm/exp/dirha/fbank/raw_fbank_tr05_cont.3.ark:53484609
205c0102 /scratch/ravanelm/exp/dirha/fbank/raw_fbank_tr05_cont.3.ark:2467199
403o030a /scratch/ravanelm/exp/dirha/fbank/raw_fbank_tr05_cont.3.ark:44397749
027c020n /scratch/ravanelm/exp/dirha/fbank/raw_fbank_tr05_cont.2.ark:37201449
20vc0103 /scratch/ravanelm/exp/dirha/fbank/raw_fbank_tr05_cont.3.ark:38141269
40lc020t /scratch/ravanelm/exp/dirha/fbank/raw_fbank_tr05_cont.4.ark:42114389
01po030b /scratch/ravanelm/exp/dirha/fbank/raw_fbank_tr05_cont.2.ark:2286059
20dc010j /scratch/ravanelm/exp/dirha/fbank/raw_fbank_tr05_cont.3.ark:16292349
01mo030r /scratch/ravanelm/exp/dirha/fbank/raw_fbank_tr05_cont.1.ark:56184389
404o0308 /scratch/ravanelm/exp/dirha/fbank/raw_fbank_tr05_cont.3.ark:47023389
20po0108 /scratch/ravanelm/exp/dirha/fbank/raw_fbank_tr05_cont.3.ark:32664319
207c010h /scratch/ravanelm/exp/dirha/fbank/raw_fbank_tr05_cont.3.ark:6410309
20hc010l /scratch/ravanelm/exp/dirha/fbank/raw_fbank_tr05_cont.3.ark:22473169
01go0302 /scratch/ravanelm/exp/dirha/fbank/raw_fbank_tr05_cont.1.ark:37821859
20lo010q /scratch/ravanelm/exp/dirha/fbank/raw_fbank_tr05_cont.3.ark:26969529
01lo0317 /scratch/ravanelm/exp/dirha/fbank/raw_fbank_tr05_cont.1.ark:53717829
408c0208 /scratch/ravanelm/exp/dirha/fbank/raw_fbank_tr05_cont.4.ark:2572649
027c0211 /scratch/ravanelm/exp/dirha/fbank/raw_fbank_tr05_cont.2.ark:37548989
026c021b /scratch/ravanelm/exp/dirha/fbank/raw_fbank_tr05_cont.2.ark:34974569
40lo030m /scratch/ravanelm/exp/dirha/fbank/raw_fbank_tr05_cont.4.ark:43725949
01io030s /scratch/ravanelm/exp/dirha/fbank/raw_fbank_tr05_cont.1.ark:42201569
20dc0102 /scratch/ravanelm/exp/dirha/fbank/raw_fbank_tr05_cont.3.ark:15781759
409c0216 /scratch/ravanelm/exp/dirha/fbank/raw_fbank_tr05_cont.4.ark:6020909
20hc010j /scratch/ravanelm/exp/dirha/fbank/raw_fbank_tr05_cont.3.ark:22458549
40do030l /scratch/ravanelm/exp/dirha/fbank/raw_fbank_tr05_cont.4.ark:18576259
01po030t /scratch/ravanelm/exp/dirha/fbank/raw_fbank_tr05_cont.2.ark:2916889
01ro030i /scratch/ravanelm/exp/dirha/fbank/raw_fbank_tr05_cont.2.ark:8650299
40fo030c /scratch/ravanelm/exp/dirha/fbank/raw_fbank_tr05_cont.4.ark:23820899
404c0208 /scratch/ravanelm/exp/dirha/fbank/raw_fbank_tr05_cont.3.ark:45737659
405c020z /scratch/ravanelm/exp/dirha/fbank/raw_fbank_tr05_cont.3.ark:49049629
029c0216 /scratch/ravanelm/exp/dirha/fbank/raw_fbank_tr05_cont.2.ark:44005139
20ec0103 /scratch/ravanelm/exp/dirha/fbank/raw_fbank_tr05_cont.3.ark:17621669
01mo0311 /scratch/ravanelm/exp/dirha/fbank/raw_fbank_tr05_cont.1.ark:56530929
40fo030v /scratch/ravanelm/exp/dirha/fbank/raw_fbank_tr05_cont.4.ark:24474869
01jo031b /scratch/ravanelm/exp/dirha/fbank/raw_fbank_tr05_cont.1.ark:46393549
407c0206 /scratch/ravanelm/exp/dirha/fbank/raw_fbank_tr05_cont.3.ark:53884629
408c020c /scratch/ravanelm/exp/dirha/fbank/raw_fbank_tr05_cont.4.ark:2666209
015c0207 /scratch/ravanelm/exp/dirha/fbank/raw_fbank_tr05_cont.1.ark:9630539
029c020h /scratch/ravanelm/exp/dirha/fbank/raw_fbank_tr05_cont.2.ark:43285029
01pc0205 /scratch/ravanelm/exp/dirha/fbank/raw_fbank_tr05_cont.2.ark:512599
40co0303 /scratch/ravanelm/exp/dirha/fbank/raw_fbank_tr05_cont.4.ark:15182999
015o030b /scratch/ravanelm/exp/dirha/fbank/raw_fbank_tr05_cont.1.ark:11102119
40kc020k /scratch/ravanelm/exp/dirha/fbank/raw_fbank_tr05_cont.4.ark:38808439
40eo030g /scratch/ravanelm/exp/dirha/fbank/raw_fbank_tr05_cont.4.ark:21120689
01ic020n /scratch/ravanelm/exp/dirha/fbank/raw_fbank_tr05_cont.1.ark:40367289
01ec0212 /scratch/ravanelm/exp/dirha/fbank/raw_fbank_tr05_cont.1.ark:31457219
01zo030e /scratch/ravanelm/exp/dirha/fbank/raw_fbank_tr05_cont.2.ark:24543199
01ic020j /scratch/ravanelm/exp/dirha/fbank/raw_fbank_tr05_cont.1.ark:40257649
20ro010l /scratch/ravanelm/exp/dirha/fbank/raw_fbank_tr05_cont.3.ark:36449949
026o030a /scratch/ravanelm/exp/dirha/fbank/raw_fbank_tr05_cont.2.ark:35387219
40ec0212 /scratch/ravanelm/exp/dirha/fbank/raw_fbank_tr05_cont.4.ark:20250599
016c0207 /scratch/ravanelm/exp/dirha/fbank/raw_fbank_tr05_cont.1.ark:12455819
409c020s /scratch/ravanelm/exp/dirha/fbank/raw_fbank_tr05_cont.4.ark:5633769
01eo030g /scratch/ravanelm/exp/dirha/fbank/raw_fbank_tr05_cont.1.ark:32261259
40ic021f /scratch/ravanelm/exp/dirha/fbank/raw_fbank_tr05_cont.4.ark:33514699
401c020a /scratch/ravanelm/exp/dirha/fbank/raw_fbank_tr05_cont.3.ark:39887369
024o030t /scratch/ravanelm/exp/dirha/fbank/raw_fbank_tr05_cont.2.ark:33138459
403o030f /scratch/ravanelm/exp/dirha/fbank/raw_fbank_tr05_cont.3.ark:44569859
01zo030p /scratch/ravanelm/exp/dirha/fbank/raw_fbank_tr05_cont.2.ark:25041489
407o030h /scratch/ravanelm/exp/dirha/fbank/raw_fbank_tr05_cont.4.ark:1257619
407c020p /scratch/ravanelm/exp/dirha/fbank/raw_fbank_tr05_cont.3.ark:54421479
40dc020r /scratch/ravanelm/exp/dirha/fbank/raw_fbank_tr05_cont.4.ark:17240999
407c020i /scratch/ravanelm/exp/dirha/fbank/raw_fbank_tr05_cont.3.ark:54206909
01fc020l /scratch/ravanelm/exp/dirha/fbank/raw_fbank_tr05_cont.1.ark:33939409
407c021i /scratch/ravanelm/exp/dirha/fbank/raw_fbank_tr05_cont.4.ark:615549
011o031a /scratch/ravanelm/exp/dirha/fbank/raw_fbank_tr05_cont.1.ark:3239099
406c020t /scratch/ravanelm/exp/dirha/fbank/raw_fbank_tr05_cont.3.ark:51627399
401o031a /scratch/ravanelm/exp/dirha/fbank/raw_fbank_tr05_cont.3.ark:42713309
20mo0104 /scratch/ravanelm/exp/dirha/fbank/raw_fbank_tr05_cont.3.ark:27763919
015c020r /scratch/ravanelm/exp/dirha/fbank/raw_fbank_tr05_cont.1.ark:10171299
40fc0205 /scratch/ravanelm/exp/dirha/fbank/raw_fbank_tr05_cont.4.ark:22114169
020o030z /scratch/ravanelm/exp/dirha/fbank/raw_fbank_tr05_cont.2.ark:27655929
20oc010i /scratch/ravanelm/exp/dirha/fbank/raw_fbank_tr05_cont.3.ark:30750339
20bc010k /scratch/ravanelm/exp/dirha/fbank/raw_fbank_tr05_cont.3.ark:12978549
20lc0101 /scratch/ravanelm/exp/dirha/fbank/raw_fbank_tr05_cont.3.ark:24935519
205c0109 /scratch/ravanelm/exp/dirha/fbank/raw_fbank_tr05_cont.3.ark:2662609
403c020l /scratch/ravanelm/exp/dirha/fbank/raw_fbank_tr05_cont.3.ark:43314069
019o0310 /scratch/ravanelm/exp/dirha/fbank/raw_fbank_tr05_cont.1.ark:23510029
40po030s /scratch/ravanelm/exp/dirha/fbank/raw_fbank_tr05_cont.4.ark:53531639
20oc010g /scratch/ravanelm/exp/dirha/fbank/raw_fbank_tr05_cont.3.ark:30708199
40bo030v /scratch/ravanelm/exp/dirha/fbank/raw_fbank_tr05_cont.4.ark:13442879
013c020j /scratch/ravanelm/exp/dirha/fbank/raw_fbank_tr05_cont.1.ark:4112979
403o0301 /scratch/ravanelm/exp/dirha/fbank/raw_fbank_tr05_cont.3.ark:44050199
40lc020q /scratch/ravanelm/exp/dirha/fbank/raw_fbank_tr05_cont.4.ark:42069739
01yo030a /scratch/ravanelm/exp/dirha/fbank/raw_fbank_tr05_cont.2.ark:21229149
20nc010n /scratch/ravanelm/exp/dirha/fbank/raw_fbank_tr05_cont.3.ark:29164849
403c0212 /scratch/ravanelm/exp/dirha/fbank/raw_fbank_tr05_cont.3.ark:43692579
40mo0308 /scratch/ravanelm/exp/dirha/fbank/raw_fbank_tr05_cont.4.ark:46687129
40jo0307 /scratch/ravanelm/exp/dirha/fbank/raw_fbank_tr05_cont.4.ark:36701599
20bc0109 /scratch/ravanelm/exp/dirha/fbank/raw_fbank_tr05_cont.3.ark:12681179
409o030w /scratch/ravanelm/exp/dirha/fbank/raw_fbank_tr05_cont.4.ark:7249449
024c020h /scratch/ravanelm/exp/dirha/fbank/raw_fbank_tr05_cont.2.ark:31398479
01go031d /scratch/ravanelm/exp/dirha/fbank/raw_fbank_tr05_cont.1.ark:39519389
408o030q /scratch/ravanelm/exp/dirha/fbank/raw_fbank_tr05_cont.4.ark:4325189
01wo0316 /scratch/ravanelm/exp/dirha/fbank/raw_fbank_tr05_cont.2.ark:19276799
026c020n /scratch/ravanelm/exp/dirha/fbank/raw_fbank_tr05_cont.2.ark:34419689
406o0314 /scratch/ravanelm/exp/dirha/fbank/raw_fbank_tr05_cont.3.ark:53452179
015c0215 /scratch/ravanelm/exp/dirha/fbank/raw_fbank_tr05_cont.1.ark:10486999
20qo010k /scratch/ravanelm/exp/dirha/fbank/raw_fbank_tr05_cont.3.ark:34755409
20oo010o /scratch/ravanelm/exp/dirha/fbank/raw_fbank_tr05_cont.3.ark:31670519
40lc021e /scratch/ravanelm/exp/dirha/fbank/raw_fbank_tr05_cont.4.ark:42853699
01yc020p /scratch/ravanelm/exp/dirha/fbank/raw_fbank_tr05_cont.2.ark:20195839
20ho010n /scratch/ravanelm/exp/dirha/fbank/raw_fbank_tr05_cont.3.ark:23297209
01eo0301 /scratch/ravanelm/exp/dirha/fbank/raw_fbank_tr05_cont.1.ark:31875969
40bc0210 /scratch/ravanelm/exp/dirha/fbank/raw_fbank_tr05_cont.4.ark:11853389
40mc020d /scratch/ravanelm/exp/dirha/fbank/raw_fbank_tr05_cont.4.ark:45318559
20qc010o /scratch/ravanelm/exp/dirha/fbank/raw_fbank_tr05_cont.3.ark:33951499
01jo0303 /scratch/ravanelm/exp/dirha/fbank/raw_fbank_tr05_cont.1.ark:44691029
40jo030i /scratch/ravanelm/exp/dirha/fbank/raw_fbank_tr05_cont.4.ark:37080129
013c020s /scratch/ravanelm/exp/dirha/fbank/raw_fbank_tr05_cont.1.ark:4396449
01yc020o /scratch/ravanelm/exp/dirha/fbank/raw_fbank_tr05_cont.2.ark:20181889
01ko0318 /scratch/ravanelm/exp/dirha/fbank/raw_fbank_tr05_cont.1.ark:49825329
403c020t /scratch/ravanelm/exp/dirha/fbank/raw_fbank_tr05_cont.3.ark:43495269
01rc0201 /scratch/ravanelm/exp/dirha/fbank/raw_fbank_tr05_cont.2.ark:6756669
028o030s /scratch/ravanelm/exp/dirha/fbank/raw_fbank_tr05_cont.2.ark:42099649
406c021e /scratch/ravanelm/exp/dirha/fbank/raw_fbank_tr05_cont.3.ark:52157989
01dc020c /scratch/ravanelm/exp/dirha/fbank/raw_fbank_tr05_cont.1.ark:27685999
011c0209 /scratch/ravanelm/exp/dirha/fbank/raw_fbank_tr05_cont.1.ark:193449
01jc0210 /scratch/ravanelm/exp/dirha/fbank/raw_fbank_tr05_cont.1.ark:44038139
02co0309 /scratch/ravanelm/exp/dirha/fbank/raw_fbank_tr05_cont.2.ark:50762579
40jc020k /scratch/ravanelm/exp/dirha/fbank/raw_fbank_tr05_cont.4.ark:35620329
20ho010p /scratch/ravanelm/exp/dirha/fbank/raw_fbank_tr05_cont.3.ark:23351109
01rc0203 /scratch/ravanelm/exp/dirha/fbank/raw_fbank_tr05_cont.2.ark:6815529
011c0207 /scratch/ravanelm/exp/dirha/fbank/raw_fbank_tr05_cont.1.ark:153549
20dc010c /scratch/ravanelm/exp/dirha/fbank/raw_fbank_tr05_cont.3.ark:16076459
01qc020b /scratch/ravanelm/exp/dirha/fbank/raw_fbank_tr05_cont.2.ark:3990549
01bo031a /scratch/ravanelm/exp/dirha/fbank/raw_fbank_tr05_cont.1.ark:27235549
404c021e /scratch/ravanelm/exp/dirha/fbank/raw_fbank_tr05_cont.3.ark:46754999
01qo0314 /scratch/ravanelm/exp/dirha/fbank/raw_fbank_tr05_cont.2.ark:6351999
408c020o /scratch/ravanelm/exp/dirha/fbank/raw_fbank_tr05_cont.4.ark:2954849
01jc0211 /scratch/ravanelm/exp/dirha/fbank/raw_fbank_tr05_cont.1.ark:44085449
01uo030q /scratch/ravanelm/exp/dirha/fbank/raw_fbank_tr05_cont.2.ark:15646709
02ec020q /scratch/ravanelm/exp/dirha/fbank/raw_fbank_tr05_cont.2.ark:53077749
40ho030y /scratch/ravanelm/exp/dirha/fbank/raw_fbank_tr05_cont.4.ark:31517839
20nc010p /scratch/ravanelm/exp/dirha/fbank/raw_fbank_tr05_cont.3.ark:29222269
401o030u /scratch/ravanelm/exp/dirha/fbank/raw_fbank_tr05_cont.3.ark:42162819
01to030p /scratch/ravanelm/exp/dirha/fbank/raw_fbank_tr05_cont.2.ark:12134989
01eo0302 /scratch/ravanelm/exp/dirha/fbank/raw_fbank_tr05_cont.1.ark:31922279
401o0309 /scratch/ravanelm/exp/dirha/fbank/raw_fbank_tr05_cont.3.ark:41349509
01zo030u /scratch/ravanelm/exp/dirha/fbank/raw_fbank_tr05_cont.2.ark:25272079
028c020n /scratch/ravanelm/exp/dirha/fbank/raw_fbank_tr05_cont.2.ark:40270529
20rc0102 /scratch/ravanelm/exp/dirha/fbank/raw_fbank_tr05_cont.3.ark:35045889
02ec020h /scratch/ravanelm/exp/dirha/fbank/raw_fbank_tr05_cont.2.ark:52789239
01qc021c /scratch/ravanelm/exp/dirha/fbank/raw_fbank_tr05_cont.2.ark:4924419
015o0317 /scratch/ravanelm/exp/dirha/fbank/raw_fbank_tr05_cont.1.ark:12173959
01wo0310 /scratch/ravanelm/exp/dirha/fbank/raw_fbank_tr05_cont.2.ark:19031019
017o030b /scratch/ravanelm/exp/dirha/fbank/raw_fbank_tr05_cont.1.ark:16380909
403o030h /scratch/ravanelm/exp/dirha/fbank/raw_fbank_tr05_cont.3.ark:44604959
015o030m /scratch/ravanelm/exp/dirha/fbank/raw_fbank_tr05_cont.1.ark:11478409
028o030u /scratch/ravanelm/exp/dirha/fbank/raw_fbank_tr05_cont.2.ark:42182149
20mo0102 /scratch/ravanelm/exp/dirha/fbank/raw_fbank_tr05_cont.3.ark:27729299
01qc0205 /scratch/ravanelm/exp/dirha/fbank/raw_fbank_tr05_cont.2.ark:3764609
40ao030k /scratch/ravanelm/exp/dirha/fbank/raw_fbank_tr05_cont.4.ark:9904099
01uc020w /scratch/ravanelm/exp/dirha/fbank/raw_fbank_tr05_cont.2.ark:14079079
40ac0204 /scratch/ravanelm/exp/dirha/fbank/raw_fbank_tr05_cont.4.ark:7896439
01yc020g /scratch/ravanelm/exp/dirha/fbank/raw_fbank_tr05_cont.2.ark:19968889
20no010n /scratch/ravanelm/exp/dirha/fbank/raw_fbank_tr05_cont.3.ark:30150959
40ac020f /scratch/ravanelm/exp/dirha/fbank/raw_fbank_tr05_cont.4.ark:8281129
40dc0209 /scratch/ravanelm/exp/dirha/fbank/raw_fbank_tr05_cont.4.ark:16671779
02co030b /scratch/ravanelm/exp/dirha/fbank/raw_fbank_tr05_cont.2.ark:50819319
02eo031f /scratch/ravanelm/exp/dirha/fbank/raw_fbank_tr05_cont.3.ark:1001259
01ko030k /scratch/ravanelm/exp/dirha/fbank/raw_fbank_tr05_cont.1.ark:48890609
40nc020m /scratch/ravanelm/exp/dirha/fbank/raw_fbank_tr05_cont.4.ark:48706739
011o030i /scratch/ravanelm/exp/dirha/fbank/raw_fbank_tr05_cont.1.ark:2069379
01yo030p /scratch/ravanelm/exp/dirha/fbank/raw_fbank_tr05_cont.2.ark:21765079
20ro0105 /scratch/ravanelm/exp/dirha/fbank/raw_fbank_tr05_cont.3.ark:35828429
20no010c /scratch/ravanelm/exp/dirha/fbank/raw_fbank_tr05_cont.3.ark:29669109
405c020a /scratch/ravanelm/exp/dirha/fbank/raw_fbank_tr05_cont.3.ark:48485279
02ec020a /scratch/ravanelm/exp/dirha/fbank/raw_fbank_tr05_cont.2.ark:52529629
40io030o /scratch/ravanelm/exp/dirha/fbank/raw_fbank_tr05_cont.4.ark:34280019
40cc0211 /scratch/ravanelm/exp/dirha/fbank/raw_fbank_tr05_cont.4.ark:14795359
40io0319 /scratch/ravanelm/exp/dirha/fbank/raw_fbank_tr05_cont.4.ark:34973649
026o0309 /scratch/ravanelm/exp/dirha/fbank/raw_fbank_tr05_cont.2.ark:35365669
40gc021d /scratch/ravanelm/exp/dirha/fbank/raw_fbank_tr05_cont.4.ark:26879209
016c020d /scratch/ravanelm/exp/dirha/fbank/raw_fbank_tr05_cont.1.ark:12621959
40ko030e /scratch/ravanelm/exp/dirha/fbank/raw_fbank_tr05_cont.4.ark:40075299
40hc0211 /scratch/ravanelm/exp/dirha/fbank/raw_fbank_tr05_cont.4.ark:30030439
40no030q /scratch/ravanelm/exp/dirha/fbank/raw_fbank_tr05_cont.4.ark:50549939
409o0311 /scratch/ravanelm/exp/dirha/fbank/raw_fbank_tr05_cont.4.ark:7367039
209c010h /scratch/ravanelm/exp/dirha/fbank/raw_fbank_tr05_cont.3.ark:9661989
20cc0108 /scratch/ravanelm/exp/dirha/fbank/raw_fbank_tr05_cont.3.ark:14488679
40jo031b /scratch/ravanelm/exp/dirha/fbank/raw_fbank_tr05_cont.4.ark:38107159
40lc0218 /scratch/ravanelm/exp/dirha/fbank/raw_fbank_tr05_cont.4.ark:42665639
018c020q /scratch/ravanelm/exp/dirha/fbank/raw_fbank_tr05_cont.1.ark:18345939
018c021b /scratch/ravanelm/exp/dirha/fbank/raw_fbank_tr05_cont.1.ark:18974049
01qo030m /scratch/ravanelm/exp/dirha/fbank/raw_fbank_tr05_cont.2.ark:5799059
01lc0207 /scratch/ravanelm/exp/dirha/fbank/raw_fbank_tr05_cont.1.ark:50466219
01gc020f /scratch/ravanelm/exp/dirha/fbank/raw_fbank_tr05_cont.1.ark:36800869
403c020k /scratch/ravanelm/exp/dirha/fbank/raw_fbank_tr05_cont.3.ark:43294919
20mo010o /scratch/ravanelm/exp/dirha/fbank/raw_fbank_tr05_cont.3.ark:28296119
403o030w /scratch/ravanelm/exp/dirha/fbank/raw_fbank_tr05_cont.3.ark:45062609
40go030p /scratch/ravanelm/exp/dirha/fbank/raw_fbank_tr05_cont.4.ark:27974179
026o030s /scratch/ravanelm/exp/dirha/fbank/raw_fbank_tr05_cont.2.ark:35961799
20mc0107 /scratch/ravanelm/exp/dirha/fbank/raw_fbank_tr05_cont.3.ark:27149419
40mc020p /scratch/ravanelm/exp/dirha/fbank/raw_fbank_tr05_cont.4.ark:45653039
024o030b /scratch/ravanelm/exp/dirha/fbank/raw_fbank_tr05_cont.2.ark:32634079
015c0218 /scratch/ravanelm/exp/dirha/fbank/raw_fbank_tr05_cont.1.ark:10571489
403c020y /scratch/ravanelm/exp/dirha/fbank/raw_fbank_tr05_cont.3.ark:43581099
40fo030p /scratch/ravanelm/exp/dirha/fbank/raw_fbank_tr05_cont.4.ark:24249089
01yo0307 /scratch/ravanelm/exp/dirha/fbank/raw_fbank_tr05_cont.2.ark:21136179
01lo030v /scratch/ravanelm/exp/dirha/fbank/raw_fbank_tr05_cont.1.ark:53120029
40cc020q /scratch/ravanelm/exp/dirha/fbank/raw_fbank_tr05_cont.4.ark:14555989
015c021f /scratch/ravanelm/exp/dirha/fbank/raw_fbank_tr05_cont.1.ark:10709499
40cc020v /scratch/ravanelm/exp/dirha/fbank/raw_fbank_tr05_cont.4.ark:14657579
40lo0301 /scratch/ravanelm/exp/dirha/fbank/raw_fbank_tr05_cont.4.ark:42906239
40fo030l /scratch/ravanelm/exp/dirha/fbank/raw_fbank_tr05_cont.4.ark:24126929
40do030k /scratch/ravanelm/exp/dirha/fbank/raw_fbank_tr05_cont.4.ark:18529069
406c0201 /scratch/ravanelm/exp/dirha/fbank/raw_fbank_tr05_cont.3.ark:50965989
01rc0205 /scratch/ravanelm/exp/dirha/fbank/raw_fbank_tr05_cont.2.ark:6870349
40bc020o /scratch/ravanelm/exp/dirha/fbank/raw_fbank_tr05_cont.4.ark:11513669
20io0102 /scratch/ravanelm/exp/dirha/fbank/raw_fbank_tr05_cont.3.ark:24082529
20vc010l /scratch/ravanelm/exp/dirha/fbank/raw_fbank_tr05_cont.3.ark:38656929
01uc020x /scratch/ravanelm/exp/dirha/fbank/raw_fbank_tr05_cont.2.ark:14123789
40nc020x /scratch/ravanelm/exp/dirha/fbank/raw_fbank_tr05_cont.4.ark:49001269
20mc010j /scratch/ravanelm/exp/dirha/fbank/raw_fbank_tr05_cont.3.ark:27459139
020c020o /scratch/ravanelm/exp/dirha/fbank/raw_fbank_tr05_cont.2.ark:26590019
40kc021f /scratch/ravanelm/exp/dirha/fbank/raw_fbank_tr05_cont.4.ark:39653649
018c020x /scratch/ravanelm/exp/dirha/fbank/raw_fbank_tr05_cont.1.ark:18557789
02eo0304 /scratch/ravanelm/exp/dirha/fbank/raw_fbank_tr05_cont.2.ark:53958149
207o0103 /scratch/ravanelm/exp/dirha/fbank/raw_fbank_tr05_cont.3.ark:6685669
406c0205 /scratch/ravanelm/exp/dirha/fbank/raw_fbank_tr05_cont.3.ark:51064589
20mo010c /scratch/ravanelm/exp/dirha/fbank/raw_fbank_tr05_cont.3.ark:28004799
20vc0104 /scratch/ravanelm/exp/dirha/fbank/raw_fbank_tr05_cont.3.ark:38164179
20ao010q /scratch/ravanelm/exp/dirha/fbank/raw_fbank_tr05_cont.3.ark:12441069
017o031e /scratch/ravanelm/exp/dirha/fbank/raw_fbank_tr05_cont.1.ark:17599799
02bo030l /scratch/ravanelm/exp/dirha/fbank/raw_fbank_tr05_cont.2.ark:48148369
401c0205 /scratch/ravanelm/exp/dirha/fbank/raw_fbank_tr05_cont.3.ark:39700579
029o030q /scratch/ravanelm/exp/dirha/fbank/raw_fbank_tr05_cont.2.ark:45141579
01ic0207 /scratch/ravanelm/exp/dirha/fbank/raw_fbank_tr05_cont.1.ark:39871409
20do010g /scratch/ravanelm/exp/dirha/fbank/raw_fbank_tr05_cont.3.ark:17068849
206c010a /scratch/ravanelm/exp/dirha/fbank/raw_fbank_tr05_cont.3.ark:4443159
016o030z /scratch/ravanelm/exp/dirha/fbank/raw_fbank_tr05_cont.1.ark:14312819
40do030d /scratch/ravanelm/exp/dirha/fbank/raw_fbank_tr05_cont.4.ark:18278579
40ko0312 /scratch/ravanelm/exp/dirha/fbank/raw_fbank_tr05_cont.4.ark:40963779
40go030x /scratch/ravanelm/exp/dirha/fbank/raw_fbank_tr05_cont.4.ark:28355659
20no0103 /scratch/ravanelm/exp/dirha/fbank/raw_fbank_tr05_cont.3.ark:29322039
20vo010q /scratch/ravanelm/exp/dirha/fbank/raw_fbank_tr05_cont.3.ark:39543269
20tc010b /scratch/ravanelm/exp/dirha/fbank/raw_fbank_tr05_cont.3.ark:36968939
029c020v /scratch/ravanelm/exp/dirha/fbank/raw_fbank_tr05_cont.2.ark:43716969
020c020y /scratch/ravanelm/exp/dirha/fbank/raw_fbank_tr05_cont.2.ark:26776319
40mc021d /scratch/ravanelm/exp/dirha/fbank/raw_fbank_tr05_cont.4.ark:46261399
40mc0205 /scratch/ravanelm/exp/dirha/fbank/raw_fbank_tr05_cont.4.ark:45117239
029c020p /scratch/ravanelm/exp/dirha/fbank/raw_fbank_tr05_cont.2.ark:43540309
40po030n /scratch/ravanelm/exp/dirha/fbank/raw_fbank_tr05_cont.4.ark:53369249
20bo0107 /scratch/ravanelm/exp/dirha/fbank/raw_fbank_tr05_cont.3.ark:13353359
404c0202 /scratch/ravanelm/exp/dirha/fbank/raw_fbank_tr05_cont.3.ark:45595679
01io0301 /scratch/ravanelm/exp/dirha/fbank/raw_fbank_tr05_cont.1.ark:41105519
01fc0218 /scratch/ravanelm/exp/dirha/fbank/raw_fbank_tr05_cont.1.ark:34542139
01mc0203 /scratch/ravanelm/exp/dirha/fbank/raw_fbank_tr05_cont.1.ark:54137249
02bc020o /scratch/ravanelm/exp/dirha/fbank/raw_fbank_tr05_cont.2.ark:46680849
019c020u /scratch/ravanelm/exp/dirha/fbank/raw_fbank_tr05_cont.1.ark:21774499
017o0308 /scratch/ravanelm/exp/dirha/fbank/raw_fbank_tr05_cont.1.ark:16297139
208c010o /scratch/ravanelm/exp/dirha/fbank/raw_fbank_tr05_cont.3.ark:8297039
40ac020g /scratch/ravanelm/exp/dirha/fbank/raw_fbank_tr05_cont.4.ark:8317159
20oo0101 /scratch/ravanelm/exp/dirha/fbank/raw_fbank_tr05_cont.3.ark:30909829
024c021a /scratch/ravanelm/exp/dirha/fbank/raw_fbank_tr05_cont.2.ark:32188229
014o0317 /scratch/ravanelm/exp/dirha/fbank/raw_fbank_tr05_cont.1.ark:9203469
01ro030b /scratch/ravanelm/exp/dirha/fbank/raw_fbank_tr05_cont.2.ark:8407409
20ho010c /scratch/ravanelm/exp/dirha/fbank/raw_fbank_tr05_cont.3.ark:22968639
20dc0105 /scratch/ravanelm/exp/dirha/fbank/raw_fbank_tr05_cont.3.ark:15890489
01do030h /scratch/ravanelm/exp/dirha/fbank/raw_fbank_tr05_cont.1.ark:29331479
015c020y /scratch/ravanelm/exp/dirha/fbank/raw_fbank_tr05_cont.1.ark:10336189
014c020v /scratch/ravanelm/exp/dirha/fbank/raw_fbank_tr05_cont.1.ark:7230239
40eo030b /scratch/ravanelm/exp/dirha/fbank/raw_fbank_tr05_cont.4.ark:20953579
40ec021c /scratch/ravanelm/exp/dirha/fbank/raw_fbank_tr05_cont.4.ark:20449179
018o0301 /scratch/ravanelm/exp/dirha/fbank/raw_fbank_tr05_cont.1.ark:19195229
204c0104 /scratch/ravanelm/exp/dirha/fbank/raw_fbank_tr05_cont.3.ark:1121969
40ko0315 /scratch/ravanelm/exp/dirha/fbank/raw_fbank_tr05_cont.4.ark:41042469
40lc020g /scratch/ravanelm/exp/dirha/fbank/raw_fbank_tr05_cont.4.ark:41787639
01qc020z /scratch/ravanelm/exp/dirha/fbank/raw_fbank_tr05_cont.2.ark:4575069
40fo030t /scratch/ravanelm/exp/dirha/fbank/raw_fbank_tr05_cont.4.ark:24400249
019c020l /scratch/ravanelm/exp/dirha/fbank/raw_fbank_tr05_cont.1.ark:21578629
40ic020d /scratch/ravanelm/exp/dirha/fbank/raw_fbank_tr05_cont.4.ark:32410319
013c020v /scratch/ravanelm/exp/dirha/fbank/raw_fbank_tr05_cont.1.ark:4479739
017c021e /scratch/ravanelm/exp/dirha/fbank/raw_fbank_tr05_cont.1.ark:15963559
40ic0207 /scratch/ravanelm/exp/dirha/fbank/raw_fbank_tr05_cont.4.ark:32212259
02bo030x /scratch/ravanelm/exp/dirha/fbank/raw_fbank_tr05_cont.2.ark:48577049
409o0318 /scratch/ravanelm/exp/dirha/fbank/raw_fbank_tr05_cont.4.ark:7563929
40co030l /scratch/ravanelm/exp/dirha/fbank/raw_fbank_tr05_cont.4.ark:15680699
20go010b /scratch/ravanelm/exp/dirha/fbank/raw_fbank_tr05_cont.3.ark:21610909
01to031e /scratch/ravanelm/exp/dirha/fbank/raw_fbank_tr05_cont.2.ark:12991499
01ro030p /scratch/ravanelm/exp/dirha/fbank/raw_fbank_tr05_cont.2.ark:8925749
01uo0316 /scratch/ravanelm/exp/dirha/fbank/raw_fbank_tr05_cont.2.ark:16334869
026o0303 /scratch/ravanelm/exp/dirha/fbank/raw_fbank_tr05_cont.2.ark:35208049
01ic020x /scratch/ravanelm/exp/dirha/fbank/raw_fbank_tr05_cont.1.ark:40635749
01jo030f /scratch/ravanelm/exp/dirha/fbank/raw_fbank_tr05_cont.1.ark:45134949
40bc020s /scratch/ravanelm/exp/dirha/fbank/raw_fbank_tr05_cont.4.ark:11640829
40mc020z /scratch/ravanelm/exp/dirha/fbank/raw_fbank_tr05_cont.4.ark:45899859
40do0301 /scratch/ravanelm/exp/dirha/fbank/raw_fbank_tr05_cont.4.ark:17985779
015o030c /scratch/ravanelm/exp/dirha/fbank/raw_fbank_tr05_cont.1.ark:11147789
015c0205 /scratch/ravanelm/exp/dirha/fbank/raw_fbank_tr05_cont.1.ark:9576479
020c020j /scratch/ravanelm/exp/dirha/fbank/raw_fbank_tr05_cont.2.ark:26475429
01lc0202 /scratch/ravanelm/exp/dirha/fbank/raw_fbank_tr05_cont.1.ark:50275669
20cc010j /scratch/ravanelm/exp/dirha/fbank/raw_fbank_tr05_cont.3.ark:14779809
20bc010l /scratch/ravanelm/exp/dirha/fbank/raw_fbank_tr05_cont.3.ark:13018019
406c020q /scratch/ravanelm/exp/dirha/fbank/raw_fbank_tr05_cont.3.ark:51586549
015c021d /scratch/ravanelm/exp/dirha/fbank/raw_fbank_tr05_cont.1.ark:10668959
028o0310 /scratch/ravanelm/exp/dirha/fbank/raw_fbank_tr05_cont.2.ark:42341929
40ec0216 /scratch/ravanelm/exp/dirha/fbank/raw_fbank_tr05_cont.4.ark:20329959
40no030o /scratch/ravanelm/exp/dirha/fbank/raw_fbank_tr05_cont.4.ark:50471479
02eo030w /scratch/ravanelm/exp/dirha/fbank/raw_fbank_tr05_cont.3.ark:344189
40go031d /scratch/ravanelm/exp/dirha/fbank/raw_fbank_tr05_cont.4.ark:29065659
40ao0305 /scratch/ravanelm/exp/dirha/fbank/raw_fbank_tr05_cont.4.ark:9419049
40eo0305 /scratch/ravanelm/exp/dirha/fbank/raw_fbank_tr05_cont.4.ark:20786559
026c020t /scratch/ravanelm/exp/dirha/fbank/raw_fbank_tr05_cont.2.ark:34538429
204c010c /scratch/ravanelm/exp/dirha/fbank/raw_fbank_tr05_cont.3.ark:1281969
407c0213 /scratch/ravanelm/exp/dirha/fbank/raw_fbank_tr05_cont.4.ark:179059
20vo010i /scratch/ravanelm/exp/dirha/fbank/raw_fbank_tr05_cont.3.ark:39262229
01zo030j /scratch/ravanelm/exp/dirha/fbank/raw_fbank_tr05_cont.2.ark:24730789
026c021g /scratch/ravanelm/exp/dirha/fbank/raw_fbank_tr05_cont.2.ark:35132279
01lo0306 /scratch/ravanelm/exp/dirha/fbank/raw_fbank_tr05_cont.1.ark:52080079
01jo030l /scratch/ravanelm/exp/dirha/fbank/raw_fbank_tr05_cont.1.ark:45361689
40hc020q /scratch/ravanelm/exp/dirha/fbank/raw_fbank_tr05_cont.4.ark:29784389
20dc0103 /scratch/ravanelm/exp/dirha/fbank/raw_fbank_tr05_cont.3.ark:15818829
021o030o /scratch/ravanelm/exp/dirha/fbank/raw_fbank_tr05_cont.2.ark:30091559
015c0217 /scratch/ravanelm/exp/dirha/fbank/raw_fbank_tr05_cont.1.ark:10537859
40po030q /scratch/ravanelm/exp/dirha/fbank/raw_fbank_tr05_cont.4.ark:53467859
015c021h /scratch/ravanelm/exp/dirha/fbank/raw_fbank_tr05_cont.1.ark:10763719
01mo0313 /scratch/ravanelm/exp/dirha/fbank/raw_fbank_tr05_cont.2.ark:32679
01eo0315 /scratch/ravanelm/exp/dirha/fbank/raw_fbank_tr05_cont.1.ark:33048969
01qc0215 /scratch/ravanelm/exp/dirha/fbank/raw_fbank_tr05_cont.2.ark:4742569
20vo010d /scratch/ravanelm/exp/dirha/fbank/raw_fbank_tr05_cont.3.ark:39101919
018o030t /scratch/ravanelm/exp/dirha/fbank/raw_fbank_tr05_cont.1.ark:20238749
409o030r /scratch/ravanelm/exp/dirha/fbank/raw_fbank_tr05_cont.4.ark:7103099
02ec020w /scratch/ravanelm/exp/dirha/fbank/raw_fbank_tr05_cont.2.ark:53209849
01fc020q /scratch/ravanelm/exp/dirha/fbank/raw_fbank_tr05_cont.1.ark:34063079
013o0319 /scratch/ravanelm/exp/dirha/fbank/raw_fbank_tr05_cont.1.ark:6339009
208o010m /scratch/ravanelm/exp/dirha/fbank/raw_fbank_tr05_cont.3.ark:9071169
016c020m /scratch/ravanelm/exp/dirha/fbank/raw_fbank_tr05_cont.1.ark:12853029
01yc0219 /scratch/ravanelm/exp/dirha/fbank/raw_fbank_tr05_cont.2.ark:20723119
01wc0207 /scratch/ravanelm/exp/dirha/fbank/raw_fbank_tr05_cont.2.ark:16788519
024c020z /scratch/ravanelm/exp/dirha/fbank/raw_fbank_tr05_cont.2.ark:31874339
021c020w /scratch/ravanelm/exp/dirha/fbank/raw_fbank_tr05_cont.2.ark:28949989
40lo0317 /scratch/ravanelm/exp/dirha/fbank/raw_fbank_tr05_cont.4.ark:44683299
01wc021e /scratch/ravanelm/exp/dirha/fbank/raw_fbank_tr05_cont.2.ark:17929219
40mc020k /scratch/ravanelm/exp/dirha/fbank/raw_fbank_tr05_cont.4.ark:45512889
01eo030v /scratch/ravanelm/exp/dirha/fbank/raw_fbank_tr05_cont.1.ark:32721429
40eo0314 /scratch/ravanelm/exp/dirha/fbank/raw_fbank_tr05_cont.4.ark:21817929
024c0211 /scratch/ravanelm/exp/dirha/fbank/raw_fbank_tr05_cont.2.ark:31928399
409o0310 /scratch/ravanelm/exp/dirha/fbank/raw_fbank_tr05_cont.4.ark:7347849
20io010m /scratch/ravanelm/exp/dirha/fbank/raw_fbank_tr05_cont.3.ark:24796249
01io031e /scratch/ravanelm/exp/dirha/fbank/raw_fbank_tr05_cont.1.ark:42933389
027o0302 /scratch/ravanelm/exp/dirha/fbank/raw_fbank_tr05_cont.2.ark:38074649
20oc0108 /scratch/ravanelm/exp/dirha/fbank/raw_fbank_tr05_cont.3.ark:30542599
403c0217 /scratch/ravanelm/exp/dirha/fbank/raw_fbank_tr05_cont.3.ark:43836209
40fc021g /scratch/ravanelm/exp/dirha/fbank/raw_fbank_tr05_cont.4.ark:23448499
209c0101 /scratch/ravanelm/exp/dirha/fbank/raw_fbank_tr05_cont.3.ark:9279749
40fc020z /scratch/ravanelm/exp/dirha/fbank/raw_fbank_tr05_cont.4.ark:22996229
01jo030z /scratch/ravanelm/exp/dirha/fbank/raw_fbank_tr05_cont.1.ark:45866389
407c020n /scratch/ravanelm/exp/dirha/fbank/raw_fbank_tr05_cont.3.ark:54341859
02ec0205 /scratch/ravanelm/exp/dirha/fbank/raw_fbank_tr05_cont.2.ark:52380839
207o010c /scratch/ravanelm/exp/dirha/fbank/raw_fbank_tr05_cont.3.ark:7042499
021o030c /scratch/ravanelm/exp/dirha/fbank/raw_fbank_tr05_cont.2.ark:29689759
01zc020b /scratch/ravanelm/exp/dirha/fbank/raw_fbank_tr05_cont.2.ark:22880779
408c021g /scratch/ravanelm/exp/dirha/fbank/raw_fbank_tr05_cont.4.ark:3534659
021c0217 /scratch/ravanelm/exp/dirha/fbank/raw_fbank_tr05_cont.2.ark:29194399
015c020f /scratch/ravanelm/exp/dirha/fbank/raw_fbank_tr05_cont.1.ark:9862939
209c010i /scratch/ravanelm/exp/dirha/fbank/raw_fbank_tr05_cont.3.ark:9683859
015o030x /scratch/ravanelm/exp/dirha/fbank/raw_fbank_tr05_cont.1.ark:11819979
01tc020g /scratch/ravanelm/exp/dirha/fbank/raw_fbank_tr05_cont.2.ark:10128149
40do0310 /scratch/ravanelm/exp/dirha/fbank/raw_fbank_tr05_cont.4.ark:19034869
029c020g /scratch/ravanelm/exp/dirha/fbank/raw_fbank_tr05_cont.2.ark:43274399
024o031e /scratch/ravanelm/exp/dirha/fbank/raw_fbank_tr05_cont.2.ark:33764929
016c020f /scratch/ravanelm/exp/dirha/fbank/raw_fbank_tr05_cont.1.ark:12673419
01zc020t /scratch/ravanelm/exp/dirha/fbank/raw_fbank_tr05_cont.2.ark:23349959
01jo0310 /scratch/ravanelm/exp/dirha/fbank/raw_fbank_tr05_cont.1.ark:45916339
40nc020f /scratch/ravanelm/exp/dirha/fbank/raw_fbank_tr05_cont.4.ark:48455689
027o0315 /scratch/ravanelm/exp/dirha/fbank/raw_fbank_tr05_cont.2.ark:39578419
017c0205 /scratch/ravanelm/exp/dirha/fbank/raw_fbank_tr05_cont.1.ark:14926809
20lo010a /scratch/ravanelm/exp/dirha/fbank/raw_fbank_tr05_cont.3.ark:26196009
40go030t /scratch/ravanelm/exp/dirha/fbank/raw_fbank_tr05_cont.4.ark:28127379
20eo010i /scratch/ravanelm/exp/dirha/fbank/raw_fbank_tr05_cont.3.ark:18927879
01lc0204 /scratch/ravanelm/exp/dirha/fbank/raw_fbank_tr05_cont.1.ark:50343009
01io030c /scratch/ravanelm/exp/dirha/fbank/raw_fbank_tr05_cont.1.ark:41629249
20hc010o /scratch/ravanelm/exp/dirha/fbank/raw_fbank_tr05_cont.3.ark:22540619
01fc0216 /scratch/ravanelm/exp/dirha/fbank/raw_fbank_tr05_cont.1.ark:34505159
015o0308 /scratch/ravanelm/exp/dirha/fbank/raw_fbank_tr05_cont.1.ark:10991629
029o030l /scratch/ravanelm/exp/dirha/fbank/raw_fbank_tr05_cont.2.ark:44930589
40dc020l /scratch/ravanelm/exp/dirha/fbank/raw_fbank_tr05_cont.4.ark:17043699
403o0313 /scratch/ravanelm/exp/dirha/fbank/raw_fbank_tr05_cont.3.ark:45295139
01uo0306 /scratch/ravanelm/exp/dirha/fbank/raw_fbank_tr05_cont.2.ark:14962669
013o0310 /scratch/ravanelm/exp/dirha/fbank/raw_fbank_tr05_cont.1.ark:6055699
401c021e /scratch/ravanelm/exp/dirha/fbank/raw_fbank_tr05_cont.3.ark:41021449
20vc010e /scratch/ravanelm/exp/dirha/fbank/raw_fbank_tr05_cont.3.ark:38478399
01lo030t /scratch/ravanelm/exp/dirha/fbank/raw_fbank_tr05_cont.1.ark:53051489
404c0219 /scratch/ravanelm/exp/dirha/fbank/raw_fbank_tr05_cont.3.ark:46639089
015c020x /scratch/ravanelm/exp/dirha/fbank/raw_fbank_tr05_cont.1.ark:10304799
40cc020b /scratch/ravanelm/exp/dirha/fbank/raw_fbank_tr05_cont.4.ark:14220259
407c0212 /scratch/ravanelm/exp/dirha/fbank/raw_fbank_tr05_cont.4.ark:159909
204o0106 /scratch/ravanelm/exp/dirha/fbank/raw_fbank_tr05_cont.3.ark:1741339
404o0307 /scratch/ravanelm/exp/dirha/fbank/raw_fbank_tr05_cont.3.ark:47009239
02cc021f /scratch/ravanelm/exp/dirha/fbank/raw_fbank_tr05_cont.2.ark:50513149
40kc020r /scratch/ravanelm/exp/dirha/fbank/raw_fbank_tr05_cont.4.ark:39017769
407o030r /scratch/ravanelm/exp/dirha/fbank/raw_fbank_tr05_cont.4.ark:1662959
207c010j /scratch/ravanelm/exp/dirha/fbank/raw_fbank_tr05_cont.3.ark:6489249
408o0303 /scratch/ravanelm/exp/dirha/fbank/raw_fbank_tr05_cont.4.ark:3625979
20go010o /scratch/ravanelm/exp/dirha/fbank/raw_fbank_tr05_cont.3.ark:21972339
017c0204 /scratch/ravanelm/exp/dirha/fbank/raw_fbank_tr05_cont.1.ark:14890539
01ic020f /scratch/ravanelm/exp/dirha/fbank/raw_fbank_tr05_cont.1.ark:40113169
029o031f /scratch/ravanelm/exp/dirha/fbank/raw_fbank_tr05_cont.2.ark:45993649
01wc020k /scratch/ravanelm/exp/dirha/fbank/raw_fbank_tr05_cont.2.ark:17191149
405o031f /scratch/ravanelm/exp/dirha/fbank/raw_fbank_tr05_cont.3.ark:50941719
20ic010k /scratch/ravanelm/exp/dirha/fbank/raw_fbank_tr05_cont.3.ark:23886909
01zc0219 /scratch/ravanelm/exp/dirha/fbank/raw_fbank_tr05_cont.2.ark:23898519
20nc0105 /scratch/ravanelm/exp/dirha/fbank/raw_fbank_tr05_cont.3.ark:28585109
404o030m /scratch/ravanelm/exp/dirha/fbank/raw_fbank_tr05_cont.3.ark:47452649
011c020x /scratch/ravanelm/exp/dirha/fbank/raw_fbank_tr05_cont.1.ark:894289
407c020a /scratch/ravanelm/exp/dirha/fbank/raw_fbank_tr05_cont.3.ark:53969389
017c020r /scratch/ravanelm/exp/dirha/fbank/raw_fbank_tr05_cont.1.ark:15404229
20ro010f /scratch/ravanelm/exp/dirha/fbank/raw_fbank_tr05_cont.3.ark:36224249
20do010d /scratch/ravanelm/exp/dirha/fbank/raw_fbank_tr05_cont.3.ark:16963479
