018o0315 /scratch/ravanelm/exp/dirha/data-fmllr-tri4/tr05_cont/data/feats_fmllr_tr05_cont.1.ark:82196985
40do030e /scratch/ravanelm/exp/dirha/data-fmllr-tri4/tr05_cont/data/feats_fmllr_tr05_cont.9.ark:41668793
40hc020u /scratch/ravanelm/exp/dirha/data-fmllr-tri4/tr05_cont/data/feats_fmllr_tr05_cont.10.ark:2798465
01uo0309 /scratch/ravanelm/exp/dirha/data-fmllr-tri4/tr05_cont/data/feats_fmllr_tr05_cont.3.ark:84426273
01dc020v /scratch/ravanelm/exp/dirha/data-fmllr-tri4/tr05_cont/data/feats_fmllr_tr05_cont.2.ark:17310457
209o010o /scratch/ravanelm/exp/dirha/data-fmllr-tri4/tr05_cont/data/feats_fmllr_tr05_cont.6.ark:32494769
01pc0212 /scratch/ravanelm/exp/dirha/data-fmllr-tri4/tr05_cont/data/feats_fmllr_tr05_cont.3.ark:30707641
409c020n /scratch/ravanelm/exp/dirha/data-fmllr-tri4/tr05_cont/data/feats_fmllr_tr05_cont.8.ark:67955873
015o030r /scratch/ravanelm/exp/dirha/data-fmllr-tri4/tr05_cont/data/feats_fmllr_tr05_cont.1.ark:46199809
016c020d /scratch/ravanelm/exp/dirha/data-fmllr-tri4/tr05_cont/data/feats_fmllr_tr05_cont.1.ark:49914017
013c020k /scratch/ravanelm/exp/dirha/data-fmllr-tri4/tr05_cont/data/feats_fmllr_tr05_cont.1.ark:16375529
208o0102 /scratch/ravanelm/exp/dirha/data-fmllr-tri4/tr05_cont/data/feats_fmllr_tr05_cont.6.ark:23600489
20mo010n /scratch/ravanelm/exp/dirha/data-fmllr-tri4/tr05_cont/data/feats_fmllr_tr05_cont.7.ark:24461129
40jo030x /scratch/ravanelm/exp/dirha/data-fmllr-tri4/tr05_cont/data/feats_fmllr_tr05_cont.10.ark:33542297
40jc0205 /scratch/ravanelm/exp/dirha/data-fmllr-tri4/tr05_cont/data/feats_fmllr_tr05_cont.10.ark:24178345
20eo010a /scratch/ravanelm/exp/dirha/data-fmllr-tri4/tr05_cont/data/feats_fmllr_tr05_cont.6.ark:64156801
01tc0216 /scratch/ravanelm/exp/dirha/data-fmllr-tri4/tr05_cont/data/feats_fmllr_tr05_cont.3.ark:68605289
02cc0209 /scratch/ravanelm/exp/dirha/data-fmllr-tri4/tr05_cont/data/feats_fmllr_tr05_cont.5.ark:50916001
20to0109 /scratch/ravanelm/exp/dirha/data-fmllr-tri4/tr05_cont/data/feats_fmllr_tr05_cont.7.ark:61276849
014o0314 /scratch/ravanelm/exp/dirha/data-fmllr-tri4/tr05_cont/data/feats_fmllr_tr05_cont.1.ark:36115249
40ao030x /scratch/ravanelm/exp/dirha/data-fmllr-tri4/tr05_cont/data/feats_fmllr_tr05_cont.9.ark:10123257
018o0304 /scratch/ravanelm/exp/dirha/data-fmllr-tri4/tr05_cont/data/feats_fmllr_tr05_cont.1.ark:76295777
20bo010l /scratch/ravanelm/exp/dirha/data-fmllr-tri4/tr05_cont/data/feats_fmllr_tr05_cont.6.ark:45665393
40pc021d /scratch/ravanelm/exp/dirha/data-fmllr-tri4/tr05_cont/data/feats_fmllr_tr05_cont.10.ark:92437145
013c020r /scratch/ravanelm/exp/dirha/data-fmllr-tri4/tr05_cont/data/feats_fmllr_tr05_cont.1.ark:17324817
208c010l /scratch/ravanelm/exp/dirha/data-fmllr-tri4/tr05_cont/data/feats_fmllr_tr05_cont.6.ark:22852825
01mc0214 /scratch/ravanelm/exp/dirha/data-fmllr-tri4/tr05_cont/data/feats_fmllr_tr05_cont.3.ark:19106065
40cc020x /scratch/ravanelm/exp/dirha/data-fmllr-tri4/tr05_cont/data/feats_fmllr_tr05_cont.9.ark:27369233
01do0316 /scratch/ravanelm/exp/dirha/data-fmllr-tri4/tr05_cont/data/feats_fmllr_tr05_cont.2.ark:24848217
408o030b /scratch/ravanelm/exp/dirha/data-fmllr-tri4/tr05_cont/data/feats_fmllr_tr05_cont.8.ark:61712833
209c010l /scratch/ravanelm/exp/dirha/data-fmllr-tri4/tr05_cont/data/feats_fmllr_tr05_cont.6.ark:28919673
20no010n /scratch/ravanelm/exp/dirha/data-fmllr-tri4/tr05_cont/data/feats_fmllr_tr05_cont.7.ark:31854721
40bo030g /scratch/ravanelm/exp/dirha/data-fmllr-tri4/tr05_cont/data/feats_fmllr_tr05_cont.9.ark:20260521
40co030n /scratch/ravanelm/exp/dirha/data-fmllr-tri4/tr05_cont/data/feats_fmllr_tr05_cont.9.ark:31493233
20hc010g /scratch/ravanelm/exp/dirha/data-fmllr-tri4/tr05_cont/data/feats_fmllr_tr05_cont.7.ark:1173809
20vc010l /scratch/ravanelm/exp/dirha/data-fmllr-tri4/tr05_cont/data/feats_fmllr_tr05_cont.7.ark:65494697
40nc020t /scratch/ravanelm/exp/dirha/data-fmllr-tri4/tr05_cont/data/feats_fmllr_tr05_cont.10.ark:78187841
20do0105 /scratch/ravanelm/exp/dirha/data-fmllr-tri4/tr05_cont/data/feats_fmllr_tr05_cont.6.ark:56526657
02bo0308 /scratch/ravanelm/exp/dirha/data-fmllr-tri4/tr05_cont/data/feats_fmllr_tr05_cont.5.ark:43760513
20no0103 /scratch/ravanelm/exp/dirha/data-fmllr-tri4/tr05_cont/data/feats_fmllr_tr05_cont.7.ark:28566561
40jo030u /scratch/ravanelm/exp/dirha/data-fmllr-tri4/tr05_cont/data/feats_fmllr_tr05_cont.10.ark:33103505
01uc020m /scratch/ravanelm/exp/dirha/data-fmllr-tri4/tr05_cont/data/feats_fmllr_tr05_cont.3.ark:79566321
40jo0315 /scratch/ravanelm/exp/dirha/data-fmllr-tri4/tr05_cont/data/feats_fmllr_tr05_cont.10.ark:34569529
01ec0208 /scratch/ravanelm/exp/dirha/data-fmllr-tri4/tr05_cont/data/feats_fmllr_tr05_cont.2.ark:26946065
021c020k /scratch/ravanelm/exp/dirha/data-fmllr-tri4/tr05_cont/data/feats_fmllr_tr05_cont.4.ark:47247793
029c020l /scratch/ravanelm/exp/dirha/data-fmllr-tri4/tr05_cont/data/feats_fmllr_tr05_cont.5.ark:26946249
20lo010j /scratch/ravanelm/exp/dirha/data-fmllr-tri4/tr05_cont/data/feats_fmllr_tr05_cont.7.ark:18158369
20to0101 /scratch/ravanelm/exp/dirha/data-fmllr-tri4/tr05_cont/data/feats_fmllr_tr05_cont.7.ark:60629297
40fc020b /scratch/ravanelm/exp/dirha/data-fmllr-tri4/tr05_cont/data/feats_fmllr_tr05_cont.9.ark:57322217
20pc010g /scratch/ravanelm/exp/dirha/data-fmllr-tri4/tr05_cont/data/feats_fmllr_tr05_cont.7.ark:39853865
40lc020r /scratch/ravanelm/exp/dirha/data-fmllr-tri4/tr05_cont/data/feats_fmllr_tr05_cont.10.ark:51174257
01bo030f /scratch/ravanelm/exp/dirha/data-fmllr-tri4/tr05_cont/data/feats_fmllr_tr05_cont.2.ark:8730361
024c020t /scratch/ravanelm/exp/dirha/data-fmllr-tri4/tr05_cont/data/feats_fmllr_tr05_cont.4.ark:59623257
02bo030p /scratch/ravanelm/exp/dirha/data-fmllr-tri4/tr05_cont/data/feats_fmllr_tr05_cont.5.ark:46179641
01jc021a /scratch/ravanelm/exp/dirha/data-fmllr-tri4/tr05_cont/data/feats_fmllr_tr05_cont.2.ark:81331505
20go010a /scratch/ravanelm/exp/dirha/data-fmllr-tri4/tr05_cont/data/feats_fmllr_tr05_cont.6.ark:75715361
01eo030q /scratch/ravanelm/exp/dirha/data-fmllr-tri4/tr05_cont/data/feats_fmllr_tr05_cont.2.ark:34621137
40ko030p /scratch/ravanelm/exp/dirha/data-fmllr-tri4/tr05_cont/data/feats_fmllr_tr05_cont.10.ark:44784257
02eo0313 /scratch/ravanelm/exp/dirha/data-fmllr-tri4/tr05_cont/data/feats_fmllr_tr05_cont.5.ark:73436889
026o030o /scratch/ravanelm/exp/dirha/data-fmllr-tri4/tr05_cont/data/feats_fmllr_tr05_cont.4.ark:75944089
40lo030l /scratch/ravanelm/exp/dirha/data-fmllr-tri4/tr05_cont/data/feats_fmllr_tr05_cont.10.ark:57418377
404c020e /scratch/ravanelm/exp/dirha/data-fmllr-tri4/tr05_cont/data/feats_fmllr_tr05_cont.8.ark:11915153
40gc0209 /scratch/ravanelm/exp/dirha/data-fmllr-tri4/tr05_cont/data/feats_fmllr_tr05_cont.9.ark:69906745
40mo0304 /scratch/ravanelm/exp/dirha/data-fmllr-tri4/tr05_cont/data/feats_fmllr_tr05_cont.10.ark:68643025
021o030y /scratch/ravanelm/exp/dirha/data-fmllr-tri4/tr05_cont/data/feats_fmllr_tr05_cont.4.ark:54337353
011c020q /scratch/ravanelm/exp/dirha/data-fmllr-tri4/tr05_cont/data/feats_fmllr_tr05_cont.1.ark:2756289
40mc0219 /scratch/ravanelm/exp/dirha/data-fmllr-tri4/tr05_cont/data/feats_fmllr_tr05_cont.10.ark:67351561
01zo030n /scratch/ravanelm/exp/dirha/data-fmllr-tri4/tr05_cont/data/feats_fmllr_tr05_cont.4.ark:32869873
40ho030l /scratch/ravanelm/exp/dirha/data-fmllr-tri4/tr05_cont/data/feats_fmllr_tr05_cont.10.ark:7637873
02cc0201 /scratch/ravanelm/exp/dirha/data-fmllr-tri4/tr05_cont/data/feats_fmllr_tr05_cont.5.ark:49917249
408c020q /scratch/ravanelm/exp/dirha/data-fmllr-tri4/tr05_cont/data/feats_fmllr_tr05_cont.8.ark:58231465
40kc0202 /scratch/ravanelm/exp/dirha/data-fmllr-tri4/tr05_cont/data/feats_fmllr_tr05_cont.10.ark:36129337
40fo0306 /scratch/ravanelm/exp/dirha/data-fmllr-tri4/tr05_cont/data/feats_fmllr_tr05_cont.9.ark:62589585
01dc0217 /scratch/ravanelm/exp/dirha/data-fmllr-tri4/tr05_cont/data/feats_fmllr_tr05_cont.2.ark:18604825
206o0106 /scratch/ravanelm/exp/dirha/data-fmllr-tri4/tr05_cont/data/feats_fmllr_tr05_cont.6.ark:10047345
01qc020d /scratch/ravanelm/exp/dirha/data-fmllr-tri4/tr05_cont/data/feats_fmllr_tr05_cont.3.ark:40987497
01yc0217 /scratch/ravanelm/exp/dirha/data-fmllr-tri4/tr05_cont/data/feats_fmllr_tr05_cont.4.ark:16025929
029o030b /scratch/ravanelm/exp/dirha/data-fmllr-tri4/tr05_cont/data/feats_fmllr_tr05_cont.5.ark:31620857
01eo0306 /scratch/ravanelm/exp/dirha/data-fmllr-tri4/tr05_cont/data/feats_fmllr_tr05_cont.2.ark:32404017
01do030g /scratch/ravanelm/exp/dirha/data-fmllr-tri4/tr05_cont/data/feats_fmllr_tr05_cont.2.ark:21709561
407o030e /scratch/ravanelm/exp/dirha/data-fmllr-tri4/tr05_cont/data/feats_fmllr_tr05_cont.8.ark:50873593
40no030u /scratch/ravanelm/exp/dirha/data-fmllr-tri4/tr05_cont/data/feats_fmllr_tr05_cont.10.ark:85085273
40ko030z /scratch/ravanelm/exp/dirha/data-fmllr-tri4/tr05_cont/data/feats_fmllr_tr05_cont.10.ark:46204817
01gc020m /scratch/ravanelm/exp/dirha/data-fmllr-tri4/tr05_cont/data/feats_fmllr_tr05_cont.2.ark:52182513
401o030r /scratch/ravanelm/exp/dirha/data-fmllr-tri4/tr05_cont/data/feats_fmllr_tr05_cont.7.ark:78999529
011o0301 /scratch/ravanelm/exp/dirha/data-fmllr-tri4/tr05_cont/data/feats_fmllr_tr05_cont.1.ark:5555609
01bc020b /scratch/ravanelm/exp/dirha/data-fmllr-tri4/tr05_cont/data/feats_fmllr_tr05_cont.2.ark:1358601
021o030w /scratch/ravanelm/exp/dirha/data-fmllr-tri4/tr05_cont/data/feats_fmllr_tr05_cont.4.ark:54126425
01pc0218 /scratch/ravanelm/exp/dirha/data-fmllr-tri4/tr05_cont/data/feats_fmllr_tr05_cont.3.ark:31446025
01fc0214 /scratch/ravanelm/exp/dirha/data-fmllr-tri4/tr05_cont/data/feats_fmllr_tr05_cont.2.ark:42054145
40no031b /scratch/ravanelm/exp/dirha/data-fmllr-tri4/tr05_cont/data/feats_fmllr_tr05_cont.10.ark:87636081
40no030q /scratch/ravanelm/exp/dirha/data-fmllr-tri4/tr05_cont/data/feats_fmllr_tr05_cont.10.ark:84670777
01wo0317 /scratch/ravanelm/exp/dirha/data-fmllr-tri4/tr05_cont/data/feats_fmllr_tr05_cont.4.ark:10514513
20bo010h /scratch/ravanelm/exp/dirha/data-fmllr-tri4/tr05_cont/data/feats_fmllr_tr05_cont.6.ark:45125457
40gc020k /scratch/ravanelm/exp/dirha/data-fmllr-tri4/tr05_cont/data/feats_fmllr_tr05_cont.9.ark:71467329
409o0309 /scratch/ravanelm/exp/dirha/data-fmllr-tri4/tr05_cont/data/feats_fmllr_tr05_cont.8.ark:72144785
01tc021d /scratch/ravanelm/exp/dirha/data-fmllr-tri4/tr05_cont/data/feats_fmllr_tr05_cont.3.ark:69290097
024o0301 /scratch/ravanelm/exp/dirha/data-fmllr-tri4/tr05_cont/data/feats_fmllr_tr05_cont.4.ark:61920425
40fc020t /scratch/ravanelm/exp/dirha/data-fmllr-tri4/tr05_cont/data/feats_fmllr_tr05_cont.9.ark:59340729
406o0307 /scratch/ravanelm/exp/dirha/data-fmllr-tri4/tr05_cont/data/feats_fmllr_tr05_cont.8.ark:37748873
01fc0207 /scratch/ravanelm/exp/dirha/data-fmllr-tri4/tr05_cont/data/feats_fmllr_tr05_cont.2.ark:38578153
20vc0109 /scratch/ravanelm/exp/dirha/data-fmllr-tri4/tr05_cont/data/feats_fmllr_tr05_cont.7.ark:64211849
20fc010j /scratch/ravanelm/exp/dirha/data-fmllr-tri4/tr05_cont/data/feats_fmllr_tr05_cont.6.ark:68496521
026o0302 /scratch/ravanelm/exp/dirha/data-fmllr-tri4/tr05_cont/data/feats_fmllr_tr05_cont.4.ark:73309961
021c020t /scratch/ravanelm/exp/dirha/data-fmllr-tri4/tr05_cont/data/feats_fmllr_tr05_cont.4.ark:48413449
027o030w /scratch/ravanelm/exp/dirha/data-fmllr-tri4/tr05_cont/data/feats_fmllr_tr05_cont.5.ark:10354345
208c0106 /scratch/ravanelm/exp/dirha/data-fmllr-tri4/tr05_cont/data/feats_fmllr_tr05_cont.6.ark:21101425
01jo0304 /scratch/ravanelm/exp/dirha/data-fmllr-tri4/tr05_cont/data/feats_fmllr_tr05_cont.2.ark:82670145
027c020z /scratch/ravanelm/exp/dirha/data-fmllr-tri4/tr05_cont/data/feats_fmllr_tr05_cont.5.ark:3380505
40go0303 /scratch/ravanelm/exp/dirha/data-fmllr-tri4/tr05_cont/data/feats_fmllr_tr05_cont.9.ark:76374545
018o0313 /scratch/ravanelm/exp/dirha/data-fmllr-tri4/tr05_cont/data/feats_fmllr_tr05_cont.1.ark:81811017
40ac020r /scratch/ravanelm/exp/dirha/data-fmllr-tri4/tr05_cont/data/feats_fmllr_tr05_cont.9.ark:3469433
01zc020g /scratch/ravanelm/exp/dirha/data-fmllr-tri4/tr05_cont/data/feats_fmllr_tr05_cont.4.ark:25387521
409c020w /scratch/ravanelm/exp/dirha/data-fmllr-tri4/tr05_cont/data/feats_fmllr_tr05_cont.8.ark:69138489
027c021a /scratch/ravanelm/exp/dirha/data-fmllr-tri4/tr05_cont/data/feats_fmllr_tr05_cont.5.ark:4934209
014o030n /scratch/ravanelm/exp/dirha/data-fmllr-tri4/tr05_cont/data/feats_fmllr_tr05_cont.1.ark:33603961
028c0212 /scratch/ravanelm/exp/dirha/data-fmllr-tri4/tr05_cont/data/feats_fmllr_tr05_cont.5.ark:16062817
01lc0206 /scratch/ravanelm/exp/dirha/data-fmllr-tri4/tr05_cont/data/feats_fmllr_tr05_cont.3.ark:671169
01ro030x /scratch/ravanelm/exp/dirha/data-fmllr-tri4/tr05_cont/data/feats_fmllr_tr05_cont.3.ark:61132697
20lc0101 /scratch/ravanelm/exp/dirha/data-fmllr-tri4/tr05_cont/data/feats_fmllr_tr05_cont.7.ark:11202113
20vo0105 /scratch/ravanelm/exp/dirha/data-fmllr-tri4/tr05_cont/data/feats_fmllr_tr05_cont.7.ark:66222913
011o030o /scratch/ravanelm/exp/dirha/data-fmllr-tri4/tr05_cont/data/feats_fmllr_tr05_cont.1.ark:9205921
018c0203 /scratch/ravanelm/exp/dirha/data-fmllr-tri4/tr05_cont/data/feats_fmllr_tr05_cont.1.ark:69930025
209o010e /scratch/ravanelm/exp/dirha/data-fmllr-tri4/tr05_cont/data/feats_fmllr_tr05_cont.6.ark:31274049
01qo0318 /scratch/ravanelm/exp/dirha/data-fmllr-tri4/tr05_cont/data/feats_fmllr_tr05_cont.3.ark:50497505
40po030d /scratch/ravanelm/exp/dirha/data-fmllr-tri4/tr05_cont/data/feats_fmllr_tr05_cont.10.ark:94237185
40ko030e /scratch/ravanelm/exp/dirha/data-fmllr-tri4/tr05_cont/data/feats_fmllr_tr05_cont.10.ark:43207033
406o030t /scratch/ravanelm/exp/dirha/data-fmllr-tri4/tr05_cont/data/feats_fmllr_tr05_cont.8.ark:40308761
408o030q /scratch/ravanelm/exp/dirha/data-fmllr-tri4/tr05_cont/data/feats_fmllr_tr05_cont.8.ark:63416553
019c020z /scratch/ravanelm/exp/dirha/data-fmllr-tri4/tr05_cont/data/feats_fmllr_tr05_cont.1.ark:86485193
40pc020r /scratch/ravanelm/exp/dirha/data-fmllr-tri4/tr05_cont/data/feats_fmllr_tr05_cont.10.ark:90271337
01ic0215 /scratch/ravanelm/exp/dirha/data-fmllr-tri4/tr05_cont/data/feats_fmllr_tr05_cont.2.ark:67290857
01qo030m /scratch/ravanelm/exp/dirha/data-fmllr-tri4/tr05_cont/data/feats_fmllr_tr05_cont.3.ark:47881617
407o0310 /scratch/ravanelm/exp/dirha/data-fmllr-tri4/tr05_cont/data/feats_fmllr_tr05_cont.8.ark:54392361
408c0212 /scratch/ravanelm/exp/dirha/data-fmllr-tri4/tr05_cont/data/feats_fmllr_tr05_cont.8.ark:59155249
01mo031c /scratch/ravanelm/exp/dirha/data-fmllr-tri4/tr05_cont/data/feats_fmllr_tr05_cont.3.ark:26245721
20vc0101 /scratch/ravanelm/exp/dirha/data-fmllr-tri4/tr05_cont/data/feats_fmllr_tr05_cont.7.ark:63329417
40bo030x /scratch/ravanelm/exp/dirha/data-fmllr-tri4/tr05_cont/data/feats_fmllr_tr05_cont.9.ark:22678849
01qo0301 /scratch/ravanelm/exp/dirha/data-fmllr-tri4/tr05_cont/data/feats_fmllr_tr05_cont.3.ark:44831353
20mc010h /scratch/ravanelm/exp/dirha/data-fmllr-tri4/tr05_cont/data/feats_fmllr_tr05_cont.7.ark:21024545
405o031e /scratch/ravanelm/exp/dirha/data-fmllr-tri4/tr05_cont/data/feats_fmllr_tr05_cont.8.ark:31684761
016c020g /scratch/ravanelm/exp/dirha/data-fmllr-tri4/tr05_cont/data/feats_fmllr_tr05_cont.1.ark:50209609
409o0319 /scratch/ravanelm/exp/dirha/data-fmllr-tri4/tr05_cont/data/feats_fmllr_tr05_cont.8.ark:76358609
407c020z /scratch/ravanelm/exp/dirha/data-fmllr-tri4/tr05_cont/data/feats_fmllr_tr05_cont.8.ark:46522081
20dc0107 /scratch/ravanelm/exp/dirha/data-fmllr-tri4/tr05_cont/data/feats_fmllr_tr05_cont.6.ark:53376985
405o0318 /scratch/ravanelm/exp/dirha/data-fmllr-tri4/tr05_cont/data/feats_fmllr_tr05_cont.8.ark:30983657
40lc0210 /scratch/ravanelm/exp/dirha/data-fmllr-tri4/tr05_cont/data/feats_fmllr_tr05_cont.10.ark:52354793
01ec020v /scratch/ravanelm/exp/dirha/data-fmllr-tri4/tr05_cont/data/feats_fmllr_tr05_cont.2.ark:29266617
409o030m /scratch/ravanelm/exp/dirha/data-fmllr-tri4/tr05_cont/data/feats_fmllr_tr05_cont.8.ark:73761577
401c020f /scratch/ravanelm/exp/dirha/data-fmllr-tri4/tr05_cont/data/feats_fmllr_tr05_cont.7.ark:70976737
01mc0206 /scratch/ravanelm/exp/dirha/data-fmllr-tri4/tr05_cont/data/feats_fmllr_tr05_cont.3.ark:15584449
01kc0214 /scratch/ravanelm/exp/dirha/data-fmllr-tri4/tr05_cont/data/feats_fmllr_tr05_cont.2.ark:94580297
408c0219 /scratch/ravanelm/exp/dirha/data-fmllr-tri4/tr05_cont/data/feats_fmllr_tr05_cont.8.ark:59796697
407o030n /scratch/ravanelm/exp/dirha/data-fmllr-tri4/tr05_cont/data/feats_fmllr_tr05_cont.8.ark:52231089
01mo030l /scratch/ravanelm/exp/dirha/data-fmllr-tri4/tr05_cont/data/feats_fmllr_tr05_cont.3.ark:22713233
401c021c /scratch/ravanelm/exp/dirha/data-fmllr-tri4/tr05_cont/data/feats_fmllr_tr05_cont.7.ark:74641369
40ho030u /scratch/ravanelm/exp/dirha/data-fmllr-tri4/tr05_cont/data/feats_fmllr_tr05_cont.10.ark:8733129
20ec0108 /scratch/ravanelm/exp/dirha/data-fmllr-tri4/tr05_cont/data/feats_fmllr_tr05_cont.6.ark:60689617
026o0315 /scratch/ravanelm/exp/dirha/data-fmllr-tri4/tr05_cont/data/feats_fmllr_tr05_cont.4.ark:78140337
406c020x /scratch/ravanelm/exp/dirha/data-fmllr-tri4/tr05_cont/data/feats_fmllr_tr05_cont.8.ark:34974833
01wo031b /scratch/ravanelm/exp/dirha/data-fmllr-tri4/tr05_cont/data/feats_fmllr_tr05_cont.4.ark:10941489
20oc010i /scratch/ravanelm/exp/dirha/data-fmllr-tri4/tr05_cont/data/feats_fmllr_tr05_cont.7.ark:34221969
40ic020y /scratch/ravanelm/exp/dirha/data-fmllr-tri4/tr05_cont/data/feats_fmllr_tr05_cont.10.ark:15324481
20dc010m /scratch/ravanelm/exp/dirha/data-fmllr-tri4/tr05_cont/data/feats_fmllr_tr05_cont.6.ark:55316545
01wo031d /scratch/ravanelm/exp/dirha/data-fmllr-tri4/tr05_cont/data/feats_fmllr_tr05_cont.4.ark:11170657
01ic020y /scratch/ravanelm/exp/dirha/data-fmllr-tri4/tr05_cont/data/feats_fmllr_tr05_cont.2.ark:66606209
205o010e /scratch/ravanelm/exp/dirha/data-fmllr-tri4/tr05_cont/data/feats_fmllr_tr05_cont.6.ark:4749081
40po030p /scratch/ravanelm/exp/dirha/data-fmllr-tri4/tr05_cont/data/feats_fmllr_tr05_cont.10.ark:96118113
40ac0207 /scratch/ravanelm/exp/dirha/data-fmllr-tri4/tr05_cont/data/feats_fmllr_tr05_cont.9.ark:910713
404o0311 /scratch/ravanelm/exp/dirha/data-fmllr-tri4/tr05_cont/data/feats_fmllr_tr05_cont.8.ark:19854209
01fo0307 /scratch/ravanelm/exp/dirha/data-fmllr-tri4/tr05_cont/data/feats_fmllr_tr05_cont.2.ark:44227081
40hc020i /scratch/ravanelm/exp/dirha/data-fmllr-tri4/tr05_cont/data/feats_fmllr_tr05_cont.10.ark:1587297
01to031c /scratch/ravanelm/exp/dirha/data-fmllr-tri4/tr05_cont/data/feats_fmllr_tr05_cont.3.ark:76045377
40ic0214 /scratch/ravanelm/exp/dirha/data-fmllr-tri4/tr05_cont/data/feats_fmllr_tr05_cont.10.ark:16003185
20qc010d /scratch/ravanelm/exp/dirha/data-fmllr-tri4/tr05_cont/data/feats_fmllr_tr05_cont.7.ark:45673897
40fc0219 /scratch/ravanelm/exp/dirha/data-fmllr-tri4/tr05_cont/data/feats_fmllr_tr05_cont.9.ark:61182713
01do0301 /scratch/ravanelm/exp/dirha/data-fmllr-tri4/tr05_cont/data/feats_fmllr_tr05_cont.2.ark:19626961
01lo031a /scratch/ravanelm/exp/dirha/data-fmllr-tri4/tr05_cont/data/feats_fmllr_tr05_cont.3.ark:14416393
011c0203 /scratch/ravanelm/exp/dirha/data-fmllr-tri4/tr05_cont/data/feats_fmllr_tr05_cont.1.ark:215257
028c0207 /scratch/ravanelm/exp/dirha/data-fmllr-tri4/tr05_cont/data/feats_fmllr_tr05_cont.5.ark:13036793
01wc020k /scratch/ravanelm/exp/dirha/data-fmllr-tri4/tr05_cont/data/feats_fmllr_tr05_cont.4.ark:2213585
01eo031c /scratch/ravanelm/exp/dirha/data-fmllr-tri4/tr05_cont/data/feats_fmllr_tr05_cont.2.ark:37529345
40ko030b /scratch/ravanelm/exp/dirha/data-fmllr-tri4/tr05_cont/data/feats_fmllr_tr05_cont.10.ark:42866161
01fc0205 /scratch/ravanelm/exp/dirha/data-fmllr-tri4/tr05_cont/data/feats_fmllr_tr05_cont.2.ark:38353945
01dc0203 /scratch/ravanelm/exp/dirha/data-fmllr-tri4/tr05_cont/data/feats_fmllr_tr05_cont.2.ark:14554585
40go0311 /scratch/ravanelm/exp/dirha/data-fmllr-tri4/tr05_cont/data/feats_fmllr_tr05_cont.9.ark:82275681
408o030g /scratch/ravanelm/exp/dirha/data-fmllr-tri4/tr05_cont/data/feats_fmllr_tr05_cont.8.ark:62167033
40kc020w /scratch/ravanelm/exp/dirha/data-fmllr-tri4/tr05_cont/data/feats_fmllr_tr05_cont.10.ark:39501577
40ho030p /scratch/ravanelm/exp/dirha/data-fmllr-tri4/tr05_cont/data/feats_fmllr_tr05_cont.10.ark:8101329
017o0303 /scratch/ravanelm/exp/dirha/data-fmllr-tri4/tr05_cont/data/feats_fmllr_tr05_cont.1.ark:63768025
40po0317 /scratch/ravanelm/exp/dirha/data-fmllr-tri4/tr05_cont/data/feats_fmllr_tr05_cont.10.ark:98392785
01wc020b /scratch/ravanelm/exp/dirha/data-fmllr-tri4/tr05_cont/data/feats_fmllr_tr05_cont.4.ark:1137689
011c0217 /scratch/ravanelm/exp/dirha/data-fmllr-tri4/tr05_cont/data/feats_fmllr_tr05_cont.1.ark:4685017
01dc0215 /scratch/ravanelm/exp/dirha/data-fmllr-tri4/tr05_cont/data/feats_fmllr_tr05_cont.2.ark:18333097
405c020l /scratch/ravanelm/exp/dirha/data-fmllr-tri4/tr05_cont/data/feats_fmllr_tr05_cont.8.ark:23303961
02ec0209 /scratch/ravanelm/exp/dirha/data-fmllr-tri4/tr05_cont/data/feats_fmllr_tr05_cont.5.ark:62834673
20co010j /scratch/ravanelm/exp/dirha/data-fmllr-tri4/tr05_cont/data/feats_fmllr_tr05_cont.6.ark:51810889
02cc021e /scratch/ravanelm/exp/dirha/data-fmllr-tri4/tr05_cont/data/feats_fmllr_tr05_cont.5.ark:54820113
207o0104 /scratch/ravanelm/exp/dirha/data-fmllr-tri4/tr05_cont/data/feats_fmllr_tr05_cont.6.ark:17010097
20fo0101 /scratch/ravanelm/exp/dirha/data-fmllr-tri4/tr05_cont/data/feats_fmllr_tr05_cont.6.ark:69277193
20qc010e /scratch/ravanelm/exp/dirha/data-fmllr-tri4/tr05_cont/data/feats_fmllr_tr05_cont.7.ark:45841921
029o030e /scratch/ravanelm/exp/dirha/data-fmllr-tri4/tr05_cont/data/feats_fmllr_tr05_cont.5.ark:32002049
01wc020q /scratch/ravanelm/exp/dirha/data-fmllr-tri4/tr05_cont/data/feats_fmllr_tr05_cont.4.ark:2973089
406o031b /scratch/ravanelm/exp/dirha/data-fmllr-tri4/tr05_cont/data/feats_fmllr_tr05_cont.8.ark:42680233
020o0301 /scratch/ravanelm/exp/dirha/data-fmllr-tri4/tr05_cont/data/feats_fmllr_tr05_cont.4.ark:41317737
011o030h /scratch/ravanelm/exp/dirha/data-fmllr-tri4/tr05_cont/data/feats_fmllr_tr05_cont.1.ark:7950233
019c0214 /scratch/ravanelm/exp/dirha/data-fmllr-tri4/tr05_cont/data/feats_fmllr_tr05_cont.1.ark:87126913
404c020j /scratch/ravanelm/exp/dirha/data-fmllr-tri4/tr05_cont/data/feats_fmllr_tr05_cont.8.ark:12339273
017o0312 /scratch/ravanelm/exp/dirha/data-fmllr-tri4/tr05_cont/data/feats_fmllr_tr05_cont.1.ark:68112385
20bc010o /scratch/ravanelm/exp/dirha/data-fmllr-tri4/tr05_cont/data/feats_fmllr_tr05_cont.6.ark:42184249
01yo0313 /scratch/ravanelm/exp/dirha/data-fmllr-tri4/tr05_cont/data/feats_fmllr_tr05_cont.4.ark:22318761
013o030z /scratch/ravanelm/exp/dirha/data-fmllr-tri4/tr05_cont/data/feats_fmllr_tr05_cont.1.ark:23814233
01zo030w /scratch/ravanelm/exp/dirha/data-fmllr-tri4/tr05_cont/data/feats_fmllr_tr05_cont.4.ark:34517929
40mc0206 /scratch/ravanelm/exp/dirha/data-fmllr-tri4/tr05_cont/data/feats_fmllr_tr05_cont.10.ark:63305985
017o030v /scratch/ravanelm/exp/dirha/data-fmllr-tri4/tr05_cont/data/feats_fmllr_tr05_cont.1.ark:67259737
01mo030h /scratch/ravanelm/exp/dirha/data-fmllr-tri4/tr05_cont/data/feats_fmllr_tr05_cont.3.ark:22359057
01bc0209 /scratch/ravanelm/exp/dirha/data-fmllr-tri4/tr05_cont/data/feats_fmllr_tr05_cont.2.ark:999673
40dc021g /scratch/ravanelm/exp/dirha/data-fmllr-tri4/tr05_cont/data/feats_fmllr_tr05_cont.9.ark:40259657
40go031b /scratch/ravanelm/exp/dirha/data-fmllr-tri4/tr05_cont/data/feats_fmllr_tr05_cont.9.ark:83999761
02eo030f /scratch/ravanelm/exp/dirha/data-fmllr-tri4/tr05_cont/data/feats_fmllr_tr05_cont.5.ark:70154257
01jc020z /scratch/ravanelm/exp/dirha/data-fmllr-tri4/tr05_cont/data/feats_fmllr_tr05_cont.2.ark:79795241
024o0312 /scratch/ravanelm/exp/dirha/data-fmllr-tri4/tr05_cont/data/feats_fmllr_tr05_cont.4.ark:66541793
40io031c /scratch/ravanelm/exp/dirha/data-fmllr-tri4/tr05_cont/data/feats_fmllr_tr05_cont.10.ark:23461561
029c0205 /scratch/ravanelm/exp/dirha/data-fmllr-tri4/tr05_cont/data/feats_fmllr_tr05_cont.5.ark:25148585
020o0308 /scratch/ravanelm/exp/dirha/data-fmllr-tri4/tr05_cont/data/feats_fmllr_tr05_cont.4.ark:41923001
017c0212 /scratch/ravanelm/exp/dirha/data-fmllr-tri4/tr05_cont/data/feats_fmllr_tr05_cont.1.ark:62020417
029o0315 /scratch/ravanelm/exp/dirha/data-fmllr-tri4/tr05_cont/data/feats_fmllr_tr05_cont.5.ark:35794217
01tc0203 /scratch/ravanelm/exp/dirha/data-fmllr-tri4/tr05_cont/data/feats_fmllr_tr05_cont.3.ark:63292513
02ec020w /scratch/ravanelm/exp/dirha/data-fmllr-tri4/tr05_cont/data/feats_fmllr_tr05_cont.5.ark:65623545
40go030z /scratch/ravanelm/exp/dirha/data-fmllr-tri4/tr05_cont/data/feats_fmllr_tr05_cont.9.ark:81826353
016o0302 /scratch/ravanelm/exp/dirha/data-fmllr-tri4/tr05_cont/data/feats_fmllr_tr05_cont.1.ark:53087657
01jo0301 /scratch/ravanelm/exp/dirha/data-fmllr-tri4/tr05_cont/data/feats_fmllr_tr05_cont.2.ark:82171513
01kc0206 /scratch/ravanelm/exp/dirha/data-fmllr-tri4/tr05_cont/data/feats_fmllr_tr05_cont.2.ark:90368625
40ao030z /scratch/ravanelm/exp/dirha/data-fmllr-tri4/tr05_cont/data/feats_fmllr_tr05_cont.9.ark:10350985
015c020g /scratch/ravanelm/exp/dirha/data-fmllr-tri4/tr05_cont/data/feats_fmllr_tr05_cont.1.ark:39142249
01yc020c /scratch/ravanelm/exp/dirha/data-fmllr-tri4/tr05_cont/data/feats_fmllr_tr05_cont.4.ark:12658945
01po0303 /scratch/ravanelm/exp/dirha/data-fmllr-tri4/tr05_cont/data/feats_fmllr_tr05_cont.3.ark:32960689
40ec0211 /scratch/ravanelm/exp/dirha/data-fmllr-tri4/tr05_cont/data/feats_fmllr_tr05_cont.9.ark:49181401
01eo031b /scratch/ravanelm/exp/dirha/data-fmllr-tri4/tr05_cont/data/feats_fmllr_tr05_cont.2.ark:37351881
02bc020e /scratch/ravanelm/exp/dirha/data-fmllr-tri4/tr05_cont/data/feats_fmllr_tr05_cont.5.ark:38655593
20no010p /scratch/ravanelm/exp/dirha/data-fmllr-tri4/tr05_cont/data/feats_fmllr_tr05_cont.7.ark:32126129
01jo0319 /scratch/ravanelm/exp/dirha/data-fmllr-tri4/tr05_cont/data/feats_fmllr_tr05_cont.2.ark:89093689
401c020u /scratch/ravanelm/exp/dirha/data-fmllr-tri4/tr05_cont/data/feats_fmllr_tr05_cont.7.ark:72446057
40nc020r /scratch/ravanelm/exp/dirha/data-fmllr-tri4/tr05_cont/data/feats_fmllr_tr05_cont.10.ark:77965553
01kc020o /scratch/ravanelm/exp/dirha/data-fmllr-tri4/tr05_cont/data/feats_fmllr_tr05_cont.2.ark:92469033
01to0314 /scratch/ravanelm/exp/dirha/data-fmllr-tri4/tr05_cont/data/feats_fmllr_tr05_cont.3.ark:74900545
405c020c /scratch/ravanelm/exp/dirha/data-fmllr-tri4/tr05_cont/data/feats_fmllr_tr05_cont.8.ark:22363105
024o0307 /scratch/ravanelm/exp/dirha/data-fmllr-tri4/tr05_cont/data/feats_fmllr_tr05_cont.4.ark:62893049
019c0218 /scratch/ravanelm/exp/dirha/data-fmllr-tri4/tr05_cont/data/feats_fmllr_tr05_cont.1.ark:87695489
20dc0108 /scratch/ravanelm/exp/dirha/data-fmllr-tri4/tr05_cont/data/feats_fmllr_tr05_cont.6.ark:53449329
406c020z /scratch/ravanelm/exp/dirha/data-fmllr-tri4/tr05_cont/data/feats_fmllr_tr05_cont.8.ark:35148961
40go0304 /scratch/ravanelm/exp/dirha/data-fmllr-tri4/tr05_cont/data/feats_fmllr_tr05_cont.9.ark:76631049
40lo030i /scratch/ravanelm/exp/dirha/data-fmllr-tri4/tr05_cont/data/feats_fmllr_tr05_cont.10.ark:56925825
40kc020z /scratch/ravanelm/exp/dirha/data-fmllr-tri4/tr05_cont/data/feats_fmllr_tr05_cont.10.ark:39869809
026c020z /scratch/ravanelm/exp/dirha/data-fmllr-tri4/tr05_cont/data/feats_fmllr_tr05_cont.4.ark:71296545
014c0215 /scratch/ravanelm/exp/dirha/data-fmllr-tri4/tr05_cont/data/feats_fmllr_tr05_cont.1.ark:29493681
017o030q /scratch/ravanelm/exp/dirha/data-fmllr-tri4/tr05_cont/data/feats_fmllr_tr05_cont.1.ark:66646017
206o010m /scratch/ravanelm/exp/dirha/data-fmllr-tri4/tr05_cont/data/feats_fmllr_tr05_cont.6.ark:12747249
02bc0202 /scratch/ravanelm/exp/dirha/data-fmllr-tri4/tr05_cont/data/feats_fmllr_tr05_cont.5.ark:37351785
208o0108 /scratch/ravanelm/exp/dirha/data-fmllr-tri4/tr05_cont/data/feats_fmllr_tr05_cont.6.ark:24476793
011o030v /scratch/ravanelm/exp/dirha/data-fmllr-tri4/tr05_cont/data/feats_fmllr_tr05_cont.1.ark:10119049
403o030z /scratch/ravanelm/exp/dirha/data-fmllr-tri4/tr05_cont/data/feats_fmllr_tr05_cont.8.ark:8980289
01lo030v /scratch/ravanelm/exp/dirha/data-fmllr-tri4/tr05_cont/data/feats_fmllr_tr05_cont.3.ark:11375073
01qc020c /scratch/ravanelm/exp/dirha/data-fmllr-tri4/tr05_cont/data/feats_fmllr_tr05_cont.3.ark:40802353
011c0205 /scratch/ravanelm/exp/dirha/data-fmllr-tri4/tr05_cont/data/feats_fmllr_tr05_cont.1.ark:458185
015o0312 /scratch/ravanelm/exp/dirha/data-fmllr-tri4/tr05_cont/data/feats_fmllr_tr05_cont.1.ark:47515593
014c020y /scratch/ravanelm/exp/dirha/data-fmllr-tri4/tr05_cont/data/feats_fmllr_tr05_cont.1.ark:28934473
40mo030s /scratch/ravanelm/exp/dirha/data-fmllr-tri4/tr05_cont/data/feats_fmllr_tr05_cont.10.ark:72107281
02bo0306 /scratch/ravanelm/exp/dirha/data-fmllr-tri4/tr05_cont/data/feats_fmllr_tr05_cont.5.ark:43472625
40kc020h /scratch/ravanelm/exp/dirha/data-fmllr-tri4/tr05_cont/data/feats_fmllr_tr05_cont.10.ark:37867297
01wo030v /scratch/ravanelm/exp/dirha/data-fmllr-tri4/tr05_cont/data/feats_fmllr_tr05_cont.4.ark:8881905
403c020j /scratch/ravanelm/exp/dirha/data-fmllr-tri4/tr05_cont/data/feats_fmllr_tr05_cont.8.ark:1544921
40fc021a /scratch/ravanelm/exp/dirha/data-fmllr-tri4/tr05_cont/data/feats_fmllr_tr05_cont.9.ark:61333297
02cc0205 /scratch/ravanelm/exp/dirha/data-fmllr-tri4/tr05_cont/data/feats_fmllr_tr05_cont.5.ark:50452545
015o030y /scratch/ravanelm/exp/dirha/data-fmllr-tri4/tr05_cont/data/feats_fmllr_tr05_cont.1.ark:46902857
20ao010a /scratch/ravanelm/exp/dirha/data-fmllr-tri4/tr05_cont/data/feats_fmllr_tr05_cont.6.ark:36875769
017o0301 /scratch/ravanelm/exp/dirha/data-fmllr-tri4/tr05_cont/data/feats_fmllr_tr05_cont.1.ark:63431657
013c020s /scratch/ravanelm/exp/dirha/data-fmllr-tri4/tr05_cont/data/feats_fmllr_tr05_cont.1.ark:17409641
013c0204 /scratch/ravanelm/exp/dirha/data-fmllr-tri4/tr05_cont/data/feats_fmllr_tr05_cont.1.ark:14392425
011o030j /scratch/ravanelm/exp/dirha/data-fmllr-tri4/tr05_cont/data/feats_fmllr_tr05_cont.1.ark:8425961
405c020u /scratch/ravanelm/exp/dirha/data-fmllr-tri4/tr05_cont/data/feats_fmllr_tr05_cont.8.ark:24071217
01qc0210 /scratch/ravanelm/exp/dirha/data-fmllr-tri4/tr05_cont/data/feats_fmllr_tr05_cont.3.ark:43100913
01lo030l /scratch/ravanelm/exp/dirha/data-fmllr-tri4/tr05_cont/data/feats_fmllr_tr05_cont.3.ark:10106513
01wc0207 /scratch/ravanelm/exp/dirha/data-fmllr-tri4/tr05_cont/data/feats_fmllr_tr05_cont.4.ark:620953
208c0102 /scratch/ravanelm/exp/dirha/data-fmllr-tri4/tr05_cont/data/feats_fmllr_tr05_cont.6.ark:20637969
028o030p /scratch/ravanelm/exp/dirha/data-fmllr-tri4/tr05_cont/data/feats_fmllr_tr05_cont.5.ark:21250129
207o010i /scratch/ravanelm/exp/dirha/data-fmllr-tri4/tr05_cont/data/feats_fmllr_tr05_cont.6.ark:18952513
029o0313 /scratch/ravanelm/exp/dirha/data-fmllr-tri4/tr05_cont/data/feats_fmllr_tr05_cont.5.ark:35522169
01pc021g /scratch/ravanelm/exp/dirha/data-fmllr-tri4/tr05_cont/data/feats_fmllr_tr05_cont.3.ark:32511817
20lc010b /scratch/ravanelm/exp/dirha/data-fmllr-tri4/tr05_cont/data/feats_fmllr_tr05_cont.7.ark:12573233
020o031d /scratch/ravanelm/exp/dirha/data-fmllr-tri4/tr05_cont/data/feats_fmllr_tr05_cont.4.ark:44859289
01jc020m /scratch/ravanelm/exp/dirha/data-fmllr-tri4/tr05_cont/data/feats_fmllr_tr05_cont.2.ark:78428209
40cc021e /scratch/ravanelm/exp/dirha/data-fmllr-tri4/tr05_cont/data/feats_fmllr_tr05_cont.9.ark:28990761
029c020p /scratch/ravanelm/exp/dirha/data-fmllr-tri4/tr05_cont/data/feats_fmllr_tr05_cont.5.ark:27371945
01zo0306 /scratch/ravanelm/exp/dirha/data-fmllr-tri4/tr05_cont/data/feats_fmllr_tr05_cont.4.ark:30265305
028o0306 /scratch/ravanelm/exp/dirha/data-fmllr-tri4/tr05_cont/data/feats_fmllr_tr05_cont.5.ark:18420393
016c0204 /scratch/ravanelm/exp/dirha/data-fmllr-tri4/tr05_cont/data/feats_fmllr_tr05_cont.1.ark:48927401
20no010h /scratch/ravanelm/exp/dirha/data-fmllr-tri4/tr05_cont/data/feats_fmllr_tr05_cont.7.ark:30885617
01go0317 /scratch/ravanelm/exp/dirha/data-fmllr-tri4/tr05_cont/data/feats_fmllr_tr05_cont.2.ark:61094297
40ac0203 /scratch/ravanelm/exp/dirha/data-fmllr-tri4/tr05_cont/data/feats_fmllr_tr05_cont.9.ark:425177
020o0316 /scratch/ravanelm/exp/dirha/data-fmllr-tri4/tr05_cont/data/feats_fmllr_tr05_cont.4.ark:44170985
02bo030r /scratch/ravanelm/exp/dirha/data-fmllr-tri4/tr05_cont/data/feats_fmllr_tr05_cont.5.ark:46546569
024o030u /scratch/ravanelm/exp/dirha/data-fmllr-tri4/tr05_cont/data/feats_fmllr_tr05_cont.4.ark:65400961
01fo030s /scratch/ravanelm/exp/dirha/data-fmllr-tri4/tr05_cont/data/feats_fmllr_tr05_cont.2.ark:47099105
40gc020y /scratch/ravanelm/exp/dirha/data-fmllr-tri4/tr05_cont/data/feats_fmllr_tr05_cont.9.ark:73112465
20eo010l /scratch/ravanelm/exp/dirha/data-fmllr-tri4/tr05_cont/data/feats_fmllr_tr05_cont.6.ark:65659145
01do030w /scratch/ravanelm/exp/dirha/data-fmllr-tri4/tr05_cont/data/feats_fmllr_tr05_cont.2.ark:23491497
403o030n /scratch/ravanelm/exp/dirha/data-fmllr-tri4/tr05_cont/data/feats_fmllr_tr05_cont.8.ark:7503841
409o030b /scratch/ravanelm/exp/dirha/data-fmllr-tri4/tr05_cont/data/feats_fmllr_tr05_cont.8.ark:72364193
01gc021c /scratch/ravanelm/exp/dirha/data-fmllr-tri4/tr05_cont/data/feats_fmllr_tr05_cont.2.ark:54951457
40do030l /scratch/ravanelm/exp/dirha/data-fmllr-tri4/tr05_cont/data/feats_fmllr_tr05_cont.9.ark:42696961
01uc020h /scratch/ravanelm/exp/dirha/data-fmllr-tri4/tr05_cont/data/feats_fmllr_tr05_cont.3.ark:78911001
017o030i /scratch/ravanelm/exp/dirha/data-fmllr-tri4/tr05_cont/data/feats_fmllr_tr05_cont.1.ark:65667105
409c020b /scratch/ravanelm/exp/dirha/data-fmllr-tri4/tr05_cont/data/feats_fmllr_tr05_cont.8.ark:66682305
20pc010l /scratch/ravanelm/exp/dirha/data-fmllr-tri4/tr05_cont/data/feats_fmllr_tr05_cont.7.ark:40382945
017o030o /scratch/ravanelm/exp/dirha/data-fmllr-tri4/tr05_cont/data/feats_fmllr_tr05_cont.1.ark:66408209
015c021d /scratch/ravanelm/exp/dirha/data-fmllr-tri4/tr05_cont/data/feats_fmllr_tr05_cont.1.ark:42190081
01ko0301 /scratch/ravanelm/exp/dirha/data-fmllr-tri4/tr05_cont/data/feats_fmllr_tr05_cont.2.ark:95899761
20gc010e /scratch/ravanelm/exp/dirha/data-fmllr-tri4/tr05_cont/data/feats_fmllr_tr05_cont.6.ark:73596505
026o030k /scratch/ravanelm/exp/dirha/data-fmllr-tri4/tr05_cont/data/feats_fmllr_tr05_cont.4.ark:75469273
40lc020d /scratch/ravanelm/exp/dirha/data-fmllr-tri4/tr05_cont/data/feats_fmllr_tr05_cont.10.ark:49587841
01fc020b /scratch/ravanelm/exp/dirha/data-fmllr-tri4/tr05_cont/data/feats_fmllr_tr05_cont.2.ark:39002089
01po030k /scratch/ravanelm/exp/dirha/data-fmllr-tri4/tr05_cont/data/feats_fmllr_tr05_cont.3.ark:35100113
01ko0302 /scratch/ravanelm/exp/dirha/data-fmllr-tri4/tr05_cont/data/feats_fmllr_tr05_cont.2.ark:96188425
408c021d /scratch/ravanelm/exp/dirha/data-fmllr-tri4/tr05_cont/data/feats_fmllr_tr05_cont.8.ark:60168793
405c020z /scratch/ravanelm/exp/dirha/data-fmllr-tri4/tr05_cont/data/feats_fmllr_tr05_cont.8.ark:24375017
01dc020u /scratch/ravanelm/exp/dirha/data-fmllr-tri4/tr05_cont/data/feats_fmllr_tr05_cont.2.ark:17226273
021o030s /scratch/ravanelm/exp/dirha/data-fmllr-tri4/tr05_cont/data/feats_fmllr_tr05_cont.4.ark:53745049
01uo031a /scratch/ravanelm/exp/dirha/data-fmllr-tri4/tr05_cont/data/feats_fmllr_tr05_cont.3.ark:90158681
40mc020k /scratch/ravanelm/exp/dirha/data-fmllr-tri4/tr05_cont/data/feats_fmllr_tr05_cont.10.ark:64741361
02bo0317 /scratch/ravanelm/exp/dirha/data-fmllr-tri4/tr05_cont/data/feats_fmllr_tr05_cont.5.ark:48815593
01bc020r /scratch/ravanelm/exp/dirha/data-fmllr-tri4/tr05_cont/data/feats_fmllr_tr05_cont.2.ark:3463121
02ec0211 /scratch/ravanelm/exp/dirha/data-fmllr-tri4/tr05_cont/data/feats_fmllr_tr05_cont.5.ark:66280785
018o031b /scratch/ravanelm/exp/dirha/data-fmllr-tri4/tr05_cont/data/feats_fmllr_tr05_cont.1.ark:83033609
01mc020q /scratch/ravanelm/exp/dirha/data-fmllr-tri4/tr05_cont/data/feats_fmllr_tr05_cont.3.ark:17627649
019o030i /scratch/ravanelm/exp/dirha/data-fmllr-tri4/tr05_cont/data/feats_fmllr_tr05_cont.1.ark:90851817
20io0106 /scratch/ravanelm/exp/dirha/data-fmllr-tri4/tr05_cont/data/feats_fmllr_tr05_cont.7.ark:8400649
01qc0201 /scratch/ravanelm/exp/dirha/data-fmllr-tri4/tr05_cont/data/feats_fmllr_tr05_cont.3.ark:39347849
407o030y /scratch/ravanelm/exp/dirha/data-fmllr-tri4/tr05_cont/data/feats_fmllr_tr05_cont.8.ark:54127353
024c020i /scratch/ravanelm/exp/dirha/data-fmllr-tri4/tr05_cont/data/feats_fmllr_tr05_cont.4.ark:58473553
206c010m /scratch/ravanelm/exp/dirha/data-fmllr-tri4/tr05_cont/data/feats_fmllr_tr05_cont.6.ark:9186081
024c020k /scratch/ravanelm/exp/dirha/data-fmllr-tri4/tr05_cont/data/feats_fmllr_tr05_cont.4.ark:58796001
029c021d /scratch/ravanelm/exp/dirha/data-fmllr-tri4/tr05_cont/data/feats_fmllr_tr05_cont.5.ark:29829321
20io010n /scratch/ravanelm/exp/dirha/data-fmllr-tri4/tr05_cont/data/feats_fmllr_tr05_cont.7.ark:10825697
028o030m /scratch/ravanelm/exp/dirha/data-fmllr-tri4/tr05_cont/data/feats_fmllr_tr05_cont.5.ark:20930857
40io030f /scratch/ravanelm/exp/dirha/data-fmllr-tri4/tr05_cont/data/feats_fmllr_tr05_cont.10.ark:19067329
016c020z /scratch/ravanelm/exp/dirha/data-fmllr-tri4/tr05_cont/data/feats_fmllr_tr05_cont.1.ark:51800281
406c021d /scratch/ravanelm/exp/dirha/data-fmllr-tri4/tr05_cont/data/feats_fmllr_tr05_cont.8.ark:36568817
028c0201 /scratch/ravanelm/exp/dirha/data-fmllr-tri4/tr05_cont/data/feats_fmllr_tr05_cont.5.ark:12539689
40nc020q /scratch/ravanelm/exp/dirha/data-fmllr-tri4/tr05_cont/data/feats_fmllr_tr05_cont.10.ark:77839449
409c020c /scratch/ravanelm/exp/dirha/data-fmllr-tri4/tr05_cont/data/feats_fmllr_tr05_cont.8.ark:66754809
01yc020f /scratch/ravanelm/exp/dirha/data-fmllr-tri4/tr05_cont/data/feats_fmllr_tr05_cont.4.ark:13053417
40ic020v /scratch/ravanelm/exp/dirha/data-fmllr-tri4/tr05_cont/data/feats_fmllr_tr05_cont.10.ark:15030169
011c020h /scratch/ravanelm/exp/dirha/data-fmllr-tri4/tr05_cont/data/feats_fmllr_tr05_cont.1.ark:1651593
024o030l /scratch/ravanelm/exp/dirha/data-fmllr-tri4/tr05_cont/data/feats_fmllr_tr05_cont.4.ark:64560265
20rc010k /scratch/ravanelm/exp/dirha/data-fmllr-tri4/tr05_cont/data/feats_fmllr_tr05_cont.7.ark:53230809
40eo0303 /scratch/ravanelm/exp/dirha/data-fmllr-tri4/tr05_cont/data/feats_fmllr_tr05_cont.9.ark:51120257
205o010c /scratch/ravanelm/exp/dirha/data-fmllr-tri4/tr05_cont/data/feats_fmllr_tr05_cont.6.ark:4310313
019o030d /scratch/ravanelm/exp/dirha/data-fmllr-tri4/tr05_cont/data/feats_fmllr_tr05_cont.1.ark:90101777
026o0313 /scratch/ravanelm/exp/dirha/data-fmllr-tri4/tr05_cont/data/feats_fmllr_tr05_cont.4.ark:77839009
019c021g /scratch/ravanelm/exp/dirha/data-fmllr-tri4/tr05_cont/data/feats_fmllr_tr05_cont.1.ark:88380961
013c020a /scratch/ravanelm/exp/dirha/data-fmllr-tri4/tr05_cont/data/feats_fmllr_tr05_cont.1.ark:15154329
40jc0202 /scratch/ravanelm/exp/dirha/data-fmllr-tri4/tr05_cont/data/feats_fmllr_tr05_cont.10.ark:23832993
019o030t /scratch/ravanelm/exp/dirha/data-fmllr-tri4/tr05_cont/data/feats_fmllr_tr05_cont.1.ark:92098641
40cc020m /scratch/ravanelm/exp/dirha/data-fmllr-tri4/tr05_cont/data/feats_fmllr_tr05_cont.9.ark:26556809
01io0311 /scratch/ravanelm/exp/dirha/data-fmllr-tri4/tr05_cont/data/feats_fmllr_tr05_cont.2.ark:74060465
401c021f /scratch/ravanelm/exp/dirha/data-fmllr-tri4/tr05_cont/data/feats_fmllr_tr05_cont.7.ark:74918561
40fc0213 /scratch/ravanelm/exp/dirha/data-fmllr-tri4/tr05_cont/data/feats_fmllr_tr05_cont.9.ark:60592809
011c0204 /scratch/ravanelm/exp/dirha/data-fmllr-tri4/tr05_cont/data/feats_fmllr_tr05_cont.1.ark:386321
409o0307 /scratch/ravanelm/exp/dirha/data-fmllr-tri4/tr05_cont/data/feats_fmllr_tr05_cont.8.ark:71959137
40dc020y /scratch/ravanelm/exp/dirha/data-fmllr-tri4/tr05_cont/data/feats_fmllr_tr05_cont.9.ark:38294905
017o030z /scratch/ravanelm/exp/dirha/data-fmllr-tri4/tr05_cont/data/feats_fmllr_tr05_cont.1.ark:67691673
204c0102 /scratch/ravanelm/exp/dirha/data-fmllr-tri4/tr05_cont/data/feats_fmllr_tr05_cont.5.ark:75477225
01kc0212 /scratch/ravanelm/exp/dirha/data-fmllr-tri4/tr05_cont/data/feats_fmllr_tr05_cont.2.ark:94307929
20ac010i /scratch/ravanelm/exp/dirha/data-fmllr-tri4/tr05_cont/data/feats_fmllr_tr05_cont.6.ark:34679865
40fo030f /scratch/ravanelm/exp/dirha/data-fmllr-tri4/tr05_cont/data/feats_fmllr_tr05_cont.9.ark:63757161
01po031c /scratch/ravanelm/exp/dirha/data-fmllr-tri4/tr05_cont/data/feats_fmllr_tr05_cont.3.ark:39235505
409c021d /scratch/ravanelm/exp/dirha/data-fmllr-tri4/tr05_cont/data/feats_fmllr_tr05_cont.8.ark:70837777
20mo0105 /scratch/ravanelm/exp/dirha/data-fmllr-tri4/tr05_cont/data/feats_fmllr_tr05_cont.7.ark:22527257
01yc020q /scratch/ravanelm/exp/dirha/data-fmllr-tri4/tr05_cont/data/feats_fmllr_tr05_cont.4.ark:14230961
01po0310 /scratch/ravanelm/exp/dirha/data-fmllr-tri4/tr05_cont/data/feats_fmllr_tr05_cont.3.ark:37551857
20eo010d /scratch/ravanelm/exp/dirha/data-fmllr-tri4/tr05_cont/data/feats_fmllr_tr05_cont.6.ark:64687113
405c0202 /scratch/ravanelm/exp/dirha/data-fmllr-tri4/tr05_cont/data/feats_fmllr_tr05_cont.8.ark:21298705
40lc021d /scratch/ravanelm/exp/dirha/data-fmllr-tri4/tr05_cont/data/feats_fmllr_tr05_cont.10.ark:54095265
01lc020a /scratch/ravanelm/exp/dirha/data-fmllr-tri4/tr05_cont/data/feats_fmllr_tr05_cont.3.ark:1245505
01pc020r /scratch/ravanelm/exp/dirha/data-fmllr-tri4/tr05_cont/data/feats_fmllr_tr05_cont.3.ark:29476657
016c020j /scratch/ravanelm/exp/dirha/data-fmllr-tri4/tr05_cont/data/feats_fmllr_tr05_cont.1.ark:50562481
01mc020o /scratch/ravanelm/exp/dirha/data-fmllr-tri4/tr05_cont/data/feats_fmllr_tr05_cont.3.ark:17369681
406c021a /scratch/ravanelm/exp/dirha/data-fmllr-tri4/tr05_cont/data/feats_fmllr_tr05_cont.8.ark:36404745
01lo030b /scratch/ravanelm/exp/dirha/data-fmllr-tri4/tr05_cont/data/feats_fmllr_tr05_cont.3.ark:8224673
013c021f /scratch/ravanelm/exp/dirha/data-fmllr-tri4/tr05_cont/data/feats_fmllr_tr05_cont.1.ark:19527153
01tc0215 /scratch/ravanelm/exp/dirha/data-fmllr-tri4/tr05_cont/data/feats_fmllr_tr05_cont.3.ark:68513585
013c020v /scratch/ravanelm/exp/dirha/data-fmllr-tri4/tr05_cont/data/feats_fmllr_tr05_cont.1.ark:17738673
01bc0214 /scratch/ravanelm/exp/dirha/data-fmllr-tri4/tr05_cont/data/feats_fmllr_tr05_cont.2.ark:4772369
014c0213 /scratch/ravanelm/exp/dirha/data-fmllr-tri4/tr05_cont/data/feats_fmllr_tr05_cont.1.ark:29340513
01lc0210 /scratch/ravanelm/exp/dirha/data-fmllr-tri4/tr05_cont/data/feats_fmllr_tr05_cont.3.ark:4358449
205c010l /scratch/ravanelm/exp/dirha/data-fmllr-tri4/tr05_cont/data/feats_fmllr_tr05_cont.6.ark:2183529
403c020u /scratch/ravanelm/exp/dirha/data-fmllr-tri4/tr05_cont/data/feats_fmllr_tr05_cont.8.ark:2510625
207o010q /scratch/ravanelm/exp/dirha/data-fmllr-tri4/tr05_cont/data/feats_fmllr_tr05_cont.6.ark:19972545
20pc010n /scratch/ravanelm/exp/dirha/data-fmllr-tri4/tr05_cont/data/feats_fmllr_tr05_cont.7.ark:40505873
01ic020g /scratch/ravanelm/exp/dirha/data-fmllr-tri4/tr05_cont/data/feats_fmllr_tr05_cont.2.ark:64638737
40dc0202 /scratch/ravanelm/exp/dirha/data-fmllr-tri4/tr05_cont/data/feats_fmllr_tr05_cont.9.ark:34431737
40dc020q /scratch/ravanelm/exp/dirha/data-fmllr-tri4/tr05_cont/data/feats_fmllr_tr05_cont.9.ark:37282553
029c0210 /scratch/ravanelm/exp/dirha/data-fmllr-tri4/tr05_cont/data/feats_fmllr_tr05_cont.5.ark:28602769
407o030t /scratch/ravanelm/exp/dirha/data-fmllr-tri4/tr05_cont/data/feats_fmllr_tr05_cont.8.ark:53228673
014o030t /scratch/ravanelm/exp/dirha/data-fmllr-tri4/tr05_cont/data/feats_fmllr_tr05_cont.1.ark:34605545
01lo0303 /scratch/ravanelm/exp/dirha/data-fmllr-tri4/tr05_cont/data/feats_fmllr_tr05_cont.3.ark:6852961
015c020o /scratch/ravanelm/exp/dirha/data-fmllr-tri4/tr05_cont/data/feats_fmllr_tr05_cont.1.ark:40030761
404o0315 /scratch/ravanelm/exp/dirha/data-fmllr-tri4/tr05_cont/data/feats_fmllr_tr05_cont.8.ark:20401985
01mo030k /scratch/ravanelm/exp/dirha/data-fmllr-tri4/tr05_cont/data/feats_fmllr_tr05_cont.3.ark:22640889
01wc0216 /scratch/ravanelm/exp/dirha/data-fmllr-tri4/tr05_cont/data/feats_fmllr_tr05_cont.4.ark:4476993
20oo0101 /scratch/ravanelm/exp/dirha/data-fmllr-tri4/tr05_cont/data/feats_fmllr_tr05_cont.7.ark:34850297
01go030a /scratch/ravanelm/exp/dirha/data-fmllr-tri4/tr05_cont/data/feats_fmllr_tr05_cont.2.ark:56603105
401o030z /scratch/ravanelm/exp/dirha/data-fmllr-tri4/tr05_cont/data/feats_fmllr_tr05_cont.7.ark:79963081
404c020g /scratch/ravanelm/exp/dirha/data-fmllr-tri4/tr05_cont/data/feats_fmllr_tr05_cont.8.ark:12026081
019c020p /scratch/ravanelm/exp/dirha/data-fmllr-tri4/tr05_cont/data/feats_fmllr_tr05_cont.1.ark:85581593
206o010d /scratch/ravanelm/exp/dirha/data-fmllr-tri4/tr05_cont/data/feats_fmllr_tr05_cont.6.ark:11181593
02bc020q /scratch/ravanelm/exp/dirha/data-fmllr-tri4/tr05_cont/data/feats_fmllr_tr05_cont.5.ark:39970921
014o0308 /scratch/ravanelm/exp/dirha/data-fmllr-tri4/tr05_cont/data/feats_fmllr_tr05_cont.1.ark:31698641
01bc0202 /scratch/ravanelm/exp/dirha/data-fmllr-tri4/tr05_cont/data/feats_fmllr_tr05_cont.2.ark:9
024c020s /scratch/ravanelm/exp/dirha/data-fmllr-tri4/tr05_cont/data/feats_fmllr_tr05_cont.4.ark:59500993
405o030d /scratch/ravanelm/exp/dirha/data-fmllr-tri4/tr05_cont/data/feats_fmllr_tr05_cont.8.ark:27320833
40bc020l /scratch/ravanelm/exp/dirha/data-fmllr-tri4/tr05_cont/data/feats_fmllr_tr05_cont.9.ark:14549793
407o030m /scratch/ravanelm/exp/dirha/data-fmllr-tri4/tr05_cont/data/feats_fmllr_tr05_cont.8.ark:52103065
01jo031a /scratch/ravanelm/exp/dirha/data-fmllr-tri4/tr05_cont/data/feats_fmllr_tr05_cont.2.ark:89250673
208c0108 /scratch/ravanelm/exp/dirha/data-fmllr-tri4/tr05_cont/data/feats_fmllr_tr05_cont.6.ark:21379553
021o0311 /scratch/ravanelm/exp/dirha/data-fmllr-tri4/tr05_cont/data/feats_fmllr_tr05_cont.4.ark:54696465
01ec0209 /scratch/ravanelm/exp/dirha/data-fmllr-tri4/tr05_cont/data/feats_fmllr_tr05_cont.2.ark:27041609
40po030x /scratch/ravanelm/exp/dirha/data-fmllr-tri4/tr05_cont/data/feats_fmllr_tr05_cont.10.ark:97189825
406o030p /scratch/ravanelm/exp/dirha/data-fmllr-tri4/tr05_cont/data/feats_fmllr_tr05_cont.8.ark:39725145
01wc020t /scratch/ravanelm/exp/dirha/data-fmllr-tri4/tr05_cont/data/feats_fmllr_tr05_cont.4.ark:3212681
20co010p /scratch/ravanelm/exp/dirha/data-fmllr-tri4/tr05_cont/data/feats_fmllr_tr05_cont.6.ark:52497433
01ro030s /scratch/ravanelm/exp/dirha/data-fmllr-tri4/tr05_cont/data/feats_fmllr_tr05_cont.3.ark:60595457
02bc020c /scratch/ravanelm/exp/dirha/data-fmllr-tri4/tr05_cont/data/feats_fmllr_tr05_cont.5.ark:38375385
016c020l /scratch/ravanelm/exp/dirha/data-fmllr-tri4/tr05_cont/data/feats_fmllr_tr05_cont.1.ark:50789089
01po0318 /scratch/ravanelm/exp/dirha/data-fmllr-tri4/tr05_cont/data/feats_fmllr_tr05_cont.3.ark:38664209
024o030z /scratch/ravanelm/exp/dirha/data-fmllr-tri4/tr05_cont/data/feats_fmllr_tr05_cont.4.ark:66071481
404o030i /scratch/ravanelm/exp/dirha/data-fmllr-tri4/tr05_cont/data/feats_fmllr_tr05_cont.8.ark:17595993
40fc021f /scratch/ravanelm/exp/dirha/data-fmllr-tri4/tr05_cont/data/feats_fmllr_tr05_cont.9.ark:61848297
01fc0211 /scratch/ravanelm/exp/dirha/data-fmllr-tri4/tr05_cont/data/feats_fmllr_tr05_cont.2.ark:41705113
40bc021c /scratch/ravanelm/exp/dirha/data-fmllr-tri4/tr05_cont/data/feats_fmllr_tr05_cont.9.ark:17475401
026c0207 /scratch/ravanelm/exp/dirha/data-fmllr-tri4/tr05_cont/data/feats_fmllr_tr05_cont.4.ark:68867873
011c0201 /scratch/ravanelm/exp/dirha/data-fmllr-tri4/tr05_cont/data/feats_fmllr_tr05_cont.1.ark:9
01po030b /scratch/ravanelm/exp/dirha/data-fmllr-tri4/tr05_cont/data/feats_fmllr_tr05_cont.3.ark:33972721
01uc0209 /scratch/ravanelm/exp/dirha/data-fmllr-tri4/tr05_cont/data/feats_fmllr_tr05_cont.3.ark:77917049
40eo0304 /scratch/ravanelm/exp/dirha/data-fmllr-tri4/tr05_cont/data/feats_fmllr_tr05_cont.9.ark:51247161
40ic020c /scratch/ravanelm/exp/dirha/data-fmllr-tri4/tr05_cont/data/feats_fmllr_tr05_cont.10.ark:12760113
405o030a /scratch/ravanelm/exp/dirha/data-fmllr-tri4/tr05_cont/data/feats_fmllr_tr05_cont.8.ark:26858521
01uo030x /scratch/ravanelm/exp/dirha/data-fmllr-tri4/tr05_cont/data/feats_fmllr_tr05_cont.3.ark:88038689
40lc0204 /scratch/ravanelm/exp/dirha/data-fmllr-tri4/tr05_cont/data/feats_fmllr_tr05_cont.10.ark:48586825
027o0301 /scratch/ravanelm/exp/dirha/data-fmllr-tri4/tr05_cont/data/feats_fmllr_tr05_cont.5.ark:5628801
40mo031c /scratch/ravanelm/exp/dirha/data-fmllr-tri4/tr05_cont/data/feats_fmllr_tr05_cont.10.ark:74602801
018o030m /scratch/ravanelm/exp/dirha/data-fmllr-tri4/tr05_cont/data/feats_fmllr_tr05_cont.1.ark:79030289
40mc020i /scratch/ravanelm/exp/dirha/data-fmllr-tri4/tr05_cont/data/feats_fmllr_tr05_cont.10.ark:64457153
01jc020f /scratch/ravanelm/exp/dirha/data-fmllr-tri4/tr05_cont/data/feats_fmllr_tr05_cont.2.ark:77622121
018c0202 /scratch/ravanelm/exp/dirha/data-fmllr-tri4/tr05_cont/data/feats_fmllr_tr05_cont.1.ark:69867761
029o0308 /scratch/ravanelm/exp/dirha/data-fmllr-tri4/tr05_cont/data/feats_fmllr_tr05_cont.5.ark:31290865
406c0205 /scratch/ravanelm/exp/dirha/data-fmllr-tri4/tr05_cont/data/feats_fmllr_tr05_cont.8.ark:32335785
01eo030a /scratch/ravanelm/exp/dirha/data-fmllr-tri4/tr05_cont/data/feats_fmllr_tr05_cont.2.ark:32747313
405o030o /scratch/ravanelm/exp/dirha/data-fmllr-tri4/tr05_cont/data/feats_fmllr_tr05_cont.8.ark:28687977
02ec0203 /scratch/ravanelm/exp/dirha/data-fmllr-tri4/tr05_cont/data/feats_fmllr_tr05_cont.5.ark:62118849
01do030o /scratch/ravanelm/exp/dirha/data-fmllr-tri4/tr05_cont/data/feats_fmllr_tr05_cont.2.ark:22445545
20lc010n /scratch/ravanelm/exp/dirha/data-fmllr-tri4/tr05_cont/data/feats_fmllr_tr05_cont.7.ark:14155921
40no0305 /scratch/ravanelm/exp/dirha/data-fmllr-tri4/tr05_cont/data/feats_fmllr_tr05_cont.10.ark:81537313
01rc0219 /scratch/ravanelm/exp/dirha/data-fmllr-tri4/tr05_cont/data/feats_fmllr_tr05_cont.3.ark:56512537
016o0315 /scratch/ravanelm/exp/dirha/data-fmllr-tri4/tr05_cont/data/feats_fmllr_tr05_cont.1.ark:57278305
01fo030a /scratch/ravanelm/exp/dirha/data-fmllr-tri4/tr05_cont/data/feats_fmllr_tr05_cont.2.ark:44812753
40jc020d /scratch/ravanelm/exp/dirha/data-fmllr-tri4/tr05_cont/data/feats_fmllr_tr05_cont.10.ark:24827977
01io030v /scratch/ravanelm/exp/dirha/data-fmllr-tri4/tr05_cont/data/feats_fmllr_tr05_cont.2.ark:73253601
20fc010p /scratch/ravanelm/exp/dirha/data-fmllr-tri4/tr05_cont/data/feats_fmllr_tr05_cont.6.ark:69151705
209o0104 /scratch/ravanelm/exp/dirha/data-fmllr-tri4/tr05_cont/data/feats_fmllr_tr05_cont.6.ark:30009489
40io030r /scratch/ravanelm/exp/dirha/data-fmllr-tri4/tr05_cont/data/feats_fmllr_tr05_cont.10.ark:20531457
015o030g /scratch/ravanelm/exp/dirha/data-fmllr-tri4/tr05_cont/data/feats_fmllr_tr05_cont.1.ark:44554425
017o030m /scratch/ravanelm/exp/dirha/data-fmllr-tri4/tr05_cont/data/feats_fmllr_tr05_cont.1.ark:66172961
40jc020g /scratch/ravanelm/exp/dirha/data-fmllr-tri4/tr05_cont/data/feats_fmllr_tr05_cont.10.ark:25143569
01pc0207 /scratch/ravanelm/exp/dirha/data-fmllr-tri4/tr05_cont/data/feats_fmllr_tr05_cont.3.ark:27247377
01eo030l /scratch/ravanelm/exp/dirha/data-fmllr-tri4/tr05_cont/data/feats_fmllr_tr05_cont.2.ark:34033817
407o030w /scratch/ravanelm/exp/dirha/data-fmllr-tri4/tr05_cont/data/feats_fmllr_tr05_cont.8.ark:53770505
01to030s /scratch/ravanelm/exp/dirha/data-fmllr-tri4/tr05_cont/data/feats_fmllr_tr05_cont.3.ark:73417217
019o030y /scratch/ravanelm/exp/dirha/data-fmllr-tri4/tr05_cont/data/feats_fmllr_tr05_cont.1.ark:92715881
01yo0318 /scratch/ravanelm/exp/dirha/data-fmllr-tri4/tr05_cont/data/feats_fmllr_tr05_cont.4.ark:22802561
013o030u /scratch/ravanelm/exp/dirha/data-fmllr-tri4/tr05_cont/data/feats_fmllr_tr05_cont.1.ark:23184673
01tc0206 /scratch/ravanelm/exp/dirha/data-fmllr-tri4/tr05_cont/data/feats_fmllr_tr05_cont.3.ark:63639945
40ho0317 /scratch/ravanelm/exp/dirha/data-fmllr-tri4/tr05_cont/data/feats_fmllr_tr05_cont.10.ark:10428001
409c020m /scratch/ravanelm/exp/dirha/data-fmllr-tri4/tr05_cont/data/feats_fmllr_tr05_cont.8.ark:67850729
40go0317 /scratch/ravanelm/exp/dirha/data-fmllr-tri4/tr05_cont/data/feats_fmllr_tr05_cont.9.ark:83372305
02eo0304 /scratch/ravanelm/exp/dirha/data-fmllr-tri4/tr05_cont/data/feats_fmllr_tr05_cont.5.ark:68586473
20gc0107 /scratch/ravanelm/exp/dirha/data-fmllr-tri4/tr05_cont/data/feats_fmllr_tr05_cont.6.ark:72913137
40jo030s /scratch/ravanelm/exp/dirha/data-fmllr-tri4/tr05_cont/data/feats_fmllr_tr05_cont.10.ark:32912257
027o0319 /scratch/ravanelm/exp/dirha/data-fmllr-tri4/tr05_cont/data/feats_fmllr_tr05_cont.5.ark:12297697
40lc020v /scratch/ravanelm/exp/dirha/data-fmllr-tri4/tr05_cont/data/feats_fmllr_tr05_cont.10.ark:51552753
403c021d /scratch/ravanelm/exp/dirha/data-fmllr-tri4/tr05_cont/data/feats_fmllr_tr05_cont.8.ark:4342281
01rc021d /scratch/ravanelm/exp/dirha/data-fmllr-tri4/tr05_cont/data/feats_fmllr_tr05_cont.3.ark:56880793
40mc020g /scratch/ravanelm/exp/dirha/data-fmllr-tri4/tr05_cont/data/feats_fmllr_tr05_cont.10.ark:64241105
02co030p /scratch/ravanelm/exp/dirha/data-fmllr-tri4/tr05_cont/data/feats_fmllr_tr05_cont.5.ark:57979137
02bo030o /scratch/ravanelm/exp/dirha/data-fmllr-tri4/tr05_cont/data/feats_fmllr_tr05_cont.5.ark:46000577
02cc020s /scratch/ravanelm/exp/dirha/data-fmllr-tri4/tr05_cont/data/feats_fmllr_tr05_cont.5.ark:52592913
014c0219 /scratch/ravanelm/exp/dirha/data-fmllr-tri4/tr05_cont/data/feats_fmllr_tr05_cont.1.ark:29827057
40mc020p /scratch/ravanelm/exp/dirha/data-fmllr-tri4/tr05_cont/data/feats_fmllr_tr05_cont.10.ark:65295081
01ro030h /scratch/ravanelm/exp/dirha/data-fmllr-tri4/tr05_cont/data/feats_fmllr_tr05_cont.3.ark:58940473
20nc010g /scratch/ravanelm/exp/dirha/data-fmllr-tri4/tr05_cont/data/feats_fmllr_tr05_cont.7.ark:26991873
01qo030u /scratch/ravanelm/exp/dirha/data-fmllr-tri4/tr05_cont/data/feats_fmllr_tr05_cont.3.ark:48834449
403c0208 /scratch/ravanelm/exp/dirha/data-fmllr-tri4/tr05_cont/data/feats_fmllr_tr05_cont.8.ark:567537
01lo0309 /scratch/ravanelm/exp/dirha/data-fmllr-tri4/tr05_cont/data/feats_fmllr_tr05_cont.3.ark:7813105
027o0302 /scratch/ravanelm/exp/dirha/data-fmllr-tri4/tr05_cont/data/feats_fmllr_tr05_cont.5.ark:5743225
40ec021f /scratch/ravanelm/exp/dirha/data-fmllr-tri4/tr05_cont/data/feats_fmllr_tr05_cont.9.ark:50460297
40go030i /scratch/ravanelm/exp/dirha/data-fmllr-tri4/tr05_cont/data/feats_fmllr_tr05_cont.9.ark:78740025
01jc020y /scratch/ravanelm/exp/dirha/data-fmllr-tri4/tr05_cont/data/feats_fmllr_tr05_cont.2.ark:79712337
01yo0304 /scratch/ravanelm/exp/dirha/data-fmllr-tri4/tr05_cont/data/feats_fmllr_tr05_cont.4.ark:17440481
016c020s /scratch/ravanelm/exp/dirha/data-fmllr-tri4/tr05_cont/data/feats_fmllr_tr05_cont.1.ark:51175313
408c020r /scratch/ravanelm/exp/dirha/data-fmllr-tri4/tr05_cont/data/feats_fmllr_tr05_cont.8.ark:58303329
027o0309 /scratch/ravanelm/exp/dirha/data-fmllr-tri4/tr05_cont/data/feats_fmllr_tr05_cont.5.ark:6804353
01fo031b /scratch/ravanelm/exp/dirha/data-fmllr-tri4/tr05_cont/data/feats_fmllr_tr05_cont.2.ark:49371881
20hc0104 /scratch/ravanelm/exp/dirha/data-fmllr-tri4/tr05_cont/data/feats_fmllr_tr05_cont.7.ark:208081
01eo0319 /scratch/ravanelm/exp/dirha/data-fmllr-tri4/tr05_cont/data/feats_fmllr_tr05_cont.2.ark:37037273
01bc020a /scratch/ravanelm/exp/dirha/data-fmllr-tri4/tr05_cont/data/feats_fmllr_tr05_cont.2.ark:1213137
206c010j /scratch/ravanelm/exp/dirha/data-fmllr-tri4/tr05_cont/data/feats_fmllr_tr05_cont.6.ark:8863449
01ic020i /scratch/ravanelm/exp/dirha/data-fmllr-tri4/tr05_cont/data/feats_fmllr_tr05_cont.2.ark:64883425
01wo0314 /scratch/ravanelm/exp/dirha/data-fmllr-tri4/tr05_cont/data/feats_fmllr_tr05_cont.4.ark:10177321
408c020g /scratch/ravanelm/exp/dirha/data-fmllr-tri4/tr05_cont/data/feats_fmllr_tr05_cont.8.ark:57280825
029o031d /scratch/ravanelm/exp/dirha/data-fmllr-tri4/tr05_cont/data/feats_fmllr_tr05_cont.5.ark:36823689
01to0307 /scratch/ravanelm/exp/dirha/data-fmllr-tri4/tr05_cont/data/feats_fmllr_tr05_cont.3.ark:70336553
20cc0108 /scratch/ravanelm/exp/dirha/data-fmllr-tri4/tr05_cont/data/feats_fmllr_tr05_cont.6.ark:47708289
407c020y /scratch/ravanelm/exp/dirha/data-fmllr-tri4/tr05_cont/data/feats_fmllr_tr05_cont.8.ark:46464777
20dc0109 /scratch/ravanelm/exp/dirha/data-fmllr-tri4/tr05_cont/data/feats_fmllr_tr05_cont.6.ark:53565833
20go010b /scratch/ravanelm/exp/dirha/data-fmllr-tri4/tr05_cont/data/feats_fmllr_tr05_cont.6.ark:75882105
020c0214 /scratch/ravanelm/exp/dirha/data-fmllr-tri4/tr05_cont/data/feats_fmllr_tr05_cont.4.ark:40532809
021o030h /scratch/ravanelm/exp/dirha/data-fmllr-tri4/tr05_cont/data/feats_fmllr_tr05_cont.4.ark:52213105
026c020n /scratch/ravanelm/exp/dirha/data-fmllr-tri4/tr05_cont/data/feats_fmllr_tr05_cont.4.ark:70304897
014o0317 /scratch/ravanelm/exp/dirha/data-fmllr-tri4/tr05_cont/data/feats_fmllr_tr05_cont.1.ark:36403801
02co0318 /scratch/ravanelm/exp/dirha/data-fmllr-tri4/tr05_cont/data/feats_fmllr_tr05_cont.5.ark:60507433
40jo0311 /scratch/ravanelm/exp/dirha/data-fmllr-tri4/tr05_cont/data/feats_fmllr_tr05_cont.10.ark:34115673
016o030j /scratch/ravanelm/exp/dirha/data-fmllr-tri4/tr05_cont/data/feats_fmllr_tr05_cont.1.ark:55009777
409c020l /scratch/ravanelm/exp/dirha/data-fmllr-tri4/tr05_cont/data/feats_fmllr_tr05_cont.8.ark:67743025
40io030x /scratch/ravanelm/exp/dirha/data-fmllr-tri4/tr05_cont/data/feats_fmllr_tr05_cont.10.ark:21238321
20tc0108 /scratch/ravanelm/exp/dirha/data-fmllr-tri4/tr05_cont/data/feats_fmllr_tr05_cont.7.ark:58624041
016c020k /scratch/ravanelm/exp/dirha/data-fmllr-tri4/tr05_cont/data/feats_fmllr_tr05_cont.1.ark:50691305
015o030a /scratch/ravanelm/exp/dirha/data-fmllr-tri4/tr05_cont/data/feats_fmllr_tr05_cont.1.ark:43748841
011o031e /scratch/ravanelm/exp/dirha/data-fmllr-tri4/tr05_cont/data/feats_fmllr_tr05_cont.1.ark:13671985
40fc020x /scratch/ravanelm/exp/dirha/data-fmllr-tri4/tr05_cont/data/feats_fmllr_tr05_cont.9.ark:59887225
014o030u /scratch/ravanelm/exp/dirha/data-fmllr-tri4/tr05_cont/data/feats_fmllr_tr05_cont.1.ark:34768929
40bo030o /scratch/ravanelm/exp/dirha/data-fmllr-tri4/tr05_cont/data/feats_fmllr_tr05_cont.9.ark:21309193
204c010m /scratch/ravanelm/exp/dirha/data-fmllr-tri4/tr05_cont/data/feats_fmllr_tr05_cont.5.ark:77097225
20nc010d /scratch/ravanelm/exp/dirha/data-fmllr-tri4/tr05_cont/data/feats_fmllr_tr05_cont.7.ark:26531641
01dc021b /scratch/ravanelm/exp/dirha/data-fmllr-tri4/tr05_cont/data/feats_fmllr_tr05_cont.2.ark:19128441
01uo0305 /scratch/ravanelm/exp/dirha/data-fmllr-tri4/tr05_cont/data/feats_fmllr_tr05_cont.3.ark:84032737
40ao030t /scratch/ravanelm/exp/dirha/data-fmllr-tri4/tr05_cont/data/feats_fmllr_tr05_cont.9.ark:9577241
028o030c /scratch/ravanelm/exp/dirha/data-fmllr-tri4/tr05_cont/data/feats_fmllr_tr05_cont.5.ark:19249177
01ec020x /scratch/ravanelm/exp/dirha/data-fmllr-tri4/tr05_cont/data/feats_fmllr_tr05_cont.2.ark:29518505
40ko030v /scratch/ravanelm/exp/dirha/data-fmllr-tri4/tr05_cont/data/feats_fmllr_tr05_cont.10.ark:45552561
01qo030a /scratch/ravanelm/exp/dirha/data-fmllr-tri4/tr05_cont/data/feats_fmllr_tr05_cont.3.ark:46042289
01zo030q /scratch/ravanelm/exp/dirha/data-fmllr-tri4/tr05_cont/data/feats_fmllr_tr05_cont.4.ark:33360985
026o030y /scratch/ravanelm/exp/dirha/data-fmllr-tri4/tr05_cont/data/feats_fmllr_tr05_cont.4.ark:77188329
403c020m /scratch/ravanelm/exp/dirha/data-fmllr-tri4/tr05_cont/data/feats_fmllr_tr05_cont.8.ark:1889313
404c020a /scratch/ravanelm/exp/dirha/data-fmllr-tri4/tr05_cont/data/feats_fmllr_tr05_cont.8.ark:11516337
01uc020e /scratch/ravanelm/exp/dirha/data-fmllr-tri4/tr05_cont/data/feats_fmllr_tr05_cont.3.ark:78576369
01ko0306 /scratch/ravanelm/exp/dirha/data-fmllr-tri4/tr05_cont/data/feats_fmllr_tr05_cont.2.ark:96869481
01po031a /scratch/ravanelm/exp/dirha/data-fmllr-tri4/tr05_cont/data/feats_fmllr_tr05_cont.3.ark:38881377
01rc020r /scratch/ravanelm/exp/dirha/data-fmllr-tri4/tr05_cont/data/feats_fmllr_tr05_cont.3.ark:54630345
407c020s /scratch/ravanelm/exp/dirha/data-fmllr-tri4/tr05_cont/data/feats_fmllr_tr05_cont.8.ark:45896153
013o030k /scratch/ravanelm/exp/dirha/data-fmllr-tri4/tr05_cont/data/feats_fmllr_tr05_cont.1.ark:21924593
02co030e /scratch/ravanelm/exp/dirha/data-fmllr-tri4/tr05_cont/data/feats_fmllr_tr05_cont.5.ark:56594553
01mo030z /scratch/ravanelm/exp/dirha/data-fmllr-tri4/tr05_cont/data/feats_fmllr_tr05_cont.3.ark:24580609
40go030m /scratch/ravanelm/exp/dirha/data-fmllr-tri4/tr05_cont/data/feats_fmllr_tr05_cont.9.ark:79291001
408c020o /scratch/ravanelm/exp/dirha/data-fmllr-tri4/tr05_cont/data/feats_fmllr_tr05_cont.8.ark:58009497
019o0303 /scratch/ravanelm/exp/dirha/data-fmllr-tri4/tr05_cont/data/feats_fmllr_tr05_cont.1.ark:88806177
01fc021d /scratch/ravanelm/exp/dirha/data-fmllr-tri4/tr05_cont/data/feats_fmllr_tr05_cont.2.ark:42998201
40lc020m /scratch/ravanelm/exp/dirha/data-fmllr-tri4/tr05_cont/data/feats_fmllr_tr05_cont.10.ark:50744377
01zo031d /scratch/ravanelm/exp/dirha/data-fmllr-tri4/tr05_cont/data/feats_fmllr_tr05_cont.4.ark:36922177
020c021a /scratch/ravanelm/exp/dirha/data-fmllr-tri4/tr05_cont/data/feats_fmllr_tr05_cont.4.ark:40920473
01kc020j /scratch/ravanelm/exp/dirha/data-fmllr-tri4/tr05_cont/data/feats_fmllr_tr05_cont.2.ark:92038033
015o030o /scratch/ravanelm/exp/dirha/data-fmllr-tri4/tr05_cont/data/feats_fmllr_tr05_cont.1.ark:45791577
02co030y /scratch/ravanelm/exp/dirha/data-fmllr-tri4/tr05_cont/data/feats_fmllr_tr05_cont.5.ark:59242393
20do0103 /scratch/ravanelm/exp/dirha/data-fmllr-tri4/tr05_cont/data/feats_fmllr_tr05_cont.6.ark:56129809
024c0203 /scratch/ravanelm/exp/dirha/data-fmllr-tri4/tr05_cont/data/feats_fmllr_tr05_cont.4.ark:56643433
01yo0314 /scratch/ravanelm/exp/dirha/data-fmllr-tri4/tr05_cont/data/feats_fmllr_tr05_cont.4.ark:22411105
406c020p /scratch/ravanelm/exp/dirha/data-fmllr-tri4/tr05_cont/data/feats_fmllr_tr05_cont.8.ark:34285361
029c021a /scratch/ravanelm/exp/dirha/data-fmllr-tri4/tr05_cont/data/feats_fmllr_tr05_cont.5.ark:29608129
01jc021e /scratch/ravanelm/exp/dirha/data-fmllr-tri4/tr05_cont/data/feats_fmllr_tr05_cont.2.ark:81770321
40ac020w /scratch/ravanelm/exp/dirha/data-fmllr-tri4/tr05_cont/data/feats_fmllr_tr05_cont.9.ark:4110513
40hc0209 /scratch/ravanelm/exp/dirha/data-fmllr-tri4/tr05_cont/data/feats_fmllr_tr05_cont.10.ark:777801
01ko0316 /scratch/ravanelm/exp/dirha/data-fmllr-tri4/tr05_cont/data/feats_fmllr_tr05_cont.2.ark:102583785
01go030m /scratch/ravanelm/exp/dirha/data-fmllr-tri4/tr05_cont/data/feats_fmllr_tr05_cont.2.ark:58243073
20dc0105 /scratch/ravanelm/exp/dirha/data-fmllr-tri4/tr05_cont/data/feats_fmllr_tr05_cont.6.ark:53250857
40ic020s /scratch/ravanelm/exp/dirha/data-fmllr-tri4/tr05_cont/data/feats_fmllr_tr05_cont.10.ark:14770737
01ro030n /scratch/ravanelm/exp/dirha/data-fmllr-tri4/tr05_cont/data/feats_fmllr_tr05_cont.3.ark:60010377
40ko030t /scratch/ravanelm/exp/dirha/data-fmllr-tri4/tr05_cont/data/feats_fmllr_tr05_cont.10.ark:45364033
01ic0216 /scratch/ravanelm/exp/dirha/data-fmllr-tri4/tr05_cont/data/feats_fmllr_tr05_cont.2.ark:67370561
40do030b /scratch/ravanelm/exp/dirha/data-fmllr-tri4/tr05_cont/data/feats_fmllr_tr05_cont.9.ark:41265361
01ko0311 /scratch/ravanelm/exp/dirha/data-fmllr-tri4/tr05_cont/data/feats_fmllr_tr05_cont.2.ark:101830545
027c020v /scratch/ravanelm/exp/dirha/data-fmllr-tri4/tr05_cont/data/feats_fmllr_tr05_cont.5.ark:3034489
40pc0201 /scratch/ravanelm/exp/dirha/data-fmllr-tri4/tr05_cont/data/feats_fmllr_tr05_cont.10.ark:88053593
01go030n /scratch/ravanelm/exp/dirha/data-fmllr-tri4/tr05_cont/data/feats_fmllr_tr05_cont.2.ark:58419257
01io0307 /scratch/ravanelm/exp/dirha/data-fmllr-tri4/tr05_cont/data/feats_fmllr_tr05_cont.2.ark:69426785
40po0314 /scratch/ravanelm/exp/dirha/data-fmllr-tri4/tr05_cont/data/feats_fmllr_tr05_cont.10.ark:98050153
029o030o /scratch/ravanelm/exp/dirha/data-fmllr-tri4/tr05_cont/data/feats_fmllr_tr05_cont.5.ark:33452049
209o010k /scratch/ravanelm/exp/dirha/data-fmllr-tri4/tr05_cont/data/feats_fmllr_tr05_cont.6.ark:32015633
01do0317 /scratch/ravanelm/exp/dirha/data-fmllr-tri4/tr05_cont/data/feats_fmllr_tr05_cont.2.ark:25011601
019o0309 /scratch/ravanelm/exp/dirha/data-fmllr-tri4/tr05_cont/data/feats_fmllr_tr05_cont.1.ark:89583121
01to030y /scratch/ravanelm/exp/dirha/data-fmllr-tri4/tr05_cont/data/feats_fmllr_tr05_cont.3.ark:74164401
40do030w /scratch/ravanelm/exp/dirha/data-fmllr-tri4/tr05_cont/data/feats_fmllr_tr05_cont.9.ark:43993065
404o030s /scratch/ravanelm/exp/dirha/data-fmllr-tri4/tr05_cont/data/feats_fmllr_tr05_cont.8.ark:18823273
019c0207 /scratch/ravanelm/exp/dirha/data-fmllr-tri4/tr05_cont/data/feats_fmllr_tr05_cont.1.ark:83987881
01gc020y /scratch/ravanelm/exp/dirha/data-fmllr-tri4/tr05_cont/data/feats_fmllr_tr05_cont.2.ark:53388401
02co030z /scratch/ravanelm/exp/dirha/data-fmllr-tri4/tr05_cont/data/feats_fmllr_tr05_cont.5.ark:59380337
20po010a /scratch/ravanelm/exp/dirha/data-fmllr-tri4/tr05_cont/data/feats_fmllr_tr05_cont.7.ark:41945521
017c0203 /scratch/ravanelm/exp/dirha/data-fmllr-tri4/tr05_cont/data/feats_fmllr_tr05_cont.1.ark:58781817
20pc0104 /scratch/ravanelm/exp/dirha/data-fmllr-tri4/tr05_cont/data/feats_fmllr_tr05_cont.7.ark:38630857
401c020i /scratch/ravanelm/exp/dirha/data-fmllr-tri4/tr05_cont/data/feats_fmllr_tr05_cont.7.ark:71315689
01qc020s /scratch/ravanelm/exp/dirha/data-fmllr-tri4/tr05_cont/data/feats_fmllr_tr05_cont.3.ark:42477089
40no030c /scratch/ravanelm/exp/dirha/data-fmllr-tri4/tr05_cont/data/feats_fmllr_tr05_cont.10.ark:82605321
02cc021b /scratch/ravanelm/exp/dirha/data-fmllr-tri4/tr05_cont/data/feats_fmllr_tr05_cont.5.ark:54574441
40bo0307 /scratch/ravanelm/exp/dirha/data-fmllr-tri4/tr05_cont/data/feats_fmllr_tr05_cont.9.ark:18927025
407o0303 /scratch/ravanelm/exp/dirha/data-fmllr-tri4/tr05_cont/data/feats_fmllr_tr05_cont.8.ark:49190929
017o030p /scratch/ravanelm/exp/dirha/data-fmllr-tri4/tr05_cont/data/feats_fmllr_tr05_cont.1.ark:66484713
01jc020g /scratch/ravanelm/exp/dirha/data-fmllr-tri4/tr05_cont/data/feats_fmllr_tr05_cont.2.ark:77665505
01po030i /scratch/ravanelm/exp/dirha/data-fmllr-tri4/tr05_cont/data/feats_fmllr_tr05_cont.3.ark:34807265
01ec0204 /scratch/ravanelm/exp/dirha/data-fmllr-tri4/tr05_cont/data/feats_fmllr_tr05_cont.2.ark:26442609
20io010j /scratch/ravanelm/exp/dirha/data-fmllr-tri4/tr05_cont/data/feats_fmllr_tr05_cont.7.ark:10366401
40io030z /scratch/ravanelm/exp/dirha/data-fmllr-tri4/tr05_cont/data/feats_fmllr_tr05_cont.10.ark:21566369
01mc0210 /scratch/ravanelm/exp/dirha/data-fmllr-tri4/tr05_cont/data/feats_fmllr_tr05_cont.3.ark:18679089
40jo030d /scratch/ravanelm/exp/dirha/data-fmllr-tri4/tr05_cont/data/feats_fmllr_tr05_cont.10.ark:30747577
029o030t /scratch/ravanelm/exp/dirha/data-fmllr-tri4/tr05_cont/data/feats_fmllr_tr05_cont.5.ark:34143049
20qo010j /scratch/ravanelm/exp/dirha/data-fmllr-tri4/tr05_cont/data/feats_fmllr_tr05_cont.7.ark:49972881
01wo031a /scratch/ravanelm/exp/dirha/data-fmllr-tri4/tr05_cont/data/feats_fmllr_tr05_cont.4.ark:10754905
01uo031c /scratch/ravanelm/exp/dirha/data-fmllr-tri4/tr05_cont/data/feats_fmllr_tr05_cont.3.ark:90377769
01yo030w /scratch/ravanelm/exp/dirha/data-fmllr-tri4/tr05_cont/data/feats_fmllr_tr05_cont.4.ark:21211233
01to030o /scratch/ravanelm/exp/dirha/data-fmllr-tri4/tr05_cont/data/feats_fmllr_tr05_cont.3.ark:72800801
204c010o /scratch/ravanelm/exp/dirha/data-fmllr-tri4/tr05_cont/data/feats_fmllr_tr05_cont.5.ark:77296313
021o0310 /scratch/ravanelm/exp/dirha/data-fmllr-tri4/tr05_cont/data/feats_fmllr_tr05_cont.4.ark:54648121
02eo031d /scratch/ravanelm/exp/dirha/data-fmllr-tri4/tr05_cont/data/feats_fmllr_tr05_cont.5.ark:74826065
01mc021b /scratch/ravanelm/exp/dirha/data-fmllr-tri4/tr05_cont/data/feats_fmllr_tr05_cont.3.ark:19694873
01bc0211 /scratch/ravanelm/exp/dirha/data-fmllr-tri4/tr05_cont/data/feats_fmllr_tr05_cont.2.ark:4354377
40ic020j /scratch/ravanelm/exp/dirha/data-fmllr-tri4/tr05_cont/data/feats_fmllr_tr05_cont.10.ark:13694361
20bc0103 /scratch/ravanelm/exp/dirha/data-fmllr-tri4/tr05_cont/data/feats_fmllr_tr05_cont.6.ark:40029185
20io0102 /scratch/ravanelm/exp/dirha/data-fmllr-tri4/tr05_cont/data/feats_fmllr_tr05_cont.7.ark:7824553
018c020q /scratch/ravanelm/exp/dirha/data-fmllr-tri4/tr05_cont/data/feats_fmllr_tr05_cont.1.ark:72520977
40lc020e /scratch/ravanelm/exp/dirha/data-fmllr-tri4/tr05_cont/data/feats_fmllr_tr05_cont.10.ark:49750745
401c020j /scratch/ravanelm/exp/dirha/data-fmllr-tri4/tr05_cont/data/feats_fmllr_tr05_cont.7.ark:71384513
20mc010b /scratch/ravanelm/exp/dirha/data-fmllr-tri4/tr05_cont/data/feats_fmllr_tr05_cont.7.ark:20474641
40jo031a /scratch/ravanelm/exp/dirha/data-fmllr-tri4/tr05_cont/data/feats_fmllr_tr05_cont.10.ark:35253489
01jo0311 /scratch/ravanelm/exp/dirha/data-fmllr-tri4/tr05_cont/data/feats_fmllr_tr05_cont.2.ark:87550137
40bc020q /scratch/ravanelm/exp/dirha/data-fmllr-tri4/tr05_cont/data/feats_fmllr_tr05_cont.9.ark:15005753
014o0318 /scratch/ravanelm/exp/dirha/data-fmllr-tri4/tr05_cont/data/feats_fmllr_tr05_cont.1.ark:36495505
40jc0218 /scratch/ravanelm/exp/dirha/data-fmllr-tri4/tr05_cont/data/feats_fmllr_tr05_cont.10.ark:28222641
407o030h /scratch/ravanelm/exp/dirha/data-fmllr-tri4/tr05_cont/data/feats_fmllr_tr05_cont.8.ark:51293505
01qc0211 /scratch/ravanelm/exp/dirha/data-fmllr-tri4/tr05_cont/data/feats_fmllr_tr05_cont.3.ark:43203017
011c0210 /scratch/ravanelm/exp/dirha/data-fmllr-tri4/tr05_cont/data/feats_fmllr_tr05_cont.1.ark:3893169
406c020m /scratch/ravanelm/exp/dirha/data-fmllr-tri4/tr05_cont/data/feats_fmllr_tr05_cont.8.ark:34107713
018c0215 /scratch/ravanelm/exp/dirha/data-fmllr-tri4/tr05_cont/data/feats_fmllr_tr05_cont.1.ark:74260217
01qc020p /scratch/ravanelm/exp/dirha/data-fmllr-tri4/tr05_cont/data/feats_fmllr_tr05_cont.3.ark:42330321
01kc0210 /scratch/ravanelm/exp/dirha/data-fmllr-tri4/tr05_cont/data/feats_fmllr_tr05_cont.2.ark:94117481
01kc020x /scratch/ravanelm/exp/dirha/data-fmllr-tri4/tr05_cont/data/feats_fmllr_tr05_cont.2.ark:93651809
40bc020a /scratch/ravanelm/exp/dirha/data-fmllr-tri4/tr05_cont/data/feats_fmllr_tr05_cont.9.ark:13382489
20fo010k /scratch/ravanelm/exp/dirha/data-fmllr-tri4/tr05_cont/data/feats_fmllr_tr05_cont.6.ark:71763089
015c0213 /scratch/ravanelm/exp/dirha/data-fmllr-tri4/tr05_cont/data/feats_fmllr_tr05_cont.1.ark:41354641
024c0208 /scratch/ravanelm/exp/dirha/data-fmllr-tri4/tr05_cont/data/feats_fmllr_tr05_cont.4.ark:57193313
01qc020f /scratch/ravanelm/exp/dirha/data-fmllr-tri4/tr05_cont/data/feats_fmllr_tr05_cont.3.ark:41220185
40ic020z /scratch/ravanelm/exp/dirha/data-fmllr-tri4/tr05_cont/data/feats_fmllr_tr05_cont.10.ark:15441945
016o030x /scratch/ravanelm/exp/dirha/data-fmllr-tri4/tr05_cont/data/feats_fmllr_tr05_cont.1.ark:56255713
40mo030a /scratch/ravanelm/exp/dirha/data-fmllr-tri4/tr05_cont/data/feats_fmllr_tr05_cont.10.ark:69594689
020o030v /scratch/ravanelm/exp/dirha/data-fmllr-tri4/tr05_cont/data/feats_fmllr_tr05_cont.4.ark:43352049
40cc0209 /scratch/ravanelm/exp/dirha/data-fmllr-tri4/tr05_cont/data/feats_fmllr_tr05_cont.9.ark:25362097
40mo0313 /scratch/ravanelm/exp/dirha/data-fmllr-tri4/tr05_cont/data/feats_fmllr_tr05_cont.10.ark:73560345
01ic020d /scratch/ravanelm/exp/dirha/data-fmllr-tri4/tr05_cont/data/feats_fmllr_tr05_cont.2.ark:64314185
011c020b /scratch/ravanelm/exp/dirha/data-fmllr-tri4/tr05_cont/data/feats_fmllr_tr05_cont.1.ark:1006009
01zc021f /scratch/ravanelm/exp/dirha/data-fmllr-tri4/tr05_cont/data/feats_fmllr_tr05_cont.4.ark:29392841
011c020k /scratch/ravanelm/exp/dirha/data-fmllr-tri4/tr05_cont/data/feats_fmllr_tr05_cont.1.ark:1945105
01gc0210 /scratch/ravanelm/exp/dirha/data-fmllr-tri4/tr05_cont/data/feats_fmllr_tr05_cont.2.ark:53571969
40mo0310 /scratch/ravanelm/exp/dirha/data-fmllr-tri4/tr05_cont/data/feats_fmllr_tr05_cont.10.ark:73139793
02bo0303 /scratch/ravanelm/exp/dirha/data-fmllr-tri4/tr05_cont/data/feats_fmllr_tr05_cont.5.ark:43057993
408o0307 /scratch/ravanelm/exp/dirha/data-fmllr-tri4/tr05_cont/data/feats_fmllr_tr05_cont.8.ark:61170497
016c020e /scratch/ravanelm/exp/dirha/data-fmllr-tri4/tr05_cont/data/feats_fmllr_tr05_cont.1.ark:50019801
403o030b /scratch/ravanelm/exp/dirha/data-fmllr-tri4/tr05_cont/data/feats_fmllr_tr05_cont.8.ark:6083233
405o0308 /scratch/ravanelm/exp/dirha/data-fmllr-tri4/tr05_cont/data/feats_fmllr_tr05_cont.8.ark:26669193
40ko030j /scratch/ravanelm/exp/dirha/data-fmllr-tri4/tr05_cont/data/feats_fmllr_tr05_cont.10.ark:43812753
01go031g /scratch/ravanelm/exp/dirha/data-fmllr-tri4/tr05_cont/data/feats_fmllr_tr05_cont.2.ark:62536273
405o030v /scratch/ravanelm/exp/dirha/data-fmllr-tri4/tr05_cont/data/feats_fmllr_tr05_cont.8.ark:29417745
01zo030t /scratch/ravanelm/exp/dirha/data-fmllr-tri4/tr05_cont/data/feats_fmllr_tr05_cont.4.ark:33956897
209c010n /scratch/ravanelm/exp/dirha/data-fmllr-tri4/tr05_cont/data/feats_fmllr_tr05_cont.6.ark:29216041
20go0108 /scratch/ravanelm/exp/dirha/data-fmllr-tri4/tr05_cont/data/feats_fmllr_tr05_cont.6.ark:75402033
40jo030m /scratch/ravanelm/exp/dirha/data-fmllr-tri4/tr05_cont/data/feats_fmllr_tr05_cont.10.ark:32100753
01lo0308 /scratch/ravanelm/exp/dirha/data-fmllr-tri4/tr05_cont/data/feats_fmllr_tr05_cont.3.ark:7639641
01kc020d /scratch/ravanelm/exp/dirha/data-fmllr-tri4/tr05_cont/data/feats_fmllr_tr05_cont.2.ark:91315513
026c020i /scratch/ravanelm/exp/dirha/data-fmllr-tri4/tr05_cont/data/feats_fmllr_tr05_cont.4.ark:69821417
20dc010g /scratch/ravanelm/exp/dirha/data-fmllr-tri4/tr05_cont/data/feats_fmllr_tr05_cont.6.ark:54448881
20eo0109 /scratch/ravanelm/exp/dirha/data-fmllr-tri4/tr05_cont/data/feats_fmllr_tr05_cont.6.ark:63983017
40ac0216 /scratch/ravanelm/exp/dirha/data-fmllr-tri4/tr05_cont/data/feats_fmllr_tr05_cont.9.ark:5138753
029c0204 /scratch/ravanelm/exp/dirha/data-fmllr-tri4/tr05_cont/data/feats_fmllr_tr05_cont.5.ark:25034001
02ec020t /scratch/ravanelm/exp/dirha/data-fmllr-tri4/tr05_cont/data/feats_fmllr_tr05_cont.5.ark:65318353
017c020v /scratch/ravanelm/exp/dirha/data-fmllr-tri4/tr05_cont/data/feats_fmllr_tr05_cont.1.ark:61307289
027c0216 /scratch/ravanelm/exp/dirha/data-fmllr-tri4/tr05_cont/data/feats_fmllr_tr05_cont.5.ark:4398593
401o0317 /scratch/ravanelm/exp/dirha/data-fmllr-tri4/tr05_cont/data/feats_fmllr_tr05_cont.7.ark:81170769
403o030f /scratch/ravanelm/exp/dirha/data-fmllr-tri4/tr05_cont/data/feats_fmllr_tr05_cont.8.ark:6685729
019o030v /scratch/ravanelm/exp/dirha/data-fmllr-tri4/tr05_cont/data/feats_fmllr_tr05_cont.1.ark:92379969
02co0312 /scratch/ravanelm/exp/dirha/data-fmllr-tri4/tr05_cont/data/feats_fmllr_tr05_cont.5.ark:59760089
019o0316 /scratch/ravanelm/exp/dirha/data-fmllr-tri4/tr05_cont/data/feats_fmllr_tr05_cont.1.ark:93596233
024c020w /scratch/ravanelm/exp/dirha/data-fmllr-tri4/tr05_cont/data/feats_fmllr_tr05_cont.4.ark:59914529
014c020c /scratch/ravanelm/exp/dirha/data-fmllr-tri4/tr05_cont/data/feats_fmllr_tr05_cont.1.ark:26919545
20oc010n /scratch/ravanelm/exp/dirha/data-fmllr-tri4/tr05_cont/data/feats_fmllr_tr05_cont.7.ark:34668809
02cc020d /scratch/ravanelm/exp/dirha/data-fmllr-tri4/tr05_cont/data/feats_fmllr_tr05_cont.5.ark:51294497
01jc020x /scratch/ravanelm/exp/dirha/data-fmllr-tri4/tr05_cont/data/feats_fmllr_tr05_cont.2.ark:79613753
021c020o /scratch/ravanelm/exp/dirha/data-fmllr-tri4/tr05_cont/data/feats_fmllr_tr05_cont.4.ark:47792689
013c020p /scratch/ravanelm/exp/dirha/data-fmllr-tri4/tr05_cont/data/feats_fmllr_tr05_cont.1.ark:17105409
01gc0215 /scratch/ravanelm/exp/dirha/data-fmllr-tri4/tr05_cont/data/feats_fmllr_tr05_cont.2.ark:54151609
408o030c /scratch/ravanelm/exp/dirha/data-fmllr-tri4/tr05_cont/data/feats_fmllr_tr05_cont.8.ark:61803577
01fo030j /scratch/ravanelm/exp/dirha/data-fmllr-tri4/tr05_cont/data/feats_fmllr_tr05_cont.2.ark:45968169
404c0216 /scratch/ravanelm/exp/dirha/data-fmllr-tri4/tr05_cont/data/feats_fmllr_tr05_cont.8.ark:14587345
01bc020m /scratch/ravanelm/exp/dirha/data-fmllr-tri4/tr05_cont/data/feats_fmllr_tr05_cont.2.ark:2575481
40hc0214 /scratch/ravanelm/exp/dirha/data-fmllr-tri4/tr05_cont/data/feats_fmllr_tr05_cont.10.ark:3846865
018c020j /scratch/ravanelm/exp/dirha/data-fmllr-tri4/tr05_cont/data/feats_fmllr_tr05_cont.1.ark:71785609
20rc010d /scratch/ravanelm/exp/dirha/data-fmllr-tri4/tr05_cont/data/feats_fmllr_tr05_cont.7.ark:52362481
40co030z /scratch/ravanelm/exp/dirha/data-fmllr-tri4/tr05_cont/data/feats_fmllr_tr05_cont.9.ark:32546481
