02bc020y /scratch/ravanelm/exp/dirha/fbank/raw_fbank_tr05_cont.2.ark:46933309
016c0216 /scratch/ravanelm/exp/dirha/fbank/raw_fbank_tr05_cont.1.ark:13215899
01mo030h /scratch/ravanelm/exp/dirha/fbank/raw_fbank_tr05_cont.1.ark:55895609
20eo010l /scratch/ravanelm/exp/dirha/fbank/raw_fbank_tr05_cont.3.ark:19024209
01bo030m /scratch/ravanelm/exp/dirha/fbank/raw_fbank_tr05_cont.1.ark:26342979
403c020t /scratch/ravanelm/exp/dirha/fbank/raw_fbank_tr05_cont.3.ark:43495269
01rc020i /scratch/ravanelm/exp/dirha/fbank/raw_fbank_tr05_cont.2.ark:7241539
018o030t /scratch/ravanelm/exp/dirha/fbank/raw_fbank_tr05_cont.1.ark:20238749
01po0319 /scratch/ravanelm/exp/dirha/fbank/raw_fbank_tr05_cont.2.ark:3505809
20to010n /scratch/ravanelm/exp/dirha/fbank/raw_fbank_tr05_cont.3.ark:38029999
206o010s /scratch/ravanelm/exp/dirha/fbank/raw_fbank_tr05_cont.3.ark:5908519
40lo0312 /scratch/ravanelm/exp/dirha/fbank/raw_fbank_tr05_cont.4.ark:44525629
40ao030n /scratch/ravanelm/exp/dirha/fbank/raw_fbank_tr05_cont.4.ark:9969469
40mc0207 /scratch/ravanelm/exp/dirha/fbank/raw_fbank_tr05_cont.4.ark:45172019
014o030j /scratch/ravanelm/exp/dirha/fbank/raw_fbank_tr05_cont.1.ark:8340349
40ic021d /scratch/ravanelm/exp/dirha/fbank/raw_fbank_tr05_cont.4.ark:33451839
20lc010a /scratch/ravanelm/exp/dirha/fbank/raw_fbank_tr05_cont.3.ark:25259149
40nc0207 /scratch/ravanelm/exp/dirha/fbank/raw_fbank_tr05_cont.4.ark:48210689
01uo030r /scratch/ravanelm/exp/dirha/fbank/raw_fbank_tr05_cont.2.ark:15700019
408c0206 /scratch/ravanelm/exp/dirha/fbank/raw_fbank_tr05_cont.4.ark:2519749
01mc0219 /scratch/ravanelm/exp/dirha/fbank/raw_fbank_tr05_cont.1.ark:55172639
401o0302 /scratch/ravanelm/exp/dirha/fbank/raw_fbank_tr05_cont.3.ark:41128219
20go010a /scratch/ravanelm/exp/dirha/fbank/raw_fbank_tr05_cont.3.ark:21568879
40bc020l /scratch/ravanelm/exp/dirha/fbank/raw_fbank_tr05_cont.4.ark:11452779
409c020b /scratch/ravanelm/exp/dirha/fbank/raw_fbank_tr05_cont.4.ark:5152979
20mc010c /scratch/ravanelm/exp/dirha/fbank/raw_fbank_tr05_cont.3.ark:27290849
017o0317 /scratch/ravanelm/exp/dirha/fbank/raw_fbank_tr05_cont.1.ark:17377869
028o030j /scratch/ravanelm/exp/dirha/fbank/raw_fbank_tr05_cont.2.ark:41787859
40bo030i /scratch/ravanelm/exp/dirha/fbank/raw_fbank_tr05_cont.4.ark:12966489
40ec020z /scratch/ravanelm/exp/dirha/fbank/raw_fbank_tr05_cont.4.ark:20170429
404c0219 /scratch/ravanelm/exp/dirha/fbank/raw_fbank_tr05_cont.3.ark:46639089
205c010o /scratch/ravanelm/exp/dirha/fbank/raw_fbank_tr05_cont.3.ark:3078419
01yo030h /scratch/ravanelm/exp/dirha/fbank/raw_fbank_tr05_cont.2.ark:21452319
205o010e /scratch/ravanelm/exp/dirha/fbank/raw_fbank_tr05_cont.3.ark:3636389
40lc020n /scratch/ravanelm/exp/dirha/fbank/raw_fbank_tr05_cont.4.ark:42011249
20bc010d /scratch/ravanelm/exp/dirha/fbank/raw_fbank_tr05_cont.3.ark:12771779
407c0217 /scratch/ravanelm/exp/dirha/fbank/raw_fbank_tr05_cont.4.ark:292139
408o0319 /scratch/ravanelm/exp/dirha/fbank/raw_fbank_tr05_cont.4.ark:4788479
01uo031d /scratch/ravanelm/exp/dirha/fbank/raw_fbank_tr05_cont.2.ark:16560239
029c0215 /scratch/ravanelm/exp/dirha/fbank/raw_fbank_tr05_cont.2.ark:43974589
20gc010g /scratch/ravanelm/exp/dirha/fbank/raw_fbank_tr05_cont.3.ark:21099249
01bc0205 /scratch/ravanelm/exp/dirha/fbank/raw_fbank_tr05_cont.1.ark:23900489
409c021a /scratch/ravanelm/exp/dirha/fbank/raw_fbank_tr05_cont.4.ark:6149549
40pc020z /scratch/ravanelm/exp/dirha/fbank/raw_fbank_tr05_cont.4.ark:52200159
01jo030x /scratch/ravanelm/exp/dirha/fbank/raw_fbank_tr05_cont.1.ark:45767489
403c0206 /scratch/ravanelm/exp/dirha/fbank/raw_fbank_tr05_cont.3.ark:43002019
407c0207 /scratch/ravanelm/exp/dirha/fbank/raw_fbank_tr05_cont.3.ark:53901979
40lo0302 /scratch/ravanelm/exp/dirha/fbank/raw_fbank_tr05_cont.4.ark:42956229
40ec020b /scratch/ravanelm/exp/dirha/fbank/raw_fbank_tr05_cont.4.ark:19645789
20mo010h /scratch/ravanelm/exp/dirha/fbank/raw_fbank_tr05_cont.3.ark:28140629
40ho0312 /scratch/ravanelm/exp/dirha/fbank/raw_fbank_tr05_cont.4.ark:31634039
017c020u /scratch/ravanelm/exp/dirha/fbank/raw_fbank_tr05_cont.1.ark:15487159
40nc0205 /scratch/ravanelm/exp/dirha/fbank/raw_fbank_tr05_cont.4.ark:48164949
01yc020d /scratch/ravanelm/exp/dirha/fbank/raw_fbank_tr05_cont.2.ark:19852599
01wo030m /scratch/ravanelm/exp/dirha/fbank/raw_fbank_tr05_cont.2.ark:18641469
01ro030t /scratch/ravanelm/exp/dirha/fbank/raw_fbank_tr05_cont.2.ark:9033829
40fc0203 /scratch/ravanelm/exp/dirha/fbank/raw_fbank_tr05_cont.4.ark:22076189
40gc020r /scratch/ravanelm/exp/dirha/fbank/raw_fbank_tr05_cont.4.ark:26033429
016o031b /scratch/ravanelm/exp/dirha/fbank/raw_fbank_tr05_cont.1.ark:14632219
20mc010j /scratch/ravanelm/exp/dirha/fbank/raw_fbank_tr05_cont.3.ark:27459139
40jc020c /scratch/ravanelm/exp/dirha/fbank/raw_fbank_tr05_cont.4.ark:35389009
01zo030j /scratch/ravanelm/exp/dirha/fbank/raw_fbank_tr05_cont.2.ark:24730789
204c010f /scratch/ravanelm/exp/dirha/fbank/raw_fbank_tr05_cont.3.ark:1340779
40go0318 /scratch/ravanelm/exp/dirha/fbank/raw_fbank_tr05_cont.4.ark:28899669
40pc0208 /scratch/ravanelm/exp/dirha/fbank/raw_fbank_tr05_cont.4.ark:51576749
40do030f /scratch/ravanelm/exp/dirha/fbank/raw_fbank_tr05_cont.4.ark:18346679
40po030n /scratch/ravanelm/exp/dirha/fbank/raw_fbank_tr05_cont.4.ark:53369249
40pc020a /scratch/ravanelm/exp/dirha/fbank/raw_fbank_tr05_cont.4.ark:51621769
40bc0208 /scratch/ravanelm/exp/dirha/fbank/raw_fbank_tr05_cont.4.ark:11089069
01yc0206 /scratch/ravanelm/exp/dirha/fbank/raw_fbank_tr05_cont.2.ark:19641109
40ko030z /scratch/ravanelm/exp/dirha/fbank/raw_fbank_tr05_cont.4.ark:40831969
01do0303 /scratch/ravanelm/exp/dirha/fbank/raw_fbank_tr05_cont.1.ark:28861459
021o030r /scratch/ravanelm/exp/dirha/fbank/raw_fbank_tr05_cont.2.ark:30201129
40fc0210 /scratch/ravanelm/exp/dirha/fbank/raw_fbank_tr05_cont.4.ark:23018939
20oo010d /scratch/ravanelm/exp/dirha/fbank/raw_fbank_tr05_cont.3.ark:31283149
018o030j /scratch/ravanelm/exp/dirha/fbank/raw_fbank_tr05_cont.1.ark:19861489
019o0307 /scratch/ravanelm/exp/dirha/fbank/raw_fbank_tr05_cont.1.ark:22609599
01eo031a /scratch/ravanelm/exp/dirha/fbank/raw_fbank_tr05_cont.1.ark:33212679
01wo030d /scratch/ravanelm/exp/dirha/fbank/raw_fbank_tr05_cont.2.ark:18345879
01fc020e /scratch/ravanelm/exp/dirha/fbank/raw_fbank_tr05_cont.1.ark:33787079
01go030n /scratch/ravanelm/exp/dirha/fbank/raw_fbank_tr05_cont.1.ark:38589049
017o030l /scratch/ravanelm/exp/dirha/fbank/raw_fbank_tr05_cont.1.ark:16699249
40no030o /scratch/ravanelm/exp/dirha/fbank/raw_fbank_tr05_cont.4.ark:50471479
20io010q /scratch/ravanelm/exp/dirha/fbank/raw_fbank_tr05_cont.3.ark:24902049
20rc010m /scratch/ravanelm/exp/dirha/fbank/raw_fbank_tr05_cont.3.ark:35616729
011c020a /scratch/ravanelm/exp/dirha/fbank/raw_fbank_tr05_cont.1.ark:224079
016c0217 /scratch/ravanelm/exp/dirha/fbank/raw_fbank_tr05_cont.1.ark:13236529
01jo030w /scratch/ravanelm/exp/dirha/fbank/raw_fbank_tr05_cont.1.ark:45734819
01rc020l /scratch/ravanelm/exp/dirha/fbank/raw_fbank_tr05_cont.2.ark:7320949
01ko030j /scratch/ravanelm/exp/dirha/fbank/raw_fbank_tr05_cont.1.ark:48834219
01ec020d /scratch/ravanelm/exp/dirha/fbank/raw_fbank_tr05_cont.1.ark:30757269
404o0301 /scratch/ravanelm/exp/dirha/fbank/raw_fbank_tr05_cont.3.ark:46806219
20cc0101 /scratch/ravanelm/exp/dirha/fbank/raw_fbank_tr05_cont.3.ark:14271269
027c0215 /scratch/ravanelm/exp/dirha/fbank/raw_fbank_tr05_cont.2.ark:37694949
01zc020f /scratch/ravanelm/exp/dirha/fbank/raw_fbank_tr05_cont.2.ark:23018299
01qc0210 /scratch/ravanelm/exp/dirha/fbank/raw_fbank_tr05_cont.2.ark:4591499
01ko0316 /scratch/ravanelm/exp/dirha/fbank/raw_fbank_tr05_cont.1.ark:49740949
20lo0107 /scratch/ravanelm/exp/dirha/fbank/raw_fbank_tr05_cont.3.ark:26064879
40lo0311 /scratch/ravanelm/exp/dirha/fbank/raw_fbank_tr05_cont.4.ark:44497799
206o010c /scratch/ravanelm/exp/dirha/fbank/raw_fbank_tr05_cont.3.ark:5198599
401o030m /scratch/ravanelm/exp/dirha/fbank/raw_fbank_tr05_cont.3.ark:41879819
406o030i /scratch/ravanelm/exp/dirha/fbank/raw_fbank_tr05_cont.3.ark:52682519
011c020l /scratch/ravanelm/exp/dirha/fbank/raw_fbank_tr05_cont.1.ark:531409
026o030b /scratch/ravanelm/exp/dirha/fbank/raw_fbank_tr05_cont.2.ark:35417769
409c020o /scratch/ravanelm/exp/dirha/fbank/raw_fbank_tr05_cont.4.ark:5512089
401o030u /scratch/ravanelm/exp/dirha/fbank/raw_fbank_tr05_cont.3.ark:42162819
024c0208 /scratch/ravanelm/exp/dirha/fbank/raw_fbank_tr05_cont.2.ark:31101889
01mc020z /scratch/ravanelm/exp/dirha/fbank/raw_fbank_tr05_cont.1.ark:54942259
017o030g /scratch/ravanelm/exp/dirha/fbank/raw_fbank_tr05_cont.1.ark:16521379
401o030o /scratch/ravanelm/exp/dirha/fbank/raw_fbank_tr05_cont.3.ark:41945879
01dc020q /scratch/ravanelm/exp/dirha/fbank/raw_fbank_tr05_cont.1.ark:28090099
018o030u /scratch/ravanelm/exp/dirha/fbank/raw_fbank_tr05_cont.1.ark:20289099
01ko030d /scratch/ravanelm/exp/dirha/fbank/raw_fbank_tr05_cont.1.ark:48580359
40mo031b /scratch/ravanelm/exp/dirha/fbank/raw_fbank_tr05_cont.4.ark:47960619
20no010f /scratch/ravanelm/exp/dirha/fbank/raw_fbank_tr05_cont.3.ark:29818959
01kc020s /scratch/ravanelm/exp/dirha/fbank/raw_fbank_tr05_cont.1.ark:47325109
01yo0305 /scratch/ravanelm/exp/dirha/fbank/raw_fbank_tr05_cont.2.ark:21059839
20qo010m /scratch/ravanelm/exp/dirha/fbank/raw_fbank_tr05_cont.3.ark:34825709
01ic0202 /scratch/ravanelm/exp/dirha/fbank/raw_fbank_tr05_cont.1.ark:39707299
01yc0207 /scratch/ravanelm/exp/dirha/fbank/raw_fbank_tr05_cont.2.ark:19667779
01ec021a /scratch/ravanelm/exp/dirha/fbank/raw_fbank_tr05_cont.1.ark:31722899
01ec020x /scratch/ravanelm/exp/dirha/fbank/raw_fbank_tr05_cont.1.ark:31281989
01bc020u /scratch/ravanelm/exp/dirha/fbank/raw_fbank_tr05_cont.1.ark:24808489
40do030g /scratch/ravanelm/exp/dirha/fbank/raw_fbank_tr05_cont.4.ark:18374909
40fc0218 /scratch/ravanelm/exp/dirha/fbank/raw_fbank_tr05_cont.4.ark:23239499
017o0308 /scratch/ravanelm/exp/dirha/fbank/raw_fbank_tr05_cont.1.ark:16297139
404o0318 /scratch/ravanelm/exp/dirha/fbank/raw_fbank_tr05_cont.3.ark:48100669
20bc010i /scratch/ravanelm/exp/dirha/fbank/raw_fbank_tr05_cont.3.ark:12930409
40co030u /scratch/ravanelm/exp/dirha/fbank/raw_fbank_tr05_cont.4.ark:15907289
029o0301 /scratch/ravanelm/exp/dirha/fbank/raw_fbank_tr05_cont.2.ark:44289509
01kc020z /scratch/ravanelm/exp/dirha/fbank/raw_fbank_tr05_cont.1.ark:47559279
02bo030k /scratch/ravanelm/exp/dirha/fbank/raw_fbank_tr05_cont.2.ark:48130499
01pc020k /scratch/ravanelm/exp/dirha/fbank/raw_fbank_tr05_cont.2.ark:963209
40nc0218 /scratch/ravanelm/exp/dirha/fbank/raw_fbank_tr05_cont.4.ark:49347759
013o0319 /scratch/ravanelm/exp/dirha/fbank/raw_fbank_tr05_cont.1.ark:6339009
20do0108 /scratch/ravanelm/exp/dirha/fbank/raw_fbank_tr05_cont.3.ark:16791569
017c0218 /scratch/ravanelm/exp/dirha/fbank/raw_fbank_tr05_cont.1.ark:15843539
40mo0319 /scratch/ravanelm/exp/dirha/fbank/raw_fbank_tr05_cont.4.ark:47894559
40bo0305 /scratch/ravanelm/exp/dirha/fbank/raw_fbank_tr05_cont.4.ark:12510419
20mo010q /scratch/ravanelm/exp/dirha/fbank/raw_fbank_tr05_cont.3.ark:28353939
40io0318 /scratch/ravanelm/exp/dirha/fbank/raw_fbank_tr05_cont.4.ark:34945819
021o0302 /scratch/ravanelm/exp/dirha/fbank/raw_fbank_tr05_cont.2.ark:29432979
01jc020l /scratch/ravanelm/exp/dirha/fbank/raw_fbank_tr05_cont.1.ark:43614889
204o0106 /scratch/ravanelm/exp/dirha/fbank/raw_fbank_tr05_cont.3.ark:1741339
40co0305 /scratch/ravanelm/exp/dirha/fbank/raw_fbank_tr05_cont.4.ark:15247099
020c021f /scratch/ravanelm/exp/dirha/fbank/raw_fbank_tr05_cont.2.ark:27060789
403o0314 /scratch/ravanelm/exp/dirha/fbank/raw_fbank_tr05_cont.3.ark:45315849
021c020t /scratch/ravanelm/exp/dirha/fbank/raw_fbank_tr05_cont.2.ark:28879059
204c010c /scratch/ravanelm/exp/dirha/fbank/raw_fbank_tr05_cont.3.ark:1281969
20nc010p /scratch/ravanelm/exp/dirha/fbank/raw_fbank_tr05_cont.3.ark:29222269
01yc021c /scratch/ravanelm/exp/dirha/fbank/raw_fbank_tr05_cont.2.ark:20814809
40mc0206 /scratch/ravanelm/exp/dirha/fbank/raw_fbank_tr05_cont.4.ark:45149229
40kc020l /scratch/ravanelm/exp/dirha/fbank/raw_fbank_tr05_cont.4.ark:38839629
01ro030b /scratch/ravanelm/exp/dirha/fbank/raw_fbank_tr05_cont.2.ark:8407409
40io030u /scratch/ravanelm/exp/dirha/fbank/raw_fbank_tr05_cont.4.ark:34434959
40io031b /scratch/ravanelm/exp/dirha/fbank/raw_fbank_tr05_cont.4.ark:35038949
40go031d /scratch/ravanelm/exp/dirha/fbank/raw_fbank_tr05_cont.4.ark:29065659
01lc0212 /scratch/ravanelm/exp/dirha/fbank/raw_fbank_tr05_cont.1.ark:51397949
01yo030d /scratch/ravanelm/exp/dirha/fbank/raw_fbank_tr05_cont.2.ark:21329319
20qc0107 /scratch/ravanelm/exp/dirha/fbank/raw_fbank_tr05_cont.3.ark:33460429
404o030k /scratch/ravanelm/exp/dirha/fbank/raw_fbank_tr05_cont.3.ark:47396829
01uo030c /scratch/ravanelm/exp/dirha/fbank/raw_fbank_tr05_cont.2.ark:15166169
40fo0314 /scratch/ravanelm/exp/dirha/fbank/raw_fbank_tr05_cont.4.ark:24710699
011c021c /scratch/ravanelm/exp/dirha/fbank/raw_fbank_tr05_cont.1.ark:1323779
40cc020n /scratch/ravanelm/exp/dirha/fbank/raw_fbank_tr05_cont.4.ark:14503579
01ec0212 /scratch/ravanelm/exp/dirha/fbank/raw_fbank_tr05_cont.1.ark:31457219
026c021a /scratch/ravanelm/exp/dirha/fbank/raw_fbank_tr05_cont.2.ark:34957179
20cc010j /scratch/ravanelm/exp/dirha/fbank/raw_fbank_tr05_cont.3.ark:14779809
01bo0303 /scratch/ravanelm/exp/dirha/fbank/raw_fbank_tr05_cont.1.ark:25528559
40io030s /scratch/ravanelm/exp/dirha/fbank/raw_fbank_tr05_cont.4.ark:34377139
40hc020c /scratch/ravanelm/exp/dirha/fbank/raw_fbank_tr05_cont.4.ark:29436889
207c0109 /scratch/ravanelm/exp/dirha/fbank/raw_fbank_tr05_cont.3.ark:6144629
011c020h /scratch/ravanelm/exp/dirha/fbank/raw_fbank_tr05_cont.1.ark:418409
013o0301 /scratch/ravanelm/exp/dirha/fbank/raw_fbank_tr05_cont.1.ark:4965849
01io030m /scratch/ravanelm/exp/dirha/fbank/raw_fbank_tr05_cont.1.ark:41980469
015o030a /scratch/ravanelm/exp/dirha/fbank/raw_fbank_tr05_cont.1.ark:11063809
01yc020o /scratch/ravanelm/exp/dirha/fbank/raw_fbank_tr05_cont.2.ark:20181889
403o030h /scratch/ravanelm/exp/dirha/fbank/raw_fbank_tr05_cont.3.ark:44604959
40no030w /scratch/ravanelm/exp/dirha/fbank/raw_fbank_tr05_cont.4.ark:50701639
021c020h /scratch/ravanelm/exp/dirha/fbank/raw_fbank_tr05_cont.2.ark:28485739
40fo030b /scratch/ravanelm/exp/dirha/fbank/raw_fbank_tr05_cont.4.ark:23802949
017o0301 /scratch/ravanelm/exp/dirha/fbank/raw_fbank_tr05_cont.1.ark:16047809
40ao030h /scratch/ravanelm/exp/dirha/fbank/raw_fbank_tr05_cont.4.ark:9817329
021o0308 /scratch/ravanelm/exp/dirha/fbank/raw_fbank_tr05_cont.2.ark:29579319
01tc020x /scratch/ravanelm/exp/dirha/fbank/raw_fbank_tr05_cont.2.ark:10747379
026o0313 /scratch/ravanelm/exp/dirha/fbank/raw_fbank_tr05_cont.2.ark:36326609
40jo0313 /scratch/ravanelm/exp/dirha/fbank/raw_fbank_tr05_cont.4.ark:37804239
01po030t /scratch/ravanelm/exp/dirha/fbank/raw_fbank_tr05_cont.2.ark:2916889
206o010r /scratch/ravanelm/exp/dirha/fbank/raw_fbank_tr05_cont.3.ark:5882089
40ko0314 /scratch/ravanelm/exp/dirha/fbank/raw_fbank_tr05_cont.4.ark:41019799
01fc020p /scratch/ravanelm/exp/dirha/fbank/raw_fbank_tr05_cont.1.ark:34020409
409c0201 /scratch/ravanelm/exp/dirha/fbank/raw_fbank_tr05_cont.4.ark:4868519
01zo0309 /scratch/ravanelm/exp/dirha/fbank/raw_fbank_tr05_cont.2.ark:24365609
01bo030y /scratch/ravanelm/exp/dirha/fbank/raw_fbank_tr05_cont.1.ark:26831539
01lc020m /scratch/ravanelm/exp/dirha/fbank/raw_fbank_tr05_cont.1.ark:50989389
02bo0316 /scratch/ravanelm/exp/dirha/fbank/raw_fbank_tr05_cont.2.ark:48920479
40mc0210 /scratch/ravanelm/exp/dirha/fbank/raw_fbank_tr05_cont.4.ark:45913289
40jo031c /scratch/ravanelm/exp/dirha/fbank/raw_fbank_tr05_cont.4.ark:38123029
40jc0217 /scratch/ravanelm/exp/dirha/fbank/raw_fbank_tr05_cont.4.ark:36262459
01zo030z /scratch/ravanelm/exp/dirha/fbank/raw_fbank_tr05_cont.2.ark:25509109
40bo030h /scratch/ravanelm/exp/dirha/fbank/raw_fbank_tr05_cont.4.ark:12935099
018o030z /scratch/ravanelm/exp/dirha/fbank/raw_fbank_tr05_cont.1.ark:20493729
40mo030f /scratch/ravanelm/exp/dirha/fbank/raw_fbank_tr05_cont.4.ark:46897579
01gc020n /scratch/ravanelm/exp/dirha/fbank/raw_fbank_tr05_cont.1.ark:37036069
01fo0308 /scratch/ravanelm/exp/dirha/fbank/raw_fbank_tr05_cont.1.ark:35053819
01ro0317 /scratch/ravanelm/exp/dirha/fbank/raw_fbank_tr05_cont.2.ark:9445569
20fc010b /scratch/ravanelm/exp/dirha/fbank/raw_fbank_tr05_cont.3.ark:19555009
20io010n /scratch/ravanelm/exp/dirha/fbank/raw_fbank_tr05_cont.3.ark:24840039
40lo030o /scratch/ravanelm/exp/dirha/fbank/raw_fbank_tr05_cont.4.ark:43828289
01wo031c /scratch/ravanelm/exp/dirha/fbank/raw_fbank_tr05_cont.2.ark:19438139
208o010j /scratch/ravanelm/exp/dirha/fbank/raw_fbank_tr05_cont.3.ark:8961239
014c020m /scratch/ravanelm/exp/dirha/fbank/raw_fbank_tr05_cont.1.ark:7023809
20to010f /scratch/ravanelm/exp/dirha/fbank/raw_fbank_tr05_cont.3.ark:37769919
20qc0104 /scratch/ravanelm/exp/dirha/fbank/raw_fbank_tr05_cont.3.ark:33327459
20lo010e /scratch/ravanelm/exp/dirha/fbank/raw_fbank_tr05_cont.3.ark:26438209
014o031a /scratch/ravanelm/exp/dirha/fbank/raw_fbank_tr05_cont.1.ark:9290519
401o030l /scratch/ravanelm/exp/dirha/fbank/raw_fbank_tr05_cont.3.ark:41856309
024c0209 /scratch/ravanelm/exp/dirha/fbank/raw_fbank_tr05_cont.2.ark:31147039
026o030h /scratch/ravanelm/exp/dirha/fbank/raw_fbank_tr05_cont.2.ark:35611109
20eo0102 /scratch/ravanelm/exp/dirha/fbank/raw_fbank_tr05_cont.3.ark:18311959
40nc020m /scratch/ravanelm/exp/dirha/fbank/raw_fbank_tr05_cont.4.ark:48706739
01ko030h /scratch/ravanelm/exp/dirha/fbank/raw_fbank_tr05_cont.1.ark:48781599
208o010b /scratch/ravanelm/exp/dirha/fbank/raw_fbank_tr05_cont.3.ark:8710759
01pc0215 /scratch/ravanelm/exp/dirha/fbank/raw_fbank_tr05_cont.2.ark:1561399
208o0109 /scratch/ravanelm/exp/dirha/fbank/raw_fbank_tr05_cont.3.ark:8638939
40no030y /scratch/ravanelm/exp/dirha/fbank/raw_fbank_tr05_cont.4.ark:50761219
40kc0211 /scratch/ravanelm/exp/dirha/fbank/raw_fbank_tr05_cont.4.ark:39264189
027o030z /scratch/ravanelm/exp/dirha/fbank/raw_fbank_tr05_cont.2.ark:39360359
01yo030w /scratch/ravanelm/exp/dirha/fbank/raw_fbank_tr05_cont.2.ark:21996289
028c0212 /scratch/ravanelm/exp/dirha/fbank/raw_fbank_tr05_cont.2.ark:40683099
20po0104 /scratch/ravanelm/exp/dirha/fbank/raw_fbank_tr05_cont.3.ark:32540359
206c010d /scratch/ravanelm/exp/dirha/fbank/raw_fbank_tr05_cont.3.ark:4502849
01wc021e /scratch/ravanelm/exp/dirha/fbank/raw_fbank_tr05_cont.2.ark:17929219
01fo030w /scratch/ravanelm/exp/dirha/fbank/raw_fbank_tr05_cont.1.ark:35824539
01yc020j /scratch/ravanelm/exp/dirha/fbank/raw_fbank_tr05_cont.2.ark:20035059
017o0310 /scratch/ravanelm/exp/dirha/fbank/raw_fbank_tr05_cont.1.ark:17162219
40jc020q /scratch/ravanelm/exp/dirha/fbank/raw_fbank_tr05_cont.4.ark:35780549
017c021e /scratch/ravanelm/exp/dirha/fbank/raw_fbank_tr05_cont.1.ark:15963559
01wc020n /scratch/ravanelm/exp/dirha/fbank/raw_fbank_tr05_cont.2.ark:17287839
026c020v /scratch/ravanelm/exp/dirha/fbank/raw_fbank_tr05_cont.2.ark:34580609
01io030g /scratch/ravanelm/exp/dirha/fbank/raw_fbank_tr05_cont.1.ark:41757929
20to0101 /scratch/ravanelm/exp/dirha/fbank/raw_fbank_tr05_cont.3.ark:37425099
20oc010f /scratch/ravanelm/exp/dirha/fbank/raw_fbank_tr05_cont.3.ark:30688249
409o0317 /scratch/ravanelm/exp/dirha/fbank/raw_fbank_tr05_cont.4.ark:7548659
01tc0202 /scratch/ravanelm/exp/dirha/fbank/raw_fbank_tr05_cont.2.ark:9675089
029c021e /scratch/ravanelm/exp/dirha/fbank/raw_fbank_tr05_cont.2.ark:44185819
20dc010h /scratch/ravanelm/exp/dirha/fbank/raw_fbank_tr05_cont.3.ark:16221649
20po010d /scratch/ravanelm/exp/dirha/fbank/raw_fbank_tr05_cont.3.ark:32783989
40ao030q /scratch/ravanelm/exp/dirha/fbank/raw_fbank_tr05_cont.4.ark:10095239
40do0311 /scratch/ravanelm/exp/dirha/fbank/raw_fbank_tr05_cont.4.ark:19070819
40po030e /scratch/ravanelm/exp/dirha/fbank/raw_fbank_tr05_cont.4.ark:53023419
024c021d /scratch/ravanelm/exp/dirha/fbank/raw_fbank_tr05_cont.2.ark:32255599
403c020g /scratch/ravanelm/exp/dirha/fbank/raw_fbank_tr05_cont.3.ark:43177839
20do010o /scratch/ravanelm/exp/dirha/fbank/raw_fbank_tr05_cont.3.ark:17371009
017c021c /scratch/ravanelm/exp/dirha/fbank/raw_fbank_tr05_cont.1.ark:15932659
20dc0108 /scratch/ravanelm/exp/dirha/fbank/raw_fbank_tr05_cont.3.ark:15941139
01fc0216 /scratch/ravanelm/exp/dirha/fbank/raw_fbank_tr05_cont.1.ark:34505159
40lo030u /scratch/ravanelm/exp/dirha/fbank/raw_fbank_tr05_cont.4.ark:44120949
207c010j /scratch/ravanelm/exp/dirha/fbank/raw_fbank_tr05_cont.3.ark:6489249
20ao010g /scratch/ravanelm/exp/dirha/fbank/raw_fbank_tr05_cont.3.ark:12024609
40hc0218 /scratch/ravanelm/exp/dirha/fbank/raw_fbank_tr05_cont.4.ark:30248889
40bc0203 /scratch/ravanelm/exp/dirha/fbank/raw_fbank_tr05_cont.4.ark:10980159
20io010g /scratch/ravanelm/exp/dirha/fbank/raw_fbank_tr05_cont.3.ark:24576629
011c021a /scratch/ravanelm/exp/dirha/fbank/raw_fbank_tr05_cont.1.ark:1282639
405c020f /scratch/ravanelm/exp/dirha/fbank/raw_fbank_tr05_cont.3.ark:48620909
40jo031a /scratch/ravanelm/exp/dirha/fbank/raw_fbank_tr05_cont.4.ark:38062489
01lc0217 /scratch/ravanelm/exp/dirha/fbank/raw_fbank_tr05_cont.1.ark:51600659
015o030u /scratch/ravanelm/exp/dirha/fbank/raw_fbank_tr05_cont.1.ark:11759049
02ec021c /scratch/ravanelm/exp/dirha/fbank/raw_fbank_tr05_cont.2.ark:53740369
017o030t /scratch/ravanelm/exp/dirha/fbank/raw_fbank_tr05_cont.1.ark:16958289
01tc021a /scratch/ravanelm/exp/dirha/fbank/raw_fbank_tr05_cont.2.ark:11136649
024o0313 /scratch/ravanelm/exp/dirha/fbank/raw_fbank_tr05_cont.2.ark:33489879
02ec020g /scratch/ravanelm/exp/dirha/fbank/raw_fbank_tr05_cont.2.ark:52752969
021o0309 /scratch/ravanelm/exp/dirha/fbank/raw_fbank_tr05_cont.2.ark:29608669
014c0202 /scratch/ravanelm/exp/dirha/fbank/raw_fbank_tr05_cont.1.ark:6548409
01bo030b /scratch/ravanelm/exp/dirha/fbank/raw_fbank_tr05_cont.1.ark:25837849
01tc0212 /scratch/ravanelm/exp/dirha/fbank/raw_fbank_tr05_cont.2.ark:10915809
011o030p /scratch/ravanelm/exp/dirha/fbank/raw_fbank_tr05_cont.1.ark:2377789
409c0213 /scratch/ravanelm/exp/dirha/fbank/raw_fbank_tr05_cont.4.ark:5947699
20eo010c /scratch/ravanelm/exp/dirha/fbank/raw_fbank_tr05_cont.3.ark:18719459
02ec020c /scratch/ravanelm/exp/dirha/fbank/raw_fbank_tr05_cont.2.ark:52605529
013o0312 /scratch/ravanelm/exp/dirha/fbank/raw_fbank_tr05_cont.1.ark:6103119
407c020c /scratch/ravanelm/exp/dirha/fbank/raw_fbank_tr05_cont.3.ark:54006969
021o030h /scratch/ravanelm/exp/dirha/fbank/raw_fbank_tr05_cont.2.ark:29842389
208c0106 /scratch/ravanelm/exp/dirha/fbank/raw_fbank_tr05_cont.3.ark:7766099
207o010i /scratch/ravanelm/exp/dirha/fbank/raw_fbank_tr05_cont.3.ark:7222679
404c020b /scratch/ravanelm/exp/dirha/fbank/raw_fbank_tr05_cont.3.ark:45824349
027o0314 /scratch/ravanelm/exp/dirha/fbank/raw_fbank_tr05_cont.2.ark:39529549
01po030x /scratch/ravanelm/exp/dirha/fbank/raw_fbank_tr05_cont.2.ark:3081009
01yc0211 /scratch/ravanelm/exp/dirha/fbank/raw_fbank_tr05_cont.2.ark:20524519
208o0102 /scratch/ravanelm/exp/dirha/fbank/raw_fbank_tr05_cont.3.ark:8398089
403o030w /scratch/ravanelm/exp/dirha/fbank/raw_fbank_tr05_cont.3.ark:45062609
01fc020t /scratch/ravanelm/exp/dirha/fbank/raw_fbank_tr05_cont.1.ark:34141649
01lo0302 /scratch/ravanelm/exp/dirha/fbank/raw_fbank_tr05_cont.1.ark:51955679
017o0316 /scratch/ravanelm/exp/dirha/fbank/raw_fbank_tr05_cont.1.ark:17334079
019c0201 /scratch/ravanelm/exp/dirha/fbank/raw_fbank_tr05_cont.1.ark:21070909
40pc020i /scratch/ravanelm/exp/dirha/fbank/raw_fbank_tr05_cont.4.ark:51783329
011c020e /scratch/ravanelm/exp/dirha/fbank/raw_fbank_tr05_cont.1.ark:351919
404c0205 /scratch/ravanelm/exp/dirha/fbank/raw_fbank_tr05_cont.3.ark:45674769
01dc020j /scratch/ravanelm/exp/dirha/fbank/raw_fbank_tr05_cont.1.ark:27910049
206c0105 /scratch/ravanelm/exp/dirha/fbank/raw_fbank_tr05_cont.3.ark:4315649
026c020b /scratch/ravanelm/exp/dirha/fbank/raw_fbank_tr05_cont.2.ark:34113129
01po0311 /scratch/ravanelm/exp/dirha/fbank/raw_fbank_tr05_cont.2.ark:3233209
01lc020d /scratch/ravanelm/exp/dirha/fbank/raw_fbank_tr05_cont.1.ark:50701759
20fc010l /scratch/ravanelm/exp/dirha/fbank/raw_fbank_tr05_cont.3.ark:19794029
405c021e /scratch/ravanelm/exp/dirha/fbank/raw_fbank_tr05_cont.3.ark:49442559
20do0101 /scratch/ravanelm/exp/dirha/fbank/raw_fbank_tr05_cont.3.ark:16526879
01ko030p /scratch/ravanelm/exp/dirha/fbank/raw_fbank_tr05_cont.1.ark:49100279
019o0314 /scratch/ravanelm/exp/dirha/fbank/raw_fbank_tr05_cont.1.ark:23613149
406o0311 /scratch/ravanelm/exp/dirha/fbank/raw_fbank_tr05_cont.3.ark:53334849
011o030x /scratch/ravanelm/exp/dirha/fbank/raw_fbank_tr05_cont.1.ark:2648949
01bc020h /scratch/ravanelm/exp/dirha/fbank/raw_fbank_tr05_cont.1.ark:24360249
029o0312 /scratch/ravanelm/exp/dirha/fbank/raw_fbank_tr05_cont.2.ark:45567059
20ao0108 /scratch/ravanelm/exp/dirha/fbank/raw_fbank_tr05_cont.3.ark:11688209
40jc020y /scratch/ravanelm/exp/dirha/fbank/raw_fbank_tr05_cont.4.ark:36019309
20co0107 /scratch/ravanelm/exp/dirha/fbank/raw_fbank_tr05_cont.3.ark:15155529
20vo010e /scratch/ravanelm/exp/dirha/fbank/raw_fbank_tr05_cont.3.ark:39132269
40do0304 /scratch/ravanelm/exp/dirha/fbank/raw_fbank_tr05_cont.4.ark:18077389
014c020b /scratch/ravanelm/exp/dirha/fbank/raw_fbank_tr05_cont.1.ark:6775439
017c020s /scratch/ravanelm/exp/dirha/fbank/raw_fbank_tr05_cont.1.ark:15435859
01po030s /scratch/ravanelm/exp/dirha/fbank/raw_fbank_tr05_cont.2.ark:2879739
408c020c /scratch/ravanelm/exp/dirha/fbank/raw_fbank_tr05_cont.4.ark:2666209
409c0217 /scratch/ravanelm/exp/dirha/fbank/raw_fbank_tr05_cont.4.ark:6055379
401o030i /scratch/ravanelm/exp/dirha/fbank/raw_fbank_tr05_cont.3.ark:41683419
028c020a /scratch/ravanelm/exp/dirha/fbank/raw_fbank_tr05_cont.2.ark:39975699
02cc020r /scratch/ravanelm/exp/dirha/fbank/raw_fbank_tr05_cont.2.ark:49905729
015c0212 /scratch/ravanelm/exp/dirha/fbank/raw_fbank_tr05_cont.1.ark:10438989
01wc020v /scratch/ravanelm/exp/dirha/fbank/raw_fbank_tr05_cont.2.ark:17490919
209c010q /scratch/ravanelm/exp/dirha/fbank/raw_fbank_tr05_cont.3.ark:9884339
205o010i /scratch/ravanelm/exp/dirha/fbank/raw_fbank_tr05_cont.3.ark:3793869
40po0302 /scratch/ravanelm/exp/dirha/fbank/raw_fbank_tr05_cont.4.ark:52599819
20qo0108 /scratch/ravanelm/exp/dirha/fbank/raw_fbank_tr05_cont.3.ark:34324489
020c0212 /scratch/ravanelm/exp/dirha/fbank/raw_fbank_tr05_cont.2.ark:26836199
01qo030h /scratch/ravanelm/exp/dirha/fbank/raw_fbank_tr05_cont.2.ark:5618709
204o010p /scratch/ravanelm/exp/dirha/fbank/raw_fbank_tr05_cont.3.ark:2360309
01ic0211 /scratch/ravanelm/exp/dirha/fbank/raw_fbank_tr05_cont.1.ark:40735589
01mo030i /scratch/ravanelm/exp/dirha/fbank/raw_fbank_tr05_cont.1.ark:55907679
02bo030q /scratch/ravanelm/exp/dirha/fbank/raw_fbank_tr05_cont.2.ark:48329719
20oo0105 /scratch/ravanelm/exp/dirha/fbank/raw_fbank_tr05_cont.3.ark:31029949
027o0303 /scratch/ravanelm/exp/dirha/fbank/raw_fbank_tr05_cont.2.ark:38118639
40do0312 /scratch/ravanelm/exp/dirha/fbank/raw_fbank_tr05_cont.4.ark:19106609
40po0307 /scratch/ravanelm/exp/dirha/fbank/raw_fbank_tr05_cont.4.ark:52749009
401o0319 /scratch/ravanelm/exp/dirha/fbank/raw_fbank_tr05_cont.3.ark:42664679
40co0314 /scratch/ravanelm/exp/dirha/fbank/raw_fbank_tr05_cont.4.ark:16140829
40hc020w /scratch/ravanelm/exp/dirha/fbank/raw_fbank_tr05_cont.4.ark:29888729
020c020j /scratch/ravanelm/exp/dirha/fbank/raw_fbank_tr05_cont.2.ark:26475429
01ic0215 /scratch/ravanelm/exp/dirha/fbank/raw_fbank_tr05_cont.1.ark:40831029
01bc0214 /scratch/ravanelm/exp/dirha/fbank/raw_fbank_tr05_cont.1.ark:25030439
01gc020f /scratch/ravanelm/exp/dirha/fbank/raw_fbank_tr05_cont.1.ark:36800869
01zo030v /scratch/ravanelm/exp/dirha/fbank/raw_fbank_tr05_cont.2.ark:25319429
401o030z /scratch/ravanelm/exp/dirha/fbank/raw_fbank_tr05_cont.3.ark:42313929
024o0305 /scratch/ravanelm/exp/dirha/fbank/raw_fbank_tr05_cont.2.ark:32463099
404o030v /scratch/ravanelm/exp/dirha/fbank/raw_fbank_tr05_cont.3.ark:47741519
40jc0202 /scratch/ravanelm/exp/dirha/fbank/raw_fbank_tr05_cont.4.ark:35175029
40lc0216 /scratch/ravanelm/exp/dirha/fbank/raw_fbank_tr05_cont.4.ark:42592459
020c020o /scratch/ravanelm/exp/dirha/fbank/raw_fbank_tr05_cont.2.ark:26590019
01gc020s /scratch/ravanelm/exp/dirha/fbank/raw_fbank_tr05_cont.1.ark:37166659
20rc010e /scratch/ravanelm/exp/dirha/fbank/raw_fbank_tr05_cont.3.ark:35368569
019c0210 /scratch/ravanelm/exp/dirha/fbank/raw_fbank_tr05_cont.1.ark:21904079
01ro030y /scratch/ravanelm/exp/dirha/fbank/raw_fbank_tr05_cont.2.ark:9169179
01fc020o /scratch/ravanelm/exp/dirha/fbank/raw_fbank_tr05_cont.1.ark:33994659
020o031d /scratch/ravanelm/exp/dirha/fbank/raw_fbank_tr05_cont.2.ark:27980199
01qo030t /scratch/ravanelm/exp/dirha/fbank/raw_fbank_tr05_cont.2.ark:6028509
01yo030c /scratch/ravanelm/exp/dirha/fbank/raw_fbank_tr05_cont.2.ark:21303969
02eo030x /scratch/ravanelm/exp/dirha/fbank/raw_fbank_tr05_cont.3.ark:376059
02cc021b /scratch/ravanelm/exp/dirha/fbank/raw_fbank_tr05_cont.2.ark:50417989
01fo030e /scratch/ravanelm/exp/dirha/fbank/raw_fbank_tr05_cont.1.ark:35285639
208o010a /scratch/ravanelm/exp/dirha/fbank/raw_fbank_tr05_cont.3.ark:8687769
02co0313 /scratch/ravanelm/exp/dirha/fbank/raw_fbank_tr05_cont.2.ark:51757759
01dc020k /scratch/ravanelm/exp/dirha/fbank/raw_fbank_tr05_cont.1.ark:27922919
20go0103 /scratch/ravanelm/exp/dirha/fbank/raw_fbank_tr05_cont.3.ark:21387469
40dc020o /scratch/ravanelm/exp/dirha/fbank/raw_fbank_tr05_cont.4.ark:17126589
403o031c /scratch/ravanelm/exp/dirha/fbank/raw_fbank_tr05_cont.3.ark:45559739
208c010i /scratch/ravanelm/exp/dirha/fbank/raw_fbank_tr05_cont.3.ark:8114779
017c020e /scratch/ravanelm/exp/dirha/fbank/raw_fbank_tr05_cont.1.ark:15120359
026c021c /scratch/ravanelm/exp/dirha/fbank/raw_fbank_tr05_cont.2.ark:34997159
401c0207 /scratch/ravanelm/exp/dirha/fbank/raw_fbank_tr05_cont.3.ark:39766359
02cc020b /scratch/ravanelm/exp/dirha/fbank/raw_fbank_tr05_cont.2.ark:49534959
029c020s /scratch/ravanelm/exp/dirha/fbank/raw_fbank_tr05_cont.2.ark:43626519
017o030f /scratch/ravanelm/exp/dirha/fbank/raw_fbank_tr05_cont.1.ark:16495389
20ao010o /scratch/ravanelm/exp/dirha/fbank/raw_fbank_tr05_cont.3.ark:12365329
01dc021a /scratch/ravanelm/exp/dirha/fbank/raw_fbank_tr05_cont.1.ark:28619579
026o0319 /scratch/ravanelm/exp/dirha/fbank/raw_fbank_tr05_cont.2.ark:36512309
40ic021a /scratch/ravanelm/exp/dirha/fbank/raw_fbank_tr05_cont.4.ark:33370149
01ro0312 /scratch/ravanelm/exp/dirha/fbank/raw_fbank_tr05_cont.2.ark:9327939
01uo0319 /scratch/ravanelm/exp/dirha/fbank/raw_fbank_tr05_cont.2.ark:16458279
40co030v /scratch/ravanelm/exp/dirha/fbank/raw_fbank_tr05_cont.4.ark:15939399
027o030d /scratch/ravanelm/exp/dirha/fbank/raw_fbank_tr05_cont.2.ark:38488299
01go0302 /scratch/ravanelm/exp/dirha/fbank/raw_fbank_tr05_cont.1.ark:37821859
20eo010a /scratch/ravanelm/exp/dirha/fbank/raw_fbank_tr05_cont.3.ark:18644839
20ic010e /scratch/ravanelm/exp/dirha/fbank/raw_fbank_tr05_cont.3.ark:23748969
019c020o /scratch/ravanelm/exp/dirha/fbank/raw_fbank_tr05_cont.1.ark:21624639
02eo0312 /scratch/ravanelm/exp/dirha/fbank/raw_fbank_tr05_cont.3.ark:523219
017c020c /scratch/ravanelm/exp/dirha/fbank/raw_fbank_tr05_cont.1.ark:15084179
01qc020p /scratch/ravanelm/exp/dirha/fbank/raw_fbank_tr05_cont.2.ark:4396099
20rc010i /scratch/ravanelm/exp/dirha/fbank/raw_fbank_tr05_cont.3.ark:35509009
02ec020q /scratch/ravanelm/exp/dirha/fbank/raw_fbank_tr05_cont.2.ark:53077749
404c020r /scratch/ravanelm/exp/dirha/fbank/raw_fbank_tr05_cont.3.ark:46258709
013c020y /scratch/ravanelm/exp/dirha/fbank/raw_fbank_tr05_cont.1.ark:4542589
01mc020j /scratch/ravanelm/exp/dirha/fbank/raw_fbank_tr05_cont.1.ark:54516299
014o0315 /scratch/ravanelm/exp/dirha/fbank/raw_fbank_tr05_cont.1.ark:9170329
014c020l /scratch/ravanelm/exp/dirha/fbank/raw_fbank_tr05_cont.1.ark:6995219
40dc0204 /scratch/ravanelm/exp/dirha/fbank/raw_fbank_tr05_cont.4.ark:16543869
02ec0217 /scratch/ravanelm/exp/dirha/fbank/raw_fbank_tr05_cont.2.ark:53556019
01bo030q /scratch/ravanelm/exp/dirha/fbank/raw_fbank_tr05_cont.1.ark:26496659
01zc021d /scratch/ravanelm/exp/dirha/fbank/raw_fbank_tr05_cont.2.ark:24021119
01mc0211 /scratch/ravanelm/exp/dirha/fbank/raw_fbank_tr05_cont.1.ark:54996839
013c0202 /scratch/ravanelm/exp/dirha/fbank/raw_fbank_tr05_cont.1.ark:3576909
021c0207 /scratch/ravanelm/exp/dirha/fbank/raw_fbank_tr05_cont.2.ark:28204479
01mo030y /scratch/ravanelm/exp/dirha/fbank/raw_fbank_tr05_cont.1.ark:56437359
020o0313 /scratch/ravanelm/exp/dirha/fbank/raw_fbank_tr05_cont.2.ark:27744249
40po0319 /scratch/ravanelm/exp/dirha/fbank/raw_fbank_tr05_cont.4.ark:54077669
02cc020t /scratch/ravanelm/exp/dirha/fbank/raw_fbank_tr05_cont.2.ark:49955269
20fo010a /scratch/ravanelm/exp/dirha/fbank/raw_fbank_tr05_cont.3.ark:20293439
40io0304 /scratch/ravanelm/exp/dirha/fbank/raw_fbank_tr05_cont.4.ark:33622099
403o030n /scratch/ravanelm/exp/dirha/fbank/raw_fbank_tr05_cont.3.ark:44777139
408c020i /scratch/ravanelm/exp/dirha/fbank/raw_fbank_tr05_cont.4.ark:2826949
011o030o /scratch/ravanelm/exp/dirha/fbank/raw_fbank_tr05_cont.1.ark:2326599
01lc0218 /scratch/ravanelm/exp/dirha/fbank/raw_fbank_tr05_cont.1.ark:51624809
01jc020o /scratch/ravanelm/exp/dirha/fbank/raw_fbank_tr05_cont.1.ark:43683739
01jo0318 /scratch/ravanelm/exp/dirha/fbank/raw_fbank_tr05_cont.1.ark:46292299
01go0310 /scratch/ravanelm/exp/dirha/fbank/raw_fbank_tr05_cont.1.ark:39020999
01wo030a /scratch/ravanelm/exp/dirha/fbank/raw_fbank_tr05_cont.2.ark:18260349
01lc020v /scratch/ravanelm/exp/dirha/fbank/raw_fbank_tr05_cont.1.ark:51231539
02bo030a /scratch/ravanelm/exp/dirha/fbank/raw_fbank_tr05_cont.2.ark:47789239
017c020r /scratch/ravanelm/exp/dirha/fbank/raw_fbank_tr05_cont.1.ark:15404229
40nc020i /scratch/ravanelm/exp/dirha/fbank/raw_fbank_tr05_cont.4.ark:48544739
40ac0203 /scratch/ravanelm/exp/dirha/fbank/raw_fbank_tr05_cont.4.ark:7880689
01yc020a /scratch/ravanelm/exp/dirha/fbank/raw_fbank_tr05_cont.2.ark:19785949
408c020m /scratch/ravanelm/exp/dirha/fbank/raw_fbank_tr05_cont.4.ark:2907709
40lo030r /scratch/ravanelm/exp/dirha/fbank/raw_fbank_tr05_cont.4.ark:43945379
017o030r /scratch/ravanelm/exp/dirha/fbank/raw_fbank_tr05_cont.1.ark:16902909
01do0307 /scratch/ravanelm/exp/dirha/fbank/raw_fbank_tr05_cont.1.ark:28993979
40jo030t /scratch/ravanelm/exp/dirha/fbank/raw_fbank_tr05_cont.4.ark:37500179
01lo0305 /scratch/ravanelm/exp/dirha/fbank/raw_fbank_tr05_cont.1.ark:52060969
01tc0216 /scratch/ravanelm/exp/dirha/fbank/raw_fbank_tr05_cont.2.ark:11039489
40jo0315 /scratch/ravanelm/exp/dirha/fbank/raw_fbank_tr05_cont.4.ark:37889779
014c0206 /scratch/ravanelm/exp/dirha/fbank/raw_fbank_tr05_cont.1.ark:6656249
40gc020z /scratch/ravanelm/exp/dirha/fbank/raw_fbank_tr05_cont.4.ark:26317949
01dc020p /scratch/ravanelm/exp/dirha/fbank/raw_fbank_tr05_cont.1.ark:28066549
408o030e /scratch/ravanelm/exp/dirha/fbank/raw_fbank_tr05_cont.4.ark:3945869
40do030c /scratch/ravanelm/exp/dirha/fbank/raw_fbank_tr05_cont.4.ark:18244349
40dc0206 /scratch/ravanelm/exp/dirha/fbank/raw_fbank_tr05_cont.4.ark:16597649
01rc020k /scratch/ravanelm/exp/dirha/fbank/raw_fbank_tr05_cont.2.ark:7301679
02eo030r /scratch/ravanelm/exp/dirha/fbank/raw_fbank_tr05_cont.3.ark:172839
40pc020d /scratch/ravanelm/exp/dirha/fbank/raw_fbank_tr05_cont.4.ark:51666419
01go030u /scratch/ravanelm/exp/dirha/fbank/raw_fbank_tr05_cont.1.ark:38827899
024o030v /scratch/ravanelm/exp/dirha/fbank/raw_fbank_tr05_cont.2.ark:33211359
01wc020x /scratch/ravanelm/exp/dirha/fbank/raw_fbank_tr05_cont.2.ark:17533379
029c0218 /scratch/ravanelm/exp/dirha/fbank/raw_fbank_tr05_cont.2.ark:44051599
40gc020h /scratch/ravanelm/exp/dirha/fbank/raw_fbank_tr05_cont.4.ark:25744489
40ko030g /scratch/ravanelm/exp/dirha/fbank/raw_fbank_tr05_cont.4.ark:40125159
40gc020o /scratch/ravanelm/exp/dirha/fbank/raw_fbank_tr05_cont.4.ark:25988459
01pc020v /scratch/ravanelm/exp/dirha/fbank/raw_fbank_tr05_cont.2.ark:1271299
20oc0109 /scratch/ravanelm/exp/dirha/fbank/raw_fbank_tr05_cont.3.ark:30561349
018o030x /scratch/ravanelm/exp/dirha/fbank/raw_fbank_tr05_cont.1.ark:20427269
405c021b /scratch/ravanelm/exp/dirha/fbank/raw_fbank_tr05_cont.3.ark:49356629
01io030x /scratch/ravanelm/exp/dirha/fbank/raw_fbank_tr05_cont.1.ark:42397439
40go031e /scratch/ravanelm/exp/dirha/fbank/raw_fbank_tr05_cont.4.ark:29106009
029c020n /scratch/ravanelm/exp/dirha/fbank/raw_fbank_tr05_cont.2.ark:43475489
013o030o /scratch/ravanelm/exp/dirha/fbank/raw_fbank_tr05_cont.1.ark:5680699
013c020d /scratch/ravanelm/exp/dirha/fbank/raw_fbank_tr05_cont.1.ark:3915079
01po0304 /scratch/ravanelm/exp/dirha/fbank/raw_fbank_tr05_cont.2.ark:2045849
207o0106 /scratch/ravanelm/exp/dirha/fbank/raw_fbank_tr05_cont.3.ark:6817999
014c0217 /scratch/ravanelm/exp/dirha/fbank/raw_fbank_tr05_cont.1.ark:7499959
406c020v /scratch/ravanelm/exp/dirha/fbank/raw_fbank_tr05_cont.3.ark:51677979
404c0206 /scratch/ravanelm/exp/dirha/fbank/raw_fbank_tr05_cont.3.ark:45701399
01ec0211 /scratch/ravanelm/exp/dirha/fbank/raw_fbank_tr05_cont.1.ark:31414829
408o0316 /scratch/ravanelm/exp/dirha/fbank/raw_fbank_tr05_cont.4.ark:4718029
208o0101 /scratch/ravanelm/exp/dirha/fbank/raw_fbank_tr05_cont.3.ark:8351579
40do030l /scratch/ravanelm/exp/dirha/fbank/raw_fbank_tr05_cont.4.ark:18576259
028c021b /scratch/ravanelm/exp/dirha/fbank/raw_fbank_tr05_cont.2.ark:40938689
40cc021b /scratch/ravanelm/exp/dirha/fbank/raw_fbank_tr05_cont.4.ark:15021979
401c0206 /scratch/ravanelm/exp/dirha/fbank/raw_fbank_tr05_cont.3.ark:39734209
206o0101 /scratch/ravanelm/exp/dirha/fbank/raw_fbank_tr05_cont.3.ark:4777869
016o0315 /scratch/ravanelm/exp/dirha/fbank/raw_fbank_tr05_cont.1.ark:14487799
01zc020y /scratch/ravanelm/exp/dirha/fbank/raw_fbank_tr05_cont.2.ark:23527149
01io030e /scratch/ravanelm/exp/dirha/fbank/raw_fbank_tr05_cont.1.ark:41693229
02cc020k /scratch/ravanelm/exp/dirha/fbank/raw_fbank_tr05_cont.2.ark:49744309
40ic0218 /scratch/ravanelm/exp/dirha/fbank/raw_fbank_tr05_cont.4.ark:33300889
20lo0101 /scratch/ravanelm/exp/dirha/fbank/raw_fbank_tr05_cont.3.ark:25832219
40ic020r /scratch/ravanelm/exp/dirha/fbank/raw_fbank_tr05_cont.4.ark:32863099
40eo0317 /scratch/ravanelm/exp/dirha/fbank/raw_fbank_tr05_cont.4.ark:21896259
013o0310 /scratch/ravanelm/exp/dirha/fbank/raw_fbank_tr05_cont.1.ark:6055699
026o030r /scratch/ravanelm/exp/dirha/fbank/raw_fbank_tr05_cont.2.ark:35929689
40cc020e /scratch/ravanelm/exp/dirha/fbank/raw_fbank_tr05_cont.4.ark:14297749
01kc0202 /scratch/ravanelm/exp/dirha/fbank/raw_fbank_tr05_cont.1.ark:46525479
40io030r /scratch/ravanelm/exp/dirha/fbank/raw_fbank_tr05_cont.4.ark:34341389
01wc020q /scratch/ravanelm/exp/dirha/fbank/raw_fbank_tr05_cont.2.ark:17383089
206o010q /scratch/ravanelm/exp/dirha/fbank/raw_fbank_tr05_cont.3.ark:5858299
208o010f /scratch/ravanelm/exp/dirha/fbank/raw_fbank_tr05_cont.3.ark:8839199
01go030l /scratch/ravanelm/exp/dirha/fbank/raw_fbank_tr05_cont.1.ark:38511869
01fc020v /scratch/ravanelm/exp/dirha/fbank/raw_fbank_tr05_cont.1.ark:34192429
01yc020e /scratch/ravanelm/exp/dirha/fbank/raw_fbank_tr05_cont.2.ark:19889909
01eo0312 /scratch/ravanelm/exp/dirha/fbank/raw_fbank_tr05_cont.1.ark:32957719
016c020t /scratch/ravanelm/exp/dirha/fbank/raw_fbank_tr05_cont.1.ark:12968689
014o030b /scratch/ravanelm/exp/dirha/fbank/raw_fbank_tr05_cont.1.ark:8132749
02cc020a /scratch/ravanelm/exp/dirha/fbank/raw_fbank_tr05_cont.2.ark:49522289
01po030y /scratch/ravanelm/exp/dirha/fbank/raw_fbank_tr05_cont.2.ark:3133479
013o030n /scratch/ravanelm/exp/dirha/fbank/raw_fbank_tr05_cont.1.ark:5635509
20to0108 /scratch/ravanelm/exp/dirha/fbank/raw_fbank_tr05_cont.3.ark:37576829
40do031a /scratch/ravanelm/exp/dirha/fbank/raw_fbank_tr05_cont.4.ark:19303729
015c020d /scratch/ravanelm/exp/dirha/fbank/raw_fbank_tr05_cont.1.ark:9792319
028o030c /scratch/ravanelm/exp/dirha/fbank/raw_fbank_tr05_cont.2.ark:41488289
026c0209 /scratch/ravanelm/exp/dirha/fbank/raw_fbank_tr05_cont.2.ark:34082589
20to010p /scratch/ravanelm/exp/dirha/fbank/raw_fbank_tr05_cont.3.ark:38083899
40nc020z /scratch/ravanelm/exp/dirha/fbank/raw_fbank_tr05_cont.4.ark:49072209
401c0208 /scratch/ravanelm/exp/dirha/fbank/raw_fbank_tr05_cont.3.ark:39801429
01lo0301 /scratch/ravanelm/exp/dirha/fbank/raw_fbank_tr05_cont.1.ark:51888129
405o030s /scratch/ravanelm/exp/dirha/fbank/raw_fbank_tr05_cont.3.ark:50246469
404c0217 /scratch/ravanelm/exp/dirha/fbank/raw_fbank_tr05_cont.3.ark:46588109
40fc020x /scratch/ravanelm/exp/dirha/fbank/raw_fbank_tr05_cont.4.ark:22929209
01dc0208 /scratch/ravanelm/exp/dirha/fbank/raw_fbank_tr05_cont.1.ark:27583599
40dc020v /scratch/ravanelm/exp/dirha/fbank/raw_fbank_tr05_cont.4.ark:17361119
02bo0301 /scratch/ravanelm/exp/dirha/fbank/raw_fbank_tr05_cont.2.ark:47429929
20po010q /scratch/ravanelm/exp/dirha/fbank/raw_fbank_tr05_cont.3.ark:33196939
01zc020m /scratch/ravanelm/exp/dirha/fbank/raw_fbank_tr05_cont.2.ark:23226509
026c0214 /scratch/ravanelm/exp/dirha/fbank/raw_fbank_tr05_cont.2.ark:34794599
018o030i /scratch/ravanelm/exp/dirha/fbank/raw_fbank_tr05_cont.1.ark:19815379
404o030w /scratch/ravanelm/exp/dirha/fbank/raw_fbank_tr05_cont.3.ark:47769429
01po031b /scratch/ravanelm/exp/dirha/fbank/raw_fbank_tr05_cont.2.ark:3586029
01mc020a /scratch/ravanelm/exp/dirha/fbank/raw_fbank_tr05_cont.1.ark:54290349
014o030h /scratch/ravanelm/exp/dirha/fbank/raw_fbank_tr05_cont.1.ark:8298889
40lo030e /scratch/ravanelm/exp/dirha/fbank/raw_fbank_tr05_cont.4.ark:43373309
01io0314 /scratch/ravanelm/exp/dirha/fbank/raw_fbank_tr05_cont.1.ark:42637489
02bc020n /scratch/ravanelm/exp/dirha/fbank/raw_fbank_tr05_cont.2.ark:46654219
20ho010n /scratch/ravanelm/exp/dirha/fbank/raw_fbank_tr05_cont.3.ark:23297209
01jc0201 /scratch/ravanelm/exp/dirha/fbank/raw_fbank_tr05_cont.1.ark:43016809
40bo0313 /scratch/ravanelm/exp/dirha/fbank/raw_fbank_tr05_cont.4.ark:13645939
40ec0218 /scratch/ravanelm/exp/dirha/fbank/raw_fbank_tr05_cont.4.ark:20380579
20qc010p /scratch/ravanelm/exp/dirha/fbank/raw_fbank_tr05_cont.3.ark:34003369
20vc0108 /scratch/ravanelm/exp/dirha/fbank/raw_fbank_tr05_cont.3.ark:38295979
20rc0105 /scratch/ravanelm/exp/dirha/fbank/raw_fbank_tr05_cont.3.ark:35146539
016o030q /scratch/ravanelm/exp/dirha/fbank/raw_fbank_tr05_cont.1.ark:14075349
019c020i /scratch/ravanelm/exp/dirha/fbank/raw_fbank_tr05_cont.1.ark:21513219
019o030s /scratch/ravanelm/exp/dirha/fbank/raw_fbank_tr05_cont.1.ark:23254629
407o0309 /scratch/ravanelm/exp/dirha/fbank/raw_fbank_tr05_cont.4.ark:949099
019o0302 /scratch/ravanelm/exp/dirha/fbank/raw_fbank_tr05_cont.1.ark:22419009
01lo031c /scratch/ravanelm/exp/dirha/fbank/raw_fbank_tr05_cont.1.ark:53984259
40cc0203 /scratch/ravanelm/exp/dirha/fbank/raw_fbank_tr05_cont.4.ark:14016379
01gc020k /scratch/ravanelm/exp/dirha/fbank/raw_fbank_tr05_cont.1.ark:36955499
01lo030a /scratch/ravanelm/exp/dirha/fbank/raw_fbank_tr05_cont.1.ark:52266079
40gc0213 /scratch/ravanelm/exp/dirha/fbank/raw_fbank_tr05_cont.4.ark:26507269
029c0203 /scratch/ravanelm/exp/dirha/fbank/raw_fbank_tr05_cont.2.ark:42920969
01jo030g /scratch/ravanelm/exp/dirha/fbank/raw_fbank_tr05_cont.1.ark:45165259
405o031a /scratch/ravanelm/exp/dirha/fbank/raw_fbank_tr05_cont.3.ark:50781009
024o030q /scratch/ravanelm/exp/dirha/fbank/raw_fbank_tr05_cont.2.ark:33093649
20tc010c /scratch/ravanelm/exp/dirha/fbank/raw_fbank_tr05_cont.3.ark:36996489
408c021b /scratch/ravanelm/exp/dirha/fbank/raw_fbank_tr05_cont.4.ark:3449869
013o030f /scratch/ravanelm/exp/dirha/fbank/raw_fbank_tr05_cont.1.ark:5379389
01lo030r /scratch/ravanelm/exp/dirha/fbank/raw_fbank_tr05_cont.1.ark:52997349
01yo0310 /scratch/ravanelm/exp/dirha/fbank/raw_fbank_tr05_cont.2.ark:22161049
020o0305 /scratch/ravanelm/exp/dirha/fbank/raw_fbank_tr05_cont.2.ark:27144229
403c020d /scratch/ravanelm/exp/dirha/fbank/raw_fbank_tr05_cont.3.ark:43099629
02cc020s /scratch/ravanelm/exp/dirha/fbank/raw_fbank_tr05_cont.2.ark:49916759
40ho0303 /scratch/ravanelm/exp/dirha/fbank/raw_fbank_tr05_cont.4.ark:30488589
016c021b /scratch/ravanelm/exp/dirha/fbank/raw_fbank_tr05_cont.1.ark:13340849
20ao0107 /scratch/ravanelm/exp/dirha/fbank/raw_fbank_tr05_cont.3.ark:11618659
40ko030v /scratch/ravanelm/exp/dirha/fbank/raw_fbank_tr05_cont.4.ark:40667529
01ro030n /scratch/ravanelm/exp/dirha/fbank/raw_fbank_tr05_cont.2.ark:8867369
014o0306 /scratch/ravanelm/exp/dirha/fbank/raw_fbank_tr05_cont.1.ark:7927079
01lo030t /scratch/ravanelm/exp/dirha/fbank/raw_fbank_tr05_cont.1.ark:53051489
404o030j /scratch/ravanelm/exp/dirha/fbank/raw_fbank_tr05_cont.3.ark:47369159
20po010c /scratch/ravanelm/exp/dirha/fbank/raw_fbank_tr05_cont.3.ark:32768919
40lo0317 /scratch/ravanelm/exp/dirha/fbank/raw_fbank_tr05_cont.4.ark:44683299
20mc0109 /scratch/ravanelm/exp/dirha/fbank/raw_fbank_tr05_cont.3.ark:27211719
01to0317 /scratch/ravanelm/exp/dirha/fbank/raw_fbank_tr05_cont.2.ark:12766729
20vo010j /scratch/ravanelm/exp/dirha/fbank/raw_fbank_tr05_cont.3.ark:39283059
01to0319 /scratch/ravanelm/exp/dirha/fbank/raw_fbank_tr05_cont.2.ark:12825389
40eo030r /scratch/ravanelm/exp/dirha/fbank/raw_fbank_tr05_cont.4.ark:21432979
01zc0213 /scratch/ravanelm/exp/dirha/fbank/raw_fbank_tr05_cont.2.ark:23694339
40gc020a /scratch/ravanelm/exp/dirha/fbank/raw_fbank_tr05_cont.4.ark:25517719
408o030l /scratch/ravanelm/exp/dirha/fbank/raw_fbank_tr05_cont.4.ark:4194079
01fo030i /scratch/ravanelm/exp/dirha/fbank/raw_fbank_tr05_cont.1.ark:35396919
01ic0209 /scratch/ravanelm/exp/dirha/fbank/raw_fbank_tr05_cont.1.ark:39939589
40cc020u /scratch/ravanelm/exp/dirha/fbank/raw_fbank_tr05_cont.4.ark:14637029
02eo030h /scratch/ravanelm/exp/dirha/fbank/raw_fbank_tr05_cont.2.ark:54411059
01dc020z /scratch/ravanelm/exp/dirha/fbank/raw_fbank_tr05_cont.1.ark:28317809
027c020x /scratch/ravanelm/exp/dirha/fbank/raw_fbank_tr05_cont.2.ark:37452069
01yc020p /scratch/ravanelm/exp/dirha/fbank/raw_fbank_tr05_cont.2.ark:20195839
20cc010a /scratch/ravanelm/exp/dirha/fbank/raw_fbank_tr05_cont.3.ark:14565219
01ro030e /scratch/ravanelm/exp/dirha/fbank/raw_fbank_tr05_cont.2.ark:8513979
01dc0206 /scratch/ravanelm/exp/dirha/fbank/raw_fbank_tr05_cont.1.ark:27547059
40go030k /scratch/ravanelm/exp/dirha/fbank/raw_fbank_tr05_cont.4.ark:27768269
40bc021f /scratch/ravanelm/exp/dirha/fbank/raw_fbank_tr05_cont.4.ark:12293959
017o0311 /scratch/ravanelm/exp/dirha/fbank/raw_fbank_tr05_cont.1.ark:17205249
40fc0209 /scratch/ravanelm/exp/dirha/fbank/raw_fbank_tr05_cont.4.ark:22232529
40fc0216 /scratch/ravanelm/exp/dirha/fbank/raw_fbank_tr05_cont.4.ark:23191959
01ko030i /scratch/ravanelm/exp/dirha/fbank/raw_fbank_tr05_cont.1.ark:48817789
40jo030q /scratch/ravanelm/exp/dirha/fbank/raw_fbank_tr05_cont.4.ark:37404689
01ic0217 /scratch/ravanelm/exp/dirha/fbank/raw_fbank_tr05_cont.1.ark:40871609
01fo030a /scratch/ravanelm/exp/dirha/fbank/raw_fbank_tr05_cont.1.ark:35149239
02bc020q /scratch/ravanelm/exp/dirha/fbank/raw_fbank_tr05_cont.2.ark:46725829
208o010i /scratch/ravanelm/exp/dirha/fbank/raw_fbank_tr05_cont.3.ark:8928489
401o030n /scratch/ravanelm/exp/dirha/fbank/raw_fbank_tr05_cont.3.ark:41925169
409c020s /scratch/ravanelm/exp/dirha/fbank/raw_fbank_tr05_cont.4.ark:5633769
401o030b /scratch/ravanelm/exp/dirha/fbank/raw_fbank_tr05_cont.3.ark:41425609
013c0208 /scratch/ravanelm/exp/dirha/fbank/raw_fbank_tr05_cont.1.ark:3772889
40co030t /scratch/ravanelm/exp/dirha/fbank/raw_fbank_tr05_cont.4.ark:15898059
021c020k /scratch/ravanelm/exp/dirha/fbank/raw_fbank_tr05_cont.2.ark:28584549
40hc020j /scratch/ravanelm/exp/dirha/fbank/raw_fbank_tr05_cont.4.ark:29571739
40go030r /scratch/ravanelm/exp/dirha/fbank/raw_fbank_tr05_cont.4.ark:28074439
40cc020l /scratch/ravanelm/exp/dirha/fbank/raw_fbank_tr05_cont.4.ark:14474959
40bc020g /scratch/ravanelm/exp/dirha/fbank/raw_fbank_tr05_cont.4.ark:11354829
407c0215 /scratch/ravanelm/exp/dirha/fbank/raw_fbank_tr05_cont.4.ark:211119
02eo030a /scratch/ravanelm/exp/dirha/fbank/raw_fbank_tr05_cont.2.ark:54172449
026o0310 /scratch/ravanelm/exp/dirha/fbank/raw_fbank_tr05_cont.2.ark:36215839
01tc0209 /scratch/ravanelm/exp/dirha/fbank/raw_fbank_tr05_cont.2.ark:9895619
40gc0205 /scratch/ravanelm/exp/dirha/fbank/raw_fbank_tr05_cont.4.ark:25325529
204o010l /scratch/ravanelm/exp/dirha/fbank/raw_fbank_tr05_cont.3.ark:2202189
40po031a /scratch/ravanelm/exp/dirha/fbank/raw_fbank_tr05_cont.4.ark:54096419
01mo030n /scratch/ravanelm/exp/dirha/fbank/raw_fbank_tr05_cont.1.ark:56057189
409c0212 /scratch/ravanelm/exp/dirha/fbank/raw_fbank_tr05_cont.4.ark:5930389
01jo030v /scratch/ravanelm/exp/dirha/fbank/raw_fbank_tr05_cont.1.ark:45670389
017o031b /scratch/ravanelm/exp/dirha/fbank/raw_fbank_tr05_cont.1.ark:17492149
01wo030k /scratch/ravanelm/exp/dirha/fbank/raw_fbank_tr05_cont.2.ark:18588649
40gc0212 /scratch/ravanelm/exp/dirha/fbank/raw_fbank_tr05_cont.4.ark:26470159
013o0304 /scratch/ravanelm/exp/dirha/fbank/raw_fbank_tr05_cont.1.ark:5064259
015c020r /scratch/ravanelm/exp/dirha/fbank/raw_fbank_tr05_cont.1.ark:10171299
407c020w /scratch/ravanelm/exp/dirha/fbank/raw_fbank_tr05_cont.4.ark:9
40cc0210 /scratch/ravanelm/exp/dirha/fbank/raw_fbank_tr05_cont.4.ark:14772849
20fc010a /scratch/ravanelm/exp/dirha/fbank/raw_fbank_tr05_cont.3.ark:19525859
024o030j /scratch/ravanelm/exp/dirha/fbank/raw_fbank_tr05_cont.2.ark:32919359
209c010h /scratch/ravanelm/exp/dirha/fbank/raw_fbank_tr05_cont.3.ark:9661989
40ao0319 /scratch/ravanelm/exp/dirha/fbank/raw_fbank_tr05_cont.4.ark:10734129
20qo010d /scratch/ravanelm/exp/dirha/fbank/raw_fbank_tr05_cont.3.ark:34523199
408o0303 /scratch/ravanelm/exp/dirha/fbank/raw_fbank_tr05_cont.4.ark:3625979
209c0105 /scratch/ravanelm/exp/dirha/fbank/raw_fbank_tr05_cont.3.ark:9371949
01go0314 /scratch/ravanelm/exp/dirha/fbank/raw_fbank_tr05_cont.1.ark:39160519
40ec021a /scratch/ravanelm/exp/dirha/fbank/raw_fbank_tr05_cont.4.ark:20404919
019c020k /scratch/ravanelm/exp/dirha/fbank/raw_fbank_tr05_cont.1.ark:21558199
204o0109 /scratch/ravanelm/exp/dirha/fbank/raw_fbank_tr05_cont.3.ark:1785669
408o030v /scratch/ravanelm/exp/dirha/fbank/raw_fbank_tr05_cont.4.ark:4452779
40go030c /scratch/ravanelm/exp/dirha/fbank/raw_fbank_tr05_cont.4.ark:27473389
02co031d /scratch/ravanelm/exp/dirha/fbank/raw_fbank_tr05_cont.2.ark:52148139
016o030l /scratch/ravanelm/exp/dirha/fbank/raw_fbank_tr05_cont.1.ark:13957319
401c0205 /scratch/ravanelm/exp/dirha/fbank/raw_fbank_tr05_cont.3.ark:39700579
409o030o /scratch/ravanelm/exp/dirha/fbank/raw_fbank_tr05_cont.4.ark:7012809
02bc021a /scratch/ravanelm/exp/dirha/fbank/raw_fbank_tr05_cont.2.ark:47269909
018c020b /scratch/ravanelm/exp/dirha/fbank/raw_fbank_tr05_cont.1.ark:17884449
40ho030j /scratch/ravanelm/exp/dirha/fbank/raw_fbank_tr05_cont.4.ark:31017149
20nc010b /scratch/ravanelm/exp/dirha/fbank/raw_fbank_tr05_cont.3.ark:28739849
204o010b /scratch/ravanelm/exp/dirha/fbank/raw_fbank_tr05_cont.3.ark:1846529
40do030y /scratch/ravanelm/exp/dirha/fbank/raw_fbank_tr05_cont.4.ark:18943689
013o030q /scratch/ravanelm/exp/dirha/fbank/raw_fbank_tr05_cont.1.ark:5749839
20po0109 /scratch/ravanelm/exp/dirha/fbank/raw_fbank_tr05_cont.3.ark:32689709
20fo010i /scratch/ravanelm/exp/dirha/fbank/raw_fbank_tr05_cont.3.ark:20502639
407c0214 /scratch/ravanelm/exp/dirha/fbank/raw_fbank_tr05_cont.4.ark:195369
20lc010h /scratch/ravanelm/exp/dirha/fbank/raw_fbank_tr05_cont.3.ark:25490399
027c020h /scratch/ravanelm/exp/dirha/fbank/raw_fbank_tr05_cont.2.ark:37079029
021o030u /scratch/ravanelm/exp/dirha/fbank/raw_fbank_tr05_cont.2.ark:30265859
209o0105 /scratch/ravanelm/exp/dirha/fbank/raw_fbank_tr05_cont.3.ark:10074889
015o030i /scratch/ravanelm/exp/dirha/fbank/raw_fbank_tr05_cont.1.ark:11308489
407o0318 /scratch/ravanelm/exp/dirha/fbank/raw_fbank_tr05_cont.4.ark:2310469
20qo010h /scratch/ravanelm/exp/dirha/fbank/raw_fbank_tr05_cont.3.ark:34661559
40io0302 /scratch/ravanelm/exp/dirha/fbank/raw_fbank_tr05_cont.4.ark:33581959
020c020h /scratch/ravanelm/exp/dirha/fbank/raw_fbank_tr05_cont.2.ark:26441729
01eo0311 /scratch/ravanelm/exp/dirha/fbank/raw_fbank_tr05_cont.1.ark:32932489
40cc020x /scratch/ravanelm/exp/dirha/fbank/raw_fbank_tr05_cont.4.ark:14695479
20fc0109 /scratch/ravanelm/exp/dirha/fbank/raw_fbank_tr05_cont.3.ark:19503429
018o0304 /scratch/ravanelm/exp/dirha/fbank/raw_fbank_tr05_cont.1.ark:19299959
01wc0210 /scratch/ravanelm/exp/dirha/fbank/raw_fbank_tr05_cont.2.ark:17628269
407o030e /scratch/ravanelm/exp/dirha/fbank/raw_fbank_tr05_cont.4.ark:1151609
40jc020g /scratch/ravanelm/exp/dirha/fbank/raw_fbank_tr05_cont.4.ark:35507489
01mo030p /scratch/ravanelm/exp/dirha/fbank/raw_fbank_tr05_cont.1.ark:56112369
01gc020u /scratch/ravanelm/exp/dirha/fbank/raw_fbank_tr05_cont.1.ark:37210119
01uc0201 /scratch/ravanelm/exp/dirha/fbank/raw_fbank_tr05_cont.2.ark:13135829
01zc0209 /scratch/ravanelm/exp/dirha/fbank/raw_fbank_tr05_cont.2.ark:22837799
407c020l /scratch/ravanelm/exp/dirha/fbank/raw_fbank_tr05_cont.3.ark:54285679
407c020a /scratch/ravanelm/exp/dirha/fbank/raw_fbank_tr05_cont.3.ark:53969389
01ro0311 /scratch/ravanelm/exp/dirha/fbank/raw_fbank_tr05_cont.2.ark:9288829
01kc0209 /scratch/ravanelm/exp/dirha/fbank/raw_fbank_tr05_cont.1.ark:46766369
409o0308 /scratch/ravanelm/exp/dirha/fbank/raw_fbank_tr05_cont.4.ark:6523489
02co0307 /scratch/ravanelm/exp/dirha/fbank/raw_fbank_tr05_cont.2.ark:50703119
204c010d /scratch/ravanelm/exp/dirha/fbank/raw_fbank_tr05_cont.3.ark:1309119
01bc020f /scratch/ravanelm/exp/dirha/fbank/raw_fbank_tr05_cont.1.ark:24273389
407o030v /scratch/ravanelm/exp/dirha/fbank/raw_fbank_tr05_cont.4.ark:1857879
40jc0204 /scratch/ravanelm/exp/dirha/fbank/raw_fbank_tr05_cont.4.ark:35226089
019c021e /scratch/ravanelm/exp/dirha/fbank/raw_fbank_tr05_cont.1.ark:22324299
404o0305 /scratch/ravanelm/exp/dirha/fbank/raw_fbank_tr05_cont.3.ark:46940299
40cc020k /scratch/ravanelm/exp/dirha/fbank/raw_fbank_tr05_cont.4.ark:14454089
01wc0219 /scratch/ravanelm/exp/dirha/fbank/raw_fbank_tr05_cont.2.ark:17822669
207o010c /scratch/ravanelm/exp/dirha/fbank/raw_fbank_tr05_cont.3.ark:7042499
01ko030g /scratch/ravanelm/exp/dirha/fbank/raw_fbank_tr05_cont.1.ark:48721849
20lc010q /scratch/ravanelm/exp/dirha/fbank/raw_fbank_tr05_cont.3.ark:25799549
40ho0317 /scratch/ravanelm/exp/dirha/fbank/raw_fbank_tr05_cont.4.ark:31786629
018o030b /scratch/ravanelm/exp/dirha/fbank/raw_fbank_tr05_cont.1.ark:19521609
40bc0202 /scratch/ravanelm/exp/dirha/fbank/raw_fbank_tr05_cont.4.ark:10948209
01kc0218 /scratch/ravanelm/exp/dirha/fbank/raw_fbank_tr05_cont.1.ark:47837349
01to030l /scratch/ravanelm/exp/dirha/fbank/raw_fbank_tr05_cont.2.ark:12005309
40no030f /scratch/ravanelm/exp/dirha/fbank/raw_fbank_tr05_cont.4.ark:50128329
40dc0210 /scratch/ravanelm/exp/dirha/fbank/raw_fbank_tr05_cont.4.ark:17518789
20ao010k /scratch/ravanelm/exp/dirha/fbank/raw_fbank_tr05_cont.3.ark:12196089
20po010b /scratch/ravanelm/exp/dirha/fbank/raw_fbank_tr05_cont.3.ark:32750569
20io010b /scratch/ravanelm/exp/dirha/fbank/raw_fbank_tr05_cont.3.ark:24392079
02ec020o /scratch/ravanelm/exp/dirha/fbank/raw_fbank_tr05_cont.2.ark:53013569
029c020q /scratch/ravanelm/exp/dirha/fbank/raw_fbank_tr05_cont.2.ark:43566579
40bc0209 /scratch/ravanelm/exp/dirha/fbank/raw_fbank_tr05_cont.4.ark:11116059
029o030j /scratch/ravanelm/exp/dirha/fbank/raw_fbank_tr05_cont.2.ark:44877529
027c021h /scratch/ravanelm/exp/dirha/fbank/raw_fbank_tr05_cont.2.ark:38026509
01uo030i /scratch/ravanelm/exp/dirha/fbank/raw_fbank_tr05_cont.2.ark:15365749
027c021c /scratch/ravanelm/exp/dirha/fbank/raw_fbank_tr05_cont.2.ark:37935479
407o030p /scratch/ravanelm/exp/dirha/fbank/raw_fbank_tr05_cont.4.ark:1597219
40ec020r /scratch/ravanelm/exp/dirha/fbank/raw_fbank_tr05_cont.4.ark:19973549
20ao010c /scratch/ravanelm/exp/dirha/fbank/raw_fbank_tr05_cont.3.ark:11869849
01bc020b /scratch/ravanelm/exp/dirha/fbank/raw_fbank_tr05_cont.1.ark:24167709
01zo030i /scratch/ravanelm/exp/dirha/fbank/raw_fbank_tr05_cont.2.ark:24699399
408c020p /scratch/ravanelm/exp/dirha/fbank/raw_fbank_tr05_cont.4.ark:2984879
20go010h /scratch/ravanelm/exp/dirha/fbank/raw_fbank_tr05_cont.3.ark:21783569
408o0308 /scratch/ravanelm/exp/dirha/fbank/raw_fbank_tr05_cont.4.ark:3798609
02bc0201 /scratch/ravanelm/exp/dirha/fbank/raw_fbank_tr05_cont.2.ark:46031799
406c020l /scratch/ravanelm/exp/dirha/fbank/raw_fbank_tr05_cont.3.ark:51494269
40io030x /scratch/ravanelm/exp/dirha/fbank/raw_fbank_tr05_cont.4.ark:34520169
