01ic020g /scratch/ravanelm/exp/dirha/fbank/raw_fbank_tr05_cont.1.ark:40159399
40kc020n /scratch/ravanelm/exp/dirha/fbank/raw_fbank_tr05_cont.4.ark:38902529
019c0214 /scratch/ravanelm/exp/dirha/fbank/raw_fbank_tr05_cont.1.ark:22036639
01ic0213 /scratch/ravanelm/exp/dirha/fbank/raw_fbank_tr05_cont.1.ark:40787609
01jo031c /scratch/ravanelm/exp/dirha/fbank/raw_fbank_tr05_cont.1.ark:46435499
01jo030v /scratch/ravanelm/exp/dirha/fbank/raw_fbank_tr05_cont.1.ark:45670389
40kc020z /scratch/ravanelm/exp/dirha/fbank/raw_fbank_tr05_cont.4.ark:39230329
408o0303 /scratch/ravanelm/exp/dirha/fbank/raw_fbank_tr05_cont.4.ark:3625979
014c0219 /scratch/ravanelm/exp/dirha/fbank/raw_fbank_tr05_cont.1.ark:7541739
014o030p /scratch/ravanelm/exp/dirha/fbank/raw_fbank_tr05_cont.1.ark:8596209
026o030t /scratch/ravanelm/exp/dirha/fbank/raw_fbank_tr05_cont.2.ark:35984429
20dc010e /scratch/ravanelm/exp/dirha/fbank/raw_fbank_tr05_cont.3.ark:16154679
40jo030p /scratch/ravanelm/exp/dirha/fbank/raw_fbank_tr05_cont.4.ark:37372299
40lc020f /scratch/ravanelm/exp/dirha/fbank/raw_fbank_tr05_cont.4.ark:41757929
021c0211 /scratch/ravanelm/exp/dirha/fbank/raw_fbank_tr05_cont.2.ark:29043299
40bo030e /scratch/ravanelm/exp/dirha/fbank/raw_fbank_tr05_cont.4.ark:12819609
40hc0204 /scratch/ravanelm/exp/dirha/fbank/raw_fbank_tr05_cont.4.ark:29204889
028o030t /scratch/ravanelm/exp/dirha/fbank/raw_fbank_tr05_cont.2.ark:42148439
407c0202 /scratch/ravanelm/exp/dirha/fbank/raw_fbank_tr05_cont.3.ark:53764029
01uc0203 /scratch/ravanelm/exp/dirha/fbank/raw_fbank_tr05_cont.2.ark:13185649
40jc020o /scratch/ravanelm/exp/dirha/fbank/raw_fbank_tr05_cont.4.ark:35729809
40co0309 /scratch/ravanelm/exp/dirha/fbank/raw_fbank_tr05_cont.4.ark:15330659
019c020s /scratch/ravanelm/exp/dirha/fbank/raw_fbank_tr05_cont.1.ark:21728599
409c0206 /scratch/ravanelm/exp/dirha/fbank/raw_fbank_tr05_cont.4.ark:5016629
014c0204 /scratch/ravanelm/exp/dirha/fbank/raw_fbank_tr05_cont.1.ark:6607189
20eo010h /scratch/ravanelm/exp/dirha/fbank/raw_fbank_tr05_cont.3.ark:18885609
017o0314 /scratch/ravanelm/exp/dirha/fbank/raw_fbank_tr05_cont.1.ark:17302579
205o010k /scratch/ravanelm/exp/dirha/fbank/raw_fbank_tr05_cont.3.ark:3895769
20ho010b /scratch/ravanelm/exp/dirha/fbank/raw_fbank_tr05_cont.3.ark:22946209
405o0306 /scratch/ravanelm/exp/dirha/fbank/raw_fbank_tr05_cont.3.ark:49609609
20pc010o /scratch/ravanelm/exp/dirha/fbank/raw_fbank_tr05_cont.3.ark:32352289
01bc0214 /scratch/ravanelm/exp/dirha/fbank/raw_fbank_tr05_cont.1.ark:25030439
011o031a /scratch/ravanelm/exp/dirha/fbank/raw_fbank_tr05_cont.1.ark:3239099
021o0316 /scratch/ravanelm/exp/dirha/fbank/raw_fbank_tr05_cont.2.ark:30646419
01zc0217 /scratch/ravanelm/exp/dirha/fbank/raw_fbank_tr05_cont.2.ark:23822899
016o030e /scratch/ravanelm/exp/dirha/fbank/raw_fbank_tr05_cont.1.ark:13776979
01fo0311 /scratch/ravanelm/exp/dirha/fbank/raw_fbank_tr05_cont.1.ark:35962489
01ec0217 /scratch/ravanelm/exp/dirha/fbank/raw_fbank_tr05_cont.1.ark:31635289
01mc020b /scratch/ravanelm/exp/dirha/fbank/raw_fbank_tr05_cont.1.ark:54303419
01kc0213 /scratch/ravanelm/exp/dirha/fbank/raw_fbank_tr05_cont.1.ark:47693439
02bc020s /scratch/ravanelm/exp/dirha/fbank/raw_fbank_tr05_cont.2.ark:46751849
016c021c /scratch/ravanelm/exp/dirha/fbank/raw_fbank_tr05_cont.1.ark:13358959
20rc0104 /scratch/ravanelm/exp/dirha/fbank/raw_fbank_tr05_cont.3.ark:35108269
016o030q /scratch/ravanelm/exp/dirha/fbank/raw_fbank_tr05_cont.1.ark:14075349
20hc010k /scratch/ravanelm/exp/dirha/fbank/raw_fbank_tr05_cont.3.ark:22466739
014o030v /scratch/ravanelm/exp/dirha/fbank/raw_fbank_tr05_cont.1.ark:8838549
02ec0202 /scratch/ravanelm/exp/dirha/fbank/raw_fbank_tr05_cont.2.ark:52273549
019c0205 /scratch/ravanelm/exp/dirha/fbank/raw_fbank_tr05_cont.1.ark:21194029
01uo030d /scratch/ravanelm/exp/dirha/fbank/raw_fbank_tr05_cont.2.ark:15198959
01tc020b /scratch/ravanelm/exp/dirha/fbank/raw_fbank_tr05_cont.2.ark:9950839
014c020e /scratch/ravanelm/exp/dirha/fbank/raw_fbank_tr05_cont.1.ark:6840929
01wo0307 /scratch/ravanelm/exp/dirha/fbank/raw_fbank_tr05_cont.2.ark:18148819
029o030t /scratch/ravanelm/exp/dirha/fbank/raw_fbank_tr05_cont.2.ark:45252349
01dc020i /scratch/ravanelm/exp/dirha/fbank/raw_fbank_tr05_cont.1.ark:27888859
01qc020a /scratch/ravanelm/exp/dirha/fbank/raw_fbank_tr05_cont.2.ark:3962839
406c020t /scratch/ravanelm/exp/dirha/fbank/raw_fbank_tr05_cont.3.ark:51627399
01lo030w /scratch/ravanelm/exp/dirha/fbank/raw_fbank_tr05_cont.1.ark:53156739
027c020e /scratch/ravanelm/exp/dirha/fbank/raw_fbank_tr05_cont.2.ark:36995419
40do030e /scratch/ravanelm/exp/dirha/fbank/raw_fbank_tr05_cont.4.ark:18316809
20eo0103 /scratch/ravanelm/exp/dirha/fbank/raw_fbank_tr05_cont.3.ark:18339749
404c020s /scratch/ravanelm/exp/dirha/fbank/raw_fbank_tr05_cont.3.ark:46285779
40pc020l /scratch/ravanelm/exp/dirha/fbank/raw_fbank_tr05_cont.4.ark:51848899
40ao030k /scratch/ravanelm/exp/dirha/fbank/raw_fbank_tr05_cont.4.ark:9904099
20ic010d /scratch/ravanelm/exp/dirha/fbank/raw_fbank_tr05_cont.3.ark:23716299
01zo030z /scratch/ravanelm/exp/dirha/fbank/raw_fbank_tr05_cont.2.ark:25509109
20ic010c /scratch/ravanelm/exp/dirha/fbank/raw_fbank_tr05_cont.3.ark:23706029
019o0319 /scratch/ravanelm/exp/dirha/fbank/raw_fbank_tr05_cont.1.ark:23768619
02eo0304 /scratch/ravanelm/exp/dirha/fbank/raw_fbank_tr05_cont.2.ark:53958149
016o0308 /scratch/ravanelm/exp/dirha/fbank/raw_fbank_tr05_cont.1.ark:13608479
206o010n /scratch/ravanelm/exp/dirha/fbank/raw_fbank_tr05_cont.3.ark:5712609
013c0210 /scratch/ravanelm/exp/dirha/fbank/raw_fbank_tr05_cont.1.ark:4582689
01ic0208 /scratch/ravanelm/exp/dirha/fbank/raw_fbank_tr05_cont.1.ark:39897879
016o0312 /scratch/ravanelm/exp/dirha/fbank/raw_fbank_tr05_cont.1.ark:14428189
018c020c /scratch/ravanelm/exp/dirha/fbank/raw_fbank_tr05_cont.1.ark:17923919
40pc020o /scratch/ravanelm/exp/dirha/fbank/raw_fbank_tr05_cont.4.ark:51918829
018c021a /scratch/ravanelm/exp/dirha/fbank/raw_fbank_tr05_cont.1.ark:18953539
40co0301 /scratch/ravanelm/exp/dirha/fbank/raw_fbank_tr05_cont.4.ark:15130939
205o010o /scratch/ravanelm/exp/dirha/fbank/raw_fbank_tr05_cont.3.ark:4026849
40ao030p /scratch/ravanelm/exp/dirha/fbank/raw_fbank_tr05_cont.4.ark:10057409
01rc020k /scratch/ravanelm/exp/dirha/fbank/raw_fbank_tr05_cont.2.ark:7301679
20bo010j /scratch/ravanelm/exp/dirha/fbank/raw_fbank_tr05_cont.3.ark:13906279
015o030q /scratch/ravanelm/exp/dirha/fbank/raw_fbank_tr05_cont.1.ark:11642089
408o030m /scratch/ravanelm/exp/dirha/fbank/raw_fbank_tr05_cont.4.ark:4227429
01zc020k /scratch/ravanelm/exp/dirha/fbank/raw_fbank_tr05_cont.2.ark:23151369
016o0304 /scratch/ravanelm/exp/dirha/fbank/raw_fbank_tr05_cont.1.ark:13498789
013o0306 /scratch/ravanelm/exp/dirha/fbank/raw_fbank_tr05_cont.1.ark:5106599
01ro0310 /scratch/ravanelm/exp/dirha/fbank/raw_fbank_tr05_cont.2.ark:9254559
40co030n /scratch/ravanelm/exp/dirha/fbank/raw_fbank_tr05_cont.4.ark:15740239
01bc020n /scratch/ravanelm/exp/dirha/fbank/raw_fbank_tr05_cont.1.ark:24519039
20dc010i /scratch/ravanelm/exp/dirha/fbank/raw_fbank_tr05_cont.3.ark:16240399
40po030j /scratch/ravanelm/exp/dirha/fbank/raw_fbank_tr05_cont.4.ark:53228009
015c0204 /scratch/ravanelm/exp/dirha/fbank/raw_fbank_tr05_cont.1.ark:9551849
015c021a /scratch/ravanelm/exp/dirha/fbank/raw_fbank_tr05_cont.1.ark:10616829
40mc020b /scratch/ravanelm/exp/dirha/fbank/raw_fbank_tr05_cont.4.ark:45285579
20oo010q /scratch/ravanelm/exp/dirha/fbank/raw_fbank_tr05_cont.3.ark:31746899
20fo010p /scratch/ravanelm/exp/dirha/fbank/raw_fbank_tr05_cont.3.ark:20702209
028c0205 /scratch/ravanelm/exp/dirha/fbank/raw_fbank_tr05_cont.2.ark:39878229
407c021b /scratch/ravanelm/exp/dirha/fbank/raw_fbank_tr05_cont.4.ark:430459
405o030t /scratch/ravanelm/exp/dirha/fbank/raw_fbank_tr05_cont.3.ark:50272979
407c020x /scratch/ravanelm/exp/dirha/fbank/raw_fbank_tr05_cont.4.ark:10759
01pc021c /scratch/ravanelm/exp/dirha/fbank/raw_fbank_tr05_cont.2.ark:1781129
40eo030v /scratch/ravanelm/exp/dirha/fbank/raw_fbank_tr05_cont.4.ark:21523899
01uc020i /scratch/ravanelm/exp/dirha/fbank/raw_fbank_tr05_cont.2.ark:13682139
20bo010f /scratch/ravanelm/exp/dirha/fbank/raw_fbank_tr05_cont.3.ark:13722879
20ho010j /scratch/ravanelm/exp/dirha/fbank/raw_fbank_tr05_cont.3.ark:23165969
208o010f /scratch/ravanelm/exp/dirha/fbank/raw_fbank_tr05_cont.3.ark:8839199
406c0213 /scratch/ravanelm/exp/dirha/fbank/raw_fbank_tr05_cont.3.ark:51884179
026o0315 /scratch/ravanelm/exp/dirha/fbank/raw_fbank_tr05_cont.2.ark:36402629
408o0308 /scratch/ravanelm/exp/dirha/fbank/raw_fbank_tr05_cont.4.ark:3798609
027c0205 /scratch/ravanelm/exp/dirha/fbank/raw_fbank_tr05_cont.2.ark:36773269
408o030f /scratch/ravanelm/exp/dirha/fbank/raw_fbank_tr05_cont.4.ark:3981979
401c020f /scratch/ravanelm/exp/dirha/fbank/raw_fbank_tr05_cont.3.ark:40042919
407o0303 /scratch/ravanelm/exp/dirha/fbank/raw_fbank_tr05_cont.4.ark:727159
40po031b /scratch/ravanelm/exp/dirha/fbank/raw_fbank_tr05_cont.4.ark:54119969
026o030a /scratch/ravanelm/exp/dirha/fbank/raw_fbank_tr05_cont.2.ark:35387219
20vo010d /scratch/ravanelm/exp/dirha/fbank/raw_fbank_tr05_cont.3.ark:39101919
01ro030c /scratch/ravanelm/exp/dirha/fbank/raw_fbank_tr05_cont.2.ark:8437719
405o030x /scratch/ravanelm/exp/dirha/fbank/raw_fbank_tr05_cont.3.ark:50398859
406o030c /scratch/ravanelm/exp/dirha/fbank/raw_fbank_tr05_cont.3.ark:52523579
016c020v /scratch/ravanelm/exp/dirha/fbank/raw_fbank_tr05_cont.1.ark:13006189
011c0208 /scratch/ravanelm/exp/dirha/fbank/raw_fbank_tr05_cont.1.ark:167659
404c0216 /scratch/ravanelm/exp/dirha/fbank/raw_fbank_tr05_cont.3.ark:46570719
20vc010i /scratch/ravanelm/exp/dirha/fbank/raw_fbank_tr05_cont.3.ark:38573719
01zc020b /scratch/ravanelm/exp/dirha/fbank/raw_fbank_tr05_cont.2.ark:22880779
40ec021a /scratch/ravanelm/exp/dirha/fbank/raw_fbank_tr05_cont.4.ark:20404919
403c0204 /scratch/ravanelm/exp/dirha/fbank/raw_fbank_tr05_cont.3.ark:42968039
01uo0318 /scratch/ravanelm/exp/dirha/fbank/raw_fbank_tr05_cont.2.ark:16414609
401o0312 /scratch/ravanelm/exp/dirha/fbank/raw_fbank_tr05_cont.3.ark:42385709
01dc020v /scratch/ravanelm/exp/dirha/fbank/raw_fbank_tr05_cont.1.ark:28194889
01uc0216 /scratch/ravanelm/exp/dirha/fbank/raw_fbank_tr05_cont.2.ark:14438259
407o0311 /scratch/ravanelm/exp/dirha/fbank/raw_fbank_tr05_cont.4.ark:2066059
20dc0109 /scratch/ravanelm/exp/dirha/fbank/raw_fbank_tr05_cont.3.ark:15970609
20vc0107 /scratch/ravanelm/exp/dirha/fbank/raw_fbank_tr05_cont.3.ark:38272429
020o030y /scratch/ravanelm/exp/dirha/fbank/raw_fbank_tr05_cont.2.ark:27621859
01tc020s /scratch/ravanelm/exp/dirha/fbank/raw_fbank_tr05_cont.2.ark:10543749
01kc0212 /scratch/ravanelm/exp/dirha/fbank/raw_fbank_tr05_cont.1.ark:47653409
016c020u /scratch/ravanelm/exp/dirha/fbank/raw_fbank_tr05_cont.1.ark:12977799
020c020e /scratch/ravanelm/exp/dirha/fbank/raw_fbank_tr05_cont.2.ark:26372639
015o030c /scratch/ravanelm/exp/dirha/fbank/raw_fbank_tr05_cont.1.ark:11147789
20fo0107 /scratch/ravanelm/exp/dirha/fbank/raw_fbank_tr05_cont.3.ark:20177029
015c020s /scratch/ravanelm/exp/dirha/fbank/raw_fbank_tr05_cont.1.ark:10193609
015c020q /scratch/ravanelm/exp/dirha/fbank/raw_fbank_tr05_cont.1.ark:10157029
403c020n /scratch/ravanelm/exp/dirha/fbank/raw_fbank_tr05_cont.3.ark:43390769
013o030f /scratch/ravanelm/exp/dirha/fbank/raw_fbank_tr05_cont.1.ark:5379389
01do030w /scratch/ravanelm/exp/dirha/fbank/raw_fbank_tr05_cont.1.ark:29757349
011o030n /scratch/ravanelm/exp/dirha/fbank/raw_fbank_tr05_cont.1.ark:2304329
026c021a /scratch/ravanelm/exp/dirha/fbank/raw_fbank_tr05_cont.2.ark:34957179
409o030a /scratch/ravanelm/exp/dirha/fbank/raw_fbank_tr05_cont.4.ark:6558549
028c0211 /scratch/ravanelm/exp/dirha/fbank/raw_fbank_tr05_cont.2.ark:40646269
40ic0201 /scratch/ravanelm/exp/dirha/fbank/raw_fbank_tr05_cont.4.ark:32033679
20to010c /scratch/ravanelm/exp/dirha/fbank/raw_fbank_tr05_cont.3.ark:37674069
20ac0107 /scratch/ravanelm/exp/dirha/fbank/raw_fbank_tr05_cont.3.ark:10902979
20lc010o /scratch/ravanelm/exp/dirha/fbank/raw_fbank_tr05_cont.3.ark:25716049
209c0102 /scratch/ravanelm/exp/dirha/fbank/raw_fbank_tr05_cont.3.ark:9309859
027c0202 /scratch/ravanelm/exp/dirha/fbank/raw_fbank_tr05_cont.2.ark:36661099
01fc020n /scratch/ravanelm/exp/dirha/fbank/raw_fbank_tr05_cont.1.ark:33980509
403o0313 /scratch/ravanelm/exp/dirha/fbank/raw_fbank_tr05_cont.3.ark:45295139
20io0105 /scratch/ravanelm/exp/dirha/fbank/raw_fbank_tr05_cont.3.ark:24173739
018o0305 /scratch/ravanelm/exp/dirha/fbank/raw_fbank_tr05_cont.1.ark:19358389
013c0212 /scratch/ravanelm/exp/dirha/fbank/raw_fbank_tr05_cont.1.ark:4639789
405o031a /scratch/ravanelm/exp/dirha/fbank/raw_fbank_tr05_cont.3.ark:50781009
20lo010n /scratch/ravanelm/exp/dirha/fbank/raw_fbank_tr05_cont.3.ark:26870479
01go0314 /scratch/ravanelm/exp/dirha/fbank/raw_fbank_tr05_cont.1.ark:39160519
027c020i /scratch/ravanelm/exp/dirha/fbank/raw_fbank_tr05_cont.2.ark:37093899
021c0209 /scratch/ravanelm/exp/dirha/fbank/raw_fbank_tr05_cont.2.ark:28268659
028o0302 /scratch/ravanelm/exp/dirha/fbank/raw_fbank_tr05_cont.2.ark:41122869
404o031c /scratch/ravanelm/exp/dirha/fbank/raw_fbank_tr05_cont.3.ark:48176309
01do030i /scratch/ravanelm/exp/dirha/fbank/raw_fbank_tr05_cont.1.ark:29360269
028o030c /scratch/ravanelm/exp/dirha/fbank/raw_fbank_tr05_cont.2.ark:41488289
02co030h /scratch/ravanelm/exp/dirha/fbank/raw_fbank_tr05_cont.2.ark:51020899
01pc020k /scratch/ravanelm/exp/dirha/fbank/raw_fbank_tr05_cont.2.ark:963209
40no0307 /scratch/ravanelm/exp/dirha/fbank/raw_fbank_tr05_cont.4.ark:49842809
01uc020b /scratch/ravanelm/exp/dirha/fbank/raw_fbank_tr05_cont.2.ark:13483329
40cc0216 /scratch/ravanelm/exp/dirha/fbank/raw_fbank_tr05_cont.4.ark:14916469
20no0105 /scratch/ravanelm/exp/dirha/fbank/raw_fbank_tr05_cont.3.ark:29387139
408c021c /scratch/ravanelm/exp/dirha/fbank/raw_fbank_tr05_cont.4.ark:3465499
409c020t /scratch/ravanelm/exp/dirha/fbank/raw_fbank_tr05_cont.4.ark:5672399
01fo0307 /scratch/ravanelm/exp/dirha/fbank/raw_fbank_tr05_cont.1.ark:35001789
017o030x /scratch/ravanelm/exp/dirha/fbank/raw_fbank_tr05_cont.1.ark:17050809
40io030u /scratch/ravanelm/exp/dirha/fbank/raw_fbank_tr05_cont.4.ark:34434959
013c020p /scratch/ravanelm/exp/dirha/fbank/raw_fbank_tr05_cont.1.ark:4319359
407o030j /scratch/ravanelm/exp/dirha/fbank/raw_fbank_tr05_cont.4.ark:1317639
40ic020z /scratch/ravanelm/exp/dirha/fbank/raw_fbank_tr05_cont.4.ark:33054219
40hc020h /scratch/ravanelm/exp/dirha/fbank/raw_fbank_tr05_cont.4.ark:29533559
40go031b /scratch/ravanelm/exp/dirha/fbank/raw_fbank_tr05_cont.4.ark:29015479
01lo030h /scratch/ravanelm/exp/dirha/fbank/raw_fbank_tr05_cont.1.ark:52625289
40po0306 /scratch/ravanelm/exp/dirha/fbank/raw_fbank_tr05_cont.4.ark:52728059
01mo0318 /scratch/ravanelm/exp/dirha/fbank/raw_fbank_tr05_cont.2.ark:208109
02cc020h /scratch/ravanelm/exp/dirha/fbank/raw_fbank_tr05_cont.2.ark:49674339
40ac020b /scratch/ravanelm/exp/dirha/fbank/raw_fbank_tr05_cont.4.ark:8154729
40hc021d /scratch/ravanelm/exp/dirha/fbank/raw_fbank_tr05_cont.4.ark:30338319
40go031c /scratch/ravanelm/exp/dirha/fbank/raw_fbank_tr05_cont.4.ark:29040829
205c010h /scratch/ravanelm/exp/dirha/fbank/raw_fbank_tr05_cont.3.ark:2897169
01kc020l /scratch/ravanelm/exp/dirha/fbank/raw_fbank_tr05_cont.1.ark:47125699
02bo030j /scratch/ravanelm/exp/dirha/fbank/raw_fbank_tr05_cont.2.ark:48094109
028o030s /scratch/ravanelm/exp/dirha/fbank/raw_fbank_tr05_cont.2.ark:42099649
02bc020q /scratch/ravanelm/exp/dirha/fbank/raw_fbank_tr05_cont.2.ark:46725829
20io010c /scratch/ravanelm/exp/dirha/fbank/raw_fbank_tr05_cont.3.ark:24437789
404o030g /scratch/ravanelm/exp/dirha/fbank/raw_fbank_tr05_cont.3.ark:47257149
20lc010q /scratch/ravanelm/exp/dirha/fbank/raw_fbank_tr05_cont.3.ark:25799549
01bc020t /scratch/ravanelm/exp/dirha/fbank/raw_fbank_tr05_cont.1.ark:24771899
40po0303 /scratch/ravanelm/exp/dirha/fbank/raw_fbank_tr05_cont.4.ark:52643649
029o031f /scratch/ravanelm/exp/dirha/fbank/raw_fbank_tr05_cont.2.ark:45993649
029c0214 /scratch/ravanelm/exp/dirha/fbank/raw_fbank_tr05_cont.2.ark:43939759
01jo0301 /scratch/ravanelm/exp/dirha/fbank/raw_fbank_tr05_cont.1.ark:44590409
01eo030h /scratch/ravanelm/exp/dirha/fbank/raw_fbank_tr05_cont.1.ark:32300929
01pc0205 /scratch/ravanelm/exp/dirha/fbank/raw_fbank_tr05_cont.2.ark:512599
20lc0101 /scratch/ravanelm/exp/dirha/fbank/raw_fbank_tr05_cont.3.ark:24935519
40no030g /scratch/ravanelm/exp/dirha/fbank/raw_fbank_tr05_cont.4.ark:50157759
40ko0308 /scratch/ravanelm/exp/dirha/fbank/raw_fbank_tr05_cont.4.ark:39872439
01jc0211 /scratch/ravanelm/exp/dirha/fbank/raw_fbank_tr05_cont.1.ark:44085449
01tc0219 /scratch/ravanelm/exp/dirha/fbank/raw_fbank_tr05_cont.2.ark:11099859
017o030t /scratch/ravanelm/exp/dirha/fbank/raw_fbank_tr05_cont.1.ark:16958289
20gc0103 /scratch/ravanelm/exp/dirha/fbank/raw_fbank_tr05_cont.3.ark:20789819
029c0202 /scratch/ravanelm/exp/dirha/fbank/raw_fbank_tr05_cont.2.ark:42883619
40ec0215 /scratch/ravanelm/exp/dirha/fbank/raw_fbank_tr05_cont.4.ark:20305249
01uo030o /scratch/ravanelm/exp/dirha/fbank/raw_fbank_tr05_cont.2.ark:15567969
01wc0211 /scratch/ravanelm/exp/dirha/fbank/raw_fbank_tr05_cont.2.ark:17657459
020c021b /scratch/ravanelm/exp/dirha/fbank/raw_fbank_tr05_cont.2.ark:27004509
02cc0203 /scratch/ravanelm/exp/dirha/fbank/raw_fbank_tr05_cont.2.ark:49306639
01po0305 /scratch/ravanelm/exp/dirha/fbank/raw_fbank_tr05_cont.2.ark:2098279
018o030k /scratch/ravanelm/exp/dirha/fbank/raw_fbank_tr05_cont.1.ark:19909919
013c021e /scratch/ravanelm/exp/dirha/fbank/raw_fbank_tr05_cont.1.ark:4915389
016c0201 /scratch/ravanelm/exp/dirha/fbank/raw_fbank_tr05_cont.1.ark:12305679
026c021f /scratch/ravanelm/exp/dirha/fbank/raw_fbank_tr05_cont.2.ark:35094449
01io031e /scratch/ravanelm/exp/dirha/fbank/raw_fbank_tr05_cont.1.ark:42933389
407c021h /scratch/ravanelm/exp/dirha/fbank/raw_fbank_tr05_cont.4.ark:602719
029c021e /scratch/ravanelm/exp/dirha/fbank/raw_fbank_tr05_cont.2.ark:44185819
026c0214 /scratch/ravanelm/exp/dirha/fbank/raw_fbank_tr05_cont.2.ark:34794599
401o0305 /scratch/ravanelm/exp/dirha/fbank/raw_fbank_tr05_cont.3.ark:41232829
40mc020d /scratch/ravanelm/exp/dirha/fbank/raw_fbank_tr05_cont.4.ark:45318559
029o0302 /scratch/ravanelm/exp/dirha/fbank/raw_fbank_tr05_cont.2.ark:44317459
20qo010p /scratch/ravanelm/exp/dirha/fbank/raw_fbank_tr05_cont.3.ark:34936279
011c020i /scratch/ravanelm/exp/dirha/fbank/raw_fbank_tr05_cont.1.ark:452199
015o030j /scratch/ravanelm/exp/dirha/fbank/raw_fbank_tr05_cont.1.ark:11352479
40dc021a /scratch/ravanelm/exp/dirha/fbank/raw_fbank_tr05_cont.4.ark:17782249
01bo030w /scratch/ravanelm/exp/dirha/fbank/raw_fbank_tr05_cont.1.ark:26731679
40lo030u /scratch/ravanelm/exp/dirha/fbank/raw_fbank_tr05_cont.4.ark:44120949
014c0215 /scratch/ravanelm/exp/dirha/fbank/raw_fbank_tr05_cont.1.ark:7457019
20ho010h /scratch/ravanelm/exp/dirha/fbank/raw_fbank_tr05_cont.3.ark:23108629
01dc0212 /scratch/ravanelm/exp/dirha/fbank/raw_fbank_tr05_cont.1.ark:28388179
408o0309 /scratch/ravanelm/exp/dirha/fbank/raw_fbank_tr05_cont.4.ark:3841399
20po0107 /scratch/ravanelm/exp/dirha/fbank/raw_fbank_tr05_cont.3.ark:32617249
028o0312 /scratch/ravanelm/exp/dirha/fbank/raw_fbank_tr05_cont.2.ark:42417069
206c010h /scratch/ravanelm/exp/dirha/fbank/raw_fbank_tr05_cont.3.ark:4595609
01bo0304 /scratch/ravanelm/exp/dirha/fbank/raw_fbank_tr05_cont.1.ark:25546909
014c020i /scratch/ravanelm/exp/dirha/fbank/raw_fbank_tr05_cont.1.ark:6950809
40jo030y /scratch/ravanelm/exp/dirha/fbank/raw_fbank_tr05_cont.4.ark:37682489
405o030o /scratch/ravanelm/exp/dirha/fbank/raw_fbank_tr05_cont.3.ark:50141629
20pc0109 /scratch/ravanelm/exp/dirha/fbank/raw_fbank_tr05_cont.3.ark:32003679
40io030x /scratch/ravanelm/exp/dirha/fbank/raw_fbank_tr05_cont.4.ark:34520169
20vc010m /scratch/ravanelm/exp/dirha/fbank/raw_fbank_tr05_cont.3.ark:38676399
01ro0303 /scratch/ravanelm/exp/dirha/fbank/raw_fbank_tr05_cont.2.ark:8263409
016c0215 /scratch/ravanelm/exp/dirha/fbank/raw_fbank_tr05_cont.1.ark:13202549
01fo030h /scratch/ravanelm/exp/dirha/fbank/raw_fbank_tr05_cont.1.ark:35359609
01zc0214 /scratch/ravanelm/exp/dirha/fbank/raw_fbank_tr05_cont.2.ark:23724889
01uo031d /scratch/ravanelm/exp/dirha/fbank/raw_fbank_tr05_cont.2.ark:16560239
01to030n /scratch/ravanelm/exp/dirha/fbank/raw_fbank_tr05_cont.2.ark:12055409
409c020n /scratch/ravanelm/exp/dirha/fbank/raw_fbank_tr05_cont.4.ark:5475499
021o0303 /scratch/ravanelm/exp/dirha/fbank/raw_fbank_tr05_cont.2.ark:29450689
20rc0102 /scratch/ravanelm/exp/dirha/fbank/raw_fbank_tr05_cont.3.ark:35045889
406c0209 /scratch/ravanelm/exp/dirha/fbank/raw_fbank_tr05_cont.3.ark:51192789
40ho030w /scratch/ravanelm/exp/dirha/fbank/raw_fbank_tr05_cont.4.ark:31437339
01bc0202 /scratch/ravanelm/exp/dirha/fbank/raw_fbank_tr05_cont.1.ark:23825309
01wc021c /scratch/ravanelm/exp/dirha/fbank/raw_fbank_tr05_cont.2.ark:17884679
20co0101 /scratch/ravanelm/exp/dirha/fbank/raw_fbank_tr05_cont.3.ark:14951939
011c020f /scratch/ravanelm/exp/dirha/fbank/raw_fbank_tr05_cont.1.ark:372629
01eo030y /scratch/ravanelm/exp/dirha/fbank/raw_fbank_tr05_cont.1.ark:32829319
01rc0213 /scratch/ravanelm/exp/dirha/fbank/raw_fbank_tr05_cont.2.ark:7877169
01eo0319 /scratch/ravanelm/exp/dirha/fbank/raw_fbank_tr05_cont.1.ark:33183009
40ao030u /scratch/ravanelm/exp/dirha/fbank/raw_fbank_tr05_cont.4.ark:10237799
206c010k /scratch/ravanelm/exp/dirha/fbank/raw_fbank_tr05_cont.3.ark:4712339
02ec021a /scratch/ravanelm/exp/dirha/fbank/raw_fbank_tr05_cont.2.ark:53677549
01zo0312 /scratch/ravanelm/exp/dirha/fbank/raw_fbank_tr05_cont.2.ark:25635559
404o0318 /scratch/ravanelm/exp/dirha/fbank/raw_fbank_tr05_cont.3.ark:48100669
40po030h /scratch/ravanelm/exp/dirha/fbank/raw_fbank_tr05_cont.4.ark:53135629
01lo0310 /scratch/ravanelm/exp/dirha/fbank/raw_fbank_tr05_cont.1.ark:53400139
011o031c /scratch/ravanelm/exp/dirha/fbank/raw_fbank_tr05_cont.1.ark:3326879
40mo0310 /scratch/ravanelm/exp/dirha/fbank/raw_fbank_tr05_cont.4.ark:47635889
20cc010h /scratch/ravanelm/exp/dirha/fbank/raw_fbank_tr05_cont.3.ark:14731589
408o031b /scratch/ravanelm/exp/dirha/fbank/raw_fbank_tr05_cont.4.ark:4838699
01fo030z /scratch/ravanelm/exp/dirha/fbank/raw_fbank_tr05_cont.1.ark:35893829
027c0213 /scratch/ravanelm/exp/dirha/fbank/raw_fbank_tr05_cont.2.ark:37633929
01lc020w /scratch/ravanelm/exp/dirha/fbank/raw_fbank_tr05_cont.1.ark:51267849
40co030w /scratch/ravanelm/exp/dirha/fbank/raw_fbank_tr05_cont.4.ark:15949629
40ac020j /scratch/ravanelm/exp/dirha/fbank/raw_fbank_tr05_cont.4.ark:8411689
40nc020b /scratch/ravanelm/exp/dirha/fbank/raw_fbank_tr05_cont.4.ark:48332209
01tc0213 /scratch/ravanelm/exp/dirha/fbank/raw_fbank_tr05_cont.2.ark:10945439
028c0201 /scratch/ravanelm/exp/dirha/fbank/raw_fbank_tr05_cont.2.ark:39789589
019o030s /scratch/ravanelm/exp/dirha/fbank/raw_fbank_tr05_cont.1.ark:23254629
01pc0210 /scratch/ravanelm/exp/dirha/fbank/raw_fbank_tr05_cont.2.ark:1407089
014c020c /scratch/ravanelm/exp/dirha/fbank/raw_fbank_tr05_cont.1.ark:6803509
01ko0319 /scratch/ravanelm/exp/dirha/fbank/raw_fbank_tr05_cont.1.ark:49871959
40mo0306 /scratch/ravanelm/exp/dirha/fbank/raw_fbank_tr05_cont.4.ark:46602629
017c020g /scratch/ravanelm/exp/dirha/fbank/raw_fbank_tr05_cont.1.ark:15172139
40bc0205 /scratch/ravanelm/exp/dirha/fbank/raw_fbank_tr05_cont.4.ark:11007179
02cc020d /scratch/ravanelm/exp/dirha/fbank/raw_fbank_tr05_cont.2.ark:49587339
408o030c /scratch/ravanelm/exp/dirha/fbank/raw_fbank_tr05_cont.4.ark:3917129
40gc0210 /scratch/ravanelm/exp/dirha/fbank/raw_fbank_tr05_cont.4.ark:26375419
026c0207 /scratch/ravanelm/exp/dirha/fbank/raw_fbank_tr05_cont.2.ark:34054929
403c021b /scratch/ravanelm/exp/dirha/fbank/raw_fbank_tr05_cont.3.ark:43921689
406c020s /scratch/ravanelm/exp/dirha/fbank/raw_fbank_tr05_cont.3.ark:51602929
20to0102 /scratch/ravanelm/exp/dirha/fbank/raw_fbank_tr05_cont.3.ark:37440809
40no030r /scratch/ravanelm/exp/dirha/fbank/raw_fbank_tr05_cont.4.ark:50584049
01uo030r /scratch/ravanelm/exp/dirha/fbank/raw_fbank_tr05_cont.2.ark:15700019
40bc020v /scratch/ravanelm/exp/dirha/fbank/raw_fbank_tr05_cont.4.ark:11722599
026o030h /scratch/ravanelm/exp/dirha/fbank/raw_fbank_tr05_cont.2.ark:35611109
027o030j /scratch/ravanelm/exp/dirha/fbank/raw_fbank_tr05_cont.2.ark:38774599
01zc020q /scratch/ravanelm/exp/dirha/fbank/raw_fbank_tr05_cont.2.ark:23311269
017c021f /scratch/ravanelm/exp/dirha/fbank/raw_fbank_tr05_cont.1.ark:15985229
40co030s /scratch/ravanelm/exp/dirha/fbank/raw_fbank_tr05_cont.4.ark:15876669
011c020q /scratch/ravanelm/exp/dirha/fbank/raw_fbank_tr05_cont.1.ark:697679
20co010n /scratch/ravanelm/exp/dirha/fbank/raw_fbank_tr05_cont.3.ark:15649529
015o0308 /scratch/ravanelm/exp/dirha/fbank/raw_fbank_tr05_cont.1.ark:10991629
404o0308 /scratch/ravanelm/exp/dirha/fbank/raw_fbank_tr05_cont.3.ark:47023389
40ec0209 /scratch/ravanelm/exp/dirha/fbank/raw_fbank_tr05_cont.4.ark:19601889
40ao0307 /scratch/ravanelm/exp/dirha/fbank/raw_fbank_tr05_cont.4.ark:9470669
408c020s /scratch/ravanelm/exp/dirha/fbank/raw_fbank_tr05_cont.4.ark:3040209
40jc021d /scratch/ravanelm/exp/dirha/fbank/raw_fbank_tr05_cont.4.ark:36431319
014o0310 /scratch/ravanelm/exp/dirha/fbank/raw_fbank_tr05_cont.1.ark:8989499
40ac020e /scratch/ravanelm/exp/dirha/fbank/raw_fbank_tr05_cont.4.ark:8242739
013o030o /scratch/ravanelm/exp/dirha/fbank/raw_fbank_tr05_cont.1.ark:5680699
01io030p /scratch/ravanelm/exp/dirha/fbank/raw_fbank_tr05_cont.1.ark:42095999
026c0203 /scratch/ravanelm/exp/dirha/fbank/raw_fbank_tr05_cont.2.ark:33949209
40pc0203 /scratch/ravanelm/exp/dirha/fbank/raw_fbank_tr05_cont.4.ark:51460999
40ko030t /scratch/ravanelm/exp/dirha/fbank/raw_fbank_tr05_cont.4.ark:40619709
024c0217 /scratch/ravanelm/exp/dirha/fbank/raw_fbank_tr05_cont.2.ark:32093259
40pc0201 /scratch/ravanelm/exp/dirha/fbank/raw_fbank_tr05_cont.4.ark:51403899
20vo010h /scratch/ravanelm/exp/dirha/fbank/raw_fbank_tr05_cont.3.ark:39218439
40lo030r /scratch/ravanelm/exp/dirha/fbank/raw_fbank_tr05_cont.4.ark:43945379
015c0202 /scratch/ravanelm/exp/dirha/fbank/raw_fbank_tr05_cont.1.ark:9487189
40no030v /scratch/ravanelm/exp/dirha/fbank/raw_fbank_tr05_cont.4.ark:50682849
01lo0307 /scratch/ravanelm/exp/dirha/fbank/raw_fbank_tr05_cont.1.ark:52121269
407o030i /scratch/ravanelm/exp/dirha/fbank/raw_fbank_tr05_cont.4.ark:1290049
20vc010k /scratch/ravanelm/exp/dirha/fbank/raw_fbank_tr05_cont.3.ark:38635459
01jc0213 /scratch/ravanelm/exp/dirha/fbank/raw_fbank_tr05_cont.1.ark:44156549
20mo010f /scratch/ravanelm/exp/dirha/fbank/raw_fbank_tr05_cont.3.ark:28085209
40kc0203 /scratch/ravanelm/exp/dirha/fbank/raw_fbank_tr05_cont.4.ark:38308209
01to0311 /scratch/ravanelm/exp/dirha/fbank/raw_fbank_tr05_cont.2.ark:12532989
01fo030y /scratch/ravanelm/exp/dirha/fbank/raw_fbank_tr05_cont.1.ark:35864799
404c0209 /scratch/ravanelm/exp/dirha/fbank/raw_fbank_tr05_cont.3.ark:45762169
017o030r /scratch/ravanelm/exp/dirha/fbank/raw_fbank_tr05_cont.1.ark:16902909
40do031c /scratch/ravanelm/exp/dirha/fbank/raw_fbank_tr05_cont.4.ark:19375669
026o030s /scratch/ravanelm/exp/dirha/fbank/raw_fbank_tr05_cont.2.ark:35961799
20ro010p /scratch/ravanelm/exp/dirha/fbank/raw_fbank_tr05_cont.3.ark:36604309
40ic020j /scratch/ravanelm/exp/dirha/fbank/raw_fbank_tr05_cont.4.ark:32611819
017c020d /scratch/ravanelm/exp/dirha/fbank/raw_fbank_tr05_cont.1.ark:15096929
01jc0203 /scratch/ravanelm/exp/dirha/fbank/raw_fbank_tr05_cont.1.ark:43093389
01lc020h /scratch/ravanelm/exp/dirha/fbank/raw_fbank_tr05_cont.1.ark:50819279
020c020w /scratch/ravanelm/exp/dirha/fbank/raw_fbank_tr05_cont.2.ark:26736219
01lc020j /scratch/ravanelm/exp/dirha/fbank/raw_fbank_tr05_cont.1.ark:50892299
020c0213 /scratch/ravanelm/exp/dirha/fbank/raw_fbank_tr05_cont.2.ark:26860589
021o0308 /scratch/ravanelm/exp/dirha/fbank/raw_fbank_tr05_cont.2.ark:29579319
021c020v /scratch/ravanelm/exp/dirha/fbank/raw_fbank_tr05_cont.2.ark:28920359
406c0206 /scratch/ravanelm/exp/dirha/fbank/raw_fbank_tr05_cont.3.ark:51093339
01kc020m /scratch/ravanelm/exp/dirha/fbank/raw_fbank_tr05_cont.1.ark:47162009
01jo030n /scratch/ravanelm/exp/dirha/fbank/raw_fbank_tr05_cont.1.ark:45421749
40io030l /scratch/ravanelm/exp/dirha/fbank/raw_fbank_tr05_cont.4.ark:34189809
20vo010g /scratch/ravanelm/exp/dirha/fbank/raw_fbank_tr05_cont.3.ark:39178889
40co0308 /scratch/ravanelm/exp/dirha/fbank/raw_fbank_tr05_cont.4.ark:15311749
02cc021e /scratch/ravanelm/exp/dirha/fbank/raw_fbank_tr05_cont.2.ark:50480439
028c0208 /scratch/ravanelm/exp/dirha/fbank/raw_fbank_tr05_cont.2.ark:39927639
017o030k /scratch/ravanelm/exp/dirha/fbank/raw_fbank_tr05_cont.1.ark:16674819
401o030t /scratch/ravanelm/exp/dirha/fbank/raw_fbank_tr05_cont.3.ark:42146189
20vc010e /scratch/ravanelm/exp/dirha/fbank/raw_fbank_tr05_cont.3.ark:38478399
20eo0105 /scratch/ravanelm/exp/dirha/fbank/raw_fbank_tr05_cont.3.ark:18456769
028o030u /scratch/ravanelm/exp/dirha/fbank/raw_fbank_tr05_cont.2.ark:42182149
01yc0202 /scratch/ravanelm/exp/dirha/fbank/raw_fbank_tr05_cont.2.ark:19539869
01zc020u /scratch/ravanelm/exp/dirha/fbank/raw_fbank_tr05_cont.2.ark:23378469
20rc0105 /scratch/ravanelm/exp/dirha/fbank/raw_fbank_tr05_cont.3.ark:35146539
01rc0205 /scratch/ravanelm/exp/dirha/fbank/raw_fbank_tr05_cont.2.ark:6870349
40lc020s /scratch/ravanelm/exp/dirha/fbank/raw_fbank_tr05_cont.4.ark:42100319
01pc020g /scratch/ravanelm/exp/dirha/fbank/raw_fbank_tr05_cont.2.ark:871649
408c0210 /scratch/ravanelm/exp/dirha/fbank/raw_fbank_tr05_cont.4.ark:3212659
011o030e /scratch/ravanelm/exp/dirha/fbank/raw_fbank_tr05_cont.1.ark:1920499
40lo030l /scratch/ravanelm/exp/dirha/fbank/raw_fbank_tr05_cont.4.ark:43664599
018c0212 /scratch/ravanelm/exp/dirha/fbank/raw_fbank_tr05_cont.1.ark:18710939
40ao030t /scratch/ravanelm/exp/dirha/fbank/raw_fbank_tr05_cont.4.ark:10194849
026o030l /scratch/ravanelm/exp/dirha/fbank/raw_fbank_tr05_cont.2.ark:35758749
40po030x /scratch/ravanelm/exp/dirha/fbank/raw_fbank_tr05_cont.4.ark:53716509
40fo030y /scratch/ravanelm/exp/dirha/fbank/raw_fbank_tr05_cont.4.ark:24537719
01yc020e /scratch/ravanelm/exp/dirha/fbank/raw_fbank_tr05_cont.2.ark:19889909
40bo030f /scratch/ravanelm/exp/dirha/fbank/raw_fbank_tr05_cont.4.ark:12860239
013o031e /scratch/ravanelm/exp/dirha/fbank/raw_fbank_tr05_cont.1.ark:6470639
01zc020o /scratch/ravanelm/exp/dirha/fbank/raw_fbank_tr05_cont.2.ark:23273249
021o030c /scratch/ravanelm/exp/dirha/fbank/raw_fbank_tr05_cont.2.ark:29689759
01eo0316 /scratch/ravanelm/exp/dirha/fbank/raw_fbank_tr05_cont.1.ark:33068719
019o0318 /scratch/ravanelm/exp/dirha/fbank/raw_fbank_tr05_cont.1.ark:23752509
021o030b /scratch/ravanelm/exp/dirha/fbank/raw_fbank_tr05_cont.2.ark:29664329
011c020e /scratch/ravanelm/exp/dirha/fbank/raw_fbank_tr05_cont.1.ark:351919
01ic0219 /scratch/ravanelm/exp/dirha/fbank/raw_fbank_tr05_cont.1.ark:40925589
01fo0314 /scratch/ravanelm/exp/dirha/fbank/raw_fbank_tr05_cont.1.ark:36054019
20qc0106 /scratch/ravanelm/exp/dirha/fbank/raw_fbank_tr05_cont.3.ark:33419999
403c020v /scratch/ravanelm/exp/dirha/fbank/raw_fbank_tr05_cont.3.ark:43526249
40kc0208 /scratch/ravanelm/exp/dirha/fbank/raw_fbank_tr05_cont.4.ark:38454599
01wc021f /scratch/ravanelm/exp/dirha/fbank/raw_fbank_tr05_cont.2.ark:17970209
20vc0102 /scratch/ravanelm/exp/dirha/fbank/raw_fbank_tr05_cont.3.ark:38121639
026o030y /scratch/ravanelm/exp/dirha/fbank/raw_fbank_tr05_cont.2.ark:36162219
40pc020s /scratch/ravanelm/exp/dirha/fbank/raw_fbank_tr05_cont.4.ark:51996949
013o030m /scratch/ravanelm/exp/dirha/fbank/raw_fbank_tr05_cont.1.ark:5595879
01kc0215 /scratch/ravanelm/exp/dirha/fbank/raw_fbank_tr05_cont.1.ark:47751259
01tc020z /scratch/ravanelm/exp/dirha/fbank/raw_fbank_tr05_cont.2.ark:10822839
409c020b /scratch/ravanelm/exp/dirha/fbank/raw_fbank_tr05_cont.4.ark:5152979
02ec020b /scratch/ravanelm/exp/dirha/fbank/raw_fbank_tr05_cont.2.ark:52556699
207o010h /scratch/ravanelm/exp/dirha/fbank/raw_fbank_tr05_cont.3.ark:7176409
40mo030p /scratch/ravanelm/exp/dirha/fbank/raw_fbank_tr05_cont.4.ark:47249759
20hc010m /scratch/ravanelm/exp/dirha/fbank/raw_fbank_tr05_cont.3.ark:22503359
40nc020e /scratch/ravanelm/exp/dirha/fbank/raw_fbank_tr05_cont.4.ark:48428659
40ho0312 /scratch/ravanelm/exp/dirha/fbank/raw_fbank_tr05_cont.4.ark:31634039
01ic020k /scratch/ravanelm/exp/dirha/fbank/raw_fbank_tr05_cont.1.ark:40282759
01bo0312 /scratch/ravanelm/exp/dirha/fbank/raw_fbank_tr05_cont.1.ark:26985259
020o0318 /scratch/ravanelm/exp/dirha/fbank/raw_fbank_tr05_cont.2.ark:27851999
028c020w /scratch/ravanelm/exp/dirha/fbank/raw_fbank_tr05_cont.2.ark:40535439
20fc010g /scratch/ravanelm/exp/dirha/fbank/raw_fbank_tr05_cont.3.ark:19666279
209c010i /scratch/ravanelm/exp/dirha/fbank/raw_fbank_tr05_cont.3.ark:9683859
409o030u /scratch/ravanelm/exp/dirha/fbank/raw_fbank_tr05_cont.4.ark:7182349
01po0319 /scratch/ravanelm/exp/dirha/fbank/raw_fbank_tr05_cont.2.ark:3505809
40bc0207 /scratch/ravanelm/exp/dirha/fbank/raw_fbank_tr05_cont.4.ark:11074039
405o0301 /scratch/ravanelm/exp/dirha/fbank/raw_fbank_tr05_cont.3.ark:49492779
01lc020g /scratch/ravanelm/exp/dirha/fbank/raw_fbank_tr05_cont.1.ark:50778209
01dc020p /scratch/ravanelm/exp/dirha/fbank/raw_fbank_tr05_cont.1.ark:28066549
20rc010c /scratch/ravanelm/exp/dirha/fbank/raw_fbank_tr05_cont.3.ark:35307949
01bc020r /scratch/ravanelm/exp/dirha/fbank/raw_fbank_tr05_cont.1.ark:24698999
021c020j /scratch/ravanelm/exp/dirha/fbank/raw_fbank_tr05_cont.2.ark:28564039
01eo030i /scratch/ravanelm/exp/dirha/fbank/raw_fbank_tr05_cont.1.ark:32317359
01yc020w /scratch/ravanelm/exp/dirha/fbank/raw_fbank_tr05_cont.2.ark:20395249
017o0311 /scratch/ravanelm/exp/dirha/fbank/raw_fbank_tr05_cont.1.ark:17205249
01wo030c /scratch/ravanelm/exp/dirha/fbank/raw_fbank_tr05_cont.2.ark:18312209
20ec010o /scratch/ravanelm/exp/dirha/fbank/raw_fbank_tr05_cont.3.ark:18219579
40ko030w /scratch/ravanelm/exp/dirha/fbank/raw_fbank_tr05_cont.4.ark:40715999
011c0205 /scratch/ravanelm/exp/dirha/fbank/raw_fbank_tr05_cont.1.ark:115929
204c010e /scratch/ravanelm/exp/dirha/fbank/raw_fbank_tr05_cont.3.ark:1328109
20oo010d /scratch/ravanelm/exp/dirha/fbank/raw_fbank_tr05_cont.3.ark:31283149
40mo031c /scratch/ravanelm/exp/dirha/fbank/raw_fbank_tr05_cont.4.ark:48005769
02co030n /scratch/ravanelm/exp/dirha/fbank/raw_fbank_tr05_cont.2.ark:51232319
204o010m /scratch/ravanelm/exp/dirha/fbank/raw_fbank_tr05_cont.3.ark:2242379
01lc020f /scratch/ravanelm/exp/dirha/fbank/raw_fbank_tr05_cont.1.ark:50753179
011o031b /scratch/ravanelm/exp/dirha/fbank/raw_fbank_tr05_cont.1.ark:3282249
40no030c /scratch/ravanelm/exp/dirha/fbank/raw_fbank_tr05_cont.4.ark:50028759
408c020d /scratch/ravanelm/exp/dirha/fbank/raw_fbank_tr05_cont.4.ark:2679119
015c0209 /scratch/ravanelm/exp/dirha/fbank/raw_fbank_tr05_cont.1.ark:9683439
017o0315 /scratch/ravanelm/exp/dirha/fbank/raw_fbank_tr05_cont.1.ark:17314529
40no030q /scratch/ravanelm/exp/dirha/fbank/raw_fbank_tr05_cont.4.ark:50549939
407c020b /scratch/ravanelm/exp/dirha/fbank/raw_fbank_tr05_cont.3.ark:53986779
40cc0210 /scratch/ravanelm/exp/dirha/fbank/raw_fbank_tr05_cont.4.ark:14772849
01tc020d /scratch/ravanelm/exp/dirha/fbank/raw_fbank_tr05_cont.2.ark:10035419
20co010c /scratch/ravanelm/exp/dirha/fbank/raw_fbank_tr05_cont.3.ark:15351279
01ic020z /scratch/ravanelm/exp/dirha/fbank/raw_fbank_tr05_cont.1.ark:40684809
01io0315 /scratch/ravanelm/exp/dirha/fbank/raw_fbank_tr05_cont.1.ark:42681799
01kc0211 /scratch/ravanelm/exp/dirha/fbank/raw_fbank_tr05_cont.1.ark:47620659
40lc020i /scratch/ravanelm/exp/dirha/fbank/raw_fbank_tr05_cont.4.ark:41845899
20to010o /scratch/ravanelm/exp/dirha/fbank/raw_fbank_tr05_cont.3.ark:38040589
01jc020v /scratch/ravanelm/exp/dirha/fbank/raw_fbank_tr05_cont.1.ark:43877349
20dc010f /scratch/ravanelm/exp/dirha/fbank/raw_fbank_tr05_cont.3.ark:16178629
403o0303 /scratch/ravanelm/exp/dirha/fbank/raw_fbank_tr05_cont.3.ark:44147379
01zo030s /scratch/ravanelm/exp/dirha/fbank/raw_fbank_tr05_cont.2.ark:25171619
40po0317 /scratch/ravanelm/exp/dirha/fbank/raw_fbank_tr05_cont.4.ark:54020689
014c020l /scratch/ravanelm/exp/dirha/fbank/raw_fbank_tr05_cont.1.ark:6995219
40ao030r /scratch/ravanelm/exp/dirha/fbank/raw_fbank_tr05_cont.4.ark:10133309
027o0317 /scratch/ravanelm/exp/dirha/fbank/raw_fbank_tr05_cont.2.ark:39663919
026o030r /scratch/ravanelm/exp/dirha/fbank/raw_fbank_tr05_cont.2.ark:35929689
02co0315 /scratch/ravanelm/exp/dirha/fbank/raw_fbank_tr05_cont.2.ark:51818939
206c010j /scratch/ravanelm/exp/dirha/fbank/raw_fbank_tr05_cont.3.ark:4675989
029c020y /scratch/ravanelm/exp/dirha/fbank/raw_fbank_tr05_cont.2.ark:43808379
01uo030u /scratch/ravanelm/exp/dirha/fbank/raw_fbank_tr05_cont.2.ark:15804389
01kc021e /scratch/ravanelm/exp/dirha/fbank/raw_fbank_tr05_cont.1.ark:48017369
40ic0214 /scratch/ravanelm/exp/dirha/fbank/raw_fbank_tr05_cont.4.ark:33196249
40nc020m /scratch/ravanelm/exp/dirha/fbank/raw_fbank_tr05_cont.4.ark:48706739
017c0213 /scratch/ravanelm/exp/dirha/fbank/raw_fbank_tr05_cont.1.ark:15699789
01uo030e /scratch/ravanelm/exp/dirha/fbank/raw_fbank_tr05_cont.2.ark:15219509
01bo030o /scratch/ravanelm/exp/dirha/fbank/raw_fbank_tr05_cont.1.ark:26389479
407o0316 /scratch/ravanelm/exp/dirha/fbank/raw_fbank_tr05_cont.4.ark:2245409
40ao030o /scratch/ravanelm/exp/dirha/fbank/raw_fbank_tr05_cont.4.ark:10015059
01dc020b /scratch/ravanelm/exp/dirha/fbank/raw_fbank_tr05_cont.1.ark:27648289
029o0309 /scratch/ravanelm/exp/dirha/fbank/raw_fbank_tr05_cont.2.ark:44551389
01dc021c /scratch/ravanelm/exp/dirha/fbank/raw_fbank_tr05_cont.1.ark:28692399
20lc0102 /scratch/ravanelm/exp/dirha/fbank/raw_fbank_tr05_cont.3.ark:24985309
01dc0207 /scratch/ravanelm/exp/dirha/fbank/raw_fbank_tr05_cont.1.ark:27558249
015c0216 /scratch/ravanelm/exp/dirha/fbank/raw_fbank_tr05_cont.1.ark:10508189
40ao0301 /scratch/ravanelm/exp/dirha/fbank/raw_fbank_tr05_cont.4.ark:9346089
20hc010l /scratch/ravanelm/exp/dirha/fbank/raw_fbank_tr05_cont.3.ark:22473169
01uc020g /scratch/ravanelm/exp/dirha/fbank/raw_fbank_tr05_cont.2.ark:13597959
02eo030p /scratch/ravanelm/exp/dirha/fbank/raw_fbank_tr05_cont.3.ark:102619
20ac010k /scratch/ravanelm/exp/dirha/fbank/raw_fbank_tr05_cont.3.ark:11252729
40fo0317 /scratch/ravanelm/exp/dirha/fbank/raw_fbank_tr05_cont.4.ark:24827869
011o030q /scratch/ravanelm/exp/dirha/fbank/raw_fbank_tr05_cont.1.ark:2391019
014c0211 /scratch/ravanelm/exp/dirha/fbank/raw_fbank_tr05_cont.1.ark:7395059
208o0107 /scratch/ravanelm/exp/dirha/fbank/raw_fbank_tr05_cont.3.ark:8587359
20no010c /scratch/ravanelm/exp/dirha/fbank/raw_fbank_tr05_cont.3.ark:29669109
40ec020e /scratch/ravanelm/exp/dirha/fbank/raw_fbank_tr05_cont.4.ark:19718519
029o0305 /scratch/ravanelm/exp/dirha/fbank/raw_fbank_tr05_cont.2.ark:44427669
013o0312 /scratch/ravanelm/exp/dirha/fbank/raw_fbank_tr05_cont.1.ark:6103119
409c020k /scratch/ravanelm/exp/dirha/fbank/raw_fbank_tr05_cont.4.ark:5390769
024o0315 /scratch/ravanelm/exp/dirha/fbank/raw_fbank_tr05_cont.2.ark:33529939
20mc0106 /scratch/ravanelm/exp/dirha/fbank/raw_fbank_tr05_cont.3.ark:27131709
208o010o /scratch/ravanelm/exp/dirha/fbank/raw_fbank_tr05_cont.3.ark:9155549
40eo030x /scratch/ravanelm/exp/dirha/fbank/raw_fbank_tr05_cont.4.ark:21587039
40po0309 /scratch/ravanelm/exp/dirha/fbank/raw_fbank_tr05_cont.4.ark:52815949
40gc0217 /scratch/ravanelm/exp/dirha/fbank/raw_fbank_tr05_cont.4.ark:26693029
40mo0305 /scratch/ravanelm/exp/dirha/fbank/raw_fbank_tr05_cont.4.ark:46554199
408o030d /scratch/ravanelm/exp/dirha/fbank/raw_fbank_tr05_cont.4.ark:3930999
01jc020p /scratch/ravanelm/exp/dirha/fbank/raw_fbank_tr05_cont.1.ark:43728529
01fc020i /scratch/ravanelm/exp/dirha/fbank/raw_fbank_tr05_cont.1.ark:33905079
01pc020q /scratch/ravanelm/exp/dirha/fbank/raw_fbank_tr05_cont.2.ark:1107789
407o0309 /scratch/ravanelm/exp/dirha/fbank/raw_fbank_tr05_cont.4.ark:949099
01mo0319 /scratch/ravanelm/exp/dirha/fbank/raw_fbank_tr05_cont.2.ark:234739
40dc0215 /scratch/ravanelm/exp/dirha/fbank/raw_fbank_tr05_cont.4.ark:17685379
20nc0103 /scratch/ravanelm/exp/dirha/fbank/raw_fbank_tr05_cont.3.ark:28501769
01bo030d /scratch/ravanelm/exp/dirha/fbank/raw_fbank_tr05_cont.1.ark:25911589
013c020z /scratch/ravanelm/exp/dirha/fbank/raw_fbank_tr05_cont.1.ark:4556419
01pc020h /scratch/ravanelm/exp/dirha/fbank/raw_fbank_tr05_cont.2.ark:893959
01zo030d /scratch/ravanelm/exp/dirha/fbank/raw_fbank_tr05_cont.2.ark:24506849
017o0319 /scratch/ravanelm/exp/dirha/fbank/raw_fbank_tr05_cont.1.ark:17448009
40fo0301 /scratch/ravanelm/exp/dirha/fbank/raw_fbank_tr05_cont.4.ark:23458649
026o030x /scratch/ravanelm/exp/dirha/fbank/raw_fbank_tr05_cont.2.ark:36127789
01zo030r /scratch/ravanelm/exp/dirha/fbank/raw_fbank_tr05_cont.2.ark:25109549
408o0310 /scratch/ravanelm/exp/dirha/fbank/raw_fbank_tr05_cont.4.ark:4550409
01qo0301 /scratch/ravanelm/exp/dirha/fbank/raw_fbank_tr05_cont.2.ark:5029269
02co030b /scratch/ravanelm/exp/dirha/fbank/raw_fbank_tr05_cont.2.ark:50819319
406o030l /scratch/ravanelm/exp/dirha/fbank/raw_fbank_tr05_cont.3.ark:52797769
20gc010j /scratch/ravanelm/exp/dirha/fbank/raw_fbank_tr05_cont.3.ark:21162779
01eo030k /scratch/ravanelm/exp/dirha/fbank/raw_fbank_tr05_cont.1.ark:32386139
40bc020z /scratch/ravanelm/exp/dirha/fbank/raw_fbank_tr05_cont.4.ark:11822919
405c020u /scratch/ravanelm/exp/dirha/fbank/raw_fbank_tr05_cont.3.ark:48971959
20fo010n /scratch/ravanelm/exp/dirha/fbank/raw_fbank_tr05_cont.3.ark:20648629
20do0106 /scratch/ravanelm/exp/dirha/fbank/raw_fbank_tr05_cont.3.ark:16752869
02bc020z /scratch/ravanelm/exp/dirha/fbank/raw_fbank_tr05_cont.2.ark:46956019
024o030q /scratch/ravanelm/exp/dirha/fbank/raw_fbank_tr05_cont.2.ark:33093649
40fc020n /scratch/ravanelm/exp/dirha/fbank/raw_fbank_tr05_cont.4.ark:22621669
021c0217 /scratch/ravanelm/exp/dirha/fbank/raw_fbank_tr05_cont.2.ark:29194399
405o030b /scratch/ravanelm/exp/dirha/fbank/raw_fbank_tr05_cont.3.ark:49712159
01kc0206 /scratch/ravanelm/exp/dirha/fbank/raw_fbank_tr05_cont.1.ark:46657919
40go030e /scratch/ravanelm/exp/dirha/fbank/raw_fbank_tr05_cont.4.ark:27527729
011o0316 /scratch/ravanelm/exp/dirha/fbank/raw_fbank_tr05_cont.1.ark:3088659
01mo0312 /scratch/ravanelm/exp/dirha/fbank/raw_fbank_tr05_cont.2.ark:9
207o010r /scratch/ravanelm/exp/dirha/fbank/raw_fbank_tr05_cont.3.ark:7493029
01tc020k /scratch/ravanelm/exp/dirha/fbank/raw_fbank_tr05_cont.2.ark:10267869
01ro030o /scratch/ravanelm/exp/dirha/fbank/raw_fbank_tr05_cont.2.ark:8893159
02cc020r /scratch/ravanelm/exp/dirha/fbank/raw_fbank_tr05_cont.2.ark:49905729
024o0314 /scratch/ravanelm/exp/dirha/fbank/raw_fbank_tr05_cont.2.ark:33517229
40ec020i /scratch/ravanelm/exp/dirha/fbank/raw_fbank_tr05_cont.4.ark:19798599
40ic0211 /scratch/ravanelm/exp/dirha/fbank/raw_fbank_tr05_cont.4.ark:33125999
40cc020i /scratch/ravanelm/exp/dirha/fbank/raw_fbank_tr05_cont.4.ark:14396229
20bc0107 /scratch/ravanelm/exp/dirha/fbank/raw_fbank_tr05_cont.3.ark:12629679
013o0309 /scratch/ravanelm/exp/dirha/fbank/raw_fbank_tr05_cont.1.ark:5196209
403o0309 /scratch/ravanelm/exp/dirha/fbank/raw_fbank_tr05_cont.3.ark:44360399
026o030w /scratch/ravanelm/exp/dirha/fbank/raw_fbank_tr05_cont.2.ark:36082239
40fc020c /scratch/ravanelm/exp/dirha/fbank/raw_fbank_tr05_cont.4.ark:22315899
014o030o /scratch/ravanelm/exp/dirha/fbank/raw_fbank_tr05_cont.1.ark:8550299
014c0217 /scratch/ravanelm/exp/dirha/fbank/raw_fbank_tr05_cont.1.ark:7499959
01eo030n /scratch/ravanelm/exp/dirha/fbank/raw_fbank_tr05_cont.1.ark:32492949
20nc010h /scratch/ravanelm/exp/dirha/fbank/raw_fbank_tr05_cont.3.ark:28954509
409c020z /scratch/ravanelm/exp/dirha/fbank/raw_fbank_tr05_cont.4.ark:5831059
02eo0306 /scratch/ravanelm/exp/dirha/fbank/raw_fbank_tr05_cont.2.ark:54036929
01go0316 /scratch/ravanelm/exp/dirha/fbank/raw_fbank_tr05_cont.1.ark:39238779
404o030i /scratch/ravanelm/exp/dirha/fbank/raw_fbank_tr05_cont.3.ark:47332169
027c020k /scratch/ravanelm/exp/dirha/fbank/raw_fbank_tr05_cont.2.ark:37146079
20oo010g /scratch/ravanelm/exp/dirha/fbank/raw_fbank_tr05_cont.3.ark:31368359
407o0305 /scratch/ravanelm/exp/dirha/fbank/raw_fbank_tr05_cont.4.ark:784419
019o030c /scratch/ravanelm/exp/dirha/fbank/raw_fbank_tr05_cont.1.ark:22769429
20ic0102 /scratch/ravanelm/exp/dirha/fbank/raw_fbank_tr05_cont.3.ark:23405089
40ao0319 /scratch/ravanelm/exp/dirha/fbank/raw_fbank_tr05_cont.4.ark:10734129
40jo030l /scratch/ravanelm/exp/dirha/fbank/raw_fbank_tr05_cont.4.ark:37202899
40kc0209 /scratch/ravanelm/exp/dirha/fbank/raw_fbank_tr05_cont.4.ark:38488469
40go030n /scratch/ravanelm/exp/dirha/fbank/raw_fbank_tr05_cont.4.ark:27902199
01eo030w /scratch/ravanelm/exp/dirha/fbank/raw_fbank_tr05_cont.1.ark:32743739
20qo0109 /scratch/ravanelm/exp/dirha/fbank/raw_fbank_tr05_cont.3.ark:34352279
01kc020j /scratch/ravanelm/exp/dirha/fbank/raw_fbank_tr05_cont.1.ark:47079399
011o031e /scratch/ravanelm/exp/dirha/fbank/raw_fbank_tr05_cont.1.ark:3452059
406c0218 /scratch/ravanelm/exp/dirha/fbank/raw_fbank_tr05_cont.3.ark:52047809
40mo030z /scratch/ravanelm/exp/dirha/fbank/raw_fbank_tr05_cont.4.ark:47596099
018c0211 /scratch/ravanelm/exp/dirha/fbank/raw_fbank_tr05_cont.1.ark:18683989
205c010m /scratch/ravanelm/exp/dirha/fbank/raw_fbank_tr05_cont.3.ark:3019639
015c020w /scratch/ravanelm/exp/dirha/fbank/raw_fbank_tr05_cont.1.ark:10282569
20mo010l /scratch/ravanelm/exp/dirha/fbank/raw_fbank_tr05_cont.3.ark:28230989
407o030l /scratch/ravanelm/exp/dirha/fbank/raw_fbank_tr05_cont.4.ark:1411179
408o030b /scratch/ravanelm/exp/dirha/fbank/raw_fbank_tr05_cont.4.ark:3894099
017c021c /scratch/ravanelm/exp/dirha/fbank/raw_fbank_tr05_cont.1.ark:15932659
01eo030q /scratch/ravanelm/exp/dirha/fbank/raw_fbank_tr05_cont.1.ark:32572439
403c020m /scratch/ravanelm/exp/dirha/fbank/raw_fbank_tr05_cont.3.ark:43355619
40ho0310 /scratch/ravanelm/exp/dirha/fbank/raw_fbank_tr05_cont.4.ark:31599499
403c020a /scratch/ravanelm/exp/dirha/fbank/raw_fbank_tr05_cont.3.ark:43048139
40mo0308 /scratch/ravanelm/exp/dirha/fbank/raw_fbank_tr05_cont.4.ark:46687129
20go010k /scratch/ravanelm/exp/dirha/fbank/raw_fbank_tr05_cont.3.ark:21874219
026o030e /scratch/ravanelm/exp/dirha/fbank/raw_fbank_tr05_cont.2.ark:35523539
208c010n /scratch/ravanelm/exp/dirha/fbank/raw_fbank_tr05_cont.3.ark:8264449
20cc0109 /scratch/ravanelm/exp/dirha/fbank/raw_fbank_tr05_cont.3.ark:14537749
40mc021b /scratch/ravanelm/exp/dirha/fbank/raw_fbank_tr05_cont.4.ark:46213099
01zc020g /scratch/ravanelm/exp/dirha/fbank/raw_fbank_tr05_cont.2.ark:23051369
40kc0215 /scratch/ravanelm/exp/dirha/fbank/raw_fbank_tr05_cont.4.ark:39381709
028o0308 /scratch/ravanelm/exp/dirha/fbank/raw_fbank_tr05_cont.2.ark:41323409
40jo030i /scratch/ravanelm/exp/dirha/fbank/raw_fbank_tr05_cont.4.ark:37080129
015o030m /scratch/ravanelm/exp/dirha/fbank/raw_fbank_tr05_cont.1.ark:11478409
20oc0105 /scratch/ravanelm/exp/dirha/fbank/raw_fbank_tr05_cont.3.ark:30442269
01ic021e /scratch/ravanelm/exp/dirha/fbank/raw_fbank_tr05_cont.1.ark:41038339
40eo030g /scratch/ravanelm/exp/dirha/fbank/raw_fbank_tr05_cont.4.ark:21120689
01yc0219 /scratch/ravanelm/exp/dirha/fbank/raw_fbank_tr05_cont.2.ark:20723119
40ko030h /scratch/ravanelm/exp/dirha/fbank/raw_fbank_tr05_cont.4.ark:40158709
40gc0215 /scratch/ravanelm/exp/dirha/fbank/raw_fbank_tr05_cont.4.ark:26601249
028o031d /scratch/ravanelm/exp/dirha/fbank/raw_fbank_tr05_cont.2.ark:42838239
404c0207 /scratch/ravanelm/exp/dirha/fbank/raw_fbank_tr05_cont.3.ark:45710349
407o030g /scratch/ravanelm/exp/dirha/fbank/raw_fbank_tr05_cont.4.ark:1233909
20ic010f /scratch/ravanelm/exp/dirha/fbank/raw_fbank_tr05_cont.3.ark:23780199
014o030i /scratch/ravanelm/exp/dirha/fbank/raw_fbank_tr05_cont.1.ark:8323759
01zc020m /scratch/ravanelm/exp/dirha/fbank/raw_fbank_tr05_cont.2.ark:23226509
01qo030n /scratch/ravanelm/exp/dirha/fbank/raw_fbank_tr05_cont.2.ark:5829249
40go0304 /scratch/ravanelm/exp/dirha/fbank/raw_fbank_tr05_cont.4.ark:27158509
40ec0204 /scratch/ravanelm/exp/dirha/fbank/raw_fbank_tr05_cont.4.ark:19488899
01jo030t /scratch/ravanelm/exp/dirha/fbank/raw_fbank_tr05_cont.1.ark:45609969
01ko031g /scratch/ravanelm/exp/dirha/fbank/raw_fbank_tr05_cont.1.ark:50201289
017o030s /scratch/ravanelm/exp/dirha/fbank/raw_fbank_tr05_cont.1.ark:16929459
208o0101 /scratch/ravanelm/exp/dirha/fbank/raw_fbank_tr05_cont.3.ark:8351579
01io0306 /scratch/ravanelm/exp/dirha/fbank/raw_fbank_tr05_cont.1.ark:41339429
027c0215 /scratch/ravanelm/exp/dirha/fbank/raw_fbank_tr05_cont.2.ark:37694949
01jc0212 /scratch/ravanelm/exp/dirha/fbank/raw_fbank_tr05_cont.1.ark:44115359
011o030a /scratch/ravanelm/exp/dirha/fbank/raw_fbank_tr05_cont.1.ark:1784179
024o0317 /scratch/ravanelm/exp/dirha/fbank/raw_fbank_tr05_cont.2.ark:33567759
021o030x /scratch/ravanelm/exp/dirha/fbank/raw_fbank_tr05_cont.2.ark:30353149
401o031d /scratch/ravanelm/exp/dirha/fbank/raw_fbank_tr05_cont.3.ark:42841439
028o030e /scratch/ravanelm/exp/dirha/fbank/raw_fbank_tr05_cont.2.ark:41596949
01go030c /scratch/ravanelm/exp/dirha/fbank/raw_fbank_tr05_cont.1.ark:38194519
017o030y /scratch/ravanelm/exp/dirha/fbank/raw_fbank_tr05_cont.1.ark:17089879
01ec020g /scratch/ravanelm/exp/dirha/fbank/raw_fbank_tr05_cont.1.ark:30821039
01dc0208 /scratch/ravanelm/exp/dirha/fbank/raw_fbank_tr05_cont.1.ark:27583599
017c020y /scratch/ravanelm/exp/dirha/fbank/raw_fbank_tr05_cont.1.ark:15573879
20mo0109 /scratch/ravanelm/exp/dirha/fbank/raw_fbank_tr05_cont.3.ark:27922229
40mc020f /scratch/ravanelm/exp/dirha/fbank/raw_fbank_tr05_cont.4.ark:45352379
024c0207 /scratch/ravanelm/exp/dirha/fbank/raw_fbank_tr05_cont.2.ark:31070779
40mc0214 /scratch/ravanelm/exp/dirha/fbank/raw_fbank_tr05_cont.4.ark:46012569
40do0316 /scratch/ravanelm/exp/dirha/fbank/raw_fbank_tr05_cont.4.ark:19199369
01lo0302 /scratch/ravanelm/exp/dirha/fbank/raw_fbank_tr05_cont.1.ark:51955679
20oo0109 /scratch/ravanelm/exp/dirha/fbank/raw_fbank_tr05_cont.3.ark:31117989
01yo030i /scratch/ravanelm/exp/dirha/fbank/raw_fbank_tr05_cont.2.ark:21474629
20mo010j /scratch/ravanelm/exp/dirha/fbank/raw_fbank_tr05_cont.3.ark:28181169
024o031c /scratch/ravanelm/exp/dirha/fbank/raw_fbank_tr05_cont.2.ark:33718029
01qc0207 /scratch/ravanelm/exp/dirha/fbank/raw_fbank_tr05_cont.2.ark:3855749
20ao010f /scratch/ravanelm/exp/dirha/fbank/raw_fbank_tr05_cont.3.ark:11989139
40io0307 /scratch/ravanelm/exp/dirha/fbank/raw_fbank_tr05_cont.4.ark:33705109
01fc020u /scratch/ravanelm/exp/dirha/fbank/raw_fbank_tr05_cont.1.ark:34167199
026o031c /scratch/ravanelm/exp/dirha/fbank/raw_fbank_tr05_cont.2.ark:36594959
206c010d /scratch/ravanelm/exp/dirha/fbank/raw_fbank_tr05_cont.3.ark:4502849
01ic020p /scratch/ravanelm/exp/dirha/fbank/raw_fbank_tr05_cont.1.ark:40415469
40gc020g /scratch/ravanelm/exp/dirha/fbank/raw_fbank_tr05_cont.4.ark:25694779
40dc0219 /scratch/ravanelm/exp/dirha/fbank/raw_fbank_tr05_cont.4.ark:17756379
207c010j /scratch/ravanelm/exp/dirha/fbank/raw_fbank_tr05_cont.3.ark:6489249
40io0309 /scratch/ravanelm/exp/dirha/fbank/raw_fbank_tr05_cont.4.ark:33762929
01ko0309 /scratch/ravanelm/exp/dirha/fbank/raw_fbank_tr05_cont.1.ark:48434879
01ro031a /scratch/ravanelm/exp/dirha/fbank/raw_fbank_tr05_cont.2.ark:9511019
40ec020g /scratch/ravanelm/exp/dirha/fbank/raw_fbank_tr05_cont.4.ark:19765179
40co030b /scratch/ravanelm/exp/dirha/fbank/raw_fbank_tr05_cont.4.ark:15414239
011o0319 /scratch/ravanelm/exp/dirha/fbank/raw_fbank_tr05_cont.1.ark:3193269
019o030q /scratch/ravanelm/exp/dirha/fbank/raw_fbank_tr05_cont.1.ark:23204409
40jc020i /scratch/ravanelm/exp/dirha/fbank/raw_fbank_tr05_cont.4.ark:35581189
40jc020q /scratch/ravanelm/exp/dirha/fbank/raw_fbank_tr05_cont.4.ark:35780549
028c020q /scratch/ravanelm/exp/dirha/fbank/raw_fbank_tr05_cont.2.ark:40373419
205o010d /scratch/ravanelm/exp/dirha/fbank/raw_fbank_tr05_cont.3.ark:3577079
02bo030w /scratch/ravanelm/exp/dirha/fbank/raw_fbank_tr05_cont.2.ark:48539219
01wc020w /scratch/ravanelm/exp/dirha/fbank/raw_fbank_tr05_cont.2.ark:17512709
01zc021e /scratch/ravanelm/exp/dirha/fbank/raw_fbank_tr05_cont.2.ark:24046549
40mc020j /scratch/ravanelm/exp/dirha/fbank/raw_fbank_tr05_cont.4.ark:45472259
20fo010c /scratch/ravanelm/exp/dirha/fbank/raw_fbank_tr05_cont.3.ark:20350619
01go0312 /scratch/ravanelm/exp/dirha/fbank/raw_fbank_tr05_cont.1.ark:39083779
20oc010a /scratch/ravanelm/exp/dirha/fbank/raw_fbank_tr05_cont.3.ark:30598979
20mc010m /scratch/ravanelm/exp/dirha/fbank/raw_fbank_tr05_cont.3.ark:27544269
01tc021f /scratch/ravanelm/exp/dirha/fbank/raw_fbank_tr05_cont.2.ark:11266279
02eo030l /scratch/ravanelm/exp/dirha/fbank/raw_fbank_tr05_cont.2.ark:54576419
01ko030h /scratch/ravanelm/exp/dirha/fbank/raw_fbank_tr05_cont.1.ark:48781599
40dc0203 /scratch/ravanelm/exp/dirha/fbank/raw_fbank_tr05_cont.4.ark:16522359
01kc020t /scratch/ravanelm/exp/dirha/fbank/raw_fbank_tr05_cont.1.ark:47360259
40cc020b /scratch/ravanelm/exp/dirha/fbank/raw_fbank_tr05_cont.4.ark:14220259
20hc0107 /scratch/ravanelm/exp/dirha/fbank/raw_fbank_tr05_cont.3.ark:22211389
017o030v /scratch/ravanelm/exp/dirha/fbank/raw_fbank_tr05_cont.1.ark:17015149
40kc020p /scratch/ravanelm/exp/dirha/fbank/raw_fbank_tr05_cont.4.ark:38942589
01qc020o /scratch/ravanelm/exp/dirha/fbank/raw_fbank_tr05_cont.2.ark:4365749
20oc0107 /scratch/ravanelm/exp/dirha/fbank/raw_fbank_tr05_cont.3.ark:30509529
021o030g /scratch/ravanelm/exp/dirha/fbank/raw_fbank_tr05_cont.2.ark:29815199
028o030b /scratch/ravanelm/exp/dirha/fbank/raw_fbank_tr05_cont.2.ark:41451139
01jc020h /scratch/ravanelm/exp/dirha/fbank/raw_fbank_tr05_cont.1.ark:43485609
01qo0306 /scratch/ravanelm/exp/dirha/fbank/raw_fbank_tr05_cont.2.ark:5204739
20lo010h /scratch/ravanelm/exp/dirha/fbank/raw_fbank_tr05_cont.3.ark:26583979
01lc021f /scratch/ravanelm/exp/dirha/fbank/raw_fbank_tr05_cont.1.ark:51867539
20go010r /scratch/ravanelm/exp/dirha/fbank/raw_fbank_tr05_cont.3.ark:22022189
015o030d /scratch/ravanelm/exp/dirha/fbank/raw_fbank_tr05_cont.1.ark:11173179
40lo030o /scratch/ravanelm/exp/dirha/fbank/raw_fbank_tr05_cont.4.ark:43828289
01rc0204 /scratch/ravanelm/exp/dirha/fbank/raw_fbank_tr05_cont.2.ark:6837159
020o030i /scratch/ravanelm/exp/dirha/fbank/raw_fbank_tr05_cont.2.ark:27334869
01lo030o /scratch/ravanelm/exp/dirha/fbank/raw_fbank_tr05_cont.1.ark:52914299
20nc0107 /scratch/ravanelm/exp/dirha/fbank/raw_fbank_tr05_cont.3.ark:28638209
20lc010b /scratch/ravanelm/exp/dirha/fbank/raw_fbank_tr05_cont.3.ark:25281739
01ic0209 /scratch/ravanelm/exp/dirha/fbank/raw_fbank_tr05_cont.1.ark:39939589
20do010c /scratch/ravanelm/exp/dirha/fbank/raw_fbank_tr05_cont.3.ark:16903049
20ac010h /scratch/ravanelm/exp/dirha/fbank/raw_fbank_tr05_cont.3.ark:11181759
40gc020r /scratch/ravanelm/exp/dirha/fbank/raw_fbank_tr05_cont.4.ark:26033429
01jc0202 /scratch/ravanelm/exp/dirha/fbank/raw_fbank_tr05_cont.1.ark:43054199
01go0304 /scratch/ravanelm/exp/dirha/fbank/raw_fbank_tr05_cont.1.ark:37909039
024c020m /scratch/ravanelm/exp/dirha/fbank/raw_fbank_tr05_cont.2.ark:31547469
01ic0201 /scratch/ravanelm/exp/dirha/fbank/raw_fbank_tr05_cont.1.ark:39677869
40mc020c /scratch/ravanelm/exp/dirha/fbank/raw_fbank_tr05_cont.4.ark:45304209
016c021d /scratch/ravanelm/exp/dirha/fbank/raw_fbank_tr05_cont.1.ark:13375629
01uo0304 /scratch/ravanelm/exp/dirha/fbank/raw_fbank_tr05_cont.2.ark:14895689
01ro0309 /scratch/ravanelm/exp/dirha/fbank/raw_fbank_tr05_cont.2.ark:8360589
019c0217 /scratch/ravanelm/exp/dirha/fbank/raw_fbank_tr05_cont.1.ark:22147769
01do030t /scratch/ravanelm/exp/dirha/fbank/raw_fbank_tr05_cont.1.ark:29664939
01jo030b /scratch/ravanelm/exp/dirha/fbank/raw_fbank_tr05_cont.1.ark:44982029
407c020y /scratch/ravanelm/exp/dirha/fbank/raw_fbank_tr05_cont.4.ark:37709
01lo030z /scratch/ravanelm/exp/dirha/fbank/raw_fbank_tr05_cont.1.ark:53350909
40gc020e /scratch/ravanelm/exp/dirha/fbank/raw_fbank_tr05_cont.4.ark:25657039
01uo030v /scratch/ravanelm/exp/dirha/fbank/raw_fbank_tr05_cont.2.ark:15860299
401c020n /scratch/ravanelm/exp/dirha/fbank/raw_fbank_tr05_cont.3.ark:40257799
403o030m /scratch/ravanelm/exp/dirha/fbank/raw_fbank_tr05_cont.3.ark:44752989
01eo030m /scratch/ravanelm/exp/dirha/fbank/raw_fbank_tr05_cont.1.ark:32462559
40lo030i /scratch/ravanelm/exp/dirha/fbank/raw_fbank_tr05_cont.4.ark:43540429
407c020p /scratch/ravanelm/exp/dirha/fbank/raw_fbank_tr05_cont.3.ark:54421479
401c020a /scratch/ravanelm/exp/dirha/fbank/raw_fbank_tr05_cont.3.ark:39887369
