


                     SYSTEM SUMMARY PERCENTAGES by SPEAKER                      

,------------------------------------------------------------------------------------------------------.
|/scratch/ravanelm/pytorch-kaldi-new/exp/dirha_liGRU_fmllr_4lay/decode_dirha_real_out_dnn2/score_20/ctm|
|------------------------------------------------------------------------------------------------------|
|  SPKR              |  # Snt     # Wrd   |  Corr        Sub       Del       Ins       Err     S.Err   |
|--------------------+--------------------+------------------------------------------------------------|
|  realfemalespk01   |    70       1111   |   854        118       139        16       273        44   |
|--------------------+--------------------+------------------------------------------------------------|
|  realfemalespk02   |    67       1029   |   779        176        74        22       272        55   |
|--------------------+--------------------+------------------------------------------------------------|
|  realfemalespk03   |    70       1215   |   932        174       109        20       303        52   |
|--------------------+--------------------+------------------------------------------------------------|
|  realmalespk04     |    67       1168   |   983        136        49        10       195        49   |
|--------------------+--------------------+------------------------------------------------------------|
|  realmalespk05     |    67       1108   |   859        180        69        19       268        63   |
|--------------------+--------------------+------------------------------------------------------------|
|  realmalespk06     |    68       1131   |   847        159       125        19       303        54   |
|======================================================================================================|
|  Sum               |   409       6762   |  5254        943       565       106      1614       317   |
|======================================================================================================|
|       Mean         |  68.2     1127.0   | 875.7      157.2      94.2      17.7     269.0      52.8   |
|       S.D.         |   1.5      62.7    |  71.6       25.1      35.4       4.2      39.5       6.4   |
|      Median        |  67.5     1121.0   | 856.5      166.5      91.5      19.0     272.5      53.0   |
`------------------------------------------------------------------------------------------------------'
