


                     SYSTEM SUMMARY PERCENTAGES by SPEAKER                      

,-----------------------------------------------------------------------------------------------.
|/scratch/ravanelm/pytorch-kaldi-new/exp/dirha_MLP_fmllr/decode_dirha_real_out_dnn1/score_15/ctm|
|-----------------------------------------------------------------------------------------------|
|  SPKR             |  # Snt     # Wrd  |  Corr      Sub       Del      Ins      Err     S.Err  |
|-------------------+-------------------+-------------------------------------------------------|
|  realfemalespk01  |    70       1111  |   853      142       116       22      280        46  |
|-------------------+-------------------+-------------------------------------------------------|
|  realfemalespk02  |    67       1029  |   757      212        60       36      308        60  |
|-------------------+-------------------+-------------------------------------------------------|
|  realfemalespk03  |    70       1215  |   919      195       101       31      327        55  |
|-------------------+-------------------+-------------------------------------------------------|
|  realmalespk04    |    67       1168  |   965      161        42       17      220        47  |
|-------------------+-------------------+-------------------------------------------------------|
|  realmalespk05    |    67       1108  |   837      205        66       23      294        62  |
|-------------------+-------------------+-------------------------------------------------------|
|  realmalespk06    |    68       1131  |   836      216        79       39      334        57  |
|===============================================================================================|
|  Sum              |   409       6762  |  5167     1131       464      168     1763       327  |
|===============================================================================================|
|       Mean        |  68.2     1127.0  | 861.2    188.5      77.3     28.0    293.8      54.5  |
|       S.D.        |   1.5      62.7   |  72.5     30.1      27.3      8.7     41.4       6.7  |
|      Median       |  67.5     1121.0  | 845.0    200.0      72.5     27.0    301.0      56.0  |
`-----------------------------------------------------------------------------------------------'
