


                     SYSTEM SUMMARY PERCENTAGES by SPEAKER                      

,----------------------------------------------------------------------------------------------.
|/scratch/ravanelm/pytorch-kaldi-new/exp/dirha_MLP_fmllr/decode_dirha_real_out_dnn1/score_9/ctm|
|----------------------------------------------------------------------------------------------|
|  SPKR             |  # Snt    # Wrd   |  Corr      Sub      Del      Ins       Err    S.Err  |
|-------------------+-------------------+------------------------------------------------------|
|  realfemalespk01  |    70      1111   |   851      178       82       38       298       47  |
|-------------------+-------------------+------------------------------------------------------|
|  realfemalespk02  |    67      1029   |   743      248       38       68       354       61  |
|-------------------+-------------------+------------------------------------------------------|
|  realfemalespk03  |    70      1215   |   913      232       70       55       357       55  |
|-------------------+-------------------+------------------------------------------------------|
|  realmalespk04    |    67      1168   |   977      165       26       28       219       46  |
|-------------------+-------------------+------------------------------------------------------|
|  realmalespk05    |    67      1108   |   816      240       52       44       336       64  |
|-------------------+-------------------+------------------------------------------------------|
|  realmalespk06    |    68      1131   |   827      263       41       77       381       59  |
|==============================================================================================|
|  Sum              |   409      6762   |  5127     1326      309      310      1945      332  |
|==============================================================================================|
|       Mean        |  68.2    1127.0   | 854.5    221.0     51.5     51.7     324.2     55.3  |
|       S.D.        |   1.5     62.7    |  81.4     39.9     21.0     18.6      58.5      7.4  |
|      Median       |  67.5    1121.0   | 839.0    236.0     46.5     49.5     345.0     57.0  |
`----------------------------------------------------------------------------------------------'
