


                     SYSTEM SUMMARY PERCENTAGES by SPEAKER                      

,-----------------------------------------------------------------------------------------------.
|/scratch/ravanelm/pytorch-kaldi-new/exp/dirha_MLP_fmllr/decode_dirha_real_out_dnn1/score_17/ctm|
|-----------------------------------------------------------------------------------------------|
|  SPKR             |  # Snt     # Wrd  |  Corr      Sub       Del      Ins      Err     S.Err  |
|-------------------+-------------------+-------------------------------------------------------|
|  realfemalespk01  |    70       1111  |   847      150       114       13      277        47  |
|-------------------+-------------------+-------------------------------------------------------|
|  realfemalespk02  |    67       1029  |   755      206        68       32      306        57  |
|-------------------+-------------------+-------------------------------------------------------|
|  realfemalespk03  |    70       1215  |   914      196       105       24      325        54  |
|-------------------+-------------------+-------------------------------------------------------|
|  realmalespk04    |    67       1168  |   963      160        45       16      221        48  |
|-------------------+-------------------+-------------------------------------------------------|
|  realmalespk05    |    67       1108  |   832      206        70       21      297        62  |
|-------------------+-------------------+-------------------------------------------------------|
|  realmalespk06    |    68       1131  |   834      211        86       40      337        58  |
|===============================================================================================|
|  Sum              |   409       6762  |  5145     1129       488      146     1763       326  |
|===============================================================================================|
|       Mean        |  68.2     1127.0  | 857.5    188.2      81.3     24.3    293.8      54.3  |
|       S.D.        |   1.5      62.7   |  72.3     26.3      25.6     10.1     41.4       5.9  |
|      Median       |  67.5     1121.0  | 840.5    201.0      78.0     22.5    301.5      55.5  |
`-----------------------------------------------------------------------------------------------'
