


                     SYSTEM SUMMARY PERCENTAGES by SPEAKER                      

,----------------------------------------------------------------------------------------------------.
|/scratch/ravanelm/pytorch-kaldi-new/exp/dirha_GRU_fmllr_4lay/decode_dirha_real_out_dnn2/score_17/ctm|
|----------------------------------------------------------------------------------------------------|
|  SPKR              |  # Snt     # Wrd   |  Corr       Sub      Del       Ins       Err     S.Err   |
|--------------------+--------------------+----------------------------------------------------------|
|  realfemalespk01   |    70       1111   |   863       161       87        23       271        44   |
|--------------------+--------------------+----------------------------------------------------------|
|  realfemalespk02   |    67       1029   |   765       201       63        28       292        56   |
|--------------------+--------------------+----------------------------------------------------------|
|  realfemalespk03   |    70       1215   |   918       200       97        21       318        52   |
|--------------------+--------------------+----------------------------------------------------------|
|  realmalespk04     |    67       1168   |   969       154       45        19       218        48   |
|--------------------+--------------------+----------------------------------------------------------|
|  realmalespk05     |    67       1108   |   834       203       71        24       298        64   |
|--------------------+--------------------+----------------------------------------------------------|
|  realmalespk06     |    68       1131   |   853       201       77        34       312        55   |
|====================================================================================================|
|  Sum               |   409       6762   |  5202      1120      440       149      1709       319   |
|====================================================================================================|
|       Mean         |  68.2     1127.0   | 867.0     186.7     73.3      24.8     284.8      53.2   |
|       S.D.         |   1.5      62.7    |  70.3      22.7     18.3       5.4      36.7       6.9   |
|      Median        |  67.5     1121.0   | 858.0     200.5     74.0      23.5     295.0      53.5   |
`----------------------------------------------------------------------------------------------------'
